*Step  = 1
*Time  = 1e-05
*Data  = x;y;z
1,-3.4930732791,3.47794720983,-11.2262458589
2,-5.486325235,-5.36454379,-37.858426675
15,-3.97755991314,3.4989479351,-11.1933600111
16,-5.47907459877,-5.35933131246,-37.7907951344
*Step  = 2
*Time  = 1.81668008e-05
*Data  = x;y;z
1,-3.42966154115,3.46888711577,-11.1951183623
2,-5.486325235,-5.36454379,-37.858426675
15,-3.97427029121,3.49248917142,-11.1581791077
16,-5.47543263448,-5.35672136584,-37.7568204116
*Step  = 3
*Time  = 5.90008051e-05
*Data  = x;y;z
1,-3.4029946071,3.45643985995,-11.1763565523
2,-5.486325235,-5.36454379,-37.858426675
15,-3.972691595,3.48112585,-11.1377571179
16,-5.47337555644,-5.35524969926,-37.7376294717
*Step  = 4
*Time  = 0.000263170826
*Data  = x;y;z
1,-3.38817450144,3.4508105576,-11.1657792637
2,-5.486325235,-5.36454379,-37.858426675
15,-3.9717946668,3.47609531517,-11.1262336891
16,-5.47221178229,-5.3544179544,-37.7267719935
*Step  = 5
*Time  = 0.00128402093
*Data  = x;y;z
1,-3.37962967453,3.44696244807,-11.1561885213
2,-5.486325235,-5.36454379,-37.858426675
15,-3.97109864879,3.47257152115,-11.1161033563
16,-5.47117749302,-5.35367797854,-37.7171229064
*Step  = 6
*Time  = 0.00638827146
*Data  = x;y;z
1,-3.37711133787,3.43742768303,-11.1333407913
2,-5.486325235,-5.36454379,-37.858426675
15,-3.96998611633,3.46302376928,-11.0931657556
16,-5.46881717084,-5.35198384868,-37.6951054718
*Step  = 7
*Time  = 0.0319095241
*Data  = x;y;z
1,-3.39164918607,3.39168231978,-11.0345174944
2,-5.486325235,-5.36454379,-37.858426675
15,-3.96605585157,3.41612632919,-10.9956347834
16,-5.45879765537,-5.34477603304,-37.6016493568
*Step  = 8
*Time  = 0.05
*Data  = x;y;z
1,-3.42150549895,3.3629446558,-10.9695101382
2,-5.486325235,-5.36454379,-37.858426675
15,-3.96372397831,3.38578229774,-10.9328540297
16,-5.45233477825,-5.34011476167,-37.5413728025
*Step  = 9
*Time  = 0.1
*Data  = x;y;z
1,-3.49526099323,3.27314066628,-10.7832240631
2,-5.486325235,-5.36454379,-37.858426675
15,-3.95703473022,3.29200129752,-10.7523275937
16,-5.43376567026,-5.32670407993,-37.3681939284
*Step  = 10
*Time  = 0.15
*Data  = x;y;z
1,-3.60957076065,3.19400612263,-10.6190164322
2,-5.486325235,-5.36454379,-37.858426675
15,-3.95160185722,3.20757009788,-10.596411808
16,-5.41771663563,-5.315068798,-37.2185355846
*Step  = 11
*Time  = 0.2
*Data  = x;y;z
1,-3.7729577536,3.10761404745,-10.4686927691
2,-5.486325235,-5.36454379,-37.858426675
15,-3.94778751765,3.11434190721,-10.457350403
16,-5.40348694682,-5.30473021919,-37.0858503958
*Step  = 12
*Time  = 0.25
*Data  = x;y;z
1,-3.90471064778,3.01929186947,-10.3129024196
2,-5.486325235,-5.36454379,-37.858426675
15,-3.94324526662,3.02072781072,-10.3104474846
16,-5.38844201781,-5.29378336319,-36.9455678449
*Step  = 13
*Time  = 0.3
*Data  = x;y;z
1,-4.00698174479,2.93051355488,-10.164165338
2,-5.486325235,-5.36454379,-37.858426675
15,-3.93872130999,2.92804757981,-10.1684645001
16,-5.37399212831,-5.28324481319,-36.8108408007
*Step  = 14
*Time  = 0.35
*Data  = x;y;z
1,-4.07824273486,2.83484056597,-9.99105023669
2,-5.486325235,-5.36454379,-37.858426675
15,-3.93185043943,2.82972595224,-10.0001766291
16,-5.35680277548,-5.27068816796,-36.6505763735
*Step  = 15
*Time  = 0.4
*Data  = x;y;z
1,-4.13507245297,2.73422797058,-9.81493541231
2,-5.486325235,-5.36454379,-37.858426675
15,-3.92375735935,2.72707983267,-9.82792938904
16,-5.33918987867,-5.25779837087,-36.4863686441
*Step  = 16
*Time  = 0.448387097
*Data  = x;y;z
1,-4.17574133769,2.63488003157,-9.63955350269
2,-5.486325235,-5.36454379,-37.858426675
15,-3.91514937465,2.62634131045,-9.65536933262
16,-5.32153395045,-5.24484225454,-36.3217682295
*Step  = 17
*Time  = 0.45
*Data  = x;y;z
1,-4.16914441205,2.63884503977,-9.63074297135
2,-5.486325235,-5.36454379,-37.858426675
15,-3.91427685174,2.63050163753,-9.64625326149
16,-5.3205278354,-5.24402772584,-36.3124150682
*Step  = 18
*Time  = 0.5
*Data  = x;y;z
1,-4.23065798473,2.52221950608,-9.44040630128
2,-5.486325235,-5.36454379,-37.858426675
15,-3.90500014399,2.51193096074,-9.45991223456
16,-5.30153208642,-5.2300398973,-36.1353344092
*Step  = 19
*Time  = 0.55
*Data  = x;y;z
1,-4.28688158472,2.40816472156,-9.25768334924
2,-5.486325235,-5.36454379,-37.858426675
15,-3.89575271501,2.39622440696,-9.28077131943
16,-5.28328964577,-5.21654663885,-35.9652904634
*Step  = 20
*Time  = 0.6
*Data  = x;y;z
1,-4.35122183492,2.29070455404,-9.07487022325
2,-5.486325235,-5.36454379,-37.858426675
15,-3.88619374609,2.27699568034,-9.10187677761
16,-5.26508657402,-5.20302621348,-35.7956253913
*Step  = 21
*Time  = 0.65
*Data  = x;y;z
1,-4.39815190902,2.16519486654,-8.87532393778
2,-5.486325235,-5.36454379,-37.858426675
15,-3.87499762009,2.15034134127,-8.90525714386
16,-5.24507509952,-5.18810436747,-35.609115366
*Step  = 22
*Time  = 0.7
*Data  = x;y;z
1,-4.4573967955,2.04171291699,-8.68522105295
2,-5.486325235,-5.36454379,-37.858426675
15,-3.86407744845,2.0254689142,-8.71863511995
16,-5.22610453439,-5.17387783568,-35.4323229732
*Step  = 23
*Time  = 0.75
*Data  = x;y;z
1,-4.51785873159,1.90634846625,-8.48326246112
2,-5.486325235,-5.36454379,-37.858426675
15,-3.8522933666,1.88882676248,-8.52011506363
16,-5.20596580178,-5.15871088962,-35.244651918
*Step  = 24
*Time  = 0.8
*Data  = x;y;z
1,-4.56683390284,1.77696896246,-8.29158559141
2,-5.486325235,-5.36454379,-37.858426675
15,-3.8406771102,1.75856356404,-8.33115356854
16,-5.18680267134,-5.14418610753,-35.0660881612
*Step  = 25
*Time  = 0.85
*Data  = x;y;z
1,-4.61752306099,1.64699581095,-8.10056409978
2,-5.486325235,-5.36454379,-37.858426675
15,-3.82877579875,1.6277636418,-8.14284335705
16,-5.16771721311,-5.12964304667,-34.8882578214
*Step  = 26
*Time  = 0.9
*Data  = x;y;z
1,-4.66504462798,1.50301187127,-7.89675632199
2,-5.486325235,-5.36454379,-37.858426675
15,-3.81573611963,1.48315112287,-7.94144134668
16,-5.1473470178,-5.11405493404,-34.6984614818
*Step  = 27
*Time  = 0.95
*Data  = x;y;z
1,-4.73195332678,1.360077455,-7.70596602666
2,-5.486325235,-5.36454379,-37.858426675
15,-3.80346023222,1.33922562731,-7.75379837422
16,-5.12842349109,-5.09946331349,-34.5221597513
*Step  = 28
*Time  = 1
*Data  = x;y;z
1,-4.7145955689,1.36611867369,-7.70138391104
2,-5.486325235,-5.36454379,-37.858426675
15,-3.80282316035,1.34563490054,-7.74864645641
16,-5.12784785311,-5.09866828572,-34.5168872604
*Step  = 29
*Time  = 1.03
*Data  = x;y;z
1,-4.45428688088,2.0752254782,-8.0070134108
2,-5.486325235,-5.36454379,-37.858426675
15,-3.81978759227,2.06095353847,-8.04656804608
16,-5.15497058721,-5.11771952737,-34.7699223022
*Step  = 30
*Time  = 1.06
*Data  = x;y;z
1,-4.36353081334,2.45867178249,-8.14415463475
2,-5.486325235,-5.36454379,-37.858426675
15,-3.82647224127,2.44657624603,-8.18053407092
16,-5.16661392143,-5.1254929803,-34.8786362595
*Step  = 31
*Time  = 1.09
*Data  = x;y;z
1,-4.28719129395,2.62386785777,-8.17732037304
2,-5.486325235,-5.36454379,-37.858426675
15,-3.82584897784,2.61346544814,-8.20923722602
16,-5.16829471283,-5.12599176662,-34.8944777152
*Step  = 32
*Time  = 1.12
*Data  = x;y;z
1,-4.215335382,2.77374716641,-8.20942794309
2,-5.486325235,-5.36454379,-37.858426675
15,-3.8250051642,2.76493540099,-8.23672028881
16,-5.16983865703,-5.12639169558,-34.9090494388
*Step  = 33
*Time  = 1.15
*Data  = x;y;z
1,-4.16718810013,2.90351222164,-8.23614939099
2,-5.486325235,-5.36454379,-37.858426675
15,-3.82411169789,2.89575766689,-8.2602811279
16,-5.1710781477,-5.12655486894,-34.9207881787
*Step  = 34
*Time  = 1.18
*Data  = x;y;z
1,-4.12636579552,2.99371306182,-8.24714697834
2,-5.486325235,-5.36454379,-37.858426675
15,-3.82266872998,2.98684098435,-8.26862903604
16,-5.17106322602,-5.12585439451,-34.9208168057
*Step  = 35
*Time  = 1.21
*Data  = x;y;z
1,-4.09405223632,3.08978790176,-8.26737273072
2,-5.486325235,-5.36454379,-37.858426675
15,-3.82195319054,3.08362382574,-8.28666499634
16,-5.1719742409,-5.12584343678,-34.9294786763
*Step  = 36
*Time  = 1.24
*Data  = x;y;z
1,-4.0614352957,3.19062373639,-8.28900350432
2,-5.486325235,-5.36454379,-37.858426675
15,-3.82120676516,3.1851752263,-8.30606038759
16,-5.17295856872,-5.12586676894,-34.9388300136
*Step  = 37
*Time  = 1.27
*Data  = x;y;z
1,-4.02955124008,3.27846565782,-8.3059345978
2,-5.486325235,-5.36454379,-37.858426675
15,-3.82032315236,3.27371485201,-8.32081550828
16,-5.17356991663,-5.12563556846,-34.9446990942
*Step  = 38
*Time  = 1.3
*Data  = x;y;z
1,-4.0168297333,3.3617518859,-8.32191713252
2,-5.486325235,-5.36454379,-37.858426675
15,-3.81950940934,3.35726652649,-8.33594144543
16,-5.17423374409,-5.12547049578,-34.9510528609
*Step  = 39
*Time  = 1.33
*Data  = x;y;z
1,-4.00209872309,3.42356429194,-8.32967470281
2,-5.486325235,-5.36454379,-37.858426675
15,-3.81845726861,3.41938582314,-8.34273878238
16,-5.17424522219,-5.12488625508,-34.951308397
*Step  = 40
*Time  = 1.36
*Data  = x;y;z
1,-4.00072278887,3.49442796692,-8.34620631026
2,-5.486325235,-5.36454379,-37.858426675
15,-3.81806539383,3.49026774746,-8.359177307
16,-5.17515644945,-5.12497911286,-34.9599516399
*Step  = 41
*Time  = 1.39
*Data  = x;y;z
1,-3.99341962001,3.56898931554,-8.36375228848
2,-5.486325235,-5.36454379,-37.858426675
15,-3.81761935027,3.56498106219,-8.37621370996
16,-5.17607958628,-5.1250495042,-34.9687143323
*Step  = 42
*Time  = 1.42
*Data  = x;y;z
1,-3.98468460946,3.63705281887,-8.3775455827
2,-5.486325235,-5.36454379,-37.858426675
15,-3.81697216462,3.63322505561,-8.38942097876
16,-5.17666386614,-5.12487674358,-34.9743159146
*Step  = 43
*Time  = 1.45
*Data  = x;y;z
1,-3.96216253879,3.69946121805,-8.38971768656
2,-5.486325235,-5.36454379,-37.858426675
15,-3.81621156102,3.69612692891,-8.40004563931
16,-5.17703367829,-5.12457740715,-34.9779101898
*Step  = 44
*Time  = 1.48
*Data  = x;y;z
1,-3.94988077593,3.74772382673,-8.39610698742
2,-5.486325235,-5.36454379,-37.858426675
15,-3.81537032526,3.74464825581,-8.4056303986
16,-5.17703169474,-5.12405003217,-34.9780254366
*Step  = 45
*Time  = 1.51
*Data  = x;y;z
1,-3.93924536181,3.80394429351,-8.40859283261
2,-5.486325235,-5.36454379,-37.858426675
15,-3.81488076777,3.80109819616,-8.41738635473
16,-5.17757881052,-5.1239370351,-34.9832598052
*Step  = 46
*Time  = 1.54
*Data  = x;y;z
1,-3.92857988336,3.86413982666,-8.42322289856
2,-5.486325235,-5.36454379,-37.858426675
15,-3.81446067509,3.86152577078,-8.43127585737
16,-5.17829335128,-5.1239278354,-34.9900614145
*Step  = 47
*Time  = 1.57
*Data  = x;y;z
1,-3.93031802272,3.91254311641,-8.43218599305
2,-5.486325235,-5.36454379,-37.858426675
15,-3.81390465033,3.9098741906,-8.44039201343
16,-5.17863473727,-5.12366336047,-34.9933783192
*Step  = 48
*Time  = 1.6
*Data  = x;y;z
1,-3.91781103467,3.9568181482,-8.44044605276
2,-5.486325235,-5.36454379,-37.858426675
15,-3.81330175523,3.95442020751,-8.44780794697
16,-5.17884432206,-5.12333447342,-34.9954577789
*Step  = 49
*Time  = 1.63
*Data  = x;y;z
1,-3.90875063486,4.01380225426,-8.4556030445
2,-5.486325235,-5.36454379,-37.858426675
15,-3.81299958405,4.01160333619,-8.46233049882
16,-5.17964522298,-5.12342585251,-35.003057034
*Step  = 50
*Time  = 1.66
*Data  = x;y;z
1,-3.89876624798,4.06399611231,-8.46624352536
2,-5.486325235,-5.36454379,-37.858426675
15,-3.81246622195,4.06201252047,-8.47230007891
16,-5.18004497144,-5.12321029865,-35.0069177121
*Step  = 51
*Time  = 1.69
*Data  = x;y;z
1,-3.89155556652,4.11294909878,-8.4770943884
2,-5.486325235,-5.36454379,-37.858426675
15,-3.81199048577,4.11111876028,-8.48266995125
16,-5.18049505614,-5.1230468042,-35.0112446802
*Step  = 52
*Time  = 1.72
*Data  = x;y;z
1,-3.88437028967,4.15375628006,-8.48415933588
2,-5.486325235,-5.36454379,-37.858426675
15,-3.81139758684,4.15207627821,-8.48927077583
16,-5.18064623167,-5.12268517927,-35.0127779421
*Step  = 53
*Time  = 1.75
*Data  = x;y;z
1,-3.87758588202,4.19289798421,-8.49192132247
2,-5.486325235,-5.36454379,-37.858426675
15,-3.81091169495,4.19136183316,-8.49658801165
16,-5.18088878331,-5.12241521388,-35.0151575337
*Step  = 54
*Time  = 1.78
*Data  = x;y;z
1,-3.86871142609,4.24224565738,-8.5052772969
2,-5.486325235,-5.36454379,-37.858426675
15,-3.8106368026,4.24090653256,-8.50933329854
16,-5.18157214003,-5.12245114655,-35.0216541013
*Step  = 55
*Time  = 1.81
*Data  = x;y;z
1,-3.86184566481,4.28666538997,-8.51567955254
2,-5.486325235,-5.36454379,-37.858426675
15,-3.81026258723,4.28547503184,-8.51927807214
16,-5.18202635196,-5.1223373497,-35.0260080477
*Step  = 56
*Time  = 1.84
*Data  = x;y;z
1,-3.85681556621,4.32939496509,-8.52528479057
2,-5.486325235,-5.36454379,-37.858426675
15,-3.80979890285,4.32830910591,-8.52855844852
16,-5.18240746185,-5.1221441472,-35.0296889666
*Step  = 57
*Time  = 1.87
*Data  = x;y;z
1,-3.84844910819,4.36590575413,-8.53210103869
2,-5.486325235,-5.36454379,-37.858426675
15,-3.80929240887,4.36500075646,-8.53482707948
16,-5.18256366341,-5.12181533659,-35.0312625793
*Step  = 58
*Time  = 1.9
*Data  = x;y;z
1,-3.84216823287,4.39978499301,-8.53903817756
2,-5.486325235,-5.36454379,-37.858426675
15,-3.80887656689,4.39901504572,-8.54135420536
16,-5.18278003996,-5.12158565289,-35.0333837499
*Step  = 59
*Time  = 1.93
*Data  = x;y;z
1,-3.83883265081,4.44402897746,-8.5514975566
2,-5.486325235,-5.36454379,-37.858426675
15,-3.80863248135,4.44332997354,-8.55359227468
16,-5.1834417128,-5.12162754862,-35.0396753516
*Step  = 60
*Time  = 1.96
*Data  = x;y;z
1,-3.8373242748,4.46380232601,-8.55103973831
2,-5.486325235,-5.36454379,-37.858426675
15,-3.80793928523,4.46312177793,-8.55307973764
16,-5.18307995915,-5.1209626193,-35.0364068497
*Step  = 61
*Time  = 1.99
*Data  = x;y;z
1,-3.84288525433,4.44994995597,-8.53740877347
2,-5.486325235,-5.36454379,-37.858426675
15,-3.80705522817,4.44911991795,-8.53990590744
16,-5.18181990902,-5.11978062463,-35.0247197525
*Step  = 62
*Time  = 1.99999
*Data  = x;y;z
1,-3.84554587048,4.45156501327,-8.53830697074
2,-5.486325235,-5.36454379,-37.858426675
15,-3.80703578478,4.45067259998,-8.54099036818
16,-5.18185634837,-5.11960966537,-35.0251122358
*Step  = 1
*Time  = 2
*Data  = x;y;z
1,-3.84520075109,4.45909212727,-8.54239219169
2,-5.486325235,-5.36454379,-37.858426675
15,-3.80711758433,4.4582092532,-8.54504380568
16,-5.18212513994,-5.11957836586,-35.0276805368
*Step  = 2
*Time  = 2.00005
*Data  = x;y;z
1,-3.84471494965,4.46438636693,-8.54457476615
2,-5.486325235,-5.36454379,-37.858426675
15,-3.80708011936,4.46351347773,-8.54719492595
16,-5.18222024463,-5.11939885445,-35.0286341364
*Step  = 3
*Time  = 2.0003
*Data  = x;y;z
1,-3.84326981736,4.46918391424,-8.54715944232
2,-5.486325235,-5.36454379,-37.858426675
15,-3.80705975398,4.46834349523,-8.54968053443
16,-5.18235720874,-5.11925361856,-35.0299782412
*Step  = 4
*Time  = 2.00155
*Data  = x;y;z
1,-3.84244137537,4.47560068062,-8.55334518368
2,-5.486325235,-5.36454379,-37.858426675
15,-3.80718362985,4.47478090275,-8.55580001599
16,-5.18285865497,-5.11939368894,-35.0347228156
*Step  = 5
*Time  = 2.0078
*Data  = x;y;z
1,-3.84140306661,4.49213128038,-8.5779951387
2,-5.486325235,-5.36454379,-37.858426675
15,-3.80800043375,4.49134899334,-8.58032062452
16,-5.18518920168,-5.12097721396,-35.0565286471
*Step  = 6
*Time  = 2.03905
*Data  = x;y;z
1,-3.8265435413,4.56028121689,-8.69549418808
2,-5.486325235,-5.36454379,-37.858426675
15,-3.8122523226,4.55993500164,-8.69649046799
16,-5.19664298917,-5.12979992641,-35.1634140077
*Step  = 7
*Time  = 2.05
*Data  = x;y;z
1,-3.82042653171,4.58267648799,-8.737592535
2,-5.486325235,-5.36454379,-37.858426675
15,-3.81377027613,4.58251337666,-8.73805582613
16,-5.20076179947,-5.1330644538,-35.2018240818
*Step  = 8
*Time  = 2.1
*Data  = x;y;z
1,-3.80671152113,4.6897107179,-8.93307058122
2,-5.486325235,-5.36454379,-37.858426675
15,-3.82066022175,4.69007127227,-8.93210019648
16,-5.22005001306,-5.14838465063,-35.381663974
*Step  = 9
*Time  = 2.15
*Data  = x;y;z
1,-3.77321885824,4.78307433906,-9.11810897818
2,-5.486325235,-5.36454379,-37.858426675
15,-3.82714318158,4.78453601538,-9.11435851734
16,-5.23835550585,-5.16327450457,-35.5521996586
*Step  = 10
*Time  = 2.2
*Data  = x;y;z
1,-3.74414603305,4.87241847943,-9.30353432072
2,-5.486325235,-5.36454379,-37.858426675
15,-3.83351425021,4.87495302081,-9.29732828845
16,-5.25679887758,-5.17834696488,-35.7239561427
*Step  = 11
*Time  = 2.25
*Data  = x;y;z
1,-3.69745898923,4.96004254174,-9.49628241478
2,-5.486325235,-5.36454379,-37.858426675
15,-3.83990010016,4.96426971087,-9.48639831905
16,-5.2759493648,-5.19405432009,-35.9022343739
*Step  = 12
*Time  = 2.3
*Data  = x;y;z
1,-3.67417047212,5.04049454335,-9.67855849508
2,-5.486325235,-5.36454379,-37.858426675
15,-3.84567320603,5.0457976922,-9.66671161813
16,-5.29422582486,-5.20904753159,-36.0723333913
*Step  = 13
*Time  = 2.35
*Data  = x;y;z
1,-3.63999360308,5.12048907976,-9.86896580361
2,-5.486325235,-5.36454379,-37.858426675
15,-3.85163950836,5.12731029037,-9.85437642105
16,-5.31332515485,-5.22468440027,-36.2500513704
*Step  = 14
*Time  = 2.4
*Data  = x;y;z
1,-3.6067833226,5.19328264018,-10.0485685238
2,-5.486325235,-5.36454379,-37.858426675
15,-3.85709172984,5.20165939882,-10.0313512649
16,-5.331364237,-5.23941526614,-36.4178736867
*Step  = 15
*Time  = 2.45
*Data  = x;y;z
1,-3.57656836149,5.26258856498,-10.2259641253
2,-5.486325235,-5.36454379,-37.858426675
15,-3.86224926106,5.27250074147,-10.2063776782
16,-5.34924523337,-5.25401017789,-36.5841877575
*Step  = 16
*Time  = 2.5
*Data  = x;y;z
1,-3.53567681648,5.33436068916,-10.412227717
2,-5.486325235,-5.36454379,-37.858426675
15,-3.86746142503,5.34630291687,-10.3895163897
16,-5.36797294774,-5.26923836986,-36.7583543298
*Step  = 17
*Time  = 2.55
*Data  = x;y;z
1,-3.49478436158,5.39301662368,-10.5830840482
2,-5.486325235,-5.36454379,-37.858426675
15,-3.87201456665,5.40705266008,-10.5573618109
16,-5.3853094341,-5.28341017313,-36.9195159581
*Step  = 18
*Time  = 2.6
*Data  = x;y;z
1,-3.45980408821,5.43283223522,-10.7403928258
2,-5.486325235,-5.36454379,-37.858426675
15,-3.87596797974,5.4488058831,-10.7122933471
16,-5.40172458951,-5.29700176037,-37.0720092587
*Step  = 19
*Time  = 2.65
*Data  = x;y;z
1,-3.42980941858,5.46096679211,-10.8944517466
2,-5.486325235,-5.36454379,-37.858426675
15,-3.87980910001,5.47877631582,-10.8644874785
16,-5.4183048771,-5.3107797882,-37.2259739252
*Step  = 20
*Time  = 2.7
*Data  = x;y;z
1,-3.3979585881,5.4748599798,-11.0309629033
2,-5.486325235,-5.36454379,-37.858426675
15,-3.883399286,5.4945989149,-10.9991093665
16,-5.43344684314,-5.32328837482,-37.3665746307
*Step  = 21
*Time  = 2.75
*Data  = x;y;z
1,-3.38469750751,5.48269741521,-11.1678393729
2,-5.486325235,-5.36454379,-37.858426675
15,-3.88691932951,5.50367801159,-11.13559887
16,-5.44897807773,-5.33584671416,-37.5108725759
*Step  = 22
*Time  = 2.8
*Data  = x;y;z
1,-3.37079680013,5.48323292051,-11.2895010679
2,-5.486325235,-5.36454379,-37.858426675
15,-3.8898173312,5.50544654977,-11.2570311958
16,-5.4629545108,-5.34686132075,-37.6408266435
*Step  = 23
*Time  = 2.85
*Data  = x;y;z
1,-3.37143571704,5.48001120009,-11.4057574923
2,-5.486325235,-5.36454379,-37.858426675
15,-3.89207700465,5.50281931971,-11.3743423108
16,-5.47624829576,-5.35702277117,-37.764559032
*Step  = 24
*Time  = 2.9
*Data  = x;y;z
1,-3.37107144591,5.47125784275,-11.5216867925
2,-5.486325235,-5.36454379,-37.858426675
15,-3.8942272616,5.49471700316,-11.4913721692
16,-5.48948107256,-5.36686816897,-37.8878372524
*Step  = 25
*Time  = 2.95
*Data  = x;y;z
1,-3.36724373008,5.45777454506,-11.6247429283
2,-5.486325235,-5.36454379,-37.858426675
15,-3.89672938704,5.48200395546,-11.5951330272
16,-5.50167144705,-5.37566489374,-38.0015294641
*Step  = 26
*Time  = 3
*Data  = x;y;z
1,-3.34616084391,5.45189611952,-11.6132855801
2,-5.486325235,-5.36454379,-37.858426675
15,-3.89627879662,5.47704329787,-11.5826467377
16,-5.50099094541,-5.37509579427,-37.9952202922
*Step  = 27
*Time  = 3.05
*Data  = x;y;z
1,-3.32083766347,5.46695674053,-11.4339766693
2,-5.486325235,-5.36454379,-37.858426675
15,-3.8922623071,5.49218814037,-11.4004505929
16,-5.4814320771,-5.360996002,-37.8127986735
*Step  = 28
*Time  = 3.1
*Data  = x;y;z
1,-3.3556103731,5.47802983785,-11.2589068516
2,-5.486325235,-5.36454379,-37.858426675
15,-3.89011517837,5.50077983361,-11.2256737187
16,-5.46289844695,-5.34744327478,-37.6400243754
*Step  = 29
*Time  = 3.15
*Data  = x;y;z
1,-3.41162372737,5.46740583836,-11.0651597754
2,-5.486325235,-5.36454379,-37.858426675
15,-3.88725724511,5.48684305422,-11.0343346661
16,-5.44213507791,-5.33188654449,-37.4466153009
*Step  = 30
*Time  = 3.2
*Data  = x;y;z
1,-3.47096426132,5.44562452731,-10.8667700531
2,-5.486325235,-5.36454379,-37.858426675
15,-3.8826058082,5.46177912436,-10.8394511535
16,-5.42024266271,-5.31475189948,-37.2429691883
*Step  = 31
*Time  = 3.25
*Data  = x;y;z
1,-3.51381404601,5.41040215459,-10.6516066336
2,-5.486325235,-5.36454379,-37.858426675
15,-3.87689471169,5.42403406844,-10.627046894
16,-5.39630246965,-5.29519110224,-37.0205501384
*Step  = 32
*Time  = 3.3
*Data  = x;y;z
1,-3.55293148101,5.35604174574,-10.4284299128
2,-5.486325235,-5.36454379,-37.858426675
15,-3.87053177807,5.36743319914,-10.4066709814
16,-5.37188050961,-5.27463394916,-36.7938067265
*Step  = 33
*Time  = 3.35
*Data  = x;y;z
1,-3.57839425782,5.25723495409,-10.16627515
2,-5.486325235,-5.36454379,-37.858426675
15,-3.86250439093,5.26690546835,-10.1467464058
16,-5.34434882156,-5.25170414157,-36.537996523
*Step  = 34
*Time  = 3.4
*Data  = x;y;z
1,-3.60201517379,5.13867496825,-9.89608063075
2,-5.486325235,-5.36454379,-37.858426675
15,-3.85381465623,5.1467880482,-9.8787868389
16,-5.3167002092,-5.22899776168,-36.2808839699
*Step  = 35
*Time  = 3.45
*Data  = x;y;z
1,-3.63874505237,5.00969713101,-9.61289773299
2,-5.486325235,-5.36454379,-37.858426675
15,-3.84461379052,5.01593835058,-9.59874032537
16,-5.28809585606,-5.20557572832,-36.0147524507
*Step  = 36
*Time  = 3.5
*Data  = x;y;z
1,-3.67400216445,4.87510418623,-9.32785575788
2,-5.486325235,-5.36454379,-37.858426675
15,-3.83504262759,4.87967791822,-9.31674340841
16,-5.25945386957,-5.18210157163,-35.7481693791
*Step  = 37
*Time  = 3.55
*Data  = x;y;z
1,-3.71554856524,4.74240260072,-9.05273339711
2,-5.486325235,-5.36454379,-37.858426675
15,-3.82533856622,4.74531775325,-9.04513729362
16,-5.23187998476,-5.15930516365,-35.4914847883
*Step  = 38
*Time  = 3.6
*Data  = x;y;z
1,-3.7674731779,4.60032942221,-8.7675337255
2,-5.486325235,-5.36454379,-37.858426675
15,-3.8147955073,4.60149519601,-8.76425306859
16,-5.20338730316,-5.13548736481,-35.226208516
*Step  = 39
*Time  = 3.65
*Data  = x;y;z
1,-3.81948828114,4.45610214282,-8.49113031823
2,-5.486325235,-5.36454379,-37.858426675
15,-3.80398101826,4.45574870924,-8.49220536247
16,-5.17579595296,-5.11205126724,-34.9693084308
*Step  = 40
*Time  = 3.7
*Data  = x;y;z
1,-3.85579777131,4.30404636039,-8.20577780744
2,-5.486325235,-5.36454379,-37.858426675
15,-3.79207695255,4.30271527631,-8.21019725989
16,-5.14718347997,-5.08726207971,-34.7028866692
*Step  = 41
*Time  = 3.75
*Data  = x;y;z
1,-3.89753992977,4.14809887467,-7.92855134328
2,-5.486325235,-5.36454379,-37.858426675
15,-3.77966631963,4.14585047383,-7.93670881417
16,-5.11940233776,-5.06236427244,-34.4442620506
*Step  = 42
*Time  = 3.8
*Data  = x;y;z
1,-3.94312943898,3.9801342931,-7.63924043092
2,-5.486325235,-5.36454379,-37.858426675
15,-3.76592425313,3.97708584668,-7.65144133937
16,-5.09048601007,-5.03598464099,-34.1749992265
*Step  = 43
*Time  = 3.85
*Data  = x;y;z
1,-3.98142337477,3.80795552136,-7.35756134724
2,-5.486325235,-5.36454379,-37.858426675
15,-3.75154589742,3.80441156889,-7.37326676203
16,-5.06236544876,-5.00971900989,-33.9131044367
*Step  = 44
*Time  = 3.9
*Data  = x;y;z
1,-4.01195905583,3.62382985288,-7.06491506238
2,-5.486325235,-5.36454379,-37.858426675
15,-3.73564850856,3.62007700033,-7.08358371429
16,-5.03317448394,-4.98204779959,-33.6411250198
*Step  = 45
*Time  = 3.95
*Data  = x;y;z
1,-4.04016527102,3.42791856574,-6.76669763862
2,-5.486325235,-5.36454379,-37.858426675
15,-3.71828001086,3.42412896512,-6.78812365872
16,-5.00352349559,-4.95345123586,-33.3647581034
*Step  = 46
*Time  = 4
*Data  = x;y;z
1,-4.03903386548,3.4299166083,-6.75657011342
2,-5.486325235,-5.36454379,-37.858426675
15,-3.71664291253,3.42609740222,-6.77813164094
16,-5.0021136351,-4.94899000035,-33.3521746737
*Step  = 47
*Time  = 4.05
*Data  = x;y;z
1,-3.94855745704,3.2644528968,-6.70833602461
2,-5.486325235,-5.36454379,-37.858426675
15,-3.71454092028,3.26169733459,-6.72410156608
16,-4.99868706867,-4.94923716651,-33.3197132879
*Step  = 48
*Time  = 4.1
*Data  = x;y;z
1,-3.90050242266,3.12482825203,-6.68239599937
2,-5.486325235,-5.36454379,-37.858426675
15,-3.71452458448,3.12265282648,-6.6949705596
16,-4.99756284395,-4.95174985309,-33.3086542909
*Step  = 49
*Time  = 4.15
*Data  = x;y;z
1,-3.85773278294,2.98658282414,-6.66070415447
2,-5.486325235,-5.36454379,-37.858426675
15,-3.71491305548,2.98492401776,-6.67038232108
16,-4.99686921296,-4.95484090539,-33.3015828069
*Step  = 50
*Time  = 4.2
*Data  = x;y;z
1,-3.81816075292,2.8490702443,-6.6418120405
2,-5.486325235,-5.36454379,-37.858426675
15,-3.71554050382,2.84788691311,-6.64877622765
16,-4.99643674926,-4.95819769682,-33.2969480317
*Step  = 51
*Time  = 4.25
*Data  = x;y;z
1,-3.77950955958,2.71099391887,-6.62357593188
2,-5.486325235,-5.36454379,-37.858426675
15,-3.71617624313,2.71026903148,-6.62787590694
16,-4.99603815477,-4.96168069745,-33.2926272214
*Step  = 52
*Time  = 4.3
*Data  = x;y;z
1,-3.73913964862,2.5703510086,-6.60693796899
2,-5.486325235,-5.36454379,-37.858426675
15,-3.71697576171,2.57009921255,-6.60844364224
16,-4.9957784698,-4.96525325664,-33.2896126381
*Step  = 53
*Time  = 4.35
*Data  = x;y;z
1,-3.70033363521,2.4278271077,-6.59146332594
2,-5.486325235,-5.36454379,-37.858426675
15,-3.71786399915,2.42802478274,-6.5902726444
16,-4.99561748326,-4.9688905405,-33.2875315954
*Step  = 54
*Time  = 4.4
*Data  = x;y;z
1,-3.66040364261,2.28337085931,-6.57653649884
2,-5.486325235,-5.36454379,-37.858426675
15,-3.71878999123,2.28402433812,-6.57257257731
16,-4.995476762,-4.97251786304,-33.2856524331
*Step  = 55
*Time  = 4.45
*Data  = x;y;z
1,-3.62499077368,2.13668730113,-6.56429150642
2,-5.486325235,-5.36454379,-37.858426675
15,-3.71997839415,2.13774264537,-6.55784792757
16,-4.99562022584,-4.97629678644,-33.286443358
*Step  = 56
*Time  = 4.5
*Data  = x;y;z
1,-3.5930396149,1.98652448138,-6.55350319614
2,-5.486325235,-5.36454379,-37.858426675
15,-3.72133812583,1.98793959494,-6.54482094235
16,-4.99591160048,-4.98012647234,-33.2886309111
*Step  = 57
*Time  = 4.55
*Data  = x;y;z
1,-3.55879477549,1.83312511652,-6.54442997699
2,-5.486325235,-5.36454379,-37.858426675
15,-3.72281101235,1.83492126964,-6.53336138308
16,-4.99634664566,-4.98400107645,-33.292177812
*Step  = 58
*Time  = 4.6
*Data  = x;y;z
1,-3.52776098711,1.67576585013,-6.53755761314
2,-5.486325235,-5.36454379,-37.858426675
15,-3.72455750007,1.67790602677,-6.52431594292
16,-4.99702366,-4.98794069585,-33.2980035385
*Step  = 59
*Time  = 4.65
*Data  = x;y;z
1,-3.49694460484,1.51380936464,-6.53266137414
2,-5.486325235,-5.36454379,-37.858426675
15,-3.72651584157,1.5162890865,-6.51727019945
16,-4.99789867551,-4.99192372813,-33.3056972513
*Step  = 60
*Time  = 4.7
*Data  = x;y;z
1,-3.47605283375,1.34590487872,-6.53224090197
2,-5.486325235,-5.36454379,-37.858426675
15,-3.72899620236,1.34861961563,-6.51537314702
16,-4.99930386156,-4.99610622361,-33.3183687278
*Step  = 61
*Time  = 4.75
*Data  = x;y;z
1,-3.45474559787,1.17122572212,-6.53438377186
2,-5.486325235,-5.36454379,-37.858426675
15,-3.73177783513,1.17418118497,-6.51601726658
16,-5.00098412824,-5.00028447653,-33.3336383689
*Step  = 62
*Time  = 4.8
*Data  = x;y;z
1,-3.44808274052,0.987691452002,-6.54276577589
2,-5.486325235,-5.36454379,-37.858426675
15,-3.73535252416,0.990739404125,-6.52385991976
16,-5.00344344561,-5.00476896968,-33.3562133193
*Step  = 63
*Time  = 4.85
*Data  = x;y;z
1,-3.44156611662,0.795370436732,-6.5554731074
2,-5.486325235,-5.36454379,-37.858426675
15,-3.73943236212,0.798515075762,-6.53604048931
16,-5.00637984389,-5.00935785449,-33.3832731621
*Step  = 64
*Time  = 4.9
*Data  = x;y;z
1,-3.44430307619,0.592482246236,-6.57416140833
2,-5.486325235,-5.36454379,-37.858426675
15,-3.74426063658,0.595635322064,-6.55479497312
16,-5.0100465458,-5.0141441619,-33.4171905654
*Step  = 65
*Time  = 4.95
*Data  = x;y;z
1,-3.44692464942,0.387887233813,-6.59467346142
2,-5.486325235,-5.36454379,-37.858426675
15,-3.74927546626,0.391053527884,-6.57533985878
16,-5.01389063787,-5.01877669577,-33.4528002719
*Step  = 66
*Time  = 4.99999
*Data  = x;y;z
1,-3.52104016568,0.609354628501,-6.57020532772
2,-5.486325235,-5.36454379,-37.858426675
15,-3.74446275437,0.611698874362,-6.55559859406
16,-5.01014596614,-5.01510509924,-33.4179971694
