*Step  = 1
*Time  = 1e-05
*Data  = x;y;z
1,-3.44058876135,3.4202072773,-11.2286758391
2,-5.486325235,-5.36454379,-37.858426675
14,-3.98012239225,3.44359458484,-11.1919061821
15,-5.47943842663,-5.35959216545,-37.7941891166
*Step  = 2
*Time  = 6e-05
*Data  = x;y;z
1,-3.38858554049,3.42300101751,-11.197384966
2,-5.486325235,-5.36454379,-37.858426675
14,-3.97638034641,3.44847468664,-11.1573512533
15,-5.47576019185,-5.35695471027,-37.7598767172
*Step  = 3
*Time  = 0.00011
*Data  = x;y;z
1,-3.36274408759,3.42275779356,-11.1785224777
2,-5.486325235,-5.36454379,-37.858426675
14,-3.97427659459,3.4492561792,-11.1368778738
15,-5.47360298954,-5.35541043993,-37.7397521342
*Step  = 4
*Time  = 0.00036
*Data  = x;y;z
1,-3.34842625581,3.4265376026,-11.1671603455
2,-5.486325235,-5.36454379,-37.858426675
14,-3.97291149184,3.45358963438,-11.124617934
15,-5.47228370029,-5.35446673454,-37.7274441388
*Step  = 5
*Time  = 0.00161
*Data  = x;y;z
1,-3.33878060013,3.42511155617,-11.1546819825
2,-5.486325235,-5.36454379,-37.858426675
14,-3.97194760621,3.45250906002,-11.1115307019
15,-5.47091443129,-5.35348561948,-37.7146706277
*Step  = 6
*Time  = 0.00786
*Data  = x;y;z
1,-3.33981307354,3.40996187482,-11.1155008696
2,-5.486325235,-5.36454379,-37.858426675
14,-3.97016672781,3.43709003725,-11.0725428219
15,-5.4668937648,-5.35059722094,-37.6771664111
*Step  = 7
*Time  = 0.03911
*Data  = x;y;z
1,-3.36528884312,3.33331369334,-10.9360823086
2,-5.486325235,-5.36454379,-37.858426675
14,-3.96298234868,3.35833744508,-10.8954199957
15,-5.44867995699,-5.33749044363,-37.5072807975
*Step  = 8
*Time  = 0.05
*Data  = x;y;z
1,-3.41662636646,3.31341484287,-10.8803069794
2,-5.486325235,-5.36454379,-37.858426675
14,-3.96110224919,3.33599011879,-10.8433618192
15,-5.44328142872,-5.33359002876,-37.4569339216
*Step  = 9
*Time  = 0.1
*Data  = x;y;z
1,-3.54742548345,3.19895429252,-10.616610148
2,-5.486325235,-5.36454379,-37.858426675
14,-3.95141390823,3.21495467648,-10.5896035747
15,-5.41714234764,-5.31472489128,-37.2131502407
*Step  = 10
*Time  = 0.15
*Data  = x;y;z
1,-3.77964305827,3.07129476714,-10.3813537369
2,-5.486325235,-5.36454379,-37.858426675
14,-3.94485704231,3.0775371889,-10.3705953399
15,-5.39475030828,-5.2985617056,-37.0043139316
*Step  = 11
*Time  = 0.2
*Data  = x;y;z
1,-4.0180946037,2.92264229747,-10.1529896029
2,-5.486325235,-5.36454379,-37.858426675
14,-3.93883118542,2.91978799938,-10.1579898071
15,-5.37317041875,-5.28299107154,-36.8030486253
*Step  = 12
*Time  = 0.25
*Data  = x;y;z
1,-4.18382408545,2.75409552317,-9.90620132233
2,-5.486325235,-5.36454379,-37.858426675
14,-3.93008376233,2.74539418309,-9.92170056235
15,-5.34921154996,-5.26570572038,-36.5795945112
*Step  = 13
*Time  = 0.3
*Data  = x;y;z
1,-4.31756359988,2.56712903159,-9.63091382246
2,-5.486325235,-5.36454379,-37.858426675
14,-3.91800267827,2.55409242344,-9.6545287018
15,-5.32210562949,-5.24615350744,-36.3267874304
*Step  = 14
*Time  = 0.35
*Data  = x;y;z
1,-4.43187123726,2.38456657561,-9.34890666785
2,-5.486325235,-5.36454379,-37.858426675
14,-3.90366958766,2.36818237616,-9.37916344915
15,-5.29409665329,-5.22594108314,-36.0655604315
*Step  = 15
*Time  = 0.4
*Data  = x;y;z
1,-4.58885485552,2.19918654419,-9.06762045883
2,-5.486325235,-5.36454379,-37.858426675
14,-3.88924020265,2.17857902935,-9.10661587453
15,-5.26645841288,-5.20597188981,-35.8077982322
*Step  = 16
*Time  = 0.45
*Data  = x;y;z
1,-4.65150805849,2.00642981449,-8.77401601121
2,-5.486325235,-5.36454379,-37.858426675
14,-3.87243291539,1.9846672472,-8.81640611522
15,-5.23700305785,-5.18465696012,-35.5330978078
*Step  = 17
*Time  = 0.5
*Data  = x;y;z
1,-4.77249885561,1.80958358697,-8.47870910239
2,-5.486325235,-5.36454379,-37.858426675
14,-3.8548609446,1.78530945184,-8.52727693637
15,-5.20767117537,-5.16340075288,-35.2595557563
*Step  = 18
*Time  = 0.55
*Data  = x;y;z
1,-4.89626817377,1.60912900073,-8.18322339407
2,-5.486325235,-5.36454379,-37.858426675
14,-3.83666571975,1.58262648019,-8.23760092879
15,-5.17828311786,-5.1420737169,-34.9854953414
*Step  = 19
*Time  = 0.6
*Data  = x;y;z
1,-5.027364888,1.39755410422,-7.88772037269
2,-5.486325235,-5.36454379,-37.858426675
14,-3.81790529381,1.3689906449,-7.94784809434
15,-5.14897415523,-5.12077161462,-34.7121778399
*Step  = 20
*Time  = 0.65
*Data  = x;y;z
1,-5.18262758325,1.17569972626,-7.59054378927
2,-5.486325235,-5.36454379,-37.858426675
14,-3.79840875309,1.14487160395,-7.65692492645
15,-5.11959613982,-5.09937776542,-34.4382232219
*Step  = 21
*Time  = 0.7
*Data  = x;y;z
1,-5.30349985447,0.952237841679,-7.29420673172
2,-5.486325235,-5.36454379,-37.858426675
14,-3.77815646958,0.920252532899,-7.36503299152
15,-5.09015696349,-5.07787820534,-34.1637084121
*Step  = 22
*Time  = 0.75
*Data  = x;y;z
1,-5.40944198738,0.725770602226,-7.00252083232
2,-5.486325235,-5.36454379,-37.858426675
14,-3.75763698582,0.693213698961,-7.07674007141
15,-5.06112416832,-5.05662577021,-33.8929886581
*Step  = 23
*Time  = 0.8
*Data  = x;y;z
1,-5.48215157428,0.496191290436,-6.71061687092
2,-5.486325235,-5.36454379,-37.858426675
14,-3.73622354289,0.463904122745,-6.78641109356
15,-5.03188887931,-5.0351684809,-33.620387062
*Step  = 24
*Time  = 0.85
*Data  = x;y;z
1,-5.56469979138,0.251355198865,-6.41560435822
2,-5.486325235,-5.36454379,-37.858426675
14,-3.71410276337,0.21930504806,-6.49298006788
15,-5.00243872105,-5.01350872903,-33.345784573
*Step  = 25
*Time  = 0.9
*Data  = x;y;z
1,-5.55054389234,0.0166492698468,-6.12441235401
2,-5.486325235,-5.36454379,-37.858426675
14,-3.69113099757,-0.0134488878242,-6.19953693678
15,-4.97292266,-4.99173135549,-33.0705735671
*Step  = 26
*Time  = 0.95
*Data  = x;y;z
1,-5.64679437183,-0.244494622456,-5.82980105058
2,-5.486325235,-5.36454379,-37.858426675
14,-3.66804558313,-0.274369020821,-5.90663429015
15,-4.94367507878,-4.97011539612,-32.797865456
*Step  = 27
*Time  = 1
*Data  = x;y;z
1,-5.61903385856,-0.246606383776,-5.82014913836
2,-5.486325235,-5.36454379,-37.858426675
14,-3.66719472587,-0.276071939355,-5.8966361175
15,-4.9426899722,-4.96937277173,-32.788682304
*Step  = 28
*Time  = 1.05
*Data  = x;y;z
1,-6.46212099735,-2.74090886961,-6.07827459793
2,-5.486325235,-5.36454379,-37.858426675
14,-3.74517453692,-2.78183609042,-6.161385226
15,-4.99030240659,-5.00697262616,-33.2321216622
*Step  = 29
*Time  = 1.1
*Data  = x;y;z
1,-6.52922906308,-4.91553298219,-6.56097202867
2,-5.486325235,-5.36454379,-37.858426675
14,-3.8405092104,-4.95601857018,-6.63186218705
15,-5.05774604329,-5.05624597787,-33.8610230351
*Step  = 30
*Time  = 1.15
*Data  = x;y;z
1,-6.59228474007,-6.39984763133,-6.8544778663
2,-5.486325235,-5.36454379,-37.858426675
14,-3.90264070375,-6.44031966528,-6.92094401474
15,-5.10028301874,-5.08780093197,-34.2575762158
*Step  = 31
*Time  = 1.2
*Data  = x;y;z
1,-6.80486487864,-7.62342699701,-7.08268498392
2,-5.486325235,-5.36454379,-37.858426675
14,-3.95303985628,-7.66630510342,-7.14879839952
15,-5.13389679305,-5.11301890901,-34.5708836654
*Step  = 32
*Time  = 1.25
*Data  = x;y;z
1,-7.09553814854,-8.6807549046,-7.26074648086
2,-5.486325235,-5.36454379,-37.858426675
14,-3.9947902734,-8.72733479542,-7.3296256105
15,-5.16098630873,-5.13352762092,-34.8233427411
*Step  = 33
*Time  = 1.3
*Data  = x;y;z
1,-7.32814016781,-9.61033800435,-7.41064995874
2,-5.486325235,-5.36454379,-37.858426675
14,-4.03068294259,-9.65982585087,-7.48177745016
15,-5.18376643233,-5.15093061703,-35.0356095643
*Step  = 34
*Time  = 1.35
*Data  = x;y;z
1,-7.49137151827,-10.4755657667,-7.55697310415
2,-5.486325235,-5.36454379,-37.858426675
14,-4.06431723313,-10.5269382569,-7.62964543408
15,-5.20519550638,-5.16748670874,-35.2352528024
*Step  = 35
*Time  = 1.4
*Data  = x;y;z
1,-7.60297444157,-11.2757186213,-7.69199290477
2,-5.486325235,-5.36454379,-37.858426675
14,-4.09513945008,-11.3282307535,-7.76608869403
15,-5.22451339094,-5.18258441271,-35.4151950798
*Step  = 36
*Time  = 1.45
*Data  = x;y;z
1,-7.65983353829,-12.0581608991,-7.82905653475
2,-5.486325235,-5.36454379,-37.858426675
14,-4.12532186003,-12.1109963763,-7.90497223292
15,-5.24372331105,-5.19745121893,-35.5941665501
*Step  = 37
*Time  = 1.5
*Data  = x;y;z
1,-7.69692969308,-12.8177774719,-7.9565286347
2,-5.486325235,-5.36454379,-37.858426675
14,-4.15315022921,-12.8706530881,-8.03577333773
15,-5.2613291156,-5.21131325177,-35.7581569175
*Step  = 38
*Time  = 1.55
*Data  = x;y;z
1,-7.82328580284,-13.5509889623,-8.04435348295
2,-5.486325235,-5.36454379,-37.858426675
14,-4.17646726289,-13.6052876604,-8.13256809046
15,-5.27484789492,-5.22227340859,-35.8840264256
*Step  = 39
*Time  = 1.6
*Data  = x;y;z
1,-7.88561100346,-14.2502871523,-8.10580328961
2,-5.486325235,-5.36454379,-37.858426675
14,-4.19428288538,-14.3050795302,-8.20587071456
15,-5.28467191531,-5.2310767257,-35.9753646297
*Step  = 40
*Time  = 1.65
*Data  = x;y;z
1,-8.0837837231,-14.9266591432,-8.12459832746
2,-5.486325235,-5.36454379,-37.858426675
14,-4.20730832809,-14.9839949616,-8.24443273602
15,-5.29036871962,-5.23703501197,-36.0282009547
*Step  = 41
*Time  = 1.7
*Data  = x;y;z
1,-8.19005247991,-15.8343342544,-8.2373879638
2,-5.486325235,-5.36454379,-37.858426675
14,-4.23387681913,-15.8926333503,-8.38004056708
15,-5.3082372559,-5.25043163672,-36.1948286252
*Step  = 42
*Time  = 1.75
*Data  = x;y;z
1,-8.20693832565,-16.6293736182,-8.3248528698
2,-5.486325235,-5.36454379,-37.858426675
14,-4.25302942632,-16.6872383733,-8.48670906484
15,-5.31948685531,-5.26034227091,-36.2995129562
*Step  = 43
*Time  = 1.8
*Data  = x;y;z
1,-8.47891599821,-17.3118073831,-8.31137815072
2,-5.486325235,-5.36454379,-37.858426675
14,-4.25987077103,-17.3730889678,-8.50760603993
15,-5.32081258091,-5.26372642452,-36.3115565263
*Step  = 44
*Time  = 1.82580645
*Data  = x;y;z
1,-8.49686972322,-17.3119098757,-8.16477126945
2,-5.486325235,-5.36454379,-37.858426675
14,-4.24137241141,-17.3733757477,-8.36910610869
15,-5.30216239268,-5.25431682946,-36.1369793462
