*Step  = 1
*Time  = 1e-05
*Data  = RCx;RCy;RCz;RCthx;RCthy;RCthz
1,-0.554768690387,0,0,0.000100390822663,0,0
2,0.106866462323,0,0,-0.00250625381062,0,0
3,-0.0495639743377,-0,-0,0.00440386420288,0,0
*Step  = 2
*Time  = 6e-05
*Data  = RCx;RCy;RCz;RCthx;RCthy;RCthz
1,-0.609601125812,0,0,0.000140373205779,0,0
2,0.098124079335,0,0,-0.00275614125099,0,0
3,-0.0782567250225,-0,-0,0.0067279136692,0,0
*Step  = 3
*Time  = 0.00031
*Data  = RCx;RCy;RCz;RCthx;RCthy;RCthz
1,-0.635657184796,0,0,0.000163998702262,0,0
2,0.0904923278532,0,0,-0.00288580900369,0,0
3,-0.0947430999961,-0,-0,0.00824516374672,0,0
*Step  = 4
*Time  = 0.00156
*Data  = RCx;RCy;RCz;RCthx;RCthy;RCthz
1,-0.649935840598,0,0,0.000176556610317,0,0
2,0.0851920609527,0,0,-0.00299881591519,0,0
3,-0.102878568945,-0,-0,0.0087769232864,0,0
*Step  = 5
*Time  = 0.00781
*Data  = RCx;RCy;RCz;RCthx;RCthy;RCthz
1,-0.662818728796,0,0,0.000175258293555,0,0
2,0.0837565714963,0,0,-0.00305608338036,0,0
3,-0.104205451074,-0,-0,0.00905358023004,0,0
*Step  = 6
*Time  = 0.03906
*Data  = RCx;RCy;RCz;RCthx;RCthy;RCthz
1,-0.680584332478,0,0,0.000122596264715,0,0
2,0.075825453385,0,0,-0.00294967375915,0,0
3,-0.0858059981573,-0,-0,0.0102446551593,0,0
*Step  = 7
*Time  = 0.05
*Data  = RCx;RCy;RCz;RCthx;RCthy;RCthz
1,-0.663002761589,0,0,0.000108762462982,0,0
2,0.00852200055332,0,0,-0.00291340047769,0,0
3,-0.0770969550817,-0,-0,0.0134979614852,0,0
*Step  = 8
*Time  = 0.1
*Data  = RCx;RCy;RCz;RCthx;RCthy;RCthz
1,-0.593989673072,0,0,1.0291760829e-05,0,0
2,-0.319036009228,0,0,-0.0029294191553,0,0
3,0.0248994624299,0,0,0.0332690022678,0,0
*Step  = 9
*Time  = 0.15
*Data  = RCx;RCy;RCz;RCthx;RCthy;RCthz
1,-0.55697906848,0,0,-5.10790542768e-05,0,0
2,-0.504446700871,0,0,-0.00337489274339,0,0
3,0.073866687569,0,0,0.0458387784305,0,0
*Step  = 10
*Time  = 0.2
*Data  = RCx;RCy;RCz;RCthx;RCthy;RCthz
1,-0.547063950366,0,0,-0.000104183181222,0,0
2,-0.609830398801,0,0,-0.00380264464788,0,0
3,0.100115738968,0,0,0.0537773768321,0,0
*Step  = 11
*Time  = 0.25
*Data  = RCx;RCy;RCz;RCthx;RCthy;RCthz
1,-0.529656558038,0,0,-0.000158913756283,0,0
2,-0.679476359475,0,0,-0.00405641753772,0,0
3,0.119153964265,0,0,0.0596586329569,0,0
*Step  = 12
*Time  = 0.3
*Data  = RCx;RCy;RCz;RCthx;RCthy;RCthz
1,-0.506897666639,0,0,-0.000213580091489,0,0
2,-0.736755074543,0,0,-0.00434090949506,0,0
3,0.139862127688,0,0,0.0653442957682,0,0
*Step  = 13
*Time  = 0.35
*Data  = RCx;RCy;RCz;RCthx;RCthy;RCthz
1,-0.515725455886,0,0,-0.000266656805796,0,0
2,-0.777507417612,0,0,-0.00450830222228,0,0
3,0.150414848778,0,0,0.0690043926016,0,0
*Step  = 14
*Time  = 0.4
*Data  = RCx;RCy;RCz;RCthx;RCthy;RCthz
1,-0.486774550401,0,0,-0.000327316372147,0,0
2,-0.814410059241,0,0,-0.00472583470307,0,0
3,0.16809736049,0,0,0.0736293570056,0,0
*Step  = 15
*Time  = 0.45
*Data  = RCx;RCy;RCz;RCthx;RCthy;RCthz
1,-0.505589071185,0,0,-0.000380610535309,0,0
2,-0.846586837931,0,0,-0.00481702296344,0,0
3,0.17541527328,0,0,0.0763395300219,0,0
*Step  = 16
*Time  = 0.5
*Data  = RCx;RCy;RCz;RCthx;RCthy;RCthz
1,-0.505892765438,0,0,-0.000436630604797,0,0
2,-0.87728447344,0,0,-0.00494273909324,0,0
3,0.184654069652,0,0,0.0793705777614,0,0
*Step  = 17
*Time  = 0.55
*Data  = RCx;RCy;RCz;RCthx;RCthy;RCthz
1,-0.50096091225,0,0,-0.000492763972628,0,0
2,-0.907999056088,0,0,-0.00506605616654,0,0
3,0.194798299315,0,0,0.0824988593804,0,0
*Step  = 18
*Time  = 0.6
*Data  = RCx;RCy;RCz;RCthx;RCthy;RCthz
1,-0.499410925844,0,0,-0.000548637495777,0,0
2,-0.936605718496,0,0,-0.00518649221854,0,0
3,0.20439818474,0,0,0.0854535842809,0,0
*Step  = 19
*Time  = 0.65
*Data  = RCx;RCy;RCz;RCthx;RCthy;RCthz
1,-0.498646672953,0,0,-0.000604235714182,0,0
2,-0.961784607377,0,0,-0.00529715363808,0,0
3,0.212903576159,0,0,0.0881415852589,0,0
*Step  = 20
*Time  = 0.7
*Data  = RCx;RCy;RCz;RCthx;RCthy;RCthz
1,-0.501265850355,0,0,-0.000661087203051,0,0
2,-0.985237295371,0,0,-0.00541864596413,0,0
3,0.221038164488,0,0,0.0906648519264,0,0
*Step  = 21
*Time  = 0.75
*Data  = RCx;RCy;RCz;RCthx;RCthy;RCthz
1,-0.498698984862,0,0,-0.000720021741069,0,0
2,-1.0082096922,0,0,-0.00550790465124,0,0
3,0.229024874334,0,0,0.0931421767562,0,0
*Step  = 22
*Time  = 0.8
*Data  = RCx;RCy;RCz;RCthx;RCthy;RCthz
1,-0.492757134063,0,0,-0.000777591233843,0,0
2,-1.03100289278,0,0,-0.00557655166601,0,0
3,0.236927767602,0,0,0.0955469077982,0,0
*Step  = 23
*Time  = 0.85
*Data  = RCx;RCy;RCz;RCthx;RCthy;RCthz
1,-0.489494903399,0,0,-0.000833573772363,0,0
2,-1.05301375072,0,0,-0.0056388056412,0,0
3,0.2444467943,0,0,0.0978566582376,0,0
*Step  = 24
*Time  = 0.9
*Data  = RCx;RCy;RCz;RCthx;RCthy;RCthz
1,-0.487031733702,0,0,-0.000888450723277,0,0
2,-1.07412501108,0,0,-0.00571616436796,0,0
3,0.252109487337,0,0,0.100154751491,0,0
*Step  = 25
*Time  = 0.95
*Data  = RCx;RCy;RCz;RCthx;RCthy;RCthz
1,-0.45162122771,0,0,-0.000944708674811,0,0
2,-1.08809631921,0,0,-0.00589835713372,0,0
3,0.267059435665,0,0,0.103382987136,0,0
*Step  = 26
*Time  = 0.99999
*Data  = RCx;RCy;RCz;RCthx;RCthy;RCthz
1,-0.467860912221,0,0,-0.000996377217814,0,0
2,-1.10320306903,0,0,-0.00586115370474,0,0
3,0.269223023816,0,0,0.104670002761,0,0
*Step  = 1
*Time  = 1
*Data  = RCx;RCy;RCz;RCthx;RCthy;RCthz
1,-0.49003212521,0,0,-0.000998919155791,0,0
2,-1.08258259984,0,0,-0.00584498070085,0,0
3,0.255352474307,0,0,0.102626120047,0,0
*Step  = 2
*Time  = 1.00005
*Data  = RCx;RCy;RCz;RCthx;RCthy;RCthz
1,-0.495314308342,0,0,-0.00100094598093,0,0
2,-1.08293588971,0,0,-0.00582883981505,0,0
3,0.253992822371,0,0,0.102403344323,0,0
*Step  = 3
*Time  = 1.0003
*Data  = RCx;RCy;RCz;RCthx;RCthy;RCthz
1,-0.497493291772,0,0,-0.00100152396062,0,0
2,-1.08359700893,0,0,-0.00582405388706,0,0
3,0.253366128043,0,0,0.102330364464,0,0
*Step  = 4
*Time  = 1.00155
*Data  = RCx;RCy;RCz;RCthx;RCthy;RCthz
1,-0.498722118186,0,0,-0.000990036440939,0,0
2,-1.0847264153,0,0,-0.00583054633112,0,0
3,0.253454909988,0,0,0.102379940193,0,0
*Step  = 5
*Time  = 1.0078
*Data  = RCx;RCy;RCz;RCthx;RCthy;RCthz
1,-0.498247359752,0,0,-0.000731449297303,0,0
2,-1.08751491123,0,0,-0.00581936244109,0,0
3,0.256179833363,0,0,0.102537033646,0,0
*Step  = 6
*Time  = 1.03905
*Data  = RCx;RCy;RCz;RCthx;RCthy;RCthz
1,-0.492651248933,0,0,0.000762087721959,0,0
2,-1.09998099614,0,0,-0.00568535671421,0,0
3,0.271101040427,0,0,0.103135433071,0,0
*Step  = 7
*Time  = 1.05
*Data  = RCx;RCy;RCz;RCthx;RCthy;RCthz
1,-0.498654583252,0,0,-0.0010158879981,0,0
2,-1.09586711319,0,0,-0.0058780406834,0,0
3,0.257853428782,0,0,0.10378566249,0,0
*Step  = 8
*Time  = 1.1
*Data  = RCx;RCy;RCz;RCthx;RCthy;RCthz
1,-0.508193364411,0,0,-0.0276544986373,0,0
2,-1.05120780462,0,0,-0.00845980242841,0,0
3,0.0765828348312,0,0,0.11082201444,0,0
*Step  = 9
*Time  = 1.15
*Data  = RCx;RCy;RCz;RCthx;RCthy;RCthz
1,-0.480983032686,0,0,-0.0542284844938,0,0
2,-0.91944076058,0,0,-0.00984206450479,0,0
3,-0.143511680308,-0,-0,0.11256154075,0,0
*Step  = 10
*Time  = 1.2
*Data  = RCx;RCy;RCz;RCthx;RCthy;RCthz
1,-0.470829966885,0,0,-0.0807356456022,0,0
2,-0.756191078598,0,0,-0.0105431022418,0,0
3,-0.378370316599,-0,-0,0.113527321897,0,0
*Step  = 11
*Time  = 1.25
*Data  = RCx;RCy;RCz;RCthx;RCthy;RCthz
1,-0.391685615469,0,0,-0.107242132448,0,0
2,-0.573637277068,0,0,-0.0110134940731,0,0
3,-0.607609338538,-0,-0,0.112657002066,0,0
*Step  = 12
*Time  = 1.3
*Data  = RCx;RCy;RCz;RCthx;RCthy;RCthz
1,-0.361971303083,0,0,-0.133699353642,0,0
2,-0.369889055612,0,0,-0.0110463423548,0,0
3,-0.851937964741,-0,-0,0.108883571729,0,0
*Step  = 13
*Time  = 1.35
*Data  = RCx;RCy;RCz;RCthx;RCthy;RCthz
1,-0.298256317828,0,0,-0.160118233146,0,0
2,-0.148336159265,0,0,-0.0106692590143,0,0
3,-1.09773388818,-0,-0,0.103196958142,0,0
*Step  = 14
*Time  = 1.4
*Data  = RCx;RCy;RCz;RCthx;RCthy;RCthz
1,-0.205043263532,0,0,-0.186518645468,0,0
2,0.0817485661987,0,0,-0.0100774961069,0,0
3,-1.34071079276,-0,-0,0.0963805216502,0,0
*Step  = 15
*Time  = 1.45
*Data  = RCx;RCy;RCz;RCthx;RCthy;RCthz
1,-0.0634929975495,0,0,-0.212893833324,0,0
2,0.360994634944,0,0,-0.00827329771483,0,0
3,-1.58850115826,-0,-0,0.0846839438399,0,0
*Step  = 16
*Time  = 1.5
*Data  = RCx;RCy;RCz;RCthx;RCthy;RCthz
1,0.0389376575012,0,0,-0.239287079968,0,0
2,0.561105216135,0,0,-0.00720154456,0,0
3,-1.83630461159,-0,-0,0.077947490524,0,0
*Step  = 17
*Time  = 1.55
*Data  = RCx;RCy;RCz;RCthx;RCthy;RCthz
1,0.114453902413,0,0,-0.265695086172,0,0
2,0.708437816106,0,0,-0.00674717300669,0,0
3,-2.08617345603,-0,-0,0.074151020962,0,0
*Step  = 18
*Time  = 1.6
*Data  = RCx;RCy;RCz;RCthx;RCthy;RCthz
1,0.187748566866,0,0,-0.292125221664,0,0
2,0.845022027864,0,0,-0.00639879098226,0,0
3,-2.33669744345,-0,-0,0.071427874798,0,0
*Step  = 19
*Time  = 1.65
*Data  = RCx;RCy;RCz;RCthx;RCthy;RCthz
1,0.270379534069,0,0,-0.31856219114,0,0
2,0.980460526131,0,0,-0.00587961617136,0,0
3,-2.586190111,-0,-0,0.0672751156919,0,0
*Step  = 20
*Time  = 1.7
*Data  = RCx;RCy;RCz;RCthx;RCthy;RCthz
1,0.368463616719,0,0,-0.345013207112,0,0
2,1.11350415345,0,0,-0.00519029354395,0,0
3,-2.83396299586,-0,-0,0.0623663100979,0,0
*Step  = 21
*Time  = 1.75
*Data  = RCx;RCy;RCz;RCthx;RCthy;RCthz
1,0.432219018734,0,0,-0.371476194786,0,0
2,1.25840800958,0,0,-0.00455195724857,0,0
3,-3.08973786608,-0,-0,0.0576081753658,0,0
*Step  = 22
*Time  = 1.8
*Data  = RCx;RCy;RCz;RCthx;RCthy;RCthz
1,0.47065851187,0,0,-0.397968722517,0,0
2,1.41194228871,0,0,-0.00528115635784,0,0
3,-3.35161426437,-0,-0,0.057049547429,0,0
*Step  = 23
*Time  = 1.85
*Data  = RCx;RCy;RCz;RCthx;RCthy;RCthz
1,0.542348980103,0,0,-0.424448900248,0,0
2,1.57273699338,0,0,-0.00260585036449,0,0
3,-3.60476192571,-0,-0,0.0441392333534,0,0
*Step  = 24
*Time  = 1.9
*Data  = RCx;RCy;RCz;RCthx;RCthy;RCthz
1,0.602436064543,0,0,-0.450971343111,0,0
2,1.74217070715,0,0,-0.0013299697838,0,0
3,-3.87024789057,-0,-0,0.0402358742146,0,0
*Step  = 25
*Time  = 1.95
*Data  = RCx;RCy;RCz;RCthx;RCthy;RCthz
1,0.629063638056,0,0,-0.477535562026,0,0
2,1.92378531026,0,0,-0.00205259318785,0,0
3,-4.14501820183,-0,-0,0.0426423627684,0,0
*Step  = 26
*Time  = 2
*Data  = RCx;RCy;RCz;RCthx;RCthy;RCthz
1,0.69301462096,0,0,-0.504070586551,0,0
2,2.11105190222,0,0,-0.000397745618722,0,0
3,-4.40778301136,-0,-0,0.0378383489847,0,0
*Step  = 27
*Time  = 2.05
*Data  = RCx;RCy;RCz;RCthx;RCthy;RCthz
1,0.698715755442,0,0,-0.503946549568,0,0
2,2.19596371475,0,0,0.00230491424676,0,0
3,-4.40396215507,-0,-0,0.0180618503743,0,0
*Step  = 28
*Time  = 2.1
*Data  = RCx;RCy;RCz;RCthx;RCthy;RCthz
1,0.886697875424,0,0,-0.504577824015,0,0
2,1.9029900314,0,0,0.00251626179871,0,0
3,-4.44774548668,-0,-0,0.0576888433115,0,0
*Step  = 29
*Time  = 2.15
*Data  = RCx;RCy;RCz;RCthx;RCthy;RCthz
1,0.905183488443,0,0,-0.505384355747,0,0
2,1.55139116921,0,0,0.000975171568142,0,0
3,-4.46451628246,-0,-0,0.0916709823674,0,0
*Step  = 30
*Time  = 2.2
*Data  = RCx;RCy;RCz;RCthx;RCthy;RCthz
1,0.640877232185,0,0,-0.506651518564,0,0
2,0.939553643657,0,0,-0.00804152391654,0,0
3,-4.42959655367,-0,-0,0.136673460174,0,0
*Step  = 31
*Time  = 2.25
*Data  = RCx;RCy;RCz;RCthx;RCthy;RCthz
1,0.462553265988,0,0,-0.507748410069,0,0
2,0.451151713303,0,0,-0.0107594095402,0,0
3,-4.40973417575,-0,-0,0.166218940926,0,0
*Step  = 32
*Time  = 2.3
*Data  = RCx;RCy;RCz;RCthx;RCthy;RCthz
1,0.368273193765,0,0,-0.509059019647,0,0
2,-0.0694437779193,0,0,-0.0126947597461,0,0
3,-4.37091162722,-0,-0,0.195955857228,0,0
*Step  = 33
*Time  = 2.35
*Data  = RCx;RCy;RCz;RCthx;RCthy;RCthz
1,0.327590050331,0,0,-0.510190473968,0,0
2,-0.439555876077,0,0,-0.0135333739344,0,0
3,-4.35179277194,-0,-0,0.216195168361,0,0
*Step  = 34
*Time  = 2.4
*Data  = RCx;RCy;RCz;RCthx;RCthy;RCthz
1,0.179617376407,0,0,-0.500453427976,0,0
2,-0.95874037125,0,0,-0.0148152008546,0,0
3,-4.58658477511,-0,-0,0.22008181388,0,0
*Step  = 35
*Time  = 2.45
*Data  = RCx;RCy;RCz;RCthx;RCthy;RCthz
1,0.259378678346,0,0,-0.501605391398,0,0
2,-1.3121785718,0,0,-0.0139872300058,0,0
3,-4.48942192231,-0,-0,0.239246523872,0,0
*Step  = 36
*Time  = 2.5
*Data  = RCx;RCy;RCz;RCthx;RCthy;RCthz
1,0.271972874877,0,0,-0.502668292505,0,0
2,-1.5795018618,0,0,-0.0136020363431,0,0
3,-4.44463259356,-0,-0,0.25281788894,0,0
*Step  = 37
*Time  = 2.54998
*Data  = RCx;RCy;RCz;RCthx;RCthy;RCthz
1,0.271122710952,0,0,-0.503677012974,0,0
2,-1.82963273105,0,0,-0.0132249029414,0,0
3,-4.40547538863,-0,-0,0.264987789318,0,0
