*Step  = 1
*Time  = 1e-05
*Data  = RCx;RCy;RCz;RCthx;RCthy;RCthz
1,-0.554044041866,0,0,0.000101072535264,0,0
2,0.103195327856,0,0,-0.0024778746501,0,0
3,-0.0509280392711,-0,-0,0.00424216198379,0,0
*Step  = 2
*Time  = 6e-05
*Data  = RCx;RCy;RCz;RCthx;RCthy;RCthz
1,-0.611432982572,0,0,0.000139819514154,0,0
2,0.0934367578614,0,0,-0.00274784434238,0,0
3,-0.0797207297841,-0,-0,0.00636919593852,0,0
*Step  = 3
*Time  = 0.000107673595
*Data  = RCx;RCy;RCz;RCthx;RCthy;RCthz
1,-0.636387060603,0,0,0.000163886177613,0,0
2,0.0845258410442,0,0,-0.00286724159397,0,0
3,-0.096870560915,-0,-0,0.00783239302947,0,0
*Step  = 4
*Time  = 0.000346041569
*Data  = RCx;RCy;RCz;RCthx;RCthy;RCthz
1,-0.64969204304,0,0,0.000178104594041,0,0
2,0.078229689994,0,0,-0.00296057512624,0,0
3,-0.106094743287,-0,-0,0.00840452878544,0,0
*Step  = 5
*Time  = 0.00153788144
*Data  = RCx;RCy;RCz;RCthx;RCthy;RCthz
1,-0.66059203137,0,0,0.00018579641493,0,0
2,0.0750488172576,0,0,-0.00303617580159,0,0
3,-0.110576652209,-0,-0,0.00858593700207,0,0
*Step  = 6
*Time  = 0.00749708079
*Data  = RCx;RCy;RCz;RCthx;RCthy;RCthz
1,-0.669359330393,0,0,0.00018134225584,0,0
2,0.0745596005027,0,0,-0.00305721458908,0,0
3,-0.110083069828,-0,-0,0.00877909021269,0,0
*Step  = 7
*Time  = 0.0372930776
*Data  = RCx;RCy;RCz;RCthx;RCthy;RCthz
1,-0.684463592922,0,0,0.000128794156514,0,0
2,0.0684818666927,0,0,-0.00293932952474,0,0
3,-0.0906503583345,-0,-0,0.00993896045519,0,0
*Step  = 8
*Time  = 0.05
*Data  = RCx;RCy;RCz;RCthx;RCthy;RCthz
1,-0.666197157156,0,0,0.000109705902279,0,0
2,-0.00783574917569,0,0,-0.00285922588638,0,0
3,-0.0776727212494,-0,-0,0.0136418363777,0,0
*Step  = 9
*Time  = 0.1
*Data  = RCx;RCy;RCz;RCthx;RCthy;RCthz
1,-0.590816016752,0,0,1.19053889932e-05,0,0
2,-0.341432986583,0,0,-0.00291056265772,0,0
3,0.0259187596901,0,0,0.0339872849686,0,0
*Step  = 10
*Time  = 0.15
*Data  = RCx;RCy;RCz;RCthx;RCthy;RCthz
1,-0.548657421764,0,0,-4.84826158442e-05,0,0
2,-0.533729502484,0,0,-0.00331483075617,0,0
3,0.0745612492653,0,0,0.0467071065944,0,0
*Step  = 11
*Time  = 0.2
*Data  = RCx;RCy;RCz;RCthx;RCthy;RCthz
1,-0.537876964078,0,0,-0.000104917845202,0,0
2,-0.636992228875,0,0,-0.00372890333469,0,0
3,0.100121958019,0,0,0.0543953971794,0,0
*Step  = 12
*Time  = 0.25
*Data  = RCx;RCy;RCz;RCthx;RCthy;RCthz
1,-0.51258309891,0,0,-0.000159728413221,0,0
2,-0.711329514181,0,0,-0.00401240645132,0,0
3,0.121993438106,0,0,0.0607208987912,0,0
*Step  = 13
*Time  = 0.3
*Data  = RCx;RCy;RCz;RCthx;RCthy;RCthz
1,-0.516503895232,0,0,-0.000212755918152,0,0
2,-0.759448917297,0,0,-0.00420547772576,0,0
3,0.134389350833,0,0,0.0648954918194,0,0
*Step  = 14
*Time  = 0.35
*Data  = RCx;RCy;RCz;RCthx;RCthy;RCthz
1,-0.51286492565,0,0,-0.000266909038828,0,0
2,-0.805928399399,0,0,-0.00441087079733,0,0
3,0.14807611091,0,0,0.0692305568594,0,0
*Step  = 15
*Time  = 0.4
*Data  = RCx;RCy;RCz;RCthx;RCthy;RCthz
1,-0.482632532139,0,0,-0.000327244262403,0,0
2,-0.843230617915,0,0,-0.00462849836904,0,0
3,0.166014233191,0,0,0.0739076563146,0,0
*Step  = 16
*Time  = 0.45
*Data  = RCx;RCy;RCz;RCthx;RCthy;RCthz
1,-0.501288706984,0,0,-0.000380025093188,0,0
2,-0.876484895262,0,0,-0.0047283330043,0,0
3,0.173488581474,0,0,0.0766893019394,0,0
*Step  = 17
*Time  = 0.5
*Data  = RCx;RCy;RCz;RCthx;RCthy;RCthz
1,-0.500289736348,0,0,-0.000434715968183,0,0
2,-0.908333884237,0,0,-0.00486080047943,0,0
3,0.183229329728,0,0,0.0798735023264,0,0
*Step  = 18
*Time  = 0.55
*Data  = RCx;RCy;RCz;RCthx;RCthy;RCthz
1,-0.497402268827,0,0,-0.000490536374253,0,0
2,-0.937119145505,0,0,-0.00498403655155,0,0
3,0.192585284638,0,0,0.0828478394298,0,0
*Step  = 19
*Time  = 0.6
*Data  = RCx;RCy;RCz;RCthx;RCthy;RCthz
1,-0.494350362119,0,0,-0.000545817313814,0,0
2,-0.966637585234,0,0,-0.00510297065727,0,0
3,0.202589006733,0,0,0.085910969075,0,0
*Step  = 20
*Time  = 0.65
*Data  = RCx;RCy;RCz;RCthx;RCthy;RCthz
1,-0.492331314585,0,0,-0.0006008426284,0,0
2,-0.992466112936,0,0,-0.00521518564951,0,0
3,0.211230105919,0,0,0.0886733127368,0,0
*Step  = 21
*Time  = 0.7
*Data  = RCx;RCy;RCz;RCthx;RCthy;RCthz
1,-0.498046284602,0,0,-0.00065808236928,0,0
2,-1.01592096473,0,0,-0.00534763706638,0,0
3,0.219208021899,0,0,0.091190060914,0,0
*Step  = 22
*Time  = 0.75
*Data  = RCx;RCy;RCz;RCthx;RCthy;RCthz
1,-0.489895309862,0,0,-0.00071645902989,0,0
2,-1.03978766581,0,0,-0.00541685519702,0,0
3,0.227371266907,0,0,0.0937469637281,0,0
*Step  = 23
*Time  = 0.8
*Data  = RCx;RCy;RCz;RCthx;RCthy;RCthz
1,-0.487270676842,0,0,-0.000773403823068,0,0
2,-1.06250901125,0,0,-0.00548943958036,0,0
3,0.235011958479,0,0,0.0960967338818,0,0
*Step  = 24
*Time  = 0.85
*Data  = RCx;RCy;RCz;RCthx;RCthy;RCthz
1,-0.485095239168,0,0,-0.000829603254898,0,0
2,-1.08468738025,0,0,-0.0055618696737,0,0
3,0.242613479805,0,0,0.0984080750928,0,0
*Step  = 25
*Time  = 0.9
*Data  = RCx;RCy;RCz;RCthx;RCthy;RCthz
1,-0.450733606413,0,0,-0.000889665644269,0,0
2,-1.09994975901,0,0,-0.00571311698874,0,0
3,0.256963093002,0,0,0.101519181518,0,0
*Step  = 26
*Time  = 0.95
*Data  = RCx;RCy;RCz;RCthx;RCthy;RCthz
1,-0.466217010584,0,0,-0.000942674787234,0,0
2,-1.11607938304,0,0,-0.00568107526516,0,0
3,0.259360325989,0,0,0.102877895242,0,0
*Step  = 27
*Time  = 0.99999
*Data  = RCx;RCy;RCz;RCthx;RCthy;RCthz
1,-0.465171471429,0,0,-0.000995401995346,0,0
2,-1.13796841043,0,0,-0.00572638917208,0,0
3,0.266157424707,0,0,0.105068021635,0,0
*Step  = 1
*Time  = 1
*Data  = RCx;RCy;RCz;RCthx;RCthy;RCthz
1,-0.485530615854,0,0,-0.000997173484536,0,0
2,-1.11667421768,0,0,-0.00572735406211,0,0
3,0.25235095126,0,0,0.103056407193,0,0
*Step  = 2
*Time  = 1.00005
*Data  = RCx;RCy;RCz;RCthx;RCthy;RCthz
1,-0.48975629597,0,0,-0.000998783829998,0,0
2,-1.11703250185,0,0,-0.00572178179364,0,0
3,0.251335586843,0,0,0.102899695765,0,0
*Step  = 3
*Time  = 1.0003
*Data  = RCx;RCy;RCz;RCthx;RCthy;RCthz
1,-0.491510723571,0,0,-0.000999216452411,0,0
2,-1.11770904988,0,0,-0.00572007503997,0,0
3,0.250937544566,0,0,0.102856966993,0,0
*Step  = 4
*Time  = 1.00155
*Data  = RCx;RCy;RCz;RCthx;RCthy;RCthz
1,-0.492868941951,0,0,-0.000987869189996,0,0
2,-1.11833269506,0,0,-0.00572807095653,0,0
3,0.250958864733,0,0,0.102880919266,0,0
*Step  = 5
*Time  = 1.0078
*Data  = RCx;RCy;RCz;RCthx;RCthy;RCthz
1,-0.492091431446,0,0,-0.000729251878092,0,0
2,-1.12088818238,0,0,-0.00571677162362,0,0
3,0.253781641583,0,0,0.103046734445,0,0
*Step  = 6
*Time  = 1.03905
*Data  = RCx;RCy;RCz;RCthx;RCthy;RCthz
1,-0.486698430743,0,0,0.000764957574483,0,0
2,-1.13313139529,0,0,-0.00558517858051,0,0
3,0.268826865725,0,0,0.103661351738,0,0
*Step  = 7
*Time  = 1.05
*Data  = RCx;RCy;RCz;RCthx;RCthy;RCthz
1,-0.49251122749,0,0,-0.00101370290218,0,0
2,-1.12878030979,0,0,-0.00577382972952,0,0
3,0.255499686795,0,0,0.104285267487,0,0
*Step  = 8
*Time  = 1.1
*Data  = RCx;RCy;RCz;RCthx;RCthy;RCthz
1,-0.503128589789,0,0,-0.0276566194158,0,0
2,-1.08418265307,0,0,-0.00837360419024,0,0
3,0.0745989456614,0,0,0.111246937818,0,0
*Step  = 9
*Time  = 1.15
*Data  = RCx;RCy;RCz;RCthx;RCthy;RCthz
1,-0.480129303418,0,0,-0.0542310725611,0,0
2,-0.953934544599,0,0,-0.00983511224624,0,0
3,-0.144583322072,-0,-0,0.113093742654,0,0
*Step  = 10
*Time  = 1.2
*Data  = RCx;RCy;RCz;RCthx;RCthy;RCthz
1,-0.45346589603,0,0,-0.0807408971354,0,0
2,-0.787879181028,0,0,-0.0105329604413,0,0
3,-0.378334032808,-0,-0,0.114244108348,0,0
*Step  = 11
*Time  = 1.25
*Data  = RCx;RCy;RCz;RCthx;RCthy;RCthz
1,-0.403972680851,0,0,-0.107241923098,0,0
2,-0.61026885941,0,0,-0.0110187685464,0,0
3,-0.611516603987,-0,-0,0.11296790657,0,0
*Step  = 12
*Time  = 1.3
*Data  = RCx;RCy;RCz;RCthx;RCthy;RCthz
1,-0.365296160511,0,0,-0.13369995933,0,0
2,-0.408588104426,0,0,-0.011092203603,0,0
3,-0.85505910529,-0,-0,0.109577210168,0,0
*Step  = 13
*Time  = 1.35
*Data  = RCx;RCy;RCz;RCthx;RCthy;RCthz
1,-0.30319154592,0,0,-0.160120718136,0,0
2,-0.192809046952,0,0,-0.010770214102,0,0
3,-1.10100840884,-0,-0,0.104308777479,0,0
*Step  = 14
*Time  = 1.4
*Data  = RCx;RCy;RCz;RCthx;RCthy;RCthz
1,-0.207434794667,0,0,-0.186519242275,0,0
2,0.0402828659662,0,0,-0.00999825640942,0,0
3,-1.3446609958,-0,-0,0.0972474083984,0,0
*Step  = 15
*Time  = 1.45
*Data  = RCx;RCy;RCz;RCthx;RCthy;RCthz
1,-0.0716246261857,0,0,-0.212893114097,0,0
2,0.321949811182,0,0,-0.00839646921076,0,0
3,-1.59262026625,-0,-0,0.0856598247961,0,0
*Step  = 16
*Time  = 1.5
*Data  = RCx;RCy;RCz;RCthx;RCthy;RCthz
1,0.0356378642408,0,0,-0.239284022409,0,0
2,0.525912569735,0,0,-0.00726542045219,0,0
3,-1.84077668107,-0,-0,0.078623400902,0,0
*Step  = 17
*Time  = 1.55
*Data  = RCx;RCy;RCz;RCthx;RCthy;RCthz
1,0.114043424637,0,0,-0.265687999897,0,0
2,0.679043524651,0,0,-0.00676458806297,0,0
3,-2.09141119393,-0,-0,0.074247987296,0,0
*Step  = 18
*Time  = 1.6
*Data  = RCx;RCy;RCz;RCthx;RCthy;RCthz
1,0.199289024382,0,0,-0.292117450658,0,0
2,0.813657601996,0,0,-0.00636255281096,0,0
3,-2.34073721076,-0,-0,0.0712101027633,0,0
*Step  = 19
*Time  = 1.65
*Data  = RCx;RCy;RCz;RCthx;RCthy;RCthz
1,0.292035196837,0,0,-0.318549883737,0,0
2,0.947084199697,0,0,-0.0057937757298,0,0
3,-2.59037393226,-0,-0,0.0667309327275,0,0
*Step  = 20
*Time  = 1.7
*Data  = RCx;RCy;RCz;RCthx;RCthy;RCthz
1,0.35870531422,0,0,-0.344991388882,0,0
2,1.07706344338,0,0,-0.0052110173565,0,0
3,-2.84409524291,-0,-0,0.0621622765197,0,0
*Step  = 21
*Time  = 1.75
*Data  = RCx;RCy;RCz;RCthx;RCthy;RCthz
1,0.438841867976,0,0,-0.371451254681,0,0
2,1.21802495857,0,0,-0.00454540544127,0,0
3,-3.09878139944,-0,-0,0.0572157227881,0,0
*Step  = 22
*Time  = 1.8
*Data  = RCx;RCy;RCz;RCthx;RCthy;RCthz
1,0.480088873718,0,0,-0.397935714346,0,0
2,1.36576890696,0,0,-0.0052692149698,0,0
3,-3.36217027168,-0,-0,0.056437437536,0,0
*Step  = 23
*Time  = 1.85
*Data  = RCx;RCy;RCz;RCthx;RCthy;RCthz
1,0.539007454176,0,0,-0.424427377968,0,0
2,1.52409774016,0,0,-0.00392490650906,0,0
3,-3.62019864579,-0,-0,0.0484149239528,0,0
*Step  = 24
*Time  = 1.9
*Data  = RCx;RCy;RCz;RCthx;RCthy;RCthz
1,0.603477161655,0,0,-0.450939038193,0,0
2,1.69020980253,0,0,-0.00304820633873,0,0
3,-3.88562465037,-0,-0,0.0437865256872,0,0
*Step  = 25
*Time  = 1.95
*Data  = RCx;RCy;RCz;RCthx;RCthy;RCthz
1,0.655639764628,0,0,-0.477467940157,0,0
2,1.86710662388,0,0,-0.00176729155342,0,0
3,-4.15451625378,-0,-0,0.0394351172884,0,0
*Step  = 26
*Time  = 2
*Data  = RCx;RCy;RCz;RCthx;RCthy;RCthz
1,0.701402306825,0,0,-0.504001846239,0,0
2,2.0538424576,0,0,-0.000444446165019,0,0
3,-4.42534696328,-0,-0,0.0369338296223,0,0
*Step  = 27
*Time  = 2.05
*Data  = RCx;RCy;RCz;RCthx;RCthy;RCthz
1,0.70427073475,0,0,-0.503870265906,0,0
2,2.14473332046,0,0,0.00248822469529,0,0
3,-4.41917039748,-0,-0,0.0175051867739,0,0
*Step  = 28
*Time  = 2.1
*Data  = RCx;RCy;RCz;RCthx;RCthy;RCthz
1,0.877371150287,0,0,-0.504678153257,0,0
2,1.78859079382,0,0,-0.00205244690443,0,0
3,-4.47902852731,-0,-0,0.0721949717749,0,0
*Step  = 29
*Time  = 2.15
*Data  = RCx;RCy;RCz;RCthx;RCthy;RCthz
1,0.861604130132,0,0,-0.505524992633,0,0
2,1.35750803983,0,0,-0.00458513601762,0,0
3,-4.48458994476,-0,-0,0.103532077339,0,0
*Step  = 30
*Time  = 2.2
*Data  = RCx;RCy;RCz;RCthx;RCthy;RCthz
1,0.622053534664,0,0,-0.506644507971,0,0
2,0.726983107362,0,0,-0.00857749910541,0,0
3,-4.45327051338,-0,-0,0.142868907206,0,0
*Step  = 31
*Time  = 2.25
*Data  = RCx;RCy;RCz;RCthx;RCthy;RCthz
1,0.457906740981,0,0,-0.507735532038,0,0
2,0.213529318359,0,0,-0.0111510995995,0,0
3,-4.43561333908,-0,-0,0.172736208151,0,0
*Step  = 32
*Time  = 2.3
*Data  = RCx;RCy;RCz;RCthx;RCthy;RCthz
1,0.391313458286,0,0,-0.509030072297,0,0
2,-0.32451825552,0,0,-0.0126275758257,0,0
3,-4.39593835302,-0,-0,0.202464325603,0,0
*Step  = 33
*Time  = 2.35
*Data  = RCx;RCy;RCz;RCthx;RCthy;RCthz
1,0.360961918598,0,0,-0.510142914339,0,0
2,-0.708901566316,0,0,-0.0131582961529,0,0
3,-4.37761369811,-0,-0,0.222294758659,0,0
*Step  = 34
*Time  = 2.4
*Data  = RCx;RCy;RCz;RCthx;RCthy;RCthz
1,0.208242812776,0,0,-0.500452739151,0,0
2,-1.23966589919,0,0,-0.0146378010533,0,0
3,-4.60580247387,-0,-0,0.226543667779,0,0
*Step  = 35
*Time  = 2.45
*Data  = RCx;RCy;RCz;RCthx;RCthy;RCthz
1,0.303745537479,0,0,-0.501586854932,0,0
2,-1.60885463272,0,0,-0.0132980717728,0,0
3,-4.50313976266,-0,-0,0.245621068819,0,0
*Step  = 36
*Time  = 2.5
*Data  = RCx;RCy;RCz;RCthx;RCthy;RCthz
1,0.321235544895,0,0,-0.502620441543,0,0
2,-1.88613012138,0,0,-0.0127144253709,0,0
3,-4.45832607269,-0,-0,0.258932692128,0,0
*Step  = 37
*Time  = 2.54998
*Data  = RCx;RCy;RCz;RCthx;RCthy;RCthz
1,0.337445217466,0,0,-0.503626290129,0,0
2,-2.14096620062,0,0,-0.0120422154652,0,0
3,-4.41912513902,-0,-0,0.270776694641,0,0
