*Step  = 1
*Time  = 1e-05
*Data  = x;y;z
1,-3.44292661658,3.42593070495,-11.2290804209
2,-5.486325235,-5.36454379,-37.858426675
15,-3.97991536732,3.44920762465,-11.1924930015
16,-5.47945058089,-5.35960099277,-37.7943024474
*Step  = 2
*Time  = 6e-05
*Data  = x;y;z
1,-3.38980973676,3.4311761108,-11.1983244744
2,-5.486325235,-5.36454379,-37.858426675
15,-3.97610658506,3.45658480972,-11.1584013416
16,-5.47580030895,-5.35698361948,-37.7602508852
*Step  = 3
*Time  = 0.00011
*Data  = x;y;z
1,-3.3637573856,3.43206933076,-11.1795778739
2,-5.486325235,-5.36454379,-37.858426675
15,-3.97395852361,3.45850998568,-11.1380353442
16,-5.47364391709,-5.35543991114,-37.7401338707
*Step  = 4
*Time  = 0.00036
*Data  = x;y;z
1,-3.34942998437,3.43388638221,-11.1681503119
2,-5.486325235,-5.36454379,-37.858426675
15,-3.97267508824,3.46088467734,-11.1257053799
16,-5.47233339487,-5.35450244955,-37.7279076772
*Step  = 5
*Time  = 0.00161
*Data  = x;y;z
1,-3.33975372286,3.43056368716,-11.1557498883
2,-5.486325235,-5.36454379,-37.858426675
15,-3.97180650778,3.45791300853,-11.1126863683
16,-5.47098761489,-5.35353810502,-37.7153533154
*Step  = 6
*Time  = 0.00786
*Data  = x;y;z
1,-3.34008427627,3.41590756399,-11.1169975432
2,-5.486325235,-5.36454379,-37.858426675
15,-3.97004229005,3.44301884068,-11.0740763483
16,-5.46700238322,-5.3506749325,-37.6781797319
*Step  = 7
*Time  = 0.03911
*Data  = x;y;z
1,-3.3626870904,3.34366566383,-10.9397318984
2,-5.486325235,-5.36454379,-37.858426675
15,-3.96286473775,3.36879394041,-10.8989042829
16,-5.44895526977,-5.33768590041,-37.5098498783
*Step  = 8
*Time  = 0.05
*Data  = x;y;z
1,-3.41304005297,3.32532044462,-10.8846537474
2,-5.486325235,-5.36454379,-37.858426675
15,-3.96099049008,3.34804061946,-10.8474630996
16,-5.44361012134,-5.33382202495,-37.460001684
*Step  = 9
*Time  = 0.1
*Data  = x;y;z
1,-3.53035624508,3.21618591607,-10.6264845693
2,-5.486325235,-5.36454379,-37.858426675
15,-3.9515822257,3.23286966538,-10.5982701794
16,-5.4179227569,-5.31527586482,-37.2204340415
*Step  = 10
*Time  = 0.15
*Data  = x;y;z
1,-3.75450144658,3.10472885131,-10.3954485795
2,-5.486325235,-5.36454379,-37.858426675
15,-3.94503021456,3.11192655772,-10.3829542063
16,-5.39583241583,-5.29931238291,-37.0144180801
*Step  = 11
*Time  = 0.2
*Data  = x;y;z
1,-3.96313533504,2.98277924244,-10.1730311039
2,-5.486325235,-5.36454379,-37.858426675
15,-3.93876370084,2.98190220054,-10.174590806
16,-5.37453891294,-5.28392180613,-36.8158332975
*Step  = 12
*Time  = 0.25
*Data  = x;y;z
1,-4.10643656266,2.84305357406,-9.93003038093
2,-5.486325235,-5.36454379,-37.858426675
15,-3.92970941599,2.8370026913,-9.9410636472
16,-5.35069074874,-5.26667548113,-36.5934254966
*Step  = 13
*Time  = 0.3
*Data  = x;y;z
1,-4.22461527912,2.6794148674,-9.65730874951
2,-5.486325235,-5.36454379,-37.858426675
15,-3.9172778267,2.66941514582,-9.67597377826
16,-5.32364379806,-5.24710503573,-36.3411878782
*Step  = 14
*Time  = 0.35
*Data  = x;y;z
1,-4.3277612327,2.50604984065,-9.37541072067
2,-5.486325235,-5.36454379,-37.858426675
15,-3.90316635831,2.49293691175,-9.40052243591
16,-5.2955773874,-5.22676769527,-36.0794515341
*Step  = 15
*Time  = 0.4
*Data  = x;y;z
1,-4.44354378503,2.32585526136,-9.09490186354
2,-5.486325235,-5.36454379,-37.858426675
15,-3.8888667111,2.3096194829,-9.12684994912
16,-5.26775920615,-5.206565504,-35.820038857
*Step  = 16
*Time  = 0.45
*Data  = x;y;z
1,-4.52521208056,2.14635005597,-8.80661853452
2,-5.486325235,-5.36454379,-37.858426675
15,-3.87273789523,2.12827738619,-8.84338941015
16,-5.23892260831,-5.18555721269,-35.5511462061
*Step  = 17
*Time  = 0.5
*Data  = x;y;z
1,-4.62828590612,1.96003515545,-8.51713549916
2,-5.486325235,-5.36454379,-37.858426675
15,-3.85588670442,1.9398246737,-8.55956808063
16,-5.21006890315,-5.16446676257,-35.2821082279
*Step  = 18
*Time  = 0.55
*Data  = x;y;z
1,-4.74812782045,1.76918579681,-8.22810200422
2,-5.486325235,-5.36454379,-37.858426675
15,-3.83833775692,1.74673597699,-8.27663469005
16,-5.18131408911,-5.14337903423,-35.0140042046
*Step  = 19
*Time  = 0.6
*Data  = x;y;z
1,-4.85615542933,1.5748339533,-7.93814147629
2,-5.486325235,-5.36454379,-37.858426675
15,-3.82004343158,1.55076855101,-7.99190020095
16,-5.15241399015,-5.12210470662,-34.7445573967
*Step  = 20
*Time  = 0.65
*Data  = x;y;z
1,-4.97505835553,1.37109291161,-7.64981281384
2,-5.486325235,-5.36454379,-37.858426675
15,-3.80137973268,1.34548131606,-7.70900460572
16,-5.12378950257,-5.10093972207,-34.4776931482
*Step  = 21
*Time  = 0.7
*Data  = x;y;z
1,-5.0734164638,1.16768829785,-7.36248844388
2,-5.486325235,-5.36454379,-37.858426675
15,-3.78195155568,1.14127302555,-7.42585547486
16,-5.0951457946,-5.07967287357,-34.2106582892
*Step  = 22
*Time  = 0.75
*Data  = x;y;z
1,-5.14687997421,0.958742148963,-7.07347459084
2,-5.486325235,-5.36454379,-37.858426675
15,-3.76164066037,0.932251231288,-7.13967816394
16,-5.0662403989,-5.05810999708,-33.9411931353
*Step  = 23
*Time  = 0.8
*Data  = x;y;z
1,-5.22962059144,0.735041472498,-6.7816273058
2,-5.486325235,-5.36454379,-37.858426675
15,-3.74067865897,0.708494246958,-6.85077789743
16,-5.03716396463,-5.0363039168,-33.670142903
*Step  = 24
*Time  = 0.85
*Data  = x;y;z
1,-5.27246453981,0.498607887584,-6.48744951636
2,-5.486325235,-5.36454379,-37.858426675
15,-3.71879440767,0.472857684783,-6.55760067158
16,-5.00775200304,-5.01411756869,-33.3959744739
*Step  = 25
*Time  = 0.9
*Data  = x;y;z
1,-5.34230554005,0.257275776162,-6.19393687976
2,-5.486325235,-5.36454379,-37.858426675
15,-3.69640005745,0.232001922227,-6.26598749715
16,-4.97854633239,-4.991986177,-33.1237303637
*Step  = 26
*Time  = 0.95
*Data  = x;y;z
1,-5.39137224323,0.0154397897233,-5.90014900951
2,-5.486325235,-5.36454379,-37.858426675
15,-3.67331603613,-0.00891049222565,-5.97311185508
16,-4.94923362141,-4.96964097535,-32.8504905908
*Step  = 27
*Time  = 1
*Data  = x;y;z
1,-5.39955608925,0.0168045561696,-5.89167645116
2,-5.486325235,-5.36454379,-37.858426675
15,-3.67265475581,-0.00767752986037,-5.96582015318
16,-4.94853473236,-4.96877016509,-32.8440368512
*Step  = 28
*Time  = 1.05
*Data  = x;y;z
1,-5.54672355662,-1.55101779314,-5.98233462115
2,-5.486325235,-5.36454379,-37.858426675
15,-3.71021673926,-1.57696258978,-6.04798117318
16,-4.96933054968,-4.98821550009,-33.0371989291
*Step  = 29
*Time  = 1.1
*Data  = x;y;z
1,-5.5378618045,-3.19424213581,-6.34013902079
2,-5.486325235,-5.36454379,-37.858426675
15,-3.77917316074,-3.2190711794,-6.39739720969
16,-5.01986652975,-5.02583711173,-33.5083216018
*Step  = 30
*Time  = 1.15
*Data  = x;y;z
1,-5.48241804886,-4.21294234659,-6.52940688118
2,-5.486325235,-5.36454379,-37.858426675
15,-3.81889563299,-4.23640758308,-6.58229173861
16,-5.04782945382,-5.04717908843,-33.7689029444
*Step  = 31
*Time  = 1.2
*Data  = x;y;z
1,-5.45190630763,-4.98965694026,-6.66949964129
2,-5.486325235,-5.36454379,-37.858426675
15,-3.84876807701,-5.01224783699,-6.7188953477
16,-5.06842102041,-5.06325939136,-33.9607232068
*Step  = 32
*Time  = 1.25
*Data  = x;y;z
1,-5.42699504734,-5.63068220395,-6.7890399282
2,-5.486325235,-5.36454379,-37.858426675
15,-3.87379386647,-5.65254597212,-6.83518457281
16,-5.08556221028,-5.07686468491,-34.1203592529
*Step  = 33
*Time  = 1.3
*Data  = x;y;z
1,-5.39183713281,-6.18498842636,-6.89575032457
2,-5.486325235,-5.36454379,-37.858426675
15,-3.89577424192,-6.20602323464,-6.93886574626
16,-5.10053578362,-5.08896305617,-34.2597673546
*Step  = 34
*Time  = 1.35
*Data  = x;y;z
1,-5.35062918474,-6.68166052478,-6.99280294226
2,-5.486325235,-5.36454379,-37.858426675
15,-3.91550288167,-6.70181475921,-7.03304860369
16,-5.1139416648,-5.09988618001,-34.3845631926
*Step  = 35
*Time  = 1.4
*Data  = x;y;z
1,-5.30930346303,-7.14218611297,-7.08756760332
2,-5.486325235,-5.36454379,-37.858426675
15,-3.93431045035,-7.16147344556,-7.1250919593
16,-5.12674328052,-5.11030443377,-34.5037361873
*Step  = 36
*Time  = 1.45
*Data  = x;y;z
1,-5.28866239973,-7.57811783714,-7.18214312963
2,-5.486325235,-5.36454379,-37.858426675
15,-3.9526816961,-7.59683646687,-7.2175262783
16,-5.13930028403,-5.12047262106,-34.6206415328
*Step  = 37
*Time  = 1.5
*Data  = x;y;z
1,-5.24401888906,-7.99707645799,-7.27124532572
2,-5.486325235,-5.36454379,-37.858426675
15,-3.96977083582,-8.01490896034,-7.30418985953
16,-5.15102528772,-5.13003149972,-34.7297940395
*Step  = 38
*Time  = 1.55
*Data  = x;y;z
1,-5.20435849764,-8.40278798947,-7.35956812237
2,-5.486325235,-5.36454379,-37.858426675
15,-3.98701917796,-8.41980561322,-7.39024782209
16,-5.16255101734,-5.13929169968,-34.8371097813
*Step  = 39
*Time  = 1.6
*Data  = x;y;z
1,-5.18965541579,-8.79382654862,-7.44672520902
2,-5.486325235,-5.36454379,-37.858426675
15,-4.00371967395,-8.81038721046,-7.47570517856
16,-5.17379470978,-5.14830193921,-34.9418068555
*Step  = 40
*Time  = 1.65
*Data  = x;y;z
1,-5.14981085951,-9.17727107666,-7.53479749175
2,-5.486325235,-5.36454379,-37.858426675
15,-4.02024824749,-9.1930277715,-7.56164289898
16,-5.18497445015,-5.15718955514,-35.0459230981
*Step  = 41
*Time  = 1.7
*Data  = x;y;z
1,-5.12061714366,-9.54665112076,-7.62251206174
2,-5.486325235,-5.36454379,-37.858426675
15,-4.03646062176,-9.56175765039,-7.64757310756
16,-5.19592670592,-5.16591533907,-35.1479179253
*Step  = 42
*Time  = 1.75
*Data  = x;y;z
1,-5.07602809978,-9.91156838412,-7.70836829952
2,-5.486325235,-5.36454379,-37.858426675
15,-4.05227636865,-9.925816673,-7.73153198032
16,-5.20652910915,-5.17439377585,-35.2466507953
*Step  = 43
*Time  = 1.8
*Data  = x;y;z
1,-5.04172597713,-10.2666709887,-7.79442863307
2,-5.486325235,-5.36454379,-37.858426675
15,-4.06790271342,-10.280209547,-7.81591929237
16,-5.21705949812,-5.18268974776,-35.3447372225
*Step  = 44
*Time  = 1.85
*Data  = x;y;z
1,-4.99974777412,-10.6289168864,-7.89017007769
2,-5.486325235,-5.36454379,-37.858426675
15,-4.08477887256,-10.6416249944,-7.9098565594
16,-5.22869522618,-5.19153125692,-35.4531785115
*Step  = 45
*Time  = 1.9
*Data  = x;y;z
1,-4.9361894842,-10.9845097584,-7.97853808897
2,-5.486325235,-5.36454379,-37.858426675
15,-4.10048225635,-10.9961054603,-7.99623737215
16,-5.23940549053,-5.19971005316,-35.5529915351
*Step  = 46
*Time  = 1.95
*Data  = x;y;z
1,-4.85379079945,-11.363921224,-8.08194968982
2,-5.486325235,-5.36454379,-37.858426675
15,-4.11809522115,-11.3741181183,-8.09741519079
16,-5.25170844166,-5.20896731371,-35.6676743728
*Step  = 47
*Time  = 1.99999
*Data  = x;y;z
1,-4.919901987,-11.1173368841,-7.97517852122
2,-5.486325235,-5.36454379,-37.858426675
15,-4.10202850625,-11.1286676457,-7.99206072857
16,-5.2382109757,-5.2004790982,-35.5415552003
