*Step  = 1
*Time  = 1e-05
*Data  = x;y;z
1,-3.46257698766,3.45488967436,-11.2285263511
2,-5.486325235,-5.36454379,-37.858426675
15,-3.97868677343,3.47726157669,-11.1933820198
16,-5.4792967687,-5.35949045654,-37.7928677201
*Step  = 2
*Time  = 1.81668008e-05
*Data  = x;y;z
1,-3.41091219458,3.44555867422,-11.1960252952
2,-5.486325235,-5.36454379,-37.858426675
15,-3.97533433981,3.47001987751,-11.1576594641
16,-5.47559051196,-5.35683383353,-37.7582935026
*Step  = 3
*Time  = 5.90008051e-05
*Data  = x;y;z
1,-3.38290001497,3.44249684292,-11.1773696157
2,-5.486325235,-5.36454379,-37.858426675
15,-3.97333828788,3.46808205748,-11.1372631073
16,-5.47345988964,-5.35530918783,-37.7384166165
*Step  = 4
*Time  = 0.000263170826
*Data  = x;y;z
1,-3.36690867301,3.43915061598,-11.1670888278
2,-5.486325235,-5.36454379,-37.858426675
15,-3.97236661417,3.46538197811,-11.1259468203
16,-5.47230133085,-5.35448098698,-37.7276078788
*Step  = 5
*Time  = 0.00128402093
*Data  = x;y;z
1,-3.36113366736,3.4362090046,-11.1579131244
2,-5.486325235,-5.36454379,-37.858426675
15,-3.97169851887,3.46264551193,-11.1164105438
16,-5.4713232063,-5.35378082447,-37.718482929
*Step  = 6
*Time  = 0.00638827146
*Data  = x;y;z
1,-3.35785665908,3.42642632626,-11.1350999804
2,-5.486325235,-5.36454379,-37.858426675
15,-3.97059467367,3.45288043179,-11.093454751
16,-5.46896230755,-5.35208587082,-37.6964602968
*Step  = 7
*Time  = 0.0319095241
*Data  = x;y;z
1,-3.36698715041,3.382105207,-11.0375623996
2,-5.486325235,-5.36454379,-37.858426675
15,-3.96670752978,3.40762580056,-10.9968248269
16,-5.45902973219,-5.34493895395,-37.603815821
*Step  = 8
*Time  = 0.05
*Data  = x;y;z
1,-3.39844947128,3.3537079894,-10.9717006703
2,-5.486325235,-5.36454379,-37.858426675
15,-3.96428926541,3.37753930395,-10.9333148379
16,-5.45248424786,-5.34021632379,-37.5427695734
*Step  = 9
*Time  = 0.1
*Data  = x;y;z
1,-3.46561797616,3.2645702322,-10.7840565394
2,-5.486325235,-5.36454379,-37.858426675
15,-3.95741902722,3.28465594669,-10.7509829793
16,-5.43372828678,-5.32666341024,-37.3678510663
*Step  = 10
*Time  = 0.15
*Data  = x;y;z
1,-3.56504448926,3.19018906154,-10.624697617
2,-5.486325235,-5.36454379,-37.858426675
15,-3.95232665051,3.20554272915,-10.5988901345
16,-5.41806572706,-5.3152899182,-37.2218040118
*Step  = 11
*Time  = 0.2
*Data  = x;y;z
1,-3.71888630236,3.10292918944,-10.4737814831
2,-5.486325235,-5.36454379,-37.858426675
15,-3.94859686534,3.11176388428,-10.4586988095
16,-5.4037502016,-5.30486655757,-37.0883269953
*Step  = 12
*Time  = 0.25
*Data  = x;y;z
1,-3.87420181762,2.98987981221,-10.3193290532
2,-5.486325235,-5.36454379,-37.858426675
15,-3.9454648221,2.99253284381,-10.314732267
16,-5.38922979061,-5.29426790633,-36.9529474307
*Step  = 13
*Time  = 0.3
*Data  = x;y;z
1,-4.01976921304,2.85600676812,-10.1716227153
2,-5.486325235,-5.36454379,-37.858426675
15,-3.942905505,2.8532332233,-10.1764905662
16,-5.375485339,-5.28419535642,-36.8248150765
*Step  = 14
*Time  = 0.35
*Data  = x;y;z
1,-4.12053091151,2.71561719645,-10.0013990143
2,-5.486325235,-5.36454379,-37.858426675
15,-3.9379509316,2.70924601962,-10.0127690142
16,-5.35908396384,-5.27214293527,-36.6719220572
*Step  = 15
*Time  = 0.4
*Data  = x;y;z
1,-4.20010600126,2.58536664402,-9.82783872041
2,-5.486325235,-5.36454379,-37.858426675
15,-3.93102774988,2.5762731441,-9.84430139672
16,-5.34207122465,-5.25959441546,-36.5133429106
*Step  = 16
*Time  = 0.45
*Data  = x;y;z
1,-4.24587598338,2.47836447629,-9.64703177316
2,-5.486325235,-5.36454379,-37.858426675
15,-3.92209188781,2.4677732926,-9.66656933691
16,-5.32389925736,-5.2461322631,-36.3439732265
*Step  = 17
*Time  = 0.5
*Data  = x;y;z
1,-4.3103774792,2.35569335135,-9.45843683367
2,-5.486325235,-5.36454379,-37.858426675
15,-3.91295311678,2.34314120265,-9.48205060198
16,-5.30512864011,-5.2321474283,-36.1690430953
*Step  = 18
*Time  = 0.55
*Data  = x;y;z
1,-4.37950825768,2.23743436386,-9.27716104035
2,-5.486325235,-5.36454379,-37.858426675
15,-3.9037644859,2.22290790409,-9.30502282128
16,-5.28712657484,-5.21863416221,-36.0013005554
*Step  = 19
*Time  = 0.6
*Data  = x;y;z
1,-4.41502068992,2.13107642094,-9.09355449196
2,-5.486325235,-5.36454379,-37.858426675
15,-3.8934427529,2.11568966167,-9.12374292212
16,-5.26858555467,-5.20462114158,-35.8285566847
*Step  = 20
*Time  = 0.65
*Data  = x;y;z
1,-4.47243004415,2.01452259686,-8.8972758775
2,-5.486325235,-5.36454379,-37.858426675
15,-3.88222415704,1.99774696167,-8.9309987285
16,-5.24890937006,-5.18964927596,-35.6452552742
*Step  = 21
*Time  = 0.7
*Data  = x;y;z
1,-4.53069503669,1.90015013103,-8.70956309732
2,-5.486325235,-5.36454379,-37.858426675
15,-3.87117018128,1.8820670083,-8.74675777081
16,-5.23012014351,-5.17520873781,-35.4702468912
*Step  = 22
*Time  = 0.75
*Data  = x;y;z
1,-4.59190022267,1.7706106633,-8.51124991
2,-5.486325235,-5.36454379,-37.858426675
15,-3.8593677364,1.75129108099,-8.55190104031
16,-5.21031276709,-5.15987254505,-35.285771606
*Step  = 23
*Time  = 0.8
*Data  = x;y;z
1,-4.65435488486,1.64635678842,-8.32189233063
2,-5.486325235,-5.36454379,-37.858426675
15,-3.8477348632,1.62586752882,-8.36599636925
16,-5.19143266001,-5.14508461593,-35.1099638896
*Step  = 24
*Time  = 0.85
*Data  = x;y;z
1,-4.73009606371,1.51870252301,-8.13647397299
2,-5.486325235,-5.36454379,-37.858426675
15,-3.83630460889,1.49685243714,-8.18454209923
16,-5.17305670938,-5.13054690689,-34.9388711999
*Step  = 25
*Time  = 0.9
*Data  = x;y;z
1,-4.78990770364,1.38791803122,-7.93987551423
2,-5.486325235,-5.36454379,-37.858426675
15,-3.82359410357,1.3652530902,-7.99100433576
16,-5.15343348785,-5.11489272723,-34.7561783404
*Step  = 26
*Time  = 0.95
*Data  = x;y;z
1,-4.85261818143,1.25631090092,-7.7519092637
2,-5.486325235,-5.36454379,-37.858426675
15,-3.81126555135,1.23284613792,-7.80611496872
16,-5.13475428535,-5.09979033082,-34.5823046532
*Step  = 27
*Time  = 1
*Data  = x;y;z
1,-4.83480545345,1.26911895638,-7.75173167602
2,-5.486325235,-5.36454379,-37.858426675
15,-3.81090208401,1.24602713996,-7.8055110968
16,-5.13459849955,-5.09881638321,-34.5810727558
*Step  = 28
*Time  = 1.03
*Data  = x;y;z
1,-4.54082090492,2.19359142599,-8.11138102002
2,-5.486325235,-5.36454379,-37.858426675
15,-3.8213338922,2.1773342185,-8.15765736923
16,-5.16537395873,-5.12047553076,-34.8681519977
*Step  = 29
*Time  = 1.06
*Data  = x;y;z
1,-4.375276595,2.55376831715,-8.20646803208
2,-5.486325235,-5.36454379,-37.858426675
15,-3.83001901901,2.54142603447,-8.24387679333
16,-5.17180702132,-5.12420235197,-34.9283163334
*Step  = 30
*Time  = 1.09
*Data  = x;y;z
1,-4.29747906822,2.7505399666,-8.24350714562
2,-5.486325235,-5.36454379,-37.858426675
15,-3.82848506797,2.73990416287,-8.27615189962
16,-5.17334534026,-5.12420028788,-34.942933064
*Step  = 31
*Time  = 1.12
*Data  = x;y;z
1,-4.23412975835,2.91147607626,-8.27294029654
2,-5.486325235,-5.36454379,-37.858426675
15,-3.82690819538,2.90222394905,-8.30148979096
16,-5.17437182079,-5.12382971974,-34.9527811331
*Step  = 32
*Time  = 1.15
*Data  = x;y;z
1,-4.18907865598,3.0540753947,-8.29943891272
2,-5.486325235,-5.36454379,-37.858426675
15,-3.82548335742,3.04579885167,-8.32504846266
16,-5.17532937876,-5.12340394139,-34.9619915265
*Step  = 33
*Time  = 1.18
*Data  = x;y;z
1,-4.14795637452,3.17476067347,-8.3219037339
2,-5.486325235,-5.36454379,-37.858426675
15,-3.82414172692,3.16737582043,-8.34477235368
16,-5.17604689537,-5.12280812755,-34.9689649368
*Step  = 34
*Time  = 1.21
*Data  = x;y;z
1,-4.11571560116,3.28207755078,-8.3418507337
2,-5.486325235,-5.36454379,-37.858426675
15,-3.82288940643,3.27538702921,-8.36256826786
16,-5.17666510165,-5.12215506182,-34.9750108733
*Step  = 35
*Time  = 1.24
*Data  = x;y;z
1,-4.09079849245,3.37361345014,-8.35902252917
2,-5.486325235,-5.36454379,-37.858426675
15,-3.82178011117,3.36745582855,-8.37807162961
16,-5.17717565582,-5.12145530413,-34.9800467032
*Step  = 36
*Time  = 1.27
*Data  = x;y;z
1,-4.06842255057,3.46846191491,-8.38023251567
2,-5.486325235,-5.36454379,-37.858426675
15,-3.82095089287,3.4627871701,-8.39774917044
16,-5.17806535677,-5.12104581444,-34.9886175762
*Step  = 37
*Time  = 1.3
*Data  = x;y;z
1,-4.05247007548,3.55625842072,-8.40023007825
2,-5.486325235,-5.36454379,-37.858426675
15,-3.82019795969,3.55092252582,-8.4166543723
16,-5.17892245409,-5.12061473727,-34.9968857069
*Step  = 38
*Time  = 1.33
*Data  = x;y;z
1,-4.05613296006,3.64017344012,-8.41956456926
2,-5.486325235,-5.36454379,-37.858426675
15,-3.81956190014,3.63472878695,-8.43626215994
16,-5.17987045625,-5.12024799918,-35.0060052079
*Step  = 39
*Time  = 1.36
*Data  = x;y;z
1,-4.04022255568,3.71339854958,-8.43572904001
2,-5.486325235,-5.36454379,-37.858426675
15,-3.81876471464,3.70829267626,-8.4513447452
16,-5.18044830834,-5.11962560461,-35.0116692071
*Step  = 40
*Time  = 1.39
*Data  = x;y;z
1,-4.01336969595,3.7779320469,-8.44908672834
2,-5.486325235,-5.36454379,-37.858426675
15,-3.81787379662,3.77341705507,-8.46287291046
16,-5.18074774145,-5.11882374053,-35.0147301833
*Step  = 41
*Time  = 1.42
*Data  = x;y;z
1,-3.99700057423,3.84813168002,-8.46667062283
2,-5.486325235,-5.36454379,-37.858426675
15,-3.81726480189,3.84397345326,-8.47932714792
16,-5.18148085525,-5.11835322421,-35.0218353973
*Step  = 42
*Time  = 1.45
*Data  = x;y;z
1,-3.98428054562,3.91567674635,-8.48367832844
2,-5.486325235,-5.36454379,-37.858426675
15,-3.81666813374,3.91179223963,-8.49546144026
16,-5.18219391084,-5.11786597656,-35.0287560384
*Step  = 43
*Time  = 1.48
*Data  = x;y;z
1,-3.97108767642,3.9791437448,-8.49943694508
2,-5.486325235,-5.36454379,-37.858426675
15,-3.8160584421,3.97554461798,-8.51032114689
16,-5.18280901254,-5.11730342886,-35.0347648081
*Step  = 44
*Time  = 1.51
*Data  = x;y;z
1,-3.9711527852,4.03940599524,-8.51463477521
2,-5.486325235,-5.36454379,-37.858426675
15,-3.815539283,4.03578707234,-8.52553931999
16,-5.18348423262,-5.11679910943,-35.0413330358
*Step  = 45
*Time  = 1.54
*Data  = x;y;z
1,-3.95305928183,4.09211932691,-8.52686962155
2,-5.486325235,-5.36454379,-37.858426675
15,-3.81484735031,4.08889977258,-8.53655002099
16,-5.1838082044,-5.11605020818,-35.0446210362
*Step  = 46
*Time  = 1.57
*Data  = x;y;z
1,-3.94164600372,4.14929100977,-8.54286833964
2,-5.486325235,-5.36454379,-37.858426675
15,-3.81440608508,4.14632207529,-8.55176487253
16,-5.18450609685,-5.11559759436,-35.0513936169
*Step  = 47
*Time  = 1.6
*Data  = x;y;z
1,-3.92902167259,4.20506949628,-8.55785768218
2,-5.486325235,-5.36454379,-37.858426675
15,-3.81389982566,4.20237879418,-8.56589665972
16,-5.18509898105,-5.1150541854,-35.0571911462
*Step  = 48
*Time  = 1.63
*Data  = x;y;z
1,-3.91488758139,4.25864829551,-8.57209955216
2,-5.486325235,-5.36454379,-37.858426675
15,-3.81338993019,4.25627214723,-8.5791811392
16,-5.18563067434,-5.11449065969,-35.0624116325
*Step  = 49
*Time  = 1.66
*Data  = x;y;z
1,-3.90620330779,4.30940799711,-8.58552125056
2,-5.486325235,-5.36454379,-37.858426675
15,-3.81286160546,4.30721919199,-8.59202377272
16,-5.18612928595,-5.11389541032,-35.0673286142
*Step  = 50
*Time  = 1.69
*Data  = x;y;z
1,-3.89847941006,4.35502404844,-8.59739781005
2,-5.486325235,-5.36454379,-37.858426675
15,-3.81233048945,4.35300065612,-8.60339148522
16,-5.18652989487,-5.11323961998,-35.0713293459
*Step  = 51
*Time  = 1.72
*Data  = x;y;z
1,-3.89162361709,4.40495360912,-8.61261924019
2,-5.486325235,-5.36454379,-37.858426675
15,-3.81203012815,4.40308124758,-8.61814826708
16,-5.18724024132,-5.11286847615,-35.0782044513
*Step  = 52
*Time  = 1.75
*Data  = x;y;z
1,-3.88339696813,4.45387112071,-8.62655756879
2,-5.486325235,-5.36454379,-37.858426675
15,-3.81155020723,4.45217821911,-8.6315375104
16,-5.1877873211,-5.11231800954,-35.0835763664
*Step  = 53
*Time  = 1.78
*Data  = x;y;z
1,-3.87563801473,4.50235567101,-8.64042245945
2,-5.486325235,-5.36454379,-37.858426675
15,-3.81109982651,4.50083252589,-8.64488810297
16,-5.1883389295,-5.11178914375,-35.0889858077
*Step  = 54
*Time  = 1.81
*Data  = x;y;z
1,-3.86674158266,4.54700259495,-8.65304649943
2,-5.486325235,-5.36454379,-37.858426675
15,-3.81064663411,4.54567662587,-8.65692322132
16,-5.18879965621,-5.11120449485,-35.0935445419
*Step  = 55
*Time  = 1.84
*Data  = x;y;z
1,-3.85499449182,4.58771803852,-8.66433784055
2,-5.486325235,-5.36454379,-37.858426675
15,-3.81019903408,4.58665758549,-8.66743198865
16,-5.18916072736,-5.11058807828,-35.0971613437
*Step  = 56
*Time  = 1.87
*Data  = x;y;z
1,-3.85030757001,4.63295413877,-8.67855369216
2,-5.486325235,-5.36454379,-37.858426675
15,-3.80991461868,4.63199643066,-8.68133975736
16,-5.18980641989,-5.11018526729,-35.1034349131
*Step  = 57
*Time  = 1.9
*Data  = x;y;z
1,-3.85110180268,4.6775705296,-8.69205502452
2,-5.486325235,-5.36454379,-37.858426675
15,-3.80953038881,4.67658331344,-8.69491552746
16,-5.19039748879,-5.10970889103,-35.1092129758
*Step  = 58
*Time  = 1.93
*Data  = x;y;z
1,-3.83838904499,4.72022616288,-8.70442275498
2,-5.486325235,-5.36454379,-37.858426675
15,-3.8090660478,4.71952874079,-8.70643734405
16,-5.19080175388,-5.1090977448,-35.1132451117
*Step  = 59
*Time  = 1.96
*Data  = x;y;z
1,-3.83216945431,4.7409461591,-8.70644976383
2,-5.486325235,-5.36454379,-37.858426675
15,-3.80831605248,4.74037805314,-8.7080904218
16,-5.19048042752,-5.10797235891,-35.1105013116
*Step  = 60
*Time  = 1.99
*Data  = x;y;z
1,-3.83373613129,4.72576678332,-8.69419744899
2,-5.486325235,-5.36454379,-37.858426675
15,-3.80743832337,4.72513987222,-8.69601349661
16,-5.18924369001,-5.10631098243,-35.0991709226
*Step  = 61
*Time  = 1.99999
*Data  = x;y;z
1,-3.83562924368,4.72786276939,-8.69731336195
2,-5.486325235,-5.36454379,-37.858426675
15,-3.80745185209,4.72719039282,-8.69925928328
16,-5.18937616484,-5.10581521507,-35.1005766864
*Step  = 1
*Time  = 2
*Data  = x;y;z
1,-3.8352117359,4.73230195838,-8.70173891862
2,-5.486325235,-5.36454379,-37.858426675
15,-3.80749878061,4.73163999671,-8.70365253879
16,-5.18959442988,-5.10537615976,-35.1027854777
*Step  = 2
*Time  = 2.00005
*Data  = x;y;z
1,-3.83474598437,4.73643488055,-8.70581845399
2,-5.486325235,-5.36454379,-37.858426675
15,-3.80751225694,4.73578366983,-8.7076989916
16,-5.18977909992,-5.10490292352,-35.1046843139
*Step  = 3
*Time  = 2.0003
*Data  = x;y;z
1,-3.83304604671,4.74068056633,-8.71050032187
2,-5.486325235,-5.36454379,-37.858426675
15,-3.80754347455,4.74006997003,-8.71226154501
16,-5.19001762178,-5.10447640245,-35.1070856704
*Step  = 4
*Time  = 2.00155
*Data  = x;y;z
1,-3.83144593938,4.74683102233,-8.71882171405
2,-5.486325235,-5.36454379,-37.858426675
15,-3.80770166666,4.74626119315,-8.72046166384
16,-5.19061371267,-5.10435513462,-35.1128217276
*Step  = 5
*Time  = 2.0078
*Data  = x;y;z
1,-3.8276991803,4.76296535212,-8.74556470391
2,-5.486325235,-5.36454379,-37.858426675
15,-3.8085025388,4.76250114232,-8.74689091051
16,-5.19299929842,-5.10576393702,-35.1352433227
*Step  = 6
*Time  = 2.03905
*Data  = x;y;z
1,-3.81573521867,4.82874563122,-8.86425081387
2,-5.486325235,-5.36454379,-37.858426675
15,-3.81245222743,4.82866356055,-8.86447773261
16,-5.20434536901,-5.11492697322,-35.2411768454
*Step  = 7
*Time  = 2.05
*Data  = x;y;z
1,-3.80341015859,4.85097837698,-8.9088770425
2,-5.486325235,-5.36454379,-37.858426675
15,-3.81399246234,4.8512459986,-8.90814589209
16,-5.20854433443,-5.11824199217,-35.2803957132
*Step  = 8
*Time  = 2.1
*Data  = x;y;z
1,-3.77556068188,4.95137064849,-9.10444796441
2,-5.486325235,-5.36454379,-37.858426675
15,-3.8204761984,4.95256712912,-9.10134062155
16,-5.22751155252,-5.13447379314,-35.4571602811
*Step  = 9
*Time  = 2.15
*Data  = x;y;z
1,-3.75137193642,5.04197679258,-9.29128410514
2,-5.486325235,-5.36454379,-37.858426675
15,-3.82656453801,5.04407478264,-9.28609668562
16,-5.24577536992,-5.15047409062,-35.6271900779
*Step  = 10
*Time  = 2.2
*Data  = x;y;z
1,-3.72188191554,5.12762202632,-9.47679965239
2,-5.486325235,-5.36454379,-37.858426675
15,-3.83253999366,5.13084820946,-9.46918021862
16,-5.26400024269,-5.16662748463,-35.7967215729
*Step  = 11
*Time  = 2.25
*Data  = x;y;z
1,-3.67486949,5.21241830098,-9.67034073135
2,-5.486325235,-5.36454379,-37.858426675
15,-3.83849491489,5.21740415204,-9.65909169867
16,-5.28298582164,-5.1835289436,-35.9732286042
*Step  = 12
*Time  = 2.3
*Data  = x;y;z
1,-3.64756331899,5.28936300064,-9.85276124955
2,-5.486325235,-5.36454379,-37.858426675
15,-3.84400798076,5.29559194353,-9.83930872098
16,-5.30108532653,-5.19974755236,-36.1413839557
*Step  = 13
*Time  = 2.35
*Data  = x;y;z
1,-3.60575746137,5.36594115948,-10.0428388128
2,-5.486325235,-5.36454379,-37.858426675
15,-3.8495436019,5.37398928436,-10.0261736632
16,-5.31990116633,-5.21655541112,-36.3161312796
*Step  = 14
*Time  = 2.4
*Data  = x;y;z
1,-3.57038689714,5.43585250951,-10.2210460887
2,-5.486325235,-5.36454379,-37.858426675
15,-3.85449177288,5.44558095927,-10.2016843149
16,-5.33762208916,-5.23241962112,-36.4806234855
*Step  = 15
*Time  = 2.45
*Data  = x;y;z
1,-3.53815851552,5.50115331799,-10.3955294348
2,-5.486325235,-5.36454379,-37.858426675
15,-3.85911336251,5.5125323262,-10.3737448695
16,-5.35514421684,-5.24822229459,-36.643152299
*Step  = 16
*Time  = 2.5
*Data  = x;y;z
1,-3.48677288109,5.55823954025,-10.5729166132
2,-5.486325235,-5.36454379,-37.858426675
15,-3.86361410724,5.57208089592,-10.5474438821
16,-5.37295859713,-5.26423650231,-36.8083410654
*Step  = 17
*Time  = 2.55
*Data  = x;y;z
1,-3.44805246308,5.59648518324,-10.7288957896
2,-5.486325235,-5.36454379,-37.858426675
15,-3.86737194209,5.61237023903,-10.7008674416
16,-5.38922935051,-5.27920297888,-36.9590116067
*Step  = 18
*Time  = 2.6
*Data  = x;y;z
1,-3.41608336353,5.62408276606,-10.8752040221
2,-5.486325235,-5.36454379,-37.858426675
15,-3.87086578847,5.6418157842,-10.845238544
16,-5.40495283636,-5.29371188458,-37.1045229951
*Step  = 19
*Time  = 2.65
*Data  = x;y;z
1,-3.3834436162,5.64367051858,-11.0200407454
2,-5.486325235,-5.36454379,-37.858426675
15,-3.87443145956,5.66336894661,-10.9881920185
16,-5.42095888537,-5.30838272223,-37.2526153012
*Step  = 20
*Time  = 2.7
*Data  = x;y;z
1,-3.36690980486,5.65353420148,-11.1493748612
2,-5.486325235,-5.36454379,-37.858426675
15,-3.87774483174,5.67455431077,-11.1168442995
16,-5.43573313061,-5.3217188705,-37.3893360132
*Step  = 21
*Time  = 2.75
*Data  = x;y;z
1,-3.34544861659,5.65857702073,-11.2811672912
2,-5.486325235,-5.36454379,-37.858426675
15,-3.88090822936,5.68117858499,-11.2479023395
16,-5.45086723253,-5.33500933473,-37.5294949015
*Step  = 22
*Time  = 2.8
*Data  = x;y;z
1,-3.32096639076,5.65567828554,-11.3975672781
2,-5.486325235,-5.36454379,-37.858426675
15,-3.8834438669,5.67997064559,-11.3635719349
16,-5.46437511366,-5.34654383997,-37.6546990894
*Step  = 23
*Time  = 2.85
*Data  = x;y;z
1,-3.31824365856,5.64960446683,-11.5083829636
2,-5.486325235,-5.36454379,-37.858426675
15,-3.88540532288,5.67464451069,-11.4753455716
16,-5.4772602925,-5.35721423382,-37.7742524435
*Step  = 24
*Time  = 2.9
*Data  = x;y;z
1,-3.31327662688,5.63757925848,-11.6188410612
2,-5.486325235,-5.36454379,-37.858426675
15,-3.88756362089,5.66349296781,-11.5866842301
16,-5.49027236634,-5.36768621702,-37.8950982575
*Step  = 25
*Time  = 2.95
*Data  = x;y;z
1,-3.30404702825,5.61909479381,-11.7162841786
2,-5.486325235,-5.36454379,-37.858426675
15,-3.89048026057,5.64605848451,-11.6844482584
16,-5.50239709744,-5.37708987843,-38.0078563526
*Step  = 26
*Time  = 3
*Data  = x;y;z
1,-3.27030571252,5.60055379671,-11.6996687158
2,-5.486325235,-5.36454379,-37.858426675
15,-3.89019008995,5.62902323263,-11.6661121406
16,-5.50129934898,-5.37614668686,-37.9976927666
*Step  = 27
*Time  = 3.05
*Data  = x;y;z
1,-3.23924539439,5.59826736048,-11.5201291923
2,-5.486325235,-5.36454379,-37.858426675
15,-3.88592348889,5.62702317574,-11.4834217736
16,-5.48109632773,-5.3604347331,-37.809817938
*Step  = 28
*Time  = 3.1
*Data  = x;y;z
1,-3.28713529508,5.60549834932,-11.3513915838
2,-5.486325235,-5.36454379,-37.858426675
15,-3.88436689237,5.63115330813,-11.3153598442
16,-5.46290533087,-5.34594513204,-37.6407727828
*Step  = 29
*Time  = 3.15
*Data  = x;y;z
1,-3.35389585074,5.59648482736,-11.1654824753
2,-5.486325235,-5.36454379,-37.858426675
15,-3.88262760022,5.61832802924,-11.1319816862
16,-5.44301640184,-5.32973268218,-37.4560571637
*Step  = 30
*Time  = 3.2
*Data  = x;y;z
1,-3.41880522803,5.57528065762,-10.9747299794
2,-5.486325235,-5.36454379,-37.858426675
15,-3.87904459402,5.59356421171,-10.9447372496
16,-5.42198845164,-5.31186489776,-37.2610091072
*Step  = 31
*Time  = 3.25
*Data  = x;y;z
1,-3.47846495969,5.54840915142,-10.7693261543
2,-5.486325235,-5.36454379,-37.858426675
15,-3.87399756346,5.56347035307,-10.7430252549
16,-5.39898071427,-5.29137439636,-37.0478881726
*Step  = 32
*Time  = 3.3
*Data  = x;y;z
1,-3.52664650189,5.51328575617,-10.5615198114
2,-5.486325235,-5.36454379,-37.858426675
15,-3.86828523708,5.5257455299,-10.5384300586
16,-5.37573868984,-5.26977636043,-36.8328252782
*Step  = 33
*Time  = 3.35
*Data  = x;y;z
1,-3.56280478993,5.45324971159,-10.3278184779
2,-5.486325235,-5.36454379,-37.858426675
15,-3.86153463373,5.46362648754,-10.3074098382
16,-5.35035611165,-5.24584028233,-36.5979174422
*Step  = 34
*Time  = 3.4
*Data  = x;y;z
1,-3.60292277968,5.36289434854,-10.0778418589
2,-5.486325235,-5.36454379,-37.858426675
15,-3.85379524467,5.37117079464,-10.0606826989
16,-5.32429779309,-5.22147827019,-36.3565011996
*Step  = 35
*Time  = 3.45
*Data  = x;y;z
1,-3.65620220437,5.25144618332,-9.80542977926
2,-5.486325235,-5.36454379,-37.858426675
15,-3.84518515088,5.25732971923,-9.7925165444
16,-5.29667120125,-5.19592328462,-36.1002574081
*Step  = 36
*Time  = 3.5
*Data  = x;y;z
1,-3.68088269186,5.12793927328,-9.5253067763
2,-5.486325235,-5.36454379,-37.858426675
15,-3.83590713547,5.13247404051,-9.51469564585
16,-5.26843292832,-5.16989615756,-35.8380999368
*Step  = 37
*Time  = 3.55
*Data  = x;y;z
1,-3.71102342486,5.00163391648,-9.25182205473
2,-5.486325235,-5.36454379,-37.858426675
15,-3.82651665141,5.00480205032,-9.24389449509
16,-5.24106451996,-5.14450914147,-35.5838676471
*Step  = 38
*Time  = 3.6
*Data  = x;y;z
1,-3.7530752181,4.86765565501,-8.9682761851
2,-5.486325235,-5.36454379,-37.858426675
15,-3.81640838037,4.86927300989,-8.96391903896
16,-5.21285498311,-5.11814240942,-35.3216642204
*Step  = 39
*Time  = 3.65
*Data  = x;y;z
1,-3.8463731428,4.57344717785,-8.39031323571
2,-5.486325235,-5.36454379,-37.858426675
15,-3.80232611978,4.5724914027,-8.39334359701
16,-5.17245369401,-5.13657042993,-34.9314103079
*Step  = 40
*Time  = 3.7
*Data  = x;y;z
1,-3.89083566608,4.42277893601,-8.1061650061
2,-5.486325235,-5.36454379,-37.858426675
15,-3.79013849784,4.42078165976,-8.11309154139
16,-5.14338864332,-5.1132338995,-34.660811679
*Step  = 41
*Time  = 3.75
*Data  = x;y;z
1,-3.9401549874,4.27120350171,-7.83273604645
2,-5.486325235,-5.36454379,-37.858426675
15,-3.77755845141,4.26826654895,-7.84387137947
16,-5.11534602022,-5.08964650094,-34.3998706248
*Step  = 42
*Time  = 3.8
*Data  = x;y;z
1,-3.98619166321,4.10849316343,-7.54804202133
2,-5.486325235,-5.36454379,-37.858426675
15,-3.76365152549,4.10487976681,-7.56318248391
16,-5.08619298811,-5.06459639693,-34.1285807057
*Step  = 43
*Time  = 3.85
*Data  = x;y;z
1,-4.02124337817,3.94221355061,-7.27023478438
2,-5.486325235,-5.36454379,-37.858426675
15,-3.74910689703,3.938268055,-7.28859633411
16,-5.05773474562,-5.03934696652,-33.8637695806
*Step  = 44
*Time  = 3.9
*Data  = x;y;z
1,-4.05608111116,3.76338719186,-6.98063155646
2,-5.486325235,-5.36454379,-37.858426675
15,-3.73301312053,3.7592793685,-7.00217186184
16,-5.02815150927,-5.01249923196,-33.5884340477
*Step  = 45
*Time  = 3.95
*Data  = x;y;z
1,-4.084579864,3.57623653859,-6.68889081093
2,-5.486325235,-5.36454379,-37.858426675
15,-3.71579290161,3.57219579807,-6.71311789319
16,-4.99842496168,-4.98488232075,-33.3116910103
*Step  = 46
*Time  = 4
*Data  = x;y;z
1,-4.08199157889,3.58441975873,-6.68367828939
2,-5.486325235,-5.36454379,-37.858426675
15,-3.71419613145,3.58034966685,-6.70796911505
16,-4.99716824256,-4.97889613978,-33.3007091146
*Step  = 47
*Time  = 4.05
*Data  = x;y;z
1,-4.0055669568,3.4562133351,-6.65156376376
2,-5.486325235,-5.36454379,-37.858426675
15,-3.71271863367,3.45298306023,-6.67100653719
16,-4.99476402527,-4.97863066325,-33.2780568781
*Step  = 48
*Time  = 4.1
*Data  = x;y;z
1,-3.96087168728,3.3377862643,-6.63217580477
2,-5.486325235,-5.36454379,-37.858426675
15,-3.71266287446,3.33505969896,-6.64871388045
16,-4.99384814979,-4.97999375424,-33.2692114602
*Step  = 49
*Time  = 4.15
*Data  = x;y;z
1,-3.92613073018,3.21986058075,-6.61728638994
2,-5.486325235,-5.36454379,-37.858426675
15,-3.71311703993,3.21753159276,-6.63150460834
16,-4.99345900236,-4.98203853248,-33.2652411927
*Step  = 50
*Time  = 4.2
*Data  = x;y;z
1,-3.90094874815,3.10204108568,-6.60362522345
2,-5.486325235,-5.36454379,-37.858426675
15,-3.71374163805,3.10000432737,-6.6161388185
16,-4.99325035965,-4.98433131849,-33.2629428123
*Step  = 51
*Time  = 4.25
*Data  = x;y;z
1,-3.86130879018,2.97878680118,-6.59027290613
2,-5.486325235,-5.36454379,-37.858426675
15,-3.71440137509,2.97719685175,-6.60011265488
16,-4.99301896324,-4.98674514738,-33.2604164178
*Step  = 52
*Time  = 4.3
*Data  = x;y;z
1,-3.82919590879,2.85299685754,-6.57804726712
2,-5.486325235,-5.36454379,-37.858426675
15,-3.71521263983,2.85176981955,-6.58568942316
16,-4.99294653626,-4.98931738131,-33.2593727257
*Step  = 53
*Time  = 4.35
*Data  = x;y;z
1,-3.79838162266,2.72541163141,-6.56634839527
2,-5.486325235,-5.36454379,-37.858426675
15,-3.71608091132,2.72453039911,-6.57187084197
16,-4.99292394137,-4.9919201816,-33.2587995723
*Step  = 54
*Time  = 4.4
*Data  = x;y;z
1,-3.76865902976,2.59495884239,-6.5557046461
2,-5.486325235,-5.36454379,-37.858426675
15,-3.71707186604,2.59440945824,-6.55916815793
16,-4.99301553014,-4.99461836807,-33.2592947042
*Step  = 55
*Time  = 4.45
*Data  = x;y;z
1,-3.73614179943,2.45990494681,-6.5465729875
2,-5.486325235,-5.36454379,-37.858426675
15,-3.71822682074,2.45971517521,-6.54777597916
16,-4.99324855841,-4.99736692566,-33.2611206777
*Step  = 56
*Time  = 4.5
*Data  = x;y;z
1,-3.70644080719,2.32367409952,-6.53850007049
2,-5.486325235,-5.36454379,-37.858426675
15,-3.71948081019,2.32381152314,-6.53762434607
16,-4.99358562192,-5.00009628464,-33.2639340192
*Step  = 57
*Time  = 4.55
*Data  = x;y;z
1,-3.670156174,2.18146585433,-6.53180729783
2,-5.486325235,-5.36454379,-37.858426675
15,-3.7208648431,2.1819974943,-6.52840374329
16,-4.99403496915,-5.00289310873,-33.2678007498
*Step  = 58
*Time  = 4.6
*Data  = x;y;z
1,-3.63674569289,2.03398483548,-6.52662778143
2,-5.486325235,-5.36454379,-37.858426675
15,-3.72244781314,2.03487889211,-6.52088008793
16,-4.99466954602,-5.00572179914,-33.2734121649
*Step  = 59
*Time  = 4.65
*Data  = x;y;z
1,-3.60600764773,1.88322261907,-6.5230661039
2,-5.486325235,-5.36454379,-37.858426675
15,-3.72422319007,1.88444999616,-6.51514485891
16,-4.99548386698,-5.00856605481,-33.2807180254
*Step  = 60
*Time  = 4.7
*Data  = x;y;z
1,-3.57871266454,1.7256416858,-6.52215952393
2,-5.486325235,-5.36454379,-37.858426675
15,-3.72632759167,1.72716725551,-6.51229242121
16,-4.99660919734,-5.01154661706,-33.2909388479
*Step  = 61
*Time  = 4.75
*Data  = x;y;z
1,-3.55083702552,1.56367967871,-6.52331975231
2,-5.486325235,-5.36454379,-37.858426675
15,-3.72864377075,1.5655092816,-6.51146635531
16,-4.99794661337,-5.0145504513,-33.3031564949
*Step  = 62
*Time  = 4.8
*Data  = x;y;z
1,-3.52495967614,1.39206215647,-6.52799315501
2,-5.486325235,-5.36454379,-37.858426675
15,-3.73142131784,1.39417818429,-6.51427815645
16,-4.99970210814,-5.01765978841,-33.3192998795
*Step  = 63
*Time  = 4.85
*Data  = x;y;z
1,-3.51272858332,1.21390132436,-6.53679722607
2,-5.486325235,-5.36454379,-37.858426675
15,-3.73471274258,1.21616822775,-6.52213942022
16,-5.00198511022,-5.02096795237,-33.3403864687
*Step  = 64
*Time  = 4.9
*Data  = x;y;z
1,-3.51022149762,1.0221734567,-6.55214001198
2,-5.486325235,-5.36454379,-37.858426675
15,-3.73886811417,1.0245014142,-6.53716153026
16,-5.005081739,-5.0245527171,-33.3691001404
*Step  = 65
*Time  = 4.95
*Data  = x;y;z
1,-3.49028918088,0.81819491234,-6.5705057747
2,-5.486325235,-5.36454379,-37.858426675
15,-3.74334651848,0.820765268074,-6.55403684576
16,-5.00845591113,-5.02804152765,-33.4004389421
*Step  = 66
*Time  = 4.99999
*Data  = x;y;z
1,-3.5822776581,0.889825252045,-6.56260242201
2,-5.486325235,-5.36454379,-37.858426675
15,-3.74208504496,0.891457542677,-6.55209057701
16,-5.0077381982,-5.02495299832,-33.3940633257
