*Step  = 1
*Time  = 1e-05
*Data  = x;y;z
1,-3.47045938233,3.4627372196,-11.2280683731
2,-5.486325235,-5.36454379,-37.858426675
15,-3.97831662229,3.48475127063,-11.1935205172
16,-5.47923658197,-5.3594473587,-37.7923062416
*Step  = 2
*Time  = 1.8453091e-05
*Data  = x;y;z
1,-3.41597478157,3.45524489428,-11.1962490867
2,-5.486325235,-5.36454379,-37.858426675
15,-3.97493279527,3.47946918489,-11.1582838037
16,-5.47556774278,-5.35681768791,-37.7580810191
*Step  = 3
*Time  = 6.0718546e-05
*Data  = x;y;z
1,-3.38840381012,3.44979210582,-11.1775194766
2,-5.486325235,-5.36454379,-37.858426675
15,-3.97303827199,3.47512571163,-11.1378427843
16,-5.47345143479,-5.35530333935,-37.7383376483
*Step  = 4
*Time  = 0.000272045821
*Data  = x;y;z
1,-3.37194253836,3.44452752954,-11.1672739608
2,-5.486325235,-5.36454379,-37.858426675
15,-3.97215405257,3.47053135674,-11.1265266082
16,-5.47230890858,-5.3544866972,-37.7276784421
*Step  = 5
*Time  = 0.0013286822
*Data  = x;y;z
1,-3.36258143887,3.44054465908,-11.1577603781
2,-5.486325235,-5.36454379,-37.858426675
15,-3.97147704544,3.46690803395,-11.1164068192
16,-5.47127834957,-5.35374914983,-37.7180642635
*Step  = 6
*Time  = 0.00661186407
*Data  = x;y;z
1,-3.36186105977,3.43066096382,-11.134021667
2,-5.486325235,-5.36454379,-37.858426675
15,-3.97033628292,3.45692754293,-11.0927001767
16,-5.46884021686,-5.35199890522,-37.6953211186
*Step  = 7
*Time  = 0.0330277735
*Data  = x;y;z
1,-3.38056985161,3.38566667495,-11.0320482165
2,-5.486325235,-5.36454379,-37.858426675
15,-3.96623547918,3.41057307251,-10.9923206481
16,-5.4585153882,-5.34457181346,-37.5990170645
*Step  = 8
*Time  = 0.05
*Data  = x;y;z
1,-3.40688400815,3.36003519131,-10.9717269609
2,-5.486325235,-5.36454379,-37.858426675
15,-3.964051862,3.38350081099,-10.9339776061
16,-5.45250339017,-5.34023695001,-37.5429451433
*Step  = 9
*Time  = 0.1
*Data  = x;y;z
1,-3.47634495555,3.27211608087,-10.7842775678
2,-5.486325235,-5.36454379,-37.858426675
15,-3.95716063451,3.29175254712,-10.7520074908
16,-5.43378332426,-5.32672528796,-37.3683550188
*Step  = 10
*Time  = 0.15
*Data  = x;y;z
1,-3.58138470603,3.19917832298,-10.6233124978
2,-5.486325235,-5.36454379,-37.858426675
15,-3.95186615272,3.21386536335,-10.5987035458
16,-5.41798795242,-5.31528341051,-37.2210582766
*Step  = 11
*Time  = 0.2
*Data  = x;y;z
1,-3.74725613002,3.11571574845,-10.4716921668
2,-5.486325235,-5.36454379,-37.858426675
15,-3.94797476114,3.12343482129,-10.4585861391
16,-5.40364881005,-5.3048837963,-37.0873452264
*Step  = 12
*Time  = 0.25
*Data  = x;y;z
1,-3.88916137381,3.02612751011,-10.3150392009
2,-5.486325235,-5.36454379,-37.858426675
15,-3.94352670158,3.02815157752,-10.3115534697
16,-5.38861500317,-5.29397059976,-36.947156789
*Step  = 13
*Time  = 0.3
*Data  = x;y;z
1,-4.00283846215,2.93319081471,-10.1666051839
2,-5.486325235,-5.36454379,-37.858426675
15,-3.93926007066,2.93089659817,-10.1706261406
16,-5.37430311385,-5.28356442106,-36.8137049939
*Step  = 14
*Time  = 0.35
*Data  = x;y;z
1,-4.08624639284,2.83070330679,-9.99222894367
2,-5.486325235,-5.36454379,-37.858426675
15,-3.93241687442,2.82533582186,-10.0018158793
16,-5.35708203311,-5.27102862692,-36.6531296703
*Step  = 15
*Time  = 0.4
*Data  = x;y;z
1,-4.15151189512,2.72409347981,-9.81567080967
2,-5.486325235,-5.36454379,-37.858426675
15,-3.92459979831,2.71642828248,-9.82960267175
16,-5.33952381731,-5.25822773607,-36.4894155451
*Step  = 16
*Time  = 0.45
*Data  = x;y;z
1,-4.20132711162,2.61665450017,-9.63479157654
2,-5.486325235,-5.36454379,-37.858426675
15,-3.91588882583,2.60732490008,-9.65204815579
16,-5.32139283662,-5.24498280736,-36.3203673508
*Step  = 17
*Time  = 0.5
*Data  = x;y;z
1,-4.27082273725,2.50087140722,-9.44327703813
2,-5.486325235,-5.36454379,-37.858426675
15,-3.90642280106,2.48937514448,-9.46493951542
16,-5.30230586098,-5.23100294028,-36.142414445
*Step  = 18
*Time  = 0.55
*Data  = x;y;z
1,-4.33882743447,2.38691916818,-9.25931451655
2,-5.486325235,-5.36454379,-37.858426675
15,-3.89697075089,2.37344689316,-9.28515404075
16,-5.28398396775,-5.21753801195,-35.9716055584
*Step  = 19
*Time  = 0.6
*Data  = x;y;z
1,-4.39888197141,2.26649939044,-9.0743175618
2,-5.486325235,-5.36454379,-37.858426675
15,-3.8872087415,2.25143078363,-9.1037630034
16,-5.2655472934,-5.20394236792,-35.7997367251
*Step  = 20
*Time  = 0.65
*Data  = x;y;z
1,-4.45932477259,2.13914118939,-8.87551091572
2,-5.486325235,-5.36454379,-37.858426675
15,-3.87621823454,2.12259888741,-8.90856375146
16,-5.24570933139,-5.18926052584,-35.6148152675
*Step  = 21
*Time  = 0.7
*Data  = x;y;z
1,-4.51339946353,2.01791216714,-8.68461267902
2,-5.486325235,-5.36454379,-37.858426675
15,-3.86513931726,2.00017431701,-8.72080130166
16,-5.22660612501,-5.17505712516,-35.4367562008
*Step  = 22
*Time  = 0.75
*Data  = x;y;z
1,-4.58888118392,1.88328678168,-8.48418678928
2,-5.486325235,-5.36454379,-37.858426675
15,-3.85344914594,1.86393232601,-8.52449973251
16,-5.20668929625,-5.16019600157,-35.2511207507
*Step  = 23
*Time  = 0.8
*Data  = x;y;z
1,-4.64673302873,1.75295962874,-8.2925377453
2,-5.486325235,-5.36454379,-37.858426675
15,-3.84184493639,1.73256017672,-8.33592978471
16,-5.18757222749,-5.14585365937,-35.07295339
*Step  = 24
*Time  = 0.85
*Data  = x;y;z
1,-4.70317061625,1.62405114272,-8.10304609278
2,-5.486325235,-5.36454379,-37.858426675
15,-3.83002457768,1.60275567924,-8.14934759274
16,-5.16865976981,-5.13159789638,-34.8967022763
*Step  = 25
*Time  = 0.9
*Data  = x;y;z
1,-4.76358690585,1.48369887803,-7.90074026251
2,-5.486325235,-5.36454379,-37.858426675
15,-3.8170602001,1.461549747,-7.95000541767
16,-5.14847466886,-5.11632295639,-34.7085965086
*Step  = 26
*Time  = 0.95
*Data  = x;y;z
1,-4.84106663365,1.34076753122,-7.7099465749
2,-5.486325235,-5.36454379,-37.858426675
15,-3.80482359435,1.31747254593,-7.76275001597
16,-5.12958720628,-5.10194433738,-34.5325949959
*Step  = 27
*Time  = 1
*Data  = x;y;z
1,-4.82353789668,1.34698257157,-7.70598257683
2,-5.486325235,-5.36454379,-37.858426675
15,-3.80422123353,1.32406075686,-7.75820356758
16,-5.12907048178,-5.1012461882,-34.5278585928
*Step  = 28
*Time  = 1.03
*Data  = x;y;z
1,-4.72915646218,1.48153919265,-7.75812651394
2,-5.486325235,-5.36454379,-37.858426675
15,-3.80618620988,1.46077489142,-7.80670674173
16,-5.13325075273,-5.10390361744,-34.566932638
*Step  = 29
*Time  = 1.06
*Data  = x;y;z
1,-4.64450275043,1.6325632791,-7.80962323761
2,-5.486325235,-5.36454379,-37.858426675
15,-3.80827802856,1.61374100483,-7.85571396036
16,-5.13752284702,-5.106582483,-34.6068684201
*Step  = 30
*Time  = 1.09
*Data  = x;y;z
1,-4.60087247118,1.79220198271,-7.87168634297
2,-5.486325235,-5.36454379,-37.858426675
15,-3.81176456992,1.7744306487,-7.91748660252
16,-5.14315614461,-5.11027069936,-34.6594889586
*Step  = 31
*Time  = 1.12
*Data  = x;y;z
1,-4.54065986673,1.95712691518,-7.93919659205
2,-5.486325235,-5.36454379,-37.858426675
15,-3.81579119964,1.94079267837,-7.98362060633
16,-5.149250772,-5.11430081966,-34.7164062252
*Step  = 32
*Time  = 1.15
*Data  = x;y;z
1,-4.46934948847,2.09254674291,-7.9914738442
2,-5.486325235,-5.36454379,-37.858426675
15,-3.81860427227,2.07787431803,-8.03308223496
16,-5.15371880265,-5.11717278158,-34.7581508299
*Step  = 33
*Time  = 1.18
*Data  = x;y;z
1,-4.41827753159,2.18003154513,-8.01868242892
2,-5.486325235,-5.36454379,-37.858426675
15,-3.81951877802,2.16652384166,-8.05782048046
16,-5.15576393315,-5.11829423304,-34.7773047338
*Step  = 34
*Time  = 1.21
*Data  = x;y;z
1,-4.37555491939,2.24923113746,-8.03903358674
2,-5.486325235,-5.36454379,-37.858426675
15,-3.81999733103,2.23669118485,-8.07589646325
16,-5.15718373363,-5.11896763604,-34.7906279888
*Step  = 35
*Time  = 1.24
*Data  = x;y;z
1,-4.33919201208,2.31412699069,-8.05816002006
2,-5.486325235,-5.36454379,-37.858426675
15,-3.8204431224,2.30241144779,-8.09303749456
16,-5.15852180201,-5.11958705804,-34.8031880942
*Step  = 36
*Time  = 1.27
*Data  = x;y;z
1,-4.31951464278,2.41111023023,-8.09303219582
2,-5.486325235,-5.36454379,-37.858426675
15,-3.82190249654,2.39986510198,-8.12700358901
16,-5.16138312103,-5.12130851687,-34.8299532306
*Step  = 37
*Time  = 1.3
*Data  = x;y;z
1,-4.3050229542,2.50417649965,-8.12423711987
2,-5.486325235,-5.36454379,-37.858426675
15,-3.82306156749,2.49327734721,-8.15756154375
16,-5.16387584145,-5.12270869747,-34.8532944149
*Step  = 38
*Time  = 1.33
*Data  = x;y;z
1,-4.2712305386,2.52720391067,-8.12006102341
2,-5.486325235,-5.36454379,-37.858426675
15,-3.8217663315,2.51703399442,-8.1512262886
16,-5.16296103126,-5.12166105201,-34.8448572758
*Step  = 39
*Time  = 1.36
*Data  = x;y;z
1,-4.24822992318,2.56811682018,-8.12978531205
2,-5.486325235,-5.36454379,-37.858426675
15,-3.82166491417,2.55845949188,-8.15951413584
16,-5.16346911715,-5.12167004025,-34.8496819687
*Step  = 40
*Time  = 1.39
*Data  = x;y;z
1,-4.24716109786,2.61573776324,-8.14444695685
2,-5.486325235,-5.36454379,-37.858426675
15,-3.82207981817,2.60610845212,-8.17422446534
16,-5.16460270107,-5.12215013132,-34.8603355727
*Step  = 41
*Time  = 1.42
*Data  = x;y;z
1,-4.22308616383,2.65132710492,-8.15171061052
2,-5.486325235,-5.36454379,-37.858426675
15,-3.82173973407,2.64223034278,-8.17990154164
16,-5.16484898374,-5.12197688643,-34.8627184318
*Step  = 42
*Time  = 1.45
*Data  = x;y;z
1,-4.20410427898,2.68850340014,-8.16001509641
2,-5.486325235,-5.36454379,-37.858426675
15,-3.82153853977,2.67982736387,-8.18697880617
16,-5.16523755245,-5.12190670688,-34.8664277634
*Step  = 43
*Time  = 1.48
*Data  = x;y;z
1,-4.18739087987,2.72419488478,-8.16827842016
2,-5.486325235,-5.36454379,-37.858426675
15,-3.82137731099,2.71588951093,-8.19415454712
16,-5.1656451026,-5.12185449691,-34.870313244
*Step  = 44
*Time  = 1.51
*Data  = x;y;z
1,-4.17459868907,2.75772851637,-8.176071729
2,-5.486325235,-5.36454379,-37.858426675
15,-3.82121299647,2.74970515185,-8.20110656214
16,-5.16603570243,-5.12179330804,-34.8740405038
*Step  = 45
*Time  = 1.54
*Data  = x;y;z
1,-4.16248736069,2.78997961367,-8.18361445436
2,-5.486325235,-5.36454379,-37.858426675
15,-3.82104842493,2.78222314237,-8.20784665626
16,-5.16641158141,-5.12172525399,-34.8776297965
*Step  = 46
*Time  = 1.57
*Data  = x;y;z
1,-4.15067285447,2.82104557637,-8.19077728355
2,-5.486325235,-5.36454379,-37.858426675
15,-3.8206751394,2.81354475074,-8.21423523104
16,-5.16675486414,-5.12164144389,-34.8809172827
*Step  = 47
*Time  = 1.6
*Data  = x;y;z
1,-4.13952511708,2.85197750355,-8.19790878008
2,-5.486325235,-5.36454379,-37.858426675
15,-3.82069112283,2.84472646719,-8.2206063235
16,-5.16709990762,-5.12154887537,-34.8842158766
*Step  = 48
*Time  = 1.63
*Data  = x;y;z
1,-4.1294862743,2.88245533159,-8.20474804962
2,-5.486325235,-5.36454379,-37.858426675
15,-3.82048886968,2.87542409731,-8.22677049086
16,-5.16741941808,-5.12144493296,-34.8872788571
*Step  = 49
*Time  = 1.66
*Data  = x;y;z
1,-4.12272234516,2.91286926973,-8.21207741981
2,-5.486325235,-5.36454379,-37.858426675
15,-3.82034337512,2.90598481693,-8.23364281044
16,-5.16780833055,-5.1213952859,-34.890988584
*Step  = 50
*Time  = 1.69
*Data  = x;y;z
1,-4.12365299295,2.94352851259,-8.22004000463
2,-5.486325235,-5.36454379,-37.858426675
15,-3.82031378309,2.9366183178,-8.24168589417
16,-5.16831756683,-5.12143453373,-34.8958202039
*Step  = 51
*Time  = 1.72
*Data  = x;y;z
1,-4.11228213486,2.96990915568,-8.22569745412
2,-5.486325235,-5.36454379,-37.858426675
15,-3.82006232044,2.96324862389,-8.24656522457
16,-5.16853020187,-5.12125699701,-34.8978861165
*Step  = 52
*Time  = 1.75
*Data  = x;y;z
1,-4.1032380107,2.99610325234,-8.23151205375
2,-5.486325235,-5.36454379,-37.858426675
15,-3.8198544703,2.9896405993,-8.25176489346
16,-5.1687789841,-5.12110842895,-34.9002884438
*Step  = 53
*Time  = 1.78
*Data  = x;y;z
1,-4.07636773789,3.04054474717,-8.24646131695
2,-5.486325235,-5.36454379,-37.858426675
15,-3.82000831579,3.0346946032,-8.26481448122
16,-5.16968525909,-5.12140222,-34.9088305794
*Step  = 54
*Time  = 1.81
*Data  = x;y;z
1,-4.07939795875,3.06936327297,-8.25114135106
2,-5.486325235,-5.36454379,-37.858426675
15,-3.81962304276,3.06343165519,-8.26972256983
16,-5.16984965197,-5.12116070497,-34.9104557344
*Step  = 55
*Time  = 1.84
*Data  = x;y;z
1,-4.07803379911,3.08952731513,-8.25322042231
2,-5.486325235,-5.36454379,-37.858426675
15,-3.81923981391,3.08361492845,-8.27174490122
16,-5.16981542462,-5.12080252046,-34.9102201092
*Step  = 56
*Time  = 1.87
*Data  = x;y;z
1,-4.07283830643,3.11381922332,-8.25875512449
2,-5.486325235,-5.36454379,-37.858426675
15,-3.81906298219,3.1080183916,-8.27692773093
16,-5.1700725456,-5.12066986884,-34.9126985004
*Step  = 57
*Time  = 1.9
*Data  = x;y;z
1,-4.06607686768,3.13773033162,-8.26424780492
2,-5.486325235,-5.36454379,-37.858426675
15,-3.8188807592,3.13207686658,-8.28195738604
16,-5.17031627594,-5.12052739092,-34.9150520767
*Step  = 58
*Time  = 1.93
*Data  = x;y;z
1,-4.06037943089,3.16118540677,-8.26973287741
2,-5.486325235,-5.36454379,-37.858426675
15,-3.81870902047,3.15565536697,-8.28705126171
16,-5.17056811987,-5.12039248585,-34.9174811819
*Step  = 59
*Time  = 1.96
*Data  = x;y;z
1,-4.05954815748,3.17259107489,-8.27013079451
2,-5.486325235,-5.36454379,-37.858426675
15,-3.81838379147,3.16707002879,-8.28742406044
16,-5.1704465813,-5.12000897071,-34.9164221354
*Step  = 60
*Time  = 1.99
*Data  = x;y;z
1,-4.06027417646,3.16426245033,-8.26287304109
2,-5.486325235,-5.36454379,-37.858426675
15,-3.81785852488,3.15871073629,-8.28029045605
16,-5.16974689529,-5.11924117072,-34.9099609453
*Step  = 61
*Time  = 1.99999
*Data  = x;y;z
1,-4.0587399677,3.16570231555,-8.26393436919
2,-5.486325235,-5.36454379,-37.858426675
15,-3.8178791076,3.1601842227,-8.28125277742
16,-5.16979930735,-5.11905915901,-34.9105049806
*Step  = 1
*Time  = 2
*Data  = x;y;z
1,-4.05798853335,3.17014204446,-8.26640971235
2,-5.486325235,-5.36454379,-37.858426675
15,-3.81792118485,3.16463998086,-8.28366389132
16,-5.16995826495,-5.11894138863,-34.9120472117
*Step  = 2
*Time  = 2.00005
*Data  = x;y;z
1,-4.05744036586,3.17365145784,-8.2681426344
2,-5.486325235,-5.36454379,-37.858426675
15,-3.81791677612,3.1681593847,-8.28535813252
16,-5.17005503987,-5.11877364732,-34.9130107249
*Step  = 3
*Time  = 2.0003
*Data  = x;y;z
1,-4.05648062887,3.17711836104,-8.27039624749
2,-5.486325235,-5.36454379,-37.858426675
15,-3.81794323451,3.17164520716,-8.28754424551
16,-5.17020664801,-5.11864976057,-34.9144852871
*Step  = 4
*Time  = 2.00155
*Data  = x;y;z
1,-4.0557413467,3.18231461612,-8.27609124603
2,-5.486325235,-5.36454379,-37.858426675
15,-3.81812643956,3.17685278712,-8.2931759227
16,-5.17070685142,-5.11880027363,-34.9192100875
*Step  = 5
*Time  = 2.0078
*Data  = x;y;z
1,-4.05243641331,3.19832444498,-8.29988379742
2,-5.486325235,-5.36454379,-37.858426675
15,-3.81910589008,3.19292117972,-8.31666585157
16,-5.1729986232,-5.12036200464,-34.9406378715
*Step  = 6
*Time  = 2.03905
*Data  = x;y;z
1,-4.03266085586,3.26588691261,-8.41219388351
2,-5.486325235,-5.36454379,-37.858426675
15,-3.82388035914,3.26088071455,-8.42724591154
16,-5.18405034251,-5.12881197515,-35.0437346009
*Step  = 7
*Time  = 2.05
*Data  = x;y;z
1,-4.00674599622,3.29012524997,-8.45456202207
2,-5.486325235,-5.36454379,-37.858426675
15,-3.82570634018,3.28573182673,-8.46763950483
16,-5.18809573215,-5.13188159043,-35.0814734619
*Step  = 8
*Time  = 2.1
*Data  = x;y;z
1,-3.97667702113,3.3969055716,-8.64266942868
2,-5.486325235,-5.36454379,-37.858426675
15,-3.83342518493,3.39323114394,-8.65303101857
16,-5.20670298235,-5.14637712939,-35.254960441
*Step  = 9
*Time  = 2.15
*Data  = x;y;z
1,-3.92551989725,3.49548061572,-8.82418397032
2,-5.486325235,-5.36454379,-37.858426675
15,-3.84072590138,3.49319460142,-8.83033324889
16,-5.22455970939,-5.16034892438,-35.4214019345
*Step  = 10
*Time  = 2.2
*Data  = x;y;z
1,-3.8620659773,3.59045183519,-9.00514595163
2,-5.486325235,-5.36454379,-37.858426675
15,-3.84775837545,3.59004734445,-9.00618792669
16,-5.24233066389,-5.17430190481,-35.5870019337
*Step  = 11
*Time  = 2.25
*Data  = x;y;z
1,-3.7696774147,3.68491629746,-9.19335113191
2,-5.486325235,-5.36454379,-37.858426675
15,-3.8546843906,3.6874378321,-9.18710818719
16,-5.26070301025,-5.18875596058,-35.7581686406
*Step  = 12
*Time  = 2.3
*Data  = x;y;z
1,-3.73823170001,3.77321026737,-9.37241004386
2,-5.486325235,-5.36454379,-37.858426675
15,-3.86110107579,3.77701717903,-9.36340279803
16,-5.27853248897,-5.20277190856,-35.9242553428
*Step  = 13
*Time  = 2.35
*Data  = x;y;z
1,-3.67566823442,3.8645315393,-9.56132760628
2,-5.486325235,-5.36454379,-37.858426675
15,-3.86739413278,3.87073836522,-9.54723057824
16,-5.29719331566,-5.21743177117,-36.0980583894
*Step  = 14
*Time  = 2.4
*Data  = x;y;z
1,-3.64306693634,3.94987566315,-9.74013760801
2,-5.486325235,-5.36454379,-37.858426675
15,-3.87353489782,3.95764296452,-9.7232125741
16,-5.31502834512,-5.23140796423,-36.2641483901
*Step  = 15
*Time  = 2.45
*Data  = x;y;z
1,-3.59595074527,4.03312488322,-9.91836661929
2,-5.486325235,-5.36454379,-37.858426675
15,-3.879292378,4.04304929328,-9.89749821015
16,-5.33275883972,-5.24528814732,-36.4292425099
*Step  = 16
*Time  = 2.5
*Data  = x;y;z
1,-3.56303201496,4.11975096568,-10.1069291253
2,-5.486325235,-5.36454379,-37.858426675
15,-3.88523721621,4.13148772865,-10.0831648953
16,-5.35165661165,-5.26006238912,-36.6051821802
*Step  = 17
*Time  = 2.55
*Data  = x;y;z
1,-3.5274297816,4.1980806881,-10.2846709696
2,-5.486325235,-5.36454379,-37.858426675
15,-3.89049266518,4.21178681183,-10.2578636539
16,-5.36947521256,-5.27398115826,-36.7710520456
*Step  = 18
*Time  = 2.6
*Data  = x;y;z
1,-3.50993289822,4.27486442576,-10.4636607473
2,-5.486325235,-5.36454379,-37.858426675
15,-3.89599782846,4.28995179656,-10.4351859204
16,-5.38756997164,-5.28808532432,-36.939474242
*Step  = 19
*Time  = 2.65
*Data  = x;y;z
1,-3.48419236306,4.34690983429,-10.6473010367
2,-5.486325235,-5.36454379,-37.858426675
15,-3.90125373397,4.36378986656,-10.6165661146
16,-5.40616377375,-5.30256656898,-37.1125196335
*Step  = 20
*Time  = 2.7
*Data  = x;y;z
1,-3.45484883188,4.41318059722,-10.8177806862
2,-5.486325235,-5.36454379,-37.858426675
15,-3.90561270456,4.43202213691,-10.7846240009
16,-5.42336907973,-5.31592422739,-37.272635783
*Step  = 21
*Time  = 2.75
*Data  = x;y;z
1,-3.4314515578,4.44789420263,-10.9755438896
2,-5.486325235,-5.36454379,-37.858426675
15,-3.90896744586,4.46850550376,-10.9410013289
16,-5.43960292763,-5.32857951692,-37.4236700005
*Step  = 22
*Time  = 2.8
*Data  = x;y;z
1,-3.42082547763,4.4554797314,-11.1066476489
2,-5.486325235,-5.36454379,-37.858426675
15,-3.91121369961,4.47726130909,-11.0721421331
16,-5.45336851502,-5.33928510025,-37.5517329677
*Step  = 23
*Time  = 2.85
*Data  = x;y;z
1,-3.40385756411,4.4513766872,-11.2264760657
2,-5.486325235,-5.36454379,-37.858426675
15,-3.91285593993,4.47460403904,-11.191810792
16,-5.46597153439,-5.34901135333,-37.6689974251
*Step  = 24
*Time  = 2.9
*Data  = x;y;z
1,-3.37420259916,4.43862832342,-11.346867767
2,-5.486325235,-5.36454379,-37.858426675
15,-3.9144141356,4.46395200146,-11.3114856847
16,-5.47856360155,-5.35864438108,-37.7861834247
*Step  = 25
*Time  = 2.95
*Data  = x;y;z
1,-3.36691723532,4.41905862219,-11.4538637176
2,-5.486325235,-5.36454379,-37.858426675
15,-3.91675915843,4.44544379176,-11.4189128016
16,-5.49026075585,-5.3675148634,-37.8950656161
*Step  = 26
*Time  = 3
*Data  = x;y;z
1,-3.35563927232,4.4151236883,-11.4473443983
2,-5.486325235,-5.36454379,-37.858426675
15,-3.91618727929,4.4420159568,-11.4118553366
16,-5.48964157795,-5.36704243332,-37.8893036756
*Step  = 27
*Time  = 3.05
*Data  = x;y;z
1,-3.33713612137,4.4384254337,-11.2684233126
2,-5.486325235,-5.36454379,-37.858426675
15,-3.91218201463,4.46498649952,-11.2301112897
16,-5.47037401234,-5.35245894141,-37.7099330917
*Step  = 28
*Time  = 3.1
*Data  = x;y;z
1,-3.40298998939,4.45664550458,-11.095545184
2,-5.486325235,-5.36454379,-37.858426675
15,-3.91060249377,4.47916060992,-11.0598175668
16,-5.45266618395,-5.33896104003,-37.5450978225
*Step  = 29
*Time  = 3.15
*Data  = x;y;z
1,-3.45492806926,4.45069033214,-10.8993937512
2,-5.486325235,-5.36454379,-37.858426675
15,-3.90795856276,4.46989063657,-10.866298216
16,-5.43233298847,-5.32327083901,-37.3558743126
*Step  = 30
*Time  = 3.2
*Data  = x;y;z
1,-3.49005493826,4.39599184855,-10.677637932
2,-5.486325235,-5.36454379,-37.858426675
15,-3.9029081634,4.41269381852,-10.6470148321
16,-5.4093028296,-5.30522270462,-37.1416305959
*Step  = 31
*Time  = 3.25
*Data  = x;y;z
1,-3.51296346958,4.26645755513,-10.4001839314
2,-5.486325235,-5.36454379,-37.858426675
15,-3.89477614526,4.28112137759,-10.372067937
16,-5.3810793378,-5.28319897202,-36.8789845842
*Step  = 32
*Time  = 3.3
*Data  = x;y;z
1,-3.55322154604,4.1381450253,-10.1307866952
2,-5.486325235,-5.36454379,-37.858426675
15,-3.886600223,4.15029157618,-10.1063337235
16,-5.35394044236,-5.26194408788,-36.6263974028
*Step  = 33
*Time  = 3.35
*Data  = x;y;z
1,-3.60324957695,4.00501022227,-9.85404978387
2,-5.486325235,-5.36454379,-37.858426675
15,-3.87794265748,4.01445831941,-9.83393394031
16,-5.32619071215,-5.24010331051,-36.3680936004
*Step  = 34
*Time  = 3.4
*Data  = x;y;z
1,-3.65623404899,3.87373685368,-9.58589785322
2,-5.486325235,-5.36454379,-37.858426675
15,-3.86893414542,3.88063548952,-9.57032535022
16,-5.29938274129,-5.21888077374,-36.1185303496
*Step  = 35
*Time  = 3.45
*Data  = x;y;z
1,-3.74811146672,3.73726843995,-9.31296686507
2,-5.486325235,-5.36454379,-37.858426675
15,-3.85970579308,3.74066091865,-9.30485161504
16,-5.27237593828,-5.19740478742,-35.8670692783
*Step  = 36
*Time  = 3.5
*Data  = x;y;z
1,-3.8346647518,3.59926284411,-9.03853947814
2,-5.486325235,-5.36454379,-37.858426675
15,-3.84961361552,3.59968711391,-9.03745671343
16,-5.24521316142,-5.17566646718,-35.614122457
*Step  = 37
*Time  = 3.55
*Data  = x;y;z
1,-3.89788514828,3.45784045891,-8.77029837247
2,-5.486325235,-5.36454379,-37.858426675
15,-3.83894032062,3.45628178539,-8.7745534533
16,-5.2185708452,-5.15422031906,-35.3659834342
*Step  = 38
*Time  = 3.6
*Data  = x;y;z
1,-3.96760458087,3.30832151399,-8.49200319048
2,-5.486325235,-5.36454379,-37.858426675
15,-3.82735701741,3.30489427854,-8.50210756181
16,-5.19103155398,-5.13195382064,-35.1094274239
*Step  = 39
*Time  = 3.65
*Data  = x;y;z
1,-4.03292781816,3.15582291765,-8.21926089478
2,-5.486325235,-5.36454379,-37.858426675
15,-3.81522825594,3.15092225897,-8.23491995858
16,-5.1640736654,-5.10992444745,-34.8582636684
*Step  = 40
*Time  = 3.7
*Data  = x;y;z
1,-4.09022870777,2.98737894496,-7.93409290371
2,-5.486325235,-5.36454379,-37.858426675
15,-3.8017073226,2.98145672036,-7.95476274424
16,-5.13585240258,-5.08656320643,-34.595305652
*Step  = 41
*Time  = 3.75
*Data  = x;y;z
1,-4.14670744431,2.8132429107,-7.65422522971
2,-5.486325235,-5.36454379,-37.858426675
15,-3.78739962592,2.80654890603,-7.67976069147
16,-5.10817095402,-5.06321872163,-34.337380202
*Step  = 42
*Time  = 3.8
*Data  = x;y;z
1,-4.202623795,2.62083894096,-7.35967442293
2,-5.486325235,-5.36454379,-37.858426675
15,-3.7711336903,2.61363924789,-7.38989845109
16,-5.07903908435,-5.03844767362,-34.0658819031
*Step  = 43
*Time  = 3.85
*Data  = x;y;z
1,-4.25661307774,2.42094585462,-7.0685257648
2,-5.486325235,-5.36454379,-37.858426675
15,-3.75393899917,2.41348431049,-7.10306794403
16,-5.05028331857,-5.01374221741,-33.7978341773
*Step  = 44
*Time  = 3.9
*Data  = x;y;z
1,-4.2987145922,2.20449462758,-6.7643944331
2,-5.486325235,-5.36454379,-37.858426675
15,-3.73467299649,2.19717647483,-6.80237863503
16,-5.02024163754,-4.98765658059,-33.5177427039
*Step  = 45
*Time  = 3.95
*Data  = x;y;z
1,-4.33584243474,1.98065763898,-6.45704868021
2,-5.486325235,-5.36454379,-37.858426675
15,-3.71410111286,1.9737271392,-6.49794391468
16,-4.98988536629,-4.96098673246,-33.2346428745
*Step  = 46
*Time  = 4
*Data  = x;y;z
1,-4.34850232088,1.98337086744,-6.44449860743
2,-5.486325235,-5.36454379,-37.858426675
15,-3.71278768998,1.97626455589,-6.48654095743
16,-4.98863102302,-4.95850409007,-33.2231736641
*Step  = 47
*Time  = 4.05
*Data  = x;y;z
1,-4.18705969132,1.63343883884,-6.35446375013
2,-5.486325235,-5.36454379,-37.858426675
15,-3.70806153966,1.62813063262,-6.38603635312
16,-4.98171748435,-4.95741276613,-33.1580763267
*Step  = 48
*Time  = 4.1
*Data  = x;y;z
1,-4.08263614075,1.31323444308,-6.30848582937
2,-5.486325235,-5.36454379,-37.858426675
15,-3.70729010806,1.30910945292,-6.33294626818
16,-4.97931326056,-4.95989196427,-33.1350489896
*Step  = 49
*Time  = 4.15
*Data  = x;y;z
1,-3.97283795028,0.976761092522,-6.27471149816
2,-5.486325235,-5.36454379,-37.858426675
15,-3.70791834861,0.973873125554,-6.29164090867
16,-4.97811364572,-4.96324723645,-33.1232612809
*Step  = 50
*Time  = 4.2
*Data  = x;y;z
1,-3.84937187386,0.621885795191,-6.2555320396
2,-5.486325235,-5.36454379,-37.858426675
15,-3.71003679027,0.62037790315,-6.26422536531
16,-4.97840076853,-4.96744384937,-33.1253920468
*Step  = 51
*Time  = 4.25
*Data  = x;y;z
1,-3.77053161088,0.237482853212,-6.26060599145
2,-5.486325235,-5.36454379,-37.858426675
15,-3.71539057067,0.236889699418,-6.26394661381
16,-4.98170471591,-4.9733313794,-33.1557314776
*Step  = 52
*Time  = 4.3
*Data  = x;y;z
1,-3.75915738582,-0.181399520596,-6.30561716807
2,-5.486325235,-5.36454379,-37.858426675
15,-3.72581840753,-0.181756699096,-6.30757596827
16,-4.98993805248,-4.98197394171,-33.232165404
*Step  = 53
*Time  = 4.35
*Data  = x;y;z
1,-3.78980711546,-0.582910017711,-6.36508424402
2,-5.486325235,-5.36454379,-37.858426675
15,-3.73782492696,-0.583465436768,-6.36805306789
16,-4.99979643408,-4.99109474082,-33.3238517727
*Step  = 54
*Time  = 4.4
*Data  = x;y;z
1,-3.81961678867,-0.923917723441,-6.41268659144
2,-5.486325235,-5.36454379,-37.858426675
15,-3.74781384832,-0.924683047748,-6.41669802052
16,-5.00785461444,-4.99867305921,-33.3987748585
*Step  = 55
*Time  = 4.45
*Data  = x;y;z
1,-3.84299306962,-1.22158018101,-6.45176268314
2,-5.486325235,-5.36454379,-37.858426675
15,-3.75632481659,-1.22250163704,-6.45651110075
16,-5.01455398652,-5.0052180095,-33.4610243251
*Step  = 56
*Time  = 4.5
*Data  = x;y;z
1,-3.86715448046,-1.49314107204,-6.48991290324
2,-5.486325235,-5.36454379,-37.858426675
15,-3.76439230409,-1.49423084052,-6.49544120592
16,-5.02089108473,-5.01150110199,-33.5198922447
*Step  = 57
*Time  = 4.55
*Data  = x;y;z
1,-3.88251028691,-1.74746213693,-6.52636047118
2,-5.486325235,-5.36454379,-37.858426675
15,-3.77200289695,-1.74863103218,-6.53220484243
16,-5.02681448332,-5.01745633284,-33.5749034023
*Step  = 58
*Time  = 4.6
*Data  = x;y;z
1,-3.89666346859,-1.98440217276,-6.56015660329
2,-5.486325235,-5.36454379,-37.858426675
15,-3.77907781643,-1.9856426154,-6.56626956753
16,-5.03225004735,-5.02308721812,-33.6253597818
*Step  = 59
*Time  = 4.65
*Data  = x;y;z
1,-3.90414160524,-2.21086569836,-6.59362914911
2,-5.486325235,-5.36454379,-37.858426675
15,-3.78593997927,-2.21210933452,-6.5996773425
16,-5.03749954798,-5.02855133876,-33.6740845907
*Step  = 60
*Time  = 4.7
*Data  = x;y;z
1,-3.91199885646,-2.42874616354,-6.62705290114
2,-5.486325235,-5.36454379,-37.858426675
15,-3.79270727128,-2.42999798242,-6.63306631054
16,-5.04265102476,-5.0339023851,-33.721896005
*Step  = 61
*Time  = 4.75
*Data  = x;y;z
1,-3.91543894727,-2.63664118462,-6.65905396633
2,-5.486325235,-5.36454379,-37.858426675
15,-3.79912120227,-2.63785850695,-6.66483380821
16,-5.04750320987,-5.03906286759,-33.7669184543
*Step  = 62
*Time  = 4.8
*Data  = x;y;z
1,-3.91947647918,-2.8369331984,-6.6903422894
2,-5.486325235,-5.36454379,-37.858426675
15,-3.80536827318,-2.83812422916,-6.69593293712
16,-5.05219364088,-5.04406056415,-33.8104354481
*Step  = 63
*Time  = 4.85
*Data  = x;y;z
1,-3.9212939824,-3.03121266659,-6.72077925705
2,-5.486325235,-5.36454379,-37.858426675
15,-3.81142221233,-3.03235644019,-6.72608662618
16,-5.05669910681,-5.04890612459,-33.852230194
*Step  = 64
*Time  = 4.9
*Data  = x;y;z
1,-3.92110964606,-3.2183553364,-6.75039328407
2,-5.486325235,-5.36454379,-37.858426675
15,-3.81727459164,-3.219433408,-6.75534284057
16,-5.06102463915,-5.05360183669,-33.8923494869
*Step  = 65
*Time  = 4.95
*Data  = x;y;z
1,-3.9197153771,-3.40151724699,-6.7801909238
2,-5.486325235,-5.36454379,-37.858426675
15,-3.82307960268,-3.40251798858,-6.78473907254
16,-5.06531402154,-5.05821463291,-33.9321398619
*Step  = 66
*Time  = 4.99999
*Data  = x;y;z
1,-3.97471276118,-3.11330386948,-6.7191454168
2,-5.486325235,-5.36454379,-37.858426675
15,-3.81280411056,-3.11498094082,-6.72706774153
16,-5.05708804465,-5.05208025959,-33.8554433723
