*Step  = 1
*Time  = 1e-05
*Data  = x;y;z
1,-3.44974461821,3.43920916631,-11.2299172755
2,-5.486325235,-5.36454379,-37.858426675
15,-3.97945293198,3.46217083323,-11.1938213991
16,-5.4794782844,-5.35962059784,-37.7945609952
*Step  = 2
*Time  = 1.91295806e-05
*Data  = x;y;z
1,-3.39778291349,3.434261497,-11.1972087014
2,-5.486325235,-5.36454379,-37.858426675
15,-3.97589000731,3.45931611207,-11.1578689509
16,-5.4757142634,-5.35692213067,-37.7594481149
*Step  = 3
*Time  = 6.47774835e-05
*Data  = x;y;z
1,-3.37105209399,3.43307293852,-11.1785073138
2,-5.486325235,-5.36454379,-37.858426675
15,-3.97382498477,3.45919296358,-11.137505804
16,-5.47357432291,-5.35539051306,-37.7394844345
*Step  = 4
*Time  = 0.000293016998
*Data  = x;y;z
1,-3.35613655398,3.43401143547,-11.1678038756
2,-5.486325235,-5.36454379,-37.858426675
15,-3.97262750104,3.46072073221,-11.125853617
16,-5.47234391763,-5.35451069775,-37.7280055209
*Step  = 5
*Time  = 0.00143421457
*Data  = x;y;z
1,-3.34576216122,3.43124405463,-11.1582448941
2,-5.486325235,-5.36454379,-37.858426675
15,-3.97189528366,3.45835263614,-11.1156200604
16,-5.4712904664,-5.35375654508,-37.7181778786
*Step  = 6
*Time  = 0.00714020243
*Data  = x;y;z
1,-3.34405556841,3.42147974211,-11.1334941785
2,-5.486325235,-5.36454379,-37.858426675
15,-3.97071182219,3.44852337005,-11.0908294789
16,-5.46873769983,-5.35192365447,-37.694365578
*Step  = 7
*Time  = 0.0356701418
*Data  = x;y;z
1,-3.35498295505,3.37474836858,-11.0251083991
2,-5.486325235,-5.36454379,-37.858426675
15,-3.96633165367,3.40070622856,-10.9835111454
16,-5.45769792054,-5.34398268603,-37.5913927058
*Step  = 8
*Time  = 0.05
*Data  = x;y;z
1,-3.38726363872,3.35438991207,-10.9734115494
2,-5.486325235,-5.36454379,-37.858426675
15,-3.96444080644,3.37869593022,-10.9341866901
16,-5.45260686895,-5.34031223043,-37.543909986
*Step  = 9
*Time  = 0.1
*Data  = x;y;z
1,-3.45518470798,3.26898835653,-10.7841518061
2,-5.486325235,-5.36454379,-37.858426675
15,-3.95731934293,3.28949032909,-10.7503117412
16,-5.43368629192,-5.32666498074,-37.3674459725
*Step  = 10
*Time  = 0.15
*Data  = x;y;z
1,-3.55595326308,3.20016646892,-10.6254508853
2,-5.486325235,-5.36454379,-37.858426675
15,-3.95203706855,3.21586246896,-10.5990056964
16,-5.41809072079,-5.31538143368,-37.2220079143
*Step  = 11
*Time  = 0.2
*Data  = x;y;z
1,-3.72438491885,3.1208447547,-10.4716359458
2,-5.486325235,-5.36454379,-37.858426675
15,-3.94792856519,3.12943623518,-10.456954723
16,-5.40353276053,-5.30484690806,-37.0862441615
*Step  = 12
*Time  = 0.25
*Data  = x;y;z
1,-3.89069963186,3.02582991203,-10.3155057759
2,-5.486325235,-5.36454379,-37.858426675
15,-3.94394883421,3.02781058205,-10.3120813705
16,-5.38876768018,-5.29416210662,-36.9485490801
*Step  = 13
*Time  = 0.3
*Data  = x;y;z
1,-4.01141547941,2.92943623723,-10.1650633841
2,-5.486325235,-5.36454379,-37.858426675
15,-3.93959709686,2.92684745547,-10.169605693
16,-5.37430221805,-5.28368305075,-36.8136514798
*Step  = 14
*Time  = 0.346774194
*Data  = x;y;z
1,-4.0593099977,2.83291054253,-10.0173753967
2,-5.486325235,-5.36454379,-37.858426675
15,-3.9344418748,2.82854883492,-10.0251337137
16,-5.35958828047,-5.27301268593,-36.6764398632
*Step  = 15
*Time  = 0.35
*Data  = x;y;z
1,-4.09233236085,2.81556334724,-9.99148115269
2,-5.486325235,-5.36454379,-37.858426675
15,-3.93310684407,2.81001327978,-10.001374939
16,-5.35720477783,-5.2712581033,-36.6542226537
*Step  = 16
*Time  = 0.377658165
*Data  = x;y;z
1,-4.12146513139,2.7508680711,-9.88917113339
2,-5.486325235,-5.36454379,-37.858426675
15,-3.92859675305,2.74426425453,-9.90106737311
16,-5.34701576449,-5.26385769799,-36.5592106257
*Step  = 17
*Time  = 0.4
*Data  = x;y;z
1,-4.14834063816,2.70225040005,-9.80643599367
2,-5.486325235,-5.36454379,-37.858426675
15,-3.92459736155,2.69469984227,-9.82013912978
16,-5.338747089,-5.25783472484,-36.4821114588
*Step  = 18
*Time  = 0.45
*Data  = x;y;z
1,-4.22712966593,2.58858021787,-9.62850908473
2,-5.486325235,-5.36454379,-37.858426675
15,-3.91648575756,2.5784368417,-9.6471863063
16,-5.32114967402,-5.24504496368,-36.3180169471
*Step  = 19
*Time  = 0.5
*Data  = x;y;z
1,-4.3160660333,2.46624710233,-9.43890955985
2,-5.486325235,-5.36454379,-37.858426675
15,-3.90743702354,2.45336680029,-9.46297984378
16,-5.30240906012,-5.23140185427,-36.1432676698
*Step  = 20
*Time  = 0.55
*Data  = x;y;z
1,-4.38782506614,2.34787329954,-9.25547479735
2,-5.486325235,-5.36454379,-37.858426675
15,-3.89807060474,2.33295027291,-9.2838029263
16,-5.28418474593,-5.21810423171,-35.9733403642
*Step  = 21
*Time  = 0.6
*Data  = x;y;z
1,-4.44713231852,2.22851564072,-9.06922818685
2,-5.486325235,-5.36454379,-37.858426675
15,-3.88809725877,2.21205870104,-9.10104795136
16,-5.26560473505,-5.2045134655,-35.8001042276
*Step  = 22
*Time  = 0.65
*Data  = x;y;z
1,-4.51514841524,2.09811975433,-8.87084637784
2,-5.486325235,-5.36454379,-37.858426675
15,-3.87711294897,2.08002024365,-8.90658013538
16,-5.24587069811,-5.19003806387,-35.6161170669
*Step  = 23
*Time  = 0.7
*Data  = x;y;z
1,-4.59371650798,1.97440630096,-8.68138762415
2,-5.486325235,-5.36454379,-37.858426675
15,-3.86629958897,1.95449665429,-8.7214291642
16,-5.22706216115,-5.17619554644,-35.4407682147
*Step  = 24
*Time  = 0.75
*Data  = x;y;z
1,-4.67409696469,1.84230369443,-8.48035246911
2,-5.486325235,-5.36454379,-37.858426675
15,-3.85443073518,1.8207166305,-8.52462245864
16,-5.20707046997,-5.16144809985,-35.2543937307
*Step  = 25
*Time  = 0.8
*Data  = x;y;z
1,-4.74874274667,1.7124974431,-8.28907155169
2,-5.486325235,-5.36454379,-37.858426675
15,-3.84283119401,1.68950936383,-8.33713562467
16,-5.18806083807,-5.14736370335,-35.0771866923
*Step  = 26
*Time  = 0.85
*Data  = x;y;z
1,-4.81589795371,1.5816090436,-8.09994324047
2,-5.486325235,-5.36454379,-37.858426675
15,-3.8310545583,1.55754634319,-8.15124792908
16,-5.16922781279,-5.13336734175,-34.9016316697
*Step  = 27
*Time  = 0.9
*Data  = x;y;z
1,-4.92981939539,1.43318312211,-7.89792763736
2,-5.486325235,-5.36454379,-37.858426675
15,-3.81848943067,1.40711251828,-7.95451598928
16,-5.14936437182,-5.11856486154,-34.7164752826
*Step  = 28
*Time  = 0.95
*Data  = x;y;z
1,-4.99718463197,1.29743827015,-7.70595707833
2,-5.486325235,-5.36454379,-37.858426675
15,-3.80577684038,1.27056550077,-7.76552186782
16,-5.13024831153,-5.10424905149,-34.5382973168
*Step  = 29
*Time  = 1
*Data  = x;y;z
1,-4.98693718414,1.30164876862,-7.70117782711
2,-5.486325235,-5.36454379,-37.858426675
15,-3.80524907404,1.27498973659,-7.7605570524
16,-5.12971046879,-5.10362552607,-34.5333408043
*Step  = 30
*Time  = 1.03
*Data  = x;y;z
1,-4.84966769222,1.46346704621,-7.76339253827
2,-5.486325235,-5.36454379,-37.858426675
15,-3.80735724544,1.43994406305,-7.81732341125
16,-5.13456375764,-5.1068237476,-34.5786794241
*Step  = 31
*Time  = 1.06
*Data  = x;y;z
1,-4.74137115552,1.61394488301,-7.811499638
2,-5.486325235,-5.36454379,-37.858426675
15,-3.80854509563,1.59288402046,-7.86213188863
16,-5.13841736414,-5.10925734548,-34.6147216158
*Step  = 32
*Time  = 1.09
*Data  = x;y;z
1,-4.67622832187,1.74186870368,-7.85153249179
2,-5.486325235,-5.36454379,-37.858426675
15,-3.81073140314,1.72232019755,-7.90069501577
16,-5.14181889871,-5.11137978734,-34.646501516
*Step  = 33
*Time  = 1.12
*Data  = x;y;z
1,-4.62730511199,1.92132250483,-7.92591183917
2,-5.486325235,-5.36454379,-37.858426675
15,-3.81521592503,1.90297165419,-7.9747773666
16,-5.14868947939,-5.11602437173,-34.710647377
*Step  = 34
*Time  = 1.15
*Data  = x;y;z
1,-4.52164386144,2.08260714562,-7.98733667892
2,-5.486325235,-5.36454379,-37.858426675
15,-3.8183654192,2.06670722577,-8.03188508079
16,-5.15385623845,-5.11943090061,-34.7589034949
*Step  = 35
*Time  = 1.18
*Data  = x;y;z
1,-4.46350575821,2.18195080946,-8.01689587439
2,-5.486325235,-5.36454379,-37.858426675
15,-3.81931104232,2.16738007939,-8.05873391521
16,-5.15607384008,-5.1207340543,-34.7796529575
*Step  = 36
*Time  = 1.21
*Data  = x;y;z
1,-4.41462353035,2.2588863723,-8.03795468031
2,-5.486325235,-5.36454379,-37.858426675
15,-3.81970281066,2.24542421285,-8.07723954068
16,-5.15750735234,-5.12147720287,-34.7930901363
*Step  = 37
*Time  = 1.24
*Data  = x;y;z
1,-4.38309325724,2.33103840138,-8.05833355147
2,-5.486325235,-5.36454379,-37.858426675
15,-3.82016545269,2.3182946845,-8.09604381264
16,-5.15899287782,-5.1222742996,-34.807009073
*Step  = 38
*Time  = 1.27
*Data  = x;y;z
1,-4.34523442423,2.38084780481,-8.06818052114
2,-5.486325235,-5.36454379,-37.858426675
15,-3.81995666941,2.36895150774,-8.10373717413
16,-5.15944656951,-5.12232682333,-34.8113049556
*Step  = 39
*Time  = 1.3
*Data  = x;y;z
1,-4.31974806594,2.42535516156,-8.07816750728
2,-5.486325235,-5.36454379,-37.858426675
15,-3.81987824815,2.41402974202,-8.11226518422
16,-5.16000611545,-5.12246997193,-34.816585524
*Step  = 40
*Time  = 1.33
*Data  = x;y;z
1,-4.3207291375,2.50422391247,-8.10796730786
2,-5.486325235,-5.36454379,-37.858426675
15,-3.82131398416,2.49290310177,-8.14240604201
16,-5.16259510186,-5.124055958,-34.8407978924
*Step  = 41
*Time  = 1.36
*Data  = x;y;z
1,-4.31341033154,2.55019725736,-8.11901981358
2,-5.486325235,-5.36454379,-37.858426675
15,-3.82124319895,2.53903544218,-8.15304565615
16,-5.16329679081,-5.12426704781,-34.847414512
*Step  = 42
*Time  = 1.39
*Data  = x;y;z
1,-4.27238891036,2.59202648,-8.12708772815
2,-5.486325235,-5.36454379,-37.858426675
15,-3.8208201304,2.58178060085,-8.15846724536
16,-5.16350427869,-5.12411610278,-34.8494219191
*Step  = 43
*Time  = 1.42
*Data  = x;y;z
1,-4.27300915134,2.64270567632,-8.14149108666
2,-5.486325235,-5.36454379,-37.858426675
15,-3.82113212355,2.63244799136,-8.17303906682
16,-5.16460832733,-5.12463484247,-34.8597859132
*Step  = 44
*Time  = 1.45
*Data  = x;y;z
1,-4.24106501202,2.68023389496,-8.14791900078
2,-5.486325235,-5.36454379,-37.858426675
15,-3.82063275471,2.67068563726,-8.17736882475
16,-5.16471541199,-5.12441999317,-34.8608556706
*Step  = 45
*Time  = 1.48
*Data  = x;y;z
1,-4.2255367269,2.70386986579,-8.14946203378
2,-5.486325235,-5.36454379,-37.858426675
15,-3.82011396636,2.69465866093,-8.17794423694
16,-5.16455076807,-5.12403062962,-34.8593856897
*Step  = 46
*Time  = 1.51
*Data  = x;y;z
1,-4.21056677477,2.73766166898,-8.15799806676
2,-5.486325235,-5.36454379,-37.858426675
15,-3.82004366475,2.7287851799,-8.18549986199
16,-5.16502898048,-5.12411423992,-34.863909503
*Step  = 47
*Time  = 1.54
*Data  = x;y;z
1,-4.19535977707,2.77763305523,-8.16900050006
2,-5.486325235,-5.36454379,-37.858426675
15,-3.82005015558,2.76909846526,-8.1954857282
16,-5.1657011931,-5.1243266816,-34.8702456884
*Step  = 48
*Time  = 1.57
*Data  = x;y;z
1,-4.18238304645,2.81205705855,-8.17653675883
2,-5.486325235,-5.36454379,-37.858426675
15,-3.81984346236,2.80380913893,-8.20216788921
16,-5.16606857724,-5.12431581613,-34.8737398103
*Step  = 49
*Time  = 1.6
*Data  = x;y;z
1,-4.16990443674,2.84612432185,-8.18384724721
2,-5.486325235,-5.36454379,-37.858426675
15,-3.81962197049,2.83815168527,-8.20865272174
16,-5.16641509998,-5.12429247158,-34.8770388009
*Step  = 50
*Time  = 1.63
*Data  = x;y;z
1,-4.16284569186,2.86669407759,-8.1853286825
2,-5.486325235,-5.36454379,-37.858426675
15,-3.81917708299,2.85886882051,-8.20970112286
16,-5.16630843461,-5.12395758233,-34.8761073273
*Step  = 51
*Time  = 1.66
*Data  = x;y;z
1,-4.15357543828,2.89618174935,-8.1926833637
2,-5.486325235,-5.36454379,-37.858426675
15,-3.81907550749,2.88856208787,-8.21642658157
16,-5.16671504384,-5.12400097692,-34.8799614209
*Step  = 52
*Time  = 1.69
*Data  = x;y;z
1,-4.1467238449,2.93145208475,-8.20269694161
2,-5.486325235,-5.36454379,-37.858426675
15,-3.81908701757,2.92398542725,-8.22595816872
16,-5.16735486517,-5.12420235425,-34.8859936899
*Step  = 53
*Time  = 1.72
*Data  = x;y;z
1,-4.12923951012,2.96341814138,-8.21042103081
2,-5.486325235,-5.36454379,-37.858426675
15,-3.81897965951,2.9563441862,-8.23251592377
16,-5.16773854926,-5.12419728221,-34.8896406005
*Step  = 54
*Time  = 1.75
*Data  = x;y;z
1,-4.12891450326,2.9898370359,-8.21515966842
2,-5.486325235,-5.36454379,-37.858426675
15,-3.81864939387,2.98275987062,-8.23722512981
16,-5.16792593486,-5.12406617345,-34.8914557632
*Step  = 55
*Time  = 1.78
*Data  = x;y;z
1,-4.12294490763,3.01820738056,-8.2219513129
2,-5.486325235,-5.36454379,-37.858426675
15,-3.81853296729,3.01126072129,-8.24361111127
16,-5.1682960811,-5.12407491646,-34.8949721135
*Step  = 56
*Time  = 1.81
*Data  = x;y;z
1,-4.11668180506,3.04134100132,-8.22594682447
2,-5.486325235,-5.36454379,-37.858426675
15,-3.81824299605,3.03452778262,-8.24719709371
16,-5.16841955174,-5.12390536126,-34.8961881889
*Step  = 57
*Time  = 1.84
*Data  = x;y;z
1,-4.11067423125,3.05913645576,-8.22828931421
2,-5.486325235,-5.36454379,-37.858426675
15,-3.81794570633,3.0524509714,-8.24915292476
16,-5.16842467311,-5.12366321303,-34.8962969022
*Step  = 58
*Time  = 1.87
*Data  = x;y;z
1,-4.10784280331,3.0867213227,-8.23629682776
2,-5.486325235,-5.36454379,-37.858426675
15,-3.81794295733,3.08009767394,-8.25694992843
16,-5.16894014205,-5.12379367141,-34.9011656191
*Step  = 59
*Time  = 1.9
*Data  = x;y;z
1,-4.09800349747,3.11420508166,-8.24286573157
2,-5.486325235,-5.36454379,-37.858426675
15,-3.81779532517,3.10780007961,-8.26284165415
16,-5.16926312547,-5.12376695931,-34.9042426228
*Step  = 60
*Time  = 1.93
*Data  = x;y;z
1,-4.09078653626,3.13999477889,-8.24848505206
2,-5.486325235,-5.36454379,-37.858426675
15,-3.81759670574,3.13374750081,-8.26796940647
16,-5.16951759763,-5.12369086565,-34.9066809637
*Step  = 61
*Time  = 1.96
*Data  = x;y;z
1,-4.08967083253,3.15229119044,-8.24846294303
2,-5.486325235,-5.36454379,-37.858426675
15,-3.81722397303,3.14605862256,-8.26790731511
16,-5.16935720774,-5.12334088459,-34.9052434578
*Step  = 62
*Time  = 1.99
*Data  = x;y;z
1,-4.09160915141,3.14244015921,-8.24006035973
2,-5.486325235,-5.36454379,-37.858426675
15,-3.81663818742,3.13614819375,-8.25972048845
16,-5.16856708099,-5.12257474776,-34.8979219923
*Step  = 63
*Time  = 1.99999
*Data  = x;y;z
1,-4.0906178351,3.14275192839,-8.24031950929
2,-5.486325235,-5.36454379,-37.858426675
15,-3.8166057968,3.13648022801,-8.25991648661
16,-5.16855402498,-5.12239806973,-34.8978421268
*Step  = 1
*Time  = 2
*Data  = x;y;z
1,-4.08920210386,3.14576650294,-8.24206856147
2,-5.486325235,-5.36454379,-37.858426675
15,-3.81664437975,3.13952633456,-8.2615624005
16,-5.16866524337,-5.122307633,-34.8989224082
*Step  = 2
*Time  = 2.00005
*Data  = x;y;z
1,-4.08860874262,3.14799429602,-8.24326837634
2,-5.486325235,-5.36454379,-37.858426675
15,-3.81664958179,3.14176571216,-8.26272251461
16,-5.16873332785,-5.122182737,-34.8996013171
*Step  = 3
*Time  = 2.0003
*Data  = x;y;z
1,-4.08684795743,3.15036525455,-8.245050544
2,-5.486325235,-5.36454379,-37.858426675
15,-3.81667674879,3.1441741198,-8.2643830183
16,-5.16885495157,-5.12209933295,-34.9007794706
*Step  = 4
*Time  = 2.00155
*Data  = x;y;z
1,-4.08555153282,3.15483061353,-8.25045102492
2,-5.486325235,-5.36454379,-37.858426675
15,-3.8168686147,3.14866314498,-8.26968109345
16,-5.16934137165,-5.12229526073,-34.9053595601
*Step  = 5
*Time  = 2.0078
*Data  = x;y;z
1,-4.08201717866,3.17012272377,-8.27387170595
2,-5.486325235,-5.36454379,-37.858426675
15,-3.81785740823,3.16401461418,-8.2927849802
16,-5.17161595299,-5.12386221533,-34.9266145672
*Step  = 6
*Time  = 2.03905
*Data  = x;y;z
1,-4.05690796073,3.24053123124,-8.38783366974
2,-5.486325235,-5.36454379,-37.858426675
15,-3.82276956636,3.23492601949,-8.40464807998
16,-5.18281487475,-5.13227858867,-35.0310841037
*Step  = 7
*Time  = 2.05
*Data  = x;y;z
1,-4.03935904049,3.26457217541,-8.42956193765
2,-5.486325235,-5.36454379,-37.858426675
15,-3.82455600273,3.25936804993,-8.44499335068
16,-5.18684973926,-5.13528972675,-35.0687273439
*Step  = 8
*Time  = 2.1
*Data  = x;y;z
1,-3.99216571337,3.37541749713,-8.61911487534
2,-5.486325235,-5.36454379,-37.858426675
15,-3.83237110051,3.37132608371,-8.63064011579
16,-5.20551702289,-5.14954844341,-35.2427911826
*Step  = 9
*Time  = 2.15
*Data  = x;y;z
1,-3.94362226312,3.4775580138,-8.80153086014
2,-5.486325235,-5.36454379,-37.858426675
15,-3.83970935226,3.47476184076,-8.80903766262
16,-5.22347695286,-5.16331436097,-35.4102255374
*Step  = 10
*Time  = 2.2
*Data  = x;y;z
1,-3.88124004154,3.57536755777,-8.98312613614
2,-5.486325235,-5.36454379,-37.858426675
15,-3.84672442953,3.57439353673,-8.98562880092
16,-5.24130706963,-5.17698065739,-35.5764299465
*Step  = 11
*Time  = 2.2483871
*Data  = x;y;z
1,-3.78063225231,3.66954248622,-9.16639493065
2,-5.486325235,-5.36454379,-37.858426675
15,-3.85351220684,3.67169701931,-9.16105627485
16,-5.25914514505,-5.19072575567,-35.7426647079
*Step  = 12
*Time  = 2.25
*Data  = x;y;z
1,-3.78954623551,3.66733944381,-9.17437471911
2,-5.486325235,-5.36454379,-37.858426675
15,-3.85394615605,3.66924607739,-9.16968356875
16,-5.26002167736,-5.19142935307,-35.7508254217
*Step  = 13
*Time  = 2.3
*Data  = x;y;z
1,-3.74173777553,3.75904578644,-9.35095970893
2,-5.486325235,-5.36454379,-37.858426675
15,-3.86012059231,3.76270691302,-9.34230476031
16,-5.27748873351,-5.20481236678,-35.913608628
*Step  = 14
*Time  = 2.35
*Data  = x;y;z
1,-3.67627214723,3.85419793859,-9.54000220603
2,-5.486325235,-5.36454379,-37.858426675
15,-3.86652906085,3.86034749565,-9.52603805077
16,-5.29611541304,-5.21911920505,-36.0871641071
*Step  = 15
*Time  = 2.4
*Data  = x;y;z
1,-3.63680820161,3.94210434348,-9.71952080198
2,-5.486325235,-5.36454379,-37.858426675
15,-3.87245035259,3.95003284935,-9.70222867793
16,-5.31397249287,-5.23284146287,-36.2535253108
*Step  = 16
*Time  = 2.45
*Data  = x;y;z
1,-3.5896470293,4.02687144323,-9.89795318023
2,-5.486325235,-5.36454379,-37.858426675
15,-3.87815464367,4.03696083909,-9.87673110058
16,-5.33171628628,-5.24647207719,-36.4188106032
*Step  = 17
*Time  = 2.5
*Data  = x;y;z
1,-3.55529800859,4.11543064159,-10.0874414223
2,-5.486325235,-5.36454379,-37.858426675
15,-3.88411279247,4.12738932438,-10.0632309562
16,-5.3506883644,-5.26103335245,-36.5955181656
*Step  = 18
*Time  = 2.55
*Data  = x;y;z
1,-3.51938292168,4.19630808537,-10.2668037396
2,-5.486325235,-5.36454379,-37.858426675
15,-3.889577663,4.21026323232,-10.2395129009
16,-5.36865518992,-5.27480959094,-36.7628457029
*Step  = 19
*Time  = 2.6
*Data  = x;y;z
1,-3.49751190496,4.27281334282,-10.4457310549
2,-5.486325235,-5.36454379,-37.858426675
15,-3.89492654277,4.28832280719,-10.4164462909
16,-5.38672386484,-5.28865232778,-36.9311053827
*Step  = 20
*Time  = 2.65
*Data  = x;y;z
1,-3.47600122282,4.34585405347,-10.6307966616
2,-5.486325235,-5.36454379,-37.858426675
15,-3.90030441961,4.36300466091,-10.5995783226
16,-5.40548813013,-5.3030187448,-37.105824259
*Step  = 21
*Time  = 2.7
*Data  = x;y;z
1,-3.44704441662,4.4117045458,-10.8014551732
2,-5.486325235,-5.36454379,-37.858426675
15,-3.90472465944,4.43081082626,-10.7678280195
16,-5.42272875326,-5.31618709447,-37.266350245
*Step  = 22
*Time  = 2.75
*Data  = x;y;z
1,-3.42698691511,4.44825636025,-10.9622290755
2,-5.486325235,-5.36454379,-37.858426675
15,-3.90836115685,4.46901115794,-10.9274034329
16,-5.4392642254,-5.32885483099,-37.4202787741
*Step  = 23
*Time  = 2.8
*Data  = x;y;z
1,-3.39904983991,4.45162426785,-11.0935195331
2,-5.486325235,-5.36454379,-37.858426675
15,-3.91080311522,4.47433302313,-11.0573807541
16,-5.45296090592,-5.33934371082,-37.5477686192
*Step  = 24
*Time  = 2.85
*Data  = x;y;z
1,-3.38353202707,4.44391172827,-11.2139126878
2,-5.486325235,-5.36454379,-37.858426675
15,-3.91267205144,4.46804052801,-11.177721621
16,-5.46563914608,-5.34897972974,-37.66579847
*Step  = 25
*Time  = 2.9
*Data  = x;y;z
1,-3.34792694126,4.425255619,-11.3336373302
2,-5.486325235,-5.36454379,-37.858426675
15,-3.91442030104,4.45179753554,-11.2963170133
16,-5.47814495656,-5.35841081107,-37.7822453699
*Step  = 26
*Time  = 2.9483871
*Data  = x;y;z
1,-3.33173678611,4.40274475748,-11.4381259797
2,-5.486325235,-5.36454379,-37.858426675
15,-3.9167390131,4.43079412047,-11.4006715628
16,-5.48945894583,-5.36688003944,-37.8876157366
*Step  = 27
*Time  = 2.95
*Data  = x;y;z
1,-3.31865629701,4.39511618439,-11.4350423223
2,-5.486325235,-5.36454379,-37.858426675
15,-3.91645633341,4.42379197909,-11.3969037456
16,-5.48922455287,-5.36670099001,-37.8854345934
*Step  = 28
*Time  = 3
*Data  = x;y;z
1,-3.32358716964,4.39730836788,-11.4329453207
2,-5.486325235,-5.36454379,-37.858426675
15,-3.91620538974,4.42573105397,-11.3951948006
16,-5.48907800464,-5.36658996119,-37.8840704506
*Step  = 29
*Time  = 3.05
*Data  = x;y;z
1,-3.32223263211,4.42685177185,-11.2573274388
2,-5.486325235,-5.36454379,-37.858426675
15,-3.91236757153,4.4540960374,-11.2177963319
16,-5.47027979458,-5.3525588628,-37.7089735985
*Step  = 30
*Time  = 3.1
*Data  = x;y;z
1,-3.38413298248,4.44651845593,-11.0836591438
2,-5.486325235,-5.36454379,-37.858426675
15,-3.91063974992,4.46985008018,-11.0464558787
16,-5.45246348449,-5.33917840141,-37.5430401709
*Step  = 31
*Time  = 3.15
*Data  = x;y;z
1,-3.44608048349,4.44185507636,-10.8865391508
2,-5.486325235,-5.36454379,-37.858426675
15,-3.90773533297,4.46139996101,-10.8527426533
16,-5.43210469857,-5.32370796897,-37.3534817757
*Step  = 32
*Time  = 3.2
*Data  = x;y;z
1,-3.47683779275,4.37946278093,-10.6581137872
2,-5.486325235,-5.36454379,-37.858426675
15,-3.90235660144,4.39665230664,-10.6265593641
16,-5.40842711722,-5.30547893258,-37.1330914006
*Step  = 33
*Time  = 3.25
*Data  = x;y;z
1,-3.50733651253,4.24377696015,-10.376236419
2,-5.486325235,-5.36454379,-37.858426675
15,-3.8940885008,4.25860514413,-10.3477844103
16,-5.37987918956,-5.28362114735,-36.8672771023
*Step  = 34
*Time  = 3.3
*Data  = x;y;z
1,-3.55136275453,4.11591031673,-10.1069337445
2,-5.486325235,-5.36454379,-37.858426675
15,-3.88592721374,4.12807703045,-10.0824115957
16,-5.35277849089,-5.26279517412,-36.6149177901
*Step  = 35
*Time  = 3.35
*Data  = x;y;z
1,-3.60823095441,3.98218186695,-9.82984811644
2,-5.486325235,-5.36454379,-37.858426675
15,-3.87727589425,3.99141601927,-9.81016867491
16,-5.32504816195,-5.24141439623,-36.3566674703
*Step  = 36
*Time  = 3.4
*Data  = x;y;z
1,-3.67429010189,3.84962077173,-9.56207175381
2,-5.486325235,-5.36454379,-37.858426675
15,-3.86841725939,3.8559019858,-9.54790881109
16,-5.29837233496,-5.220767906,-36.1082128455
*Step  = 37
*Time  = 3.45
*Data  = x;y;z
1,-3.75390095576,3.70931500159,-9.28486579502
2,-5.486325235,-5.36454379,-37.858426675
15,-3.858744619,3.71249420145,-9.27725042984
16,-5.27086784845,-5.19941284241,-35.8520056536
*Step  = 38
*Time  = 3.5
*Data  = x;y;z
1,-3.8676915181,3.57267252318,-9.0127108693
2,-5.486325235,-5.36454379,-37.858426675
15,-3.84890331336,3.57214075842,-9.01406622068
16,-5.24409814861,-5.17851740706,-35.6026167118
*Step  = 39
*Time  = 3.55
*Data  = x;y;z
1,-3.93004511328,3.42589827919,-8.7416222278
2,-5.486325235,-5.36454379,-37.858426675
15,-3.83799805964,3.42347141715,-8.74823711886
16,-5.21717535331,-5.15744061067,-35.3517671491
*Step  = 40
*Time  = 3.6
*Data  = x;y;z
1,-4.00590503822,3.27316035892,-8.46210453033
2,-5.486325235,-5.36454379,-37.858426675
15,-3.82633885911,3.26878592153,-8.47498134493
16,-5.18955568962,-5.13574896698,-35.0943750324
*Step  = 41
*Time  = 3.65
*Data  = x;y;z
1,-4.07454857083,3.11545092996,-8.18705973826
2,-5.486325235,-5.36454379,-37.858426675
15,-3.81403221228,3.10960476746,-8.20570581421
16,-5.16238901995,-5.11421358553,-34.8411941834
*Step  = 42
*Time  = 3.7
*Data  = x;y;z
1,-4.13387209209,2.93969146109,-7.89936174843
2,-5.486325235,-5.36454379,-37.858426675
15,-3.8002888215,2.93286807029,-7.92311291199
16,-5.13392200336,-5.09141764384,-34.5758790437
*Step  = 43
*Time  = 3.75
*Data  = x;y;z
1,-4.1982324699,2.75811347997,-7.61661661693
2,-5.486325235,-5.36454379,-37.858426675
15,-3.78573689155,2.75045635581,-7.64571749305
16,-5.10599169644,-5.06866703187,-34.3155805701
*Step  = 44
*Time  = 3.8
*Data  = x;y;z
1,-4.25976571351,2.5562456583,-7.31864047172
2,-5.486325235,-5.36454379,-37.858426675
15,-3.76916459388,2.54808931219,-7.35268211538
16,-5.0765243491,-5.04453060291,-34.0409078791
*Step  = 45
*Time  = 3.85
*Data  = x;y;z
1,-4.32265654599,2.34906938984,-7.02495716294
2,-5.486325235,-5.36454379,-37.858426675
15,-3.75162325939,2.34062251046,-7.06376524719
16,-5.04752015869,-5.02058445672,-33.770512736
*Step  = 46
*Time  = 3.9
*Data  = x;y;z
1,-4.37052180206,2.12523130137,-6.71873785709
2,-5.486325235,-5.36454379,-37.858426675
15,-3.73210565249,2.11697342957,-6.76122681066
16,-5.01724813718,-4.99534002435,-33.488256289
*Step  = 47
*Time  = 3.95
*Data  = x;y;z
1,-4.41338356765,1.89195269817,-6.40846422924
2,-5.486325235,-5.36454379,-37.858426675
15,-3.71119591526,1.88414357698,-6.45399518518
16,-4.98654677076,-4.96948420547,-33.2019406679
*Step  = 48
*Time  = 4
*Data  = x;y;z
1,-4.43021438181,1.89518503963,-6.39686026293
2,-5.486325235,-5.36454379,-37.858426675
15,-3.70993345413,1.88715628892,-6.44375752814
16,-4.98540796417,-4.96739540155,-33.1915065811
*Step  = 49
*Time  = 4.05
*Data  = x;y;z
1,-4.27877101906,1.5166062432,-6.29975225172
2,-5.486325235,-5.36454379,-37.858426675
15,-3.70469938106,1.51026703497,-6.33682938335
16,-4.97786804589,-4.96646815024,-33.1205155177
*Step  = 50
*Time  = 4.1
*Data  = x;y;z
1,-4.1692326687,1.1763441775,-6.25202654304
2,-5.486325235,-5.36454379,-37.858426675
15,-3.70414917634,1.17125479674,-6.28164663111
16,-4.97524460559,-4.96932127395,-33.0953660672
*Step  = 51
*Time  = 4.15
*Data  = x;y;z
1,-4.05488505291,0.807658024248,-6.21851987558
2,-5.486325235,-5.36454379,-37.858426675
15,-3.70508857662,0.803863010357,-6.24027056455
16,-4.97410213629,-4.97318271331,-33.084061688
*Step  = 52
*Time  = 4.2
*Data  = x;y;z
1,-3.92572804493,0.392283941948,-6.202415502
2,-5.486325235,-5.36454379,-37.858426675
15,-3.70827237584,0.389942672218,-6.21550890455
16,-4.97492666542,-4.97810370577,-33.0911613926
*Step  = 53
*Time  = 4.25
*Data  = x;y;z
1,-3.86343679217,-0.0926739183122,-6.23051577333
2,-5.486325235,-5.36454379,-37.858426675
15,-3.71745775655,-0.0942366789271,-6.23897991545
16,-4.98134577234,-4.98621863785,-33.1505608967
*Step  = 54
*Time  = 4.3
*Data  = x;y;z
1,-3.89623426994,-0.628424305193,-6.3064331552
2,-5.486325235,-5.36454379,-37.858426675
15,-3.7329466011,-0.630166550974,-6.31551045755
16,-4.99377214525,-4.9974722022,-33.2661566629
*Step  = 55
*Time  = 4.35
*Data  = x;y;z
1,-3.93471154462,-1.07588827077,-6.36569069383
2,-5.486325235,-5.36454379,-37.858426675
15,-3.74568940557,-1.07789947399,-6.37587486427
16,-5.00375034404,-5.00654628747,-33.3589663123
*Step  = 56
*Time  = 4.4
*Data  = x;y;z
1,-3.95047192726,-1.45784315941,-6.4115155804
2,-5.486325235,-5.36454379,-37.858426675
15,-3.75603192431,-1.45990623119,-6.4217288609
16,-5.01160191624,-5.01403575558,-33.4319444477
*Step  = 57
*Time  = 4.45
*Data  = x;y;z
1,-3.9724434699,-1.80952541548,-6.45528031052
2,-5.486325235,-5.36454379,-37.858426675
15,-3.76581860439,-1.81171159349,-6.46586893545
16,-5.01896085264,-5.02114711166,-33.5003273429
*Step  = 58
*Time  = 4.5
*Data  = x;y;z
1,-3.98550618018,-2.13505430412,-6.49695761097
2,-5.486325235,-5.36454379,-37.858426675
15,-3.77496507533,-2.13727558618,-6.50748955172
16,-5.02577465189,-5.02786212982,-33.5636254735
*Step  = 59
*Time  = 4.55
*Data  = x;y;z
1,-3.99422379327,-2.44682171306,-6.53979320922
2,-5.486325235,-5.36454379,-37.858426675
15,-3.78404636338,-2.44903298186,-6.55008082751
16,-5.03254807667,-5.03449770762,-33.6265526343
*Step  = 60
*Time  = 4.6
*Data  = x;y;z
1,-3.99897692057,-2.7436161002,-6.58131889203
2,-5.486325235,-5.36454379,-37.858426675
15,-3.7927686847,-2.74577959101,-6.59119966733
16,-5.03899384526,-5.04086438847,-33.6864273238
*Step  = 61
*Time  = 4.65
*Data  = x;y;z
1,-4.00823509985,-3.0287293311,-6.62191012851
2,-5.486325235,-5.36454379,-37.858426675
15,-3.80124725887,-3.03089512179,-6.63161603832
16,-5.04522209026,-5.04701776206,-33.7442808282
*Step  = 62
*Time  = 4.7
*Data  = x;y;z
1,-4.00652961367,-3.30079428793,-6.66147825599
2,-5.486325235,-5.36454379,-37.858426675
15,-3.80938552159,-3.30285152898,-6.67054447217
16,-5.05115483651,-5.05293316639,-33.7993815099
*Step  = 63
*Time  = 4.75
*Data  = x;y;z
1,-4.00477943917,-3.56777960179,-6.70242095859
2,-5.486325235,-5.36454379,-37.858426675
15,-3.81759755659,-3.56972786061,-6.71086577942
16,-5.05716535419,-5.05881170675,-33.8552207
*Step  = 64
*Time  = 4.8
*Data  = x;y;z
1,-4.00676614258,-3.82386230903,-6.7407773284
2,-5.486325235,-5.36454379,-37.858426675
15,-3.82539954366,-3.8257449208,-6.74881077239
16,-5.06277624737,-5.06447640073,-33.9073220061
*Step  = 65
*Time  = 4.85
*Data  = x;y;z
1,-4.00824308599,-4.07411618958,-6.77933856407
2,-5.486325235,-5.36454379,-37.858426675
15,-3.83312374602,-4.07592893186,-6.78695335151
16,-5.06830738911,-5.07009494179,-33.9586785144
*Step  = 66
*Time  = 4.9
*Data  = x;y;z
1,-4.01186650657,-4.32064095322,-6.81844877869
2,-5.486325235,-5.36454379,-37.858426675
15,-3.84085440485,-4.32240623282,-6.82575594496
16,-5.07383422236,-5.07571011061,-34.0099956303
*Step  = 67
*Time  = 4.95
*Data  = x;y;z
1,-4.01564250424,-4.56664668328,-6.85750764353
2,-5.486325235,-5.36454379,-37.858426675
15,-3.84855735809,-4.56836645679,-6.86452174738
16,-5.07928838919,-5.08130700833,-34.0606311283
*Step  = 68
*Time  = 4.99999
*Data  = x;y;z
1,-4.05268967374,-4.29234149309,-6.79034568271
2,-5.486325235,-5.36454379,-37.858426675
15,-3.8375713014,-4.29455558754,-6.79966652766
16,-5.07048768528,-5.07518907464,-33.9785264459
