*Step  = 1
*Time  = 1e-05
*Data  = x;y;z
1,-3.46257776338,3.45488937359,-11.2285225396
2,-5.486325235,-5.36454379,-37.858426675
15,-3.97868657904,3.47726122015,-11.1933782734
16,-5.47929637125,-5.35949017049,-37.7928640131
*Step  = 2
*Time  = 1.81668008e-05
*Data  = x;y;z
1,-3.41091407557,3.44555822901,-11.196018473
2,-5.486325235,-5.36454379,-37.858426675
15,-3.97533399864,3.47001930865,-11.1576527896
16,-5.47558980316,-5.35683332354,-37.7582868914
*Step  = 3
*Time  = 5.90008051e-05
*Data  = x;y;z
1,-3.38290555533,3.44249250292,-11.1773466166
2,-5.486325235,-5.36454379,-37.858426675
15,-3.97333722049,3.46807733778,-11.1372405514
16,-5.4734575186,-5.35530748262,-37.7383945005
*Step  = 4
*Time  = 0.000263170826
*Data  = x;y;z
1,-3.36692989398,3.43911057506,-11.1669836677
2,-5.486325235,-5.36454379,-37.858426675
15,-3.972362477,3.46534041119,-11.1258433891
16,-5.47229062007,-5.35447328526,-37.7275079733
*Step  = 5
*Time  = 0.00128402093
*Data  = x;y;z
1,-3.36123023312,3.43600359551,-11.1573961808
2,-5.486325235,-5.36454379,-37.858426675
15,-3.97167844046,3.46243294559,-11.1159014952
16,-5.47127061492,-5.35374301523,-37.7179923764
*Step  = 6
*Time  = 0.00638827146
*Data  = x;y;z
1,-3.35840350668,3.42532648751,-11.1324689599
2,-5.486325235,-5.36454379,-37.858426675
15,-3.97049156622,3.45174201908,-11.0908688775
16,-5.46869536876,-5.35189389122,-37.6939704251
*Step  = 7
*Time  = 0.0319095241
*Data  = x;y;z
1,-3.37192129156,3.37632910398,-11.0237450771
2,-5.486325235,-5.36454379,-37.858426675
15,-3.96613824529,3.40156442429,-10.983398179
16,-5.45764379127,-5.34394064365,-37.5908891603
*Step  = 8
*Time  = 0.05
*Data  = x;y;z
1,-3.4042169336,3.34482701392,-10.9517931548
2,-5.486325235,-5.36454379,-37.858426675
15,-3.96354706888,3.36830895226,-10.9138652585
16,-5.45048215975,-5.33877133294,-37.5240973576
*Step  = 9
*Time  = 0.1
*Data  = x;y;z
1,-3.47987854784,3.25141037733,-10.7564720753
2,-5.486325235,-5.36454379,-37.858426675
15,-3.95648601427,3.27078014264,-10.7244811807
16,-5.43099723472,-5.32468467486,-37.342383376
*Step  = 10
*Time  = 0.15
*Data  = x;y;z
1,-3.5997320553,3.16601330315,-10.5798636129
2,-5.486325235,-5.36454379,-37.858426675
15,-3.95098095289,3.17982230668,-10.5565383646
16,-5.41373385756,-5.31214491179,-37.1814104959
*Step  = 11
*Time  = 0.2
*Data  = x;y;z
1,-3.71005533685,3.12236181556,-10.505250748
2,-5.486325235,-5.36454379,-37.858426675
15,-3.9498141556,3.1316306833,-10.489470601
16,-5.4068718431,-5.30711985099,-37.1174409396
*Step  = 12
*Time  = 0.25
*Data  = x;y;z
1,-3.86141103158,3.0041982027,-10.3385946767
2,-5.486325235,-5.36454379,-37.858426675
15,-3.94607561194,3.00736117717,-10.3331217424
16,-5.39107780032,-5.29560406135,-36.9701822095
*Step  = 13
*Time  = 0.3
*Data  = x;y;z
1,-4.02114834795,2.85572719977,-10.1711230554
2,-5.486325235,-5.36454379,-37.858426675
15,-3.94285353464,2.85290195981,-10.1760797211
16,-5.37543746808,-5.28415590021,-36.8243704807
*Step  = 14
*Time  = 0.35
*Data  = x;y;z
1,-4.13272886376,2.69836401334,-9.9932496005
2,-5.486325235,-5.36454379,-37.858426675
15,-3.93796041496,2.69157858217,-10.0053356423
16,-5.35840581395,-5.27164397581,-36.665600672
*Step  = 15
*Time  = 0.4
*Data  = x;y;z
1,-4.20943746992,2.56716852394,-9.79778850327
2,-5.486325235,-5.36454379,-37.858426675
15,-3.92956572184,2.55776033195,-9.81486502818
16,-5.3390676092,-5.25739013567,-36.4853411617
*Step  = 16
*Time  = 0.45
*Data  = x;y;z
1,-4.26628142895,2.44506805327,-9.59772571248
2,-5.486325235,-5.36454379,-37.858426675
15,-3.91977779471,2.43383605804,-9.61852867781
16,-5.31902525915,-5.24254445055,-36.2985365796
*Step  = 17
*Time  = 0.5
*Data  = x;y;z
1,-4.28769274628,2.38629254547,-9.4969907073
2,-5.486325235,-5.36454379,-37.858426675
15,-3.91456119225,2.37441658074,-9.51928035226
16,-5.30886674668,-5.23487715008,-36.2038995806
*Step  = 18
*Time  = 0.55
*Data  = x;y;z
1,-4.36968404378,2.2513028171,-9.29745426751
2,-5.486325235,-5.36454379,-37.858426675
15,-3.90479205733,2.23705155121,-9.32474840281
16,-5.28912410161,-5.22009398814,-36.0199269265
*Step  = 19
*Time  = 0.6
*Data  = x;y;z
1,-4.41997953754,2.12972881626,-9.10057221729
2,-5.486325235,-5.36454379,-37.858426675
15,-3.8942151697,2.11421679424,-9.1309864555
16,-5.26936193941,-5.20517826059,-35.8357988599
*Step  = 20
*Time  = 0.65
*Data  = x;y;z
1,-4.48277314724,2.0084085783,-8.88877427051
2,-5.486325235,-5.36454379,-37.858426675
15,-3.8818474824,1.99136042761,-8.92308043204
16,-5.24811173481,-5.18903795625,-35.6378252885
*Step  = 21
*Time  = 0.7
*Data  = x;y;z
1,-4.54572450801,1.87977370379,-8.67927060022
2,-5.486325235,-5.36454379,-37.858426675
15,-3.86947259447,1.86134327868,-8.71728825329
16,-5.22713307468,-5.17295425908,-35.4424103585
*Step  = 22
*Time  = 0.75
*Data  = x;y;z
1,-4.61132870398,1.74152319931,-8.469481465
2,-5.486325235,-5.36454379,-37.858426675
15,-3.85692072311,1.72179024112,-8.51118044407
16,-5.20619893955,-5.15675188583,-35.2474365657
*Step  = 23
*Time  = 0.8
*Data  = x;y;z
1,-4.63567603507,1.67878553653,-8.36363449019
2,-5.486325235,-5.36454379,-37.858426675
15,-3.85011469541,1.65865518455,-8.40686058629
16,-5.19554450817,-5.1481504515,-35.1482993157
*Step  = 24
*Time  = 0.85
*Data  = x;y;z
1,-4.72171383775,1.53491022084,-8.15824682464
2,-5.486325235,-5.36454379,-37.858426675
15,-3.83772788635,1.51320452258,-8.20596630756
16,-5.17522363921,-5.13216381986,-34.9590732005
*Step  = 25
*Time  = 0.9
*Data  = x;y;z
1,-4.78530731155,1.39582362051,-7.95095227975
2,-5.486325235,-5.36454379,-37.858426675
15,-3.82431412966,1.37323301962,-8.00189066705
16,-5.15453465611,-5.11571026352,-34.7664469062
*Step  = 26
*Time  = 0.95
*Data  = x;y;z
1,-4.85413289273,1.24775594214,-7.74152271111
2,-5.486325235,-5.36454379,-37.858426675
15,-3.81062626914,1.22429857826,-7.79577924127
16,-5.13372117354,-5.09897507648,-34.5726813678
*Step  = 27
*Time  = 1
*Data  = x;y;z
1,-4.84039279664,1.26017378641,-7.74053660871
2,-5.486325235,-5.36454379,-37.858426675
15,-3.81020207661,1.23699433021,-7.79459861774
16,-5.13351056717,-5.09795155909,-34.5709407225
*Step  = 28
*Time  = 1.03
*Data  = x;y;z
1,-4.7087260511,1.6045582491,-7.86954656993
2,-5.486325235,-5.36454379,-37.858426675
15,-3.81564244223,1.58444006974,-7.91994256295
16,-5.14427562446,-5.10502794018,-34.6714840953
*Step  = 29
*Time  = 1.06
*Data  = x;y;z
1,-4.5576550207,2.00557500284,-8.02252973827
2,-5.486325235,-5.36454379,-37.858426675
15,-3.82373413014,1.98901876879,-8.06908748431
16,-5.1575347072,-5.11395216879,-34.7952393505
*Step  = 30
*Time  = 1.09
*Data  = x;y;z
1,-4.46218403192,2.24172836877,-8.0984561246
2,-5.486325235,-5.36454379,-37.858426675
15,-3.82650268819,2.22736764628,-8.14083903555
16,-5.1633923864,-5.11740620351,-34.8500310677
*Step  = 31
*Time  = 1.12
*Data  = x;y;z
1,-4.38625519339,2.37686052989,-8.13078037781
2,-5.486325235,-5.36454379,-37.858426675
15,-3.8265525686,2.36419860554,-8.16899763198
16,-5.16525495352,-5.11789974343,-34.8675974911
*Step  = 32
*Time  = 1.15
*Data  = x;y;z
1,-4.36730880899,2.48224134978,-8.15642934217
2,-5.486325235,-5.36454379,-37.858426675
15,-3.82656017093,2.46999112239,-8.1938084201
16,-5.16690393486,-5.11826185997,-34.8831778524
*Step  = 33
*Time  = 1.18
*Data  = x;y;z
1,-4.31851737642,2.59631551441,-8.18585679866
2,-5.486325235,-5.36454379,-37.858426675
15,-3.82651318716,2.58515311161,-8.220221215
16,-5.1685930614,-5.11862400589,-34.8991388065
*Step  = 34
*Time  = 1.21
*Data  = x;y;z
1,-4.28769972092,2.67784850737,-8.20267530552
2,-5.486325235,-5.36454379,-37.858426675
15,-3.82587734253,2.66735546077,-8.23512349091
16,-5.1693066404,-5.11824961678,-34.9060153001
*Step  = 35
*Time  = 1.24
*Data  = x;y;z
1,-4.24639226269,2.74073592235,-8.21256275062
2,-5.486325235,-5.36454379,-37.858426675
15,-3.8249284193,2.7311461907,-8.24233756478
16,-5.16937133074,-5.11740404231,-34.9068401019
*Step  = 36
*Time  = 1.27
*Data  = x;y;z
1,-4.20704413485,2.81610564204,-8.23131415827
2,-5.486325235,-5.36454379,-37.858426675
15,-3.8245667352,2.80739013169,-8.25846051089
16,-5.17024029591,-5.1171612034,-34.9151615715
*Step  = 37
*Time  = 1.3
*Data  = x;y;z
1,-4.19000043546,2.88694784387,-8.24853874317
2,-5.486325235,-5.36454379,-37.858426675
15,-3.82414224351,2.87859869728,-8.27453518267
16,-5.17109898461,-5.11691730267,-34.9233916555
*Step  = 38
*Time  = 1.33
*Data  = x;y;z
1,-4.17348867068,2.9378504909,-8.25713257528
2,-5.486325235,-5.36454379,-37.858426675
15,-3.82343978771,2.92985072438,-8.28206392922
16,-5.171260171,-5.11616012002,-34.9251159991
*Step  = 39
*Time  = 1.36
*Data  = x;y;z
1,-4.16434717096,2.99818423923,-8.27308896187
2,-5.486325235,-5.36454379,-37.858426675
15,-3.82322998517,2.99037725805,-8.29740752903
16,-5.17213369508,-5.11595232096,-34.9334786767
*Step  = 40
*Time  = 1.39
*Data  = x;y;z
1,-4.14332497166,3.06065765342,-8.28971123211
2,-5.486325235,-5.36454379,-37.858426675
15,-3.82292314174,3.05331399825,-8.31257124783
16,-5.17295239567,-5.11569605103,-34.9413332822
*Step  = 41
*Time  = 1.42
*Data  = x;y;z
1,-4.12783601399,3.10654125962,-8.29915253865
2,-5.486325235,-5.36454379,-37.858426675
15,-3.82238288132,3.09953017627,-8.32098230376
16,-5.17322969249,-5.1150329464,-34.9441415133
*Step  = 42
*Time  = 1.45
*Data  = x;y;z
1,-4.11478058812,3.15017929675,-8.30905895377
2,-5.486325235,-5.36454379,-37.858426675
15,-3.82194025045,3.14344821495,-8.33000885192
16,-5.17358539279,-5.11444849455,-34.947676947
*Step  = 43
*Time  = 1.48
*Data  = x;y;z
1,-4.10087174469,3.20691793484,-8.32545317182
2,-5.486325235,-5.36454379,-37.858426675
15,-3.8217723768,3.20049344766,-8.34541995382
16,-5.17446394381,-5.11426829418,-34.9560846035
*Step  = 44
*Time  = 1.51
*Data  = x;y;z
1,-4.08840496932,3.25142384609,-8.33560013078
2,-5.486325235,-5.36454379,-37.858426675
15,-3.8213057445,3.24526680663,-8.35472034404
16,-5.17482182311,-5.1136809303,-34.9596436918
*Step  = 45
*Time  = 1.54
*Data  = x;y;z
1,-4.07784908911,3.28815821804,-8.34373942444
2,-5.486325235,-5.36454379,-37.858426675
15,-3.8208619478,3.28222604076,-8.36215192883
16,-5.17506517172,-5.11302537332,-34.9621309885
*Step  = 46
*Time  = 1.57
*Data  = x;y;z
1,-4.06791535379,3.33461638191,-8.35754151724
2,-5.486325235,-5.36454379,-37.858426675
15,-3.82068883642,3.32890141924,-8.37524652358
16,-5.17578447322,-5.11273978853,-34.969053968
*Step  = 47
*Time  = 1.6
*Data  = x;y;z
1,-4.05681442011,3.38044442437,-8.37004836235
2,-5.486325235,-5.36454379,-37.858426675
15,-3.82039444751,3.37497147718,-8.38697659633
16,-5.17636206905,-5.11233710819,-34.974659387
*Step  = 48
*Time  = 1.63
*Data  = x;y;z
1,-4.04782522765,3.41252725881,-8.37628191087
2,-5.486325235,-5.36454379,-37.858426675
15,-3.81988374638,3.4072433476,-8.39261813802
16,-5.17645393428,-5.11157292789,-34.9757354357
*Step  = 49
*Time  = 1.66
*Data  = x;y;z
1,-4.04066314101,3.45165373022,-8.38794168872
2,-5.486325235,-5.36454379,-37.858426675
15,-3.81968427252,3.4465241425,-8.40376882426
16,-5.17703228228,-5.11120149669,-34.9813422702
*Step  = 50
*Time  = 1.69
*Data  = x;y;z
1,-4.03145878218,3.49432281678,-8.4009124296
2,-5.486325235,-5.36454379,-37.858426675
15,-3.81950863522,3.48939585978,-8.41608443786
16,-5.17768830412,-5.11087609877,-34.9876768393
*Step  = 51
*Time  = 1.72
*Data  = x;y;z
1,-4.03008251474,3.52795217703,-8.40958737934
2,-5.486325235,-5.36454379,-37.858426675
15,-3.8192038467,3.52304342624,-8.42467977712
16,-5.17805374424,-5.11034135827,-34.991301004
*Step  = 52
*Time  = 1.75
*Data  = x;y;z
1,-4.01797374074,3.55765768703,-8.41729245496
2,-5.486325235,-5.36454379,-37.858426675
15,-3.8188501197,3.55301631116,-8.4315492965
16,-5.1782819699,-5.10970462725,-34.9936451951
*Step  = 53
*Time  = 1.78
*Data  = x;y;z
1,-4.01075577183,3.59884149143,-8.43098553816
2,-5.486325235,-5.36454379,-37.858426675
15,-3.81875145365,3.59435980912,-8.44471402182
16,-5.17902316713,-5.1094657383,-35.0007719857
*Step  = 54
*Time  = 1.81
*Data  = x;y;z
1,-4.00241636387,3.63242086947,-8.43968333535
2,-5.486325235,-5.36454379,-37.858426675
15,-3.81839434586,3.62811961951,-8.45284074764
16,-5.17932744261,-5.1088806025,-35.0038290641
*Step  = 55
*Time  = 1.84
*Data  = x;y;z
1,-4.01266458041,3.66187038128,-8.44798943994
2,-5.486325235,-5.36454379,-37.858426675
15,-3.81822013162,3.65731937464,-8.46188215061
16,-5.17976936047,-5.10842223475,-35.0081651189
*Step  = 56
*Time  = 1.87
*Data  = x;y;z
1,-4.01032698492,3.69106470458,-8.45746463032
2,-5.486325235,-5.36454379,-37.858426675
15,-3.81811405717,3.68656005696,-8.47119690132
16,-5.18025185968,-5.10802780446,-35.0128694993
*Step  = 57
*Time  = 1.9
*Data  = x;y;z
1,-3.99323992224,3.71708763421,-8.46505580923
2,-5.486325235,-5.36454379,-37.858426675
15,-3.81774716986,3.71296945938,-8.47758661095
16,-5.18044456384,-5.10738985363,-35.0148817785
*Step  = 58
*Time  = 1.93
*Data  = x;y;z
1,-3.98438600101,3.75367490488,-8.47765913077
2,-5.486325235,-5.36454379,-37.858426675
15,-3.81763621233,3.74975657451,-8.48955111106
16,-5.18109487247,-5.10710557454,-35.0211591681
*Step  = 59
*Time  = 1.96
*Data  = x;y;z
1,-3.99955365215,3.7716796109,-8.48102346993
2,-5.486325235,-5.36454379,-37.858426675
15,-3.81733035914,3.76739216276,-8.49401942636
16,-5.18118634605,-5.10639333633,-35.0222274776
*Step  = 60
*Time  = 1.99
*Data  = x;y;z
1,-3.98349999879,3.75826110049,-8.47173318116
2,-5.486325235,-5.36454379,-37.858426675
15,-3.81655618932,3.75432897276,-8.48368831144
16,-5.18013538383,-5.10484730818,-35.0126301682
*Step  = 61
*Time  = 1.99999
*Data  = x;y;z
1,-3.97892237959,3.75948910834,-8.47448354864
2,-5.486325235,-5.36454379,-37.858426675
15,-3.81655972204,3.75566075497,-8.4861181097
16,-5.18023379579,-5.1042685266,-35.0137266489
*Step  = 1
*Time  = 2
*Data  = x;y;z
1,-3.97598970343,3.7613085875,-8.47770115937
2,-5.486325235,-5.36454379,-37.858426675
15,-3.81659390555,3.7575461246,-8.48912794515
16,-5.18038462222,-5.1037334348,-35.0153117048
*Step  = 2
*Time  = 2.00005
*Data  = x;y;z
1,-3.97347532478,3.76335132152,-8.48119479419
2,-5.486325235,-5.36454379,-37.858426675
15,-3.81664283258,3.75964513189,-8.49244232409
16,-5.1805651183,-5.10322372349,-35.0171735418
*Step  = 3
*Time  = 2.0003
*Data  = x;y;z
1,-3.97132926055,3.76591277519,-8.48555088387
2,-5.486325235,-5.36454379,-37.858426675
15,-3.81672904664,3.76225427333,-8.4966421622
16,-5.18083307521,-5.10279026956,-35.0198506144
*Step  = 4
*Time  = 2.00155
*Data  = x;y;z
1,-3.96865552865,3.77079568426,-8.4938959783
2,-5.486325235,-5.36454379,-37.858426675
15,-3.81697041828,3.767196814,-8.50478216588
16,-5.18149110675,-5.10269332659,-35.0261637995
*Step  = 5
*Time  = 2.0078
*Data  = x;y;z
1,-3.96408387151,3.78741454706,-8.52229162892
2,-5.486325235,-5.36454379,-37.858426675
15,-3.81800138268,3.78391848911,-8.53278087803
16,-5.18411341969,-5.10429269261,-35.0507844547
*Step  = 6
*Time  = 2.03905
*Data  = x;y;z
1,-3.94189688315,3.86076852377,-8.65024715099
2,-5.486325235,-5.36454379,-37.858426675
15,-3.8228176257,3.85780826636,-8.65880826226
16,-5.19645180554,-5.11434550573,-35.1659316857
*Step  = 7
*Time  = 2.05
*Data  = x;y;z
1,-3.9264719235,3.88650908524,-8.69946452738
2,-5.486325235,-5.36454379,-37.858426675
15,-3.82473472469,3.88394585209,-8.70677849179
16,-5.2011089845,-5.11792966401,-35.209443734
*Step  = 8
*Time  = 2.1
*Data  = x;y;z
1,-3.87992871127,3.9967307392,-8.90147167851
2,-5.486325235,-5.36454379,-37.858426675
15,-3.83215635738,3.99545710056,-8.90491741809
16,-5.22069331606,-5.13450995695,-35.3919729085
*Step  = 9
*Time  = 2.15
*Data  = x;y;z
1,-3.83800981449,4.10399225313,-9.10613848843
2,-5.486325235,-5.36454379,-37.858426675
15,-3.83946693979,4.10403323094,-9.10603337365
16,-5.240625779,-5.15158189177,-35.5776155253
*Step  = 10
*Time  = 2.2
*Data  = x;y;z
1,-3.77876212118,4.15038717017,-9.20859374677
2,-5.486325235,-5.36454379,-37.858426675
15,-3.84305447765,4.15224238022,-9.20394329626
16,-5.25040933436,-5.15994720066,-35.6687101249
*Step  = 11
*Time  = 2.25
*Data  = x;y;z
1,-3.75129976099,4.25218900393,-9.41015345484
2,-5.486325235,-5.36454379,-37.858426675
15,-3.84975757743,4.25517365259,-9.40304072858
16,-5.27019964694,-5.17701406541,-35.8528847908
*Step  = 12
*Time  = 2.3
*Data  = x;y;z
1,-3.68798149433,4.3493138133,-9.61170854779
2,-5.486325235,-5.36454379,-37.858426675
15,-3.85617349679,4.35465835757,-9.59953326979
16,-5.2898146644,-5.19398046755,-36.0353287402
*Step  = 13
*Time  = 2.35
*Data  = x;y;z
1,-3.64379137118,4.44344344219,-9.81296963251
2,-5.486325235,-5.36454379,-37.858426675
15,-3.86235690132,4.45070721674,-9.79716496945
16,-5.30957501053,-5.21112951419,-36.2190263669
*Step  = 14
*Time  = 2.4
*Data  = x;y;z
1,-3.59224586767,4.53467933939,-10.0135245907
2,-5.486325235,-5.36454379,-37.858426675
15,-3.8682875447,4.54425454605,-9.99356053929
16,-5.32926318765,-5.22823163398,-36.4019634923
*Step  = 15
*Time  = 2.45
*Data  = x;y;z
1,-3.5531279881,4.62207284767,-10.2142320549
2,-5.486325235,-5.36454379,-37.858426675
15,-3.87419096313,4.63367688823,-10.191009863
16,-5.3491387272,-5.24552515568,-36.5865440699
*Step  = 16
*Time  = 2.5
*Data  = x;y;z
1,-3.52859277067,4.66158852904,-10.3149018508
2,-5.486325235,-5.36454379,-37.858426675
15,-3.87720715154,4.67444134956,-10.2896814607
16,-5.35912995957,-5.25422315429,-36.6792960195
*Step  = 17
*Time  = 2.54516129
*Data  = x;y;z
1,-3.50485860542,4.73662965722,-10.4924208236
2,-5.486325235,-5.36454379,-37.858426675
15,-3.88199609105,4.75102816687,-10.4651613925
16,-5.37683947029,-5.26963545638,-36.8436545408
*Step  = 18
*Time  = 2.55
*Data  = x;y;z
1,-3.49832728162,4.74129540196,-10.5127183463
2,-5.486325235,-5.36454379,-37.858426675
15,-3.88263004288,4.75602193047,-10.4849838189
16,-5.37885312891,-5.27137267458,-36.8623453138
*Step  = 19
*Time  = 2.6
*Data  = x;y;z
1,-3.46924014845,4.82043733191,-10.7050879473
2,-5.486325235,-5.36454379,-37.858426675
15,-3.88744407022,4.83706782949,-10.6749090952
16,-5.39806884218,-5.28808636538,-37.0406030848
*Step  = 20
*Time  = 2.65
*Data  = x;y;z
1,-3.42260532367,4.86696173399,-10.8781258989
2,-5.486325235,-5.36454379,-37.858426675
15,-3.89117041292,4.88624975792,-10.844670297
16,-5.41572866987,-5.30367595823,-37.2042703818
*Step  = 21
*Time  = 2.7
*Data  = x;y;z
1,-3.40473608356,4.88951849565,-11.0352107689
2,-5.486325235,-5.36454379,-37.858426675
15,-3.89442690351,4.91033256887,-11.0009818929
16,-5.43241982426,-5.31844347716,-37.35887581
*Step  = 22
*Time  = 2.75
*Data  = x;y;z
1,-3.40050026419,4.89683251848,-11.1789992537
2,-5.486325235,-5.36454379,-37.858426675
15,-3.89697871875,4.91857685295,-11.1453640475
16,-5.44804276855,-5.33211759178,-37.5035878751
*Step  = 23
*Time  = 2.8
*Data  = x;y;z
1,-3.40762919441,4.88804116016,-11.2406902948
2,-5.486325235,-5.36454379,-37.858426675
15,-3.89787768971,4.90981558213,-11.2081709377
16,-5.45504966457,-5.33821284197,-37.5684886998
*Step  = 24
*Time  = 2.85
*Data  = x;y;z
1,-3.41591882533,4.88974638419,-11.373449026
2,-5.486325235,-5.36454379,-37.858426675
15,-3.89939576916,4.91182226287,-11.3427346211
16,-5.46935179395,-5.35035183383,-37.7010591225
*Step  = 25
*Time  = 2.9
*Data  = x;y;z
1,-3.40901435568,4.87578948646,-11.4944930644
2,-5.486325235,-5.36454379,-37.858426675
15,-3.90115401034,4.89884154397,-11.4644984699
16,-5.48264357692,-5.36149154172,-37.8242855636
*Step  = 26
*Time  = 2.95
*Data  = x;y;z
1,-3.38784237578,4.8474276368,-11.6057818771
2,-5.486325235,-5.36454379,-37.858426675
15,-3.90415765204,4.87217627351,-11.5752661993
16,-5.49550968076,-5.37205232466,-37.9436384439
*Step  = 27
*Time  = 3
*Data  = x;y;z
1,-3.35602481449,4.82587011766,-11.5913127392
2,-5.486325235,-5.36454379,-37.858426675
15,-3.9038217564,4.85211148326,-11.5590174947
16,-5.49427522808,-5.37101927901,-37.932197754
*Step  = 28
*Time  = 3.05
*Data  = x;y;z
1,-3.30984237395,4.83012702611,-11.3996057999
2,-5.486325235,-5.36454379,-37.858426675
15,-3.89915330194,4.85734718534,-11.3630769926
16,-5.47286685687,-5.35343153575,-37.7335897285
*Step  = 29
*Time  = 3.1
*Data  = x;y;z
1,-3.37541175297,4.84354607743,-11.2131464597
2,-5.486325235,-5.36454379,-37.858426675
15,-3.89849371128,4.86672389386,-11.1782878919
16,-5.45345040206,-5.33720323369,-37.5534987456
*Step  = 30
*Time  = 3.15
*Data  = x;y;z
1,-3.4239602873,4.84195087657,-11.0834466247
2,-5.486325235,-5.36454379,-37.858426675
15,-3.89785050235,4.86232806552,-11.0507605398
16,-5.43993837736,-5.32573781993,-37.4281937413
*Step  = 31
*Time  = 3.2
*Data  = x;y;z
1,-3.47378591361,4.81636698261,-10.8663109187
2,-5.486325235,-5.36454379,-37.858426675
15,-3.89471851906,4.83362292894,-10.8362381948
16,-5.41701861894,-5.30587535995,-37.215734089
*Step  = 32
*Time  = 3.25
*Data  = x;y;z
1,-3.52619348749,4.77166976234,-10.6300298274
2,-5.486325235,-5.36454379,-37.858426675
15,-3.88924214009,4.78581911954,-10.603661678
16,-5.39189452878,-5.28337732436,-36.9830101815
*Step  = 33
*Time  = 3.3
*Data  = x;y;z
1,-3.55683460542,4.67261339444,-10.3554820659
2,-5.486325235,-5.36454379,-37.858426675
15,-3.8812650611,4.68458123912,-10.3319062103
16,-5.36345689351,-5.25782152178,-36.7194661995
*Step  = 34
*Time  = 3.35
*Data  = x;y;z
1,-3.56455854443,4.57392360974,-10.1461069162
2,-5.486325235,-5.36454379,-37.858426675
15,-3.87400809564,4.58490016356,-10.1237624245
16,-5.34219246003,-5.23885531576,-36.5222516141
*Step  = 35
*Time  = 3.4
*Data  = x;y;z
1,-3.62678825683,4.43880361086,-9.851921119
2,-5.486325235,-5.36454379,-37.858426675
15,-3.8652009336,4.44675013451,-9.83473517365
16,-5.31294041909,-5.21277116064,-36.2507317679
*Step  = 36
*Time  = 3.45
*Data  = x;y;z
1,-3.67289093628,4.29511979682,-9.55457693379
2,-5.486325235,-5.36454379,-37.858426675
15,-3.85571300521,4.3008220558,-9.54138487212
16,-5.28340161273,-5.18626050081,-35.9763984585
*Step  = 37
*Time  = 3.5
*Data  = x;y;z
1,-3.7453107276,4.1478197981,-9.25722544874
2,-5.486325235,-5.36454379,-37.858426675
15,-3.84568690459,4.15073595186,-9.2499929836
16,-5.25410961443,-5.15973270173,-35.7042204836
*Step  = 38
*Time  = 3.55
*Data  = x;y;z
1,-3.81774520338,4.04999009486,-9.05765770005
2,-5.486325235,-5.36454379,-37.858426675
15,-3.83846726976,4.05056289968,-9.05616688223
16,-5.23455904503,-5.14163829747,-35.5225627599
*Step  = 39
*Time  = 3.6
*Data  = x;y;z
1,-3.87164341536,3.89552590156,-8.76181106611
2,-5.486325235,-5.36454379,-37.858426675
15,-3.82742838799,3.89439797687,-8.76498873459
16,-5.20544045304,-5.11490290485,-35.2517226716
*Step  = 40
*Time  = 3.65
*Data  = x;y;z
1,-3.93118401098,3.73475327972,-8.46286374329
2,-5.486325235,-5.36454379,-37.858426675
15,-3.81552328939,3.73204828283,-8.47117940358
16,-5.17612731372,-5.08755547673,-34.9789589776
*Step  = 41
*Time  = 3.7
*Data  = x;y;z
1,-3.99049898566,3.56604507044,-8.16143477936
2,-5.486325235,-5.36454379,-37.858426675
15,-3.80254743379,3.56204593049,-8.17492412721
16,-5.14660956113,-5.059440483,-34.7042040046
*Step  = 42
*Time  = 3.75
*Data  = x;y;z
1,-4.03372845672,3.45080503733,-7.95717659529
2,-5.486325235,-5.36454379,-37.858426675
15,-3.79287076481,3.44601227819,-7.97443712235
16,-5.1265634247,-5.03948029721,-34.5177010074
*Step  = 43
*Time  = 3.8
*Data  = x;y;z
1,-4.14806312984,3.06913446578,-7.3397707091
2,-5.486325235,-5.36454379,-37.858426675
15,-3.76818659967,3.06316254059,-7.3664571052
16,-5.07642800429,-5.0661831847,-34.0359013371
*Step  = 44
*Time  = 3.85
*Data  = x;y;z
1,-4.20222274831,2.86416496065,-7.02626536399
2,-5.486325235,-5.36454379,-37.858426675
15,-3.75010244436,2.8579682005,-7.05748325447
16,-5.04471741999,-5.03984807391,-33.7406383072
*Step  = 45
*Time  = 3.9
*Data  = x;y;z
1,-4.24085192716,2.64416779162,-6.7054390377
2,-5.486325235,-5.36454379,-37.858426675
15,-3.73014684677,2.63817859152,-6.739982005
16,-5.01226868417,-5.0124753704,-33.4384431892
*Step  = 46
*Time  = 3.95
*Data  = x;y;z
1,-4.27060900463,2.49428774057,-6.48672111918
2,-5.486325235,-5.36454379,-37.858426675
15,-3.71562140933,2.48848514643,-6.52375254946
16,-4.9901301231,-4.99247128042,-33.2323698909
*Step  = 47
*Time  = 4
*Data  = x;y;z
1,-4.2742178319,2.49779882441,-6.47933823135
2,-5.486325235,-5.36454379,-37.858426675
15,-3.7144800475,2.49190883209,-6.51691796524
16,-4.98916271228,-4.98864972268,-33.2237626453
*Step  = 48
*Time  = 4.05
*Data  = x;y;z
1,-4.16464820432,2.28782494389,-6.43248841245
2,-5.486325235,-5.36454379,-37.858426675
15,-3.71232567444,2.28309305973,-6.46302316261
16,-4.98561772785,-4.98879474237,-33.1903306588
*Step  = 49
*Time  = 4.1
*Data  = x;y;z
1,-4.10819968566,2.09250360414,-6.40635989228
2,-5.486325235,-5.36454379,-37.858426675
15,-3.71236506069,2.08838813554,-6.4331225812
16,-4.98441407843,-4.99085052652,-33.1787160699
*Step  = 50
*Time  = 4.15
*Data  = x;y;z
1,-4.05623278036,1.89189280722,-6.38839584551
2,-5.486325235,-5.36454379,-37.858426675
15,-3.71322997392,1.88834804193,-6.41156331689
16,-4.98405939619,-4.99345916909,-33.1750345949
*Step  = 51
*Time  = 4.2
*Data  = x;y;z
1,-4.01119450375,1.68447455177,-6.37414978387
2,-5.486325235,-5.36454379,-37.858426675
15,-3.71451845269,1.68142677239,-6.3941176762
16,-4.98412021646,-4.99633844727,-33.1752378727
*Step  = 52
*Time  = 4.25
*Data  = x;y;z
1,-3.96939928138,1.46734962435,-6.36604856125
2,-5.486325235,-5.36454379,-37.858426675
15,-3.71648876734,1.46476576074,-6.38298830384
16,-4.98485974385,-4.9995015873,-33.1818019932
*Step  = 53
*Time  = 4.3
*Data  = x;y;z
1,-3.92765255959,1.2364414154,-6.36341450984
2,-5.486325235,-5.36454379,-37.858426675
15,-3.71909809657,1.23432131265,-6.37727606696
16,-4.98619937951,-5.00283959797,-33.193998712
*Step  = 54
*Time  = 4.35
*Data  = x;y;z
1,-3.89109414387,0.98926455796,-6.36897269893
2,-5.486325235,-5.36454379,-37.858426675
15,-3.722652464,0.987559392739,-6.38004107669
16,-4.98847616502,-5.0064793163,-33.214984307
*Step  = 55
*Time  = 4.4
*Data  = x;y;z
1,-3.87269461338,0.717001141685,-6.38747295204
2,-5.486325235,-5.36454379,-37.858426675
15,-3.72789841473,0.715539992694,-6.39684200941
16,-4.99235972902,-5.01078720991,-33.2510167812
*Step  = 56
*Time  = 4.45
*Data  = x;y;z
1,-3.86046616649,0.414484627883,-6.42244995558
2,-5.486325235,-5.36454379,-37.858426675
15,-3.73518557365,0.413222631245,-6.43040586549
16,-4.99820179245,-5.01581706015,-33.3054003589
*Step  = 57
*Time  = 4.5
*Data  = x;y;z
1,-3.87763328228,0.0911563488977,-6.47201629029
2,-5.486325235,-5.36454379,-37.858426675
15,-3.74438980132,0.0898144174322,-6.48029857901
16,-5.00591446545,-5.02143991704,-33.3773239111
*Step  = 58
*Time  = 4.55
*Data  = x;y;z
1,-3.88914441572,-0.224810247065,-6.52034717746
2,-5.486325235,-5.36454379,-37.858426675
15,-3.75340838403,-0.226178012319,-6.52863028997
16,-5.01344417726,-5.02657510411,-33.4475863338
*Step  = 59
*Time  = 4.6
*Data  = x;y;z
1,-3.91147716277,-0.520841085154,-6.56412367796
2,-5.486325235,-5.36454379,-37.858426675
15,-3.76182421925,-0.522350151713,-6.57309568701
16,-5.02042303793,-5.03123523563,-33.512721756
*Step  = 60
*Time  = 4.65
*Data  = x;y;z
1,-3.92621855903,-0.797794152751,-6.60348207722
2,-5.486325235,-5.36454379,-37.858426675
15,-3.76955948925,-0.799374733007,-6.61272336673
16,-5.02675515651,-5.03550961502,-33.5718157044
*Step  = 61
*Time  = 4.7
*Data  = x;y;z
1,-3.92790028137,-1.06052774632,-6.64105081565
2,-5.486325235,-5.36454379,-37.858426675
15,-3.77690746117,-1.06205174162,-6.64983350983
16,-5.03272797508,-5.03960904314,-33.627548309
*Step  = 62
*Time  = 4.75
*Data  = x;y;z
1,-3.93638656036,-1.31466439891,-6.67921834122
2,-5.486325235,-5.36454379,-37.858426675
15,-3.7842750864,-1.31620016028,-6.68793935255
16,-5.03873732515,-5.04377254378,-33.6836169557
*Step  = 63
*Time  = 4.8
*Data  = x;y;z
1,-3.94229171814,-1.55878650501,-6.71572847438
2,-5.486325235,-5.36454379,-37.858426675
15,-3.79136105831,-1.56031066579,-6.72425767238
16,-5.04447555643,-5.04779015753,-33.7371507952
*Step  = 64
*Time  = 4.85
*Data  = x;y;z
1,-3.9523654772,-1.79331799862,-6.7517847704
2,-5.486325235,-5.36454379,-37.858426675
15,-3.79831945318,-1.79487369546,-6.76036622284
16,-5.05011001728,-5.05181423389,-33.789706198
*Step  = 65
*Time  = 4.9
*Data  = x;y;z
1,-3.95173872736,-2.01803180246,-6.78505907787
2,-5.486325235,-5.36454379,-37.858426675
15,-3.80483057388,-2.01951506381,-6.79313800581
16,-5.05530663157,-5.05566308335,-33.8381595359
*Step  = 66
*Time  = 4.95
*Data  = x;y;z
1,-3.95370822827,-2.23901599422,-6.81899435639
2,-5.486325235,-5.36454379,-37.858426675
15,-3.81139920138,-2.2404522667,-6.82671396133
16,-5.06054015571,-5.05960873246,-33.8869478066
*Step  = 67
*Time  = 4.99999
*Data  = x;y;z
1,-4.02895675402,-2.12087471862,-6.77974884866
2,-5.486325235,-5.36454379,-37.858426675
15,-3.80620875889,-2.1231305732,-6.79212192386
16,-5.05634191471,-5.05490153289,-33.8480148549
