*Step  = 1
*Time  = 1e-05
*Data  = x;y;z
1,-3.44247683702,3.4369409569,-11.2309267366
2,-5.486325235,-5.36454379,-37.858426675
15,-3.97961338439,3.46022477679,-11.1943035479
16,-5.47955126629,-5.35967287458,-37.7952418312
*Step  = 2
*Time  = 1.87718096e-05
*Data  = x;y;z
1,-3.39260701135,3.42899205844,-11.1975101082
2,-5.486325235,-5.36454379,-37.858426675
15,-3.97613525024,3.45428172921,-11.1577779683
16,-5.47575345579,-5.35695004721,-37.7598138047
*Step  = 3
*Time  = 6.26308577e-05
*Data  = x;y;z
1,-3.36663344376,3.42787996584,-11.1786377586
2,-5.486325235,-5.36454379,-37.858426675
15,-3.97405765137,3.4542016306,-11.1372935609
16,-5.47360050802,-5.35540899159,-37.739728836
*Step  = 4
*Time  = 0.000281926098
*Data  = x;y;z
1,-3.35178323043,3.43050401314,-11.1679084995
2,-5.486325235,-5.36454379,-37.858426675
15,-3.97278332606,3.45740851195,-11.1256245769
16,-5.47235388251,-5.35451750242,-37.7280986316
*Step  = 5
*Time  = 0.0013784023
*Data  = x;y;z
1,-3.34173923158,3.42869735094,-11.1580051769
2,-5.486325235,-5.36454379,-37.858426675
15,-3.97198604171,3.45598267795,-11.1150744035
16,-5.47125822718,-5.35373302043,-37.7178773195
*Step  = 6
*Time  = 0.00686078331
*Data  = x;y;z
1,-3.33918900595,3.41884149925,-11.1321701079
2,-5.486325235,-5.36454379,-37.858426675
15,-3.97075351679,3.44608959748,-11.0891408217
16,-5.46858528265,-5.3518136355,-37.6929440885
*Step  = 7
*Time  = 0.0342726883
*Data  = x;y;z
1,-3.35189383616,3.36968271999,-11.0165812595
2,-5.486325235,-5.36454379,-37.858426675
15,-3.96606504482,3.39572390416,-10.9747674075
16,-5.45681601671,-5.3433477297,-37.5831670781
*Step  = 8
*Time  = 0.05
*Data  = x;y;z
1,-3.38788869749,3.34456913816,-10.9533115686
2,-5.486325235,-5.36454379,-37.858426675
15,-3.96371861047,3.36873976197,-10.914165873
16,-5.45056446249,-5.33884111802,-37.5248604711
*Step  = 9
*Time  = 0.1
*Data  = x;y;z
1,-3.46729061393,3.25580185187,-10.7559119269
2,-5.486325235,-5.36454379,-37.858426675
15,-3.95636055789,3.27567051728,-10.7229891951
16,-5.43088662309,-5.32464586665,-37.3413345573
*Step  = 10
*Time  = 0.15
*Data  = x;y;z
1,-3.58909391369,3.17935666019,-10.5801608783
2,-5.486325235,-5.36454379,-37.858426675
15,-3.95068121148,3.19356276585,-10.5560780885
16,-5.4136973237,-5.31221375427,-37.1810309774
*Step  = 11
*Time  = 0.2
*Data  = x;y;z
1,-3.70612457534,3.14150045865,-10.5042499569
2,-5.486325235,-5.36454379,-37.858426675
15,-3.94921694881,3.15089018374,-10.4882236571
16,-5.40672475979,-5.30716053087,-37.1160102495
*Step  = 12
*Time  = 0.25
*Data  = x;y;z
1,-3.88037440384,3.03947662825,-10.3343317024
2,-5.486325235,-5.36454379,-37.858426675
15,-3.94462750224,3.04187440592,-10.3301886994
16,-5.39061601373,-5.29551792937,-36.9657790501
*Step  = 13
*Time  = 0.3
*Data  = x;y;z
1,-4.01361398516,2.92891904335,-10.1646516042
2,-5.486325235,-5.36454379,-37.858426675
15,-3.93963005477,2.92625278422,-10.169329626
16,-5.37429553604,-5.28371269669,-36.8135761358
*Step  = 14
*Time  = 0.35
*Data  = x;y;z
1,-4.11699641607,2.80721389198,-9.98056137109
2,-5.486325235,-5.36454379,-37.858426675
15,-3.93283470772,2.80080813012,-9.99196912689
16,-5.3562914831,-5.27068182139,-36.6456743424
*Step  = 15
*Time  = 0.4
*Data  = x;y;z
1,-4.20700482616,2.6780545282,-9.7827938241
2,-5.486325235,-5.36454379,-37.858426675
15,-3.92430123527,2.66856862651,-9.79994624511
16,-5.33678269108,-5.25655248568,-36.4637418857
*Step  = 16
*Time  = 0.45
*Data  = x;y;z
1,-4.27913273508,2.54970839587,-9.58101678995
2,-5.486325235,-5.36454379,-37.858426675
15,-3.91469314409,2.53791848822,-9.60267165947
16,-5.31669930416,-5.24199119302,-36.276455004
*Step  = 17
*Time  = 0.5
*Data  = x;y;z
1,-4.32150443686,2.48321278121,-9.47772585531
2,-5.486325235,-5.36454379,-37.858426675
15,-3.90954901043,2.47012890868,-9.50193648209
16,-5.30644200223,-5.23452410088,-36.1808105149
*Step  = 18
*Time  = 0.55
*Data  = x;y;z
1,-4.41616431423,2.34921705404,-9.27489388379
2,-5.486325235,-5.36454379,-37.858426675
15,-3.89945302365,2.33340788603,-9.30462472341
16,-5.28640311042,-5.21995680265,-35.9939482654
*Step  = 19
*Time  = 0.6
*Data  = x;y;z
1,-4.47669662674,2.21713210033,-9.06686510028
2,-5.486325235,-5.36454379,-37.858426675
15,-3.8881793439,2.19979749335,-9.10013742858
16,-5.26560767737,-5.20480497027,-35.8000398614
*Step  = 20
*Time  = 0.65
*Data  = x;y;z
1,-4.54564498618,2.07930300966,-8.85776824991
2,-5.486325235,-5.36454379,-37.858426675
15,-3.87659977519,2.06034619362,-8.89496376867
16,-5.24479475633,-5.18959708514,-35.605978577
*Step  = 21
*Time  = 0.7
*Data  = x;y;z
1,-4.64042260409,1.93884521073,-8.64729796786
2,-5.486325235,-5.36454379,-37.858426675
15,-3.86460729524,1.91771652523,-8.6895585596
16,-5.22394955195,-5.17432759494,-35.4116238064
*Step  = 22
*Time  = 0.75
*Data  = x;y;z
1,-4.72059097074,1.80014615271,-8.43508590988
2,-5.486325235,-5.36454379,-37.858426675
15,-3.85186837581,1.77742315971,-8.48148745207
16,-5.20280909995,-5.15879731023,-35.2145246344
*Step  = 23
*Time  = 0.8
*Data  = x;y;z
1,-4.76653773471,1.7290307138,-8.3267674316
2,-5.486325235,-5.36454379,-37.858426675
15,-3.84520150097,1.7054187754,-8.37553723931
16,-5.19205064723,-5.15081021538,-35.1142420348
*Step  = 24
*Time  = 0.85
*Data  = x;y;z
1,-4.8441147331,1.58376788746,-8.11744250515
2,-5.486325235,-5.36454379,-37.858426675
15,-3.83229070636,1.55889576894,-8.16989288791
16,-5.17121653548,-5.13543619139,-34.9200091466
*Step  = 25
*Time  = 0.9
*Data  = x;y;z
1,-4.9728343839,1.42414449725,-7.90337980301
2,-5.486325235,-5.36454379,-37.858426675
15,-3.81888959143,1.39695591001,-7.96172384683
16,-5.15021135835,-5.11988902967,-34.7241891513
*Step  = 26
*Time  = 0.95
*Data  = x;y;z
1,-5.05958859352,1.27063810007,-7.69010314962
2,-5.486325235,-5.36454379,-37.858426675
15,-3.80499802132,1.24233016162,-7.75218017942
16,-5.12903485225,-5.10414976779,-34.5267808542
*Step  = 27
*Time  = 1
*Data  = x;y;z
1,-5.04746095877,1.27551441867,-7.68420124309
2,-5.486325235,-5.36454379,-37.858426675
15,-3.80431749119,1.24745893113,-7.74607100442
16,-5.128377755,-5.10347640342,-34.5207031082
*Step  = 28
*Time  = 1.03
*Data  = x;y;z
1,-4.4969628426,2.25274664462,-8.074767018
2,-5.486325235,-5.36454379,-37.858426675
15,-3.82343448552,2.23752676272,-8.1178607052
16,-5.16183214705,-5.12672336776,-34.8329083479
*Step  = 29
*Time  = 1.06
*Data  = x;y;z
1,-4.35664316419,2.62316642686,-8.17291864653
2,-5.486325235,-5.36454379,-37.858426675
15,-3.82545905789,2.61114773285,-8.20909153852
16,-5.16889132707,-5.1310281488,-34.8989262302
*Step  = 30
*Time  = 1.09
*Data  = x;y;z
1,-4.26011747477,2.82884251987,-8.20650665851
2,-5.486325235,-5.36454379,-37.858426675
15,-3.82327690828,2.81894708065,-8.23673021739
16,-5.17006644919,-5.13115348639,-34.9100606273
*Step  = 31
*Time  = 1.12
*Data  = x;y;z
1,-4.19887155806,2.99468235379,-8.23288697152
2,-5.486325235,-5.36454379,-37.858426675
15,-3.82144144524,2.98612338883,-8.25921924017
16,-5.17095109253,-5.13111650876,-34.9184752229
*Step  = 32
*Time  = 1.15
*Data  = x;y;z
1,-4.14319989739,3.13379625119,-8.2554928115
2,-5.486325235,-5.36454379,-37.858426675
15,-3.81982193598,3.12645538238,-8.27817107988
16,-5.17165004837,-5.13097981803,-34.925150482
*Step  = 33
*Time  = 1.18
*Data  = x;y;z
1,-4.10403177988,3.26357705162,-8.27798423632
2,-5.486325235,-5.36454379,-37.858426675
15,-3.8184335705,3.25708707046,-8.29805075733
16,-5.17248156404,-5.130949667,-34.9330606401
*Step  = 34
*Time  = 1.21
*Data  = x;y;z
1,-4.07875042765,3.37838961407,-8.29709366882
2,-5.486325235,-5.36454379,-37.858426675
15,-3.8171041797,3.37243795798,-8.31548590062
16,-5.17316544366,-5.130835971,-34.939589296
*Step  = 35
*Time  = 1.24
*Data  = x;y;z
1,-4.04955823409,3.47804675374,-8.31339997772
2,-5.486325235,-5.36454379,-37.858426675
15,-3.81586085572,3.47272579156,-8.32983693287
16,-5.17365605379,-5.1306118917,-34.9443082949
*Step  = 36
*Time  = 1.27
*Data  = x;y;z
1,-4.05066404477,3.57462078536,-8.33161670283
2,-5.486325235,-5.36454379,-37.858426675
15,-3.81501504813,3.56925032223,-8.34816044629
16,-5.17456597554,-5.13070887525,-34.9529352062
*Step  = 37
*Time  = 1.3
*Data  = x;y;z
1,-4.031581794,3.66203198327,-8.34744160777
2,-5.486325235,-5.36454379,-37.858426675
15,-3.81402733129,3.65706940558,-8.36270003908
16,-5.17516087436,-5.13059499886,-34.9586199435
*Step  = 38
*Time  = 1.33
*Data  = x;y;z
1,-4.00148062843,3.74310342186,-8.36159949787
2,-5.486325235,-5.36454379,-37.858426675
15,-3.812988337,3.73880008736,-8.37481371561
16,-5.17556058251,-5.13036419433,-34.9624779965
*Step  = 39
*Time  = 1.36
*Data  = x;y;z
1,-3.98406741633,3.82171009568,-8.37608528591
2,-5.486325235,-5.36454379,-37.858426675
15,-3.81209765238,3.81778070878,-8.38812637048
16,-5.17610109529,-5.13025669218,-34.967644872
*Step  = 40
*Time  = 1.39
*Data  = x;y;z
1,-3.97763813724,3.89604764154,-8.39079519343
2,-5.486325235,-5.36454379,-37.858426675
15,-3.81139743175,3.89224602456,-8.40241252934
16,-5.17677327407,-5.13025406237,-34.9740379822
*Step  = 41
*Time  = 1.42
*Data  = x;y;z
1,-3.95708047163,3.96631981995,-8.40405332847
2,-5.486325235,-5.36454379,-37.858426675
15,-3.81056439865,3.96296662336,-8.41427919191
16,-5.17723107276,-5.13011148338,-34.978427941
*Step  = 42
*Time  = 1.45
*Data  = x;y;z
1,-3.94454377681,4.03406759894,-8.41713434437
2,-5.486325235,-5.36454379,-37.858426675
15,-3.80982076908,4.03098194256,-8.42651999267
16,-5.17774624025,-5.13002862685,-34.9833489725
*Step  = 43
*Time  = 1.48
*Data  = x;y;z
1,-3.92910434681,4.10099375242,-8.4308306839
2,-5.486325235,-5.36454379,-37.858426675
15,-3.80914741668,4.09824416132,-8.43917526179
16,-5.17830994895,-5.12997583537,-34.9887240969
*Step  = 44
*Time  = 1.51
*Data  = x;y;z
1,-3.91745133825,4.16471350335,-8.44326497324
2,-5.486325235,-5.36454379,-37.858426675
15,-3.80845234314,4.16221323684,-8.45083503969
16,-5.1787985904,-5.1298895145,-34.9933942618
*Step  = 45
*Time  = 1.54
*Data  = x;y;z
1,-3.9048396869,4.22407797688,-8.45441805532
2,-5.486325235,-5.36454379,-37.858426675
15,-3.80775162454,4.22184933086,-8.46115305121
16,-5.17919039611,-5.12974307881,-34.9971587062
*Step  = 46
*Time  = 1.57
*Data  = x;y;z
1,-3.89803592525,4.28265832343,-8.46692173008
2,-5.486325235,-5.36454379,-37.858426675
15,-3.80720362081,4.28057178961,-8.47320936594
16,-5.17976049552,-5.12973618691,-35.0025844343
*Step  = 47
*Time  = 1.6
*Data  = x;y;z
1,-3.88164000568,4.33796275094,-8.47801813121
2,-5.486325235,-5.36454379,-37.858426675
15,-3.80660165449,4.33623789813,-8.48320850994
16,-5.18016508262,-5.12963979764,-35.0064578485
*Step  = 48
*Time  = 1.63
*Data  = x;y;z
1,-3.8732573521,4.39218084713,-8.4890876069
2,-5.486325235,-5.36454379,-37.858426675
15,-3.80600179415,4.39063382582,-8.49372949744
16,-5.18060901686,-5.12955222008,-35.0107047712
*Step  = 49
*Time  = 1.66
*Data  = x;y;z
1,-3.85960417466,4.4453008738,-8.50031336237
2,-5.486325235,-5.36454379,-37.858426675
15,-3.80545536201,4.44405449729,-8.50404645888
16,-5.18105341986,-5.12947493312,-35.0149529315
*Step  = 50
*Time  = 1.69
*Data  = x;y;z
1,-3.86199277919,4.49735399649,-8.51202764669
2,-5.486325235,-5.36454379,-37.858426675
15,-3.80507303732,4.49604304983,-8.51594266326
16,-5.18167518929,-5.12957912064,-35.0208428452
*Step  = 51
*Time  = 1.72
*Data  = x;y;z
1,-3.84574047029,4.54563691378,-8.52159510028
2,-5.486325235,-5.36454379,-37.858426675
15,-3.80443422091,4.5446849338,-8.52443163041
16,-5.18195889849,-5.12938173364,-35.023594117
*Step  = 52
*Time  = 1.75
*Data  = x;y;z
1,-3.83749418453,4.5951283594,-8.53204919154
2,-5.486325235,-5.36454379,-37.858426675
15,-3.80390211893,4.59435367037,-8.53435150374
16,-5.18238305059,-5.12930945233,-35.0276498138
*Step  = 53
*Time  = 1.78
*Data  = x;y;z
1,-3.83666822464,4.64632242032,-8.54405476432
2,-5.486325235,-5.36454379,-37.858426675
15,-3.80351694273,4.64555736568,-8.54632220757
16,-5.18299547208,-5.1293505552,-35.0334678093
*Step  = 54
*Time  = 1.81
*Data  = x;y;z
1,-3.82072786582,4.69256898816,-8.55371433963
2,-5.486325235,-5.36454379,-37.858426675
15,-3.80295556473,4.69215859314,-8.55492800443
16,-5.1833135558,-5.12921384294,-35.0365310264
*Step  = 55
*Time  = 1.84
*Data  = x;y;z
1,-3.81289758898,4.73817044497,-8.56349836591
2,-5.486325235,-5.36454379,-37.858426675
15,-3.80246664886,4.73792943628,-8.56420936254
16,-5.18371249778,-5.12916264418,-35.0403421285
*Step  = 56
*Time  = 1.87
*Data  = x;y;z
1,-3.80200380377,4.78224151159,-8.5727297564
2,-5.486325235,-5.36454379,-37.858426675
15,-3.80197328705,4.78224080608,-8.57273183409
16,-5.18404832297,-5.12905385666,-35.0435669997
*Step  = 57
*Time  = 1.9
*Data  = x;y;z
1,-3.78813626174,4.82566287209,-8.58236823035
2,-5.486325235,-5.36454379,-37.858426675
15,-3.80154674283,4.82597307894,-8.58145580811
16,-5.18442238738,-5.1289971315,-35.047141874
*Step  = 58
*Time  = 1.93
*Data  = x;y;z
1,-3.79116889972,4.86837490868,-8.59201761088
2,-5.486325235,-5.36454379,-37.858426675
15,-3.80114910336,4.86860590695,-8.59134035493
16,-5.18489361964,-5.12898695215,-35.0516315725
*Step  = 59
*Time  = 1.96
*Data  = x;y;z
1,-3.7847944916,4.88772812143,-8.58987782482
2,-5.486325235,-5.36454379,-37.858426675
15,-3.80032646745,4.88808774445,-8.58882268752
16,-5.18437085522,-5.12835831518,-35.0468202789
*Step  = 60
*Time  = 1.99
*Data  = x;y;z
1,-3.79282186055,4.87200855679,-8.57359493048
2,-5.486325235,-5.36454379,-37.858426675
15,-3.79932954957,4.87215922818,-8.57315096049
16,-5.18291900258,-5.12724496549,-35.0332911377
*Step  = 61
*Time  = 1.99999
*Data  = x;y;z
1,-3.79446703405,4.87232962598,-8.57339743817
2,-5.486325235,-5.36454379,-37.858426675
15,-3.79928221721,4.87244112227,-8.57306897328
16,-5.18288435163,-5.12715467059,-35.0329850816
*Step  = 1
*Time  = 2
*Data  = x;y;z
1,-3.79532942207,4.87753222434,-8.57605816379
2,-5.486325235,-5.36454379,-37.858426675
15,-3.79933821693,4.87762506742,-8.57578489525
16,-5.18307007829,-5.12717249969,-35.0347485592
*Step  = 2
*Time  = 2.00005
*Data  = x;y;z
1,-3.79426237777,4.88079117665,-8.57731321533
2,-5.486325235,-5.36454379,-37.858426675
15,-3.79930505194,4.88090799504,-8.57696947781
16,-5.18311910302,-5.12708196215,-35.0352391082
*Step  = 3
*Time  = 2.0003
*Data  = x;y;z
1,-3.79368164969,4.88414069892,-8.57926549587
2,-5.486325235,-5.36454379,-37.858426675
15,-3.79930172632,4.88427095953,-8.5788824073
16,-5.1832427755,-5.12704524993,-35.0364269342
*Step  = 4
*Time  = 2.00155
*Data  = x;y;z
1,-3.79285204539,4.88965857523,-8.58542840945
2,-5.486325235,-5.36454379,-37.858426675
15,-3.79945089503,4.8898117863,-8.58497861827
16,-5.18377909405,-5.12730701035,-35.0414685649
*Step  = 5
*Time  = 2.0078
*Data  = x;y;z
1,-3.79056642973,4.90760014597,-8.61306336084
2,-5.486325235,-5.36454379,-37.858426675
15,-3.80035789595,4.90782926455,-8.61239601475
16,-5.18640450649,-5.12908021803,-35.0660204569
*Step  = 6
*Time  = 2.03905
*Data  = x;y;z
1,-3.78047788104,4.98611167894,-8.74757273792
2,-5.486325235,-5.36454379,-37.858426675
15,-3.80499600746,4.9867071874,-8.74590202994
16,-5.19945691771,-5.1385109704,-35.1879210148
*Step  = 7
*Time  = 2.05
*Data  = x;y;z
1,-3.76831206379,5.01103008702,-8.79467784924
2,-5.486325235,-5.36454379,-37.858426675
15,-3.80670799471,5.01197418953,-8.79206215317
16,-5.20408886591,-5.14215715303,-35.231096977
*Step  = 8
*Time  = 2.1
*Data  = x;y;z
1,-3.74677859268,5.12609231409,-9.00585440204
2,-5.486325235,-5.36454379,-37.858426675
15,-3.81380320373,5.1278341496,-9.00129270379
16,-5.22478825925,-5.15778088483,-35.4242205704
*Step  = 9
*Time  = 2.15
*Data  = x;y;z
1,-3.71193566396,5.23160411706,-9.21467497806
2,-5.486325235,-5.36454379,-37.858426675
15,-3.82073271132,5.23458138365,-9.20727844239
16,-5.24542402326,-5.17390521788,-35.6165662681
*Step  = 10
*Time  = 2.2
*Data  = x;y;z
1,-3.69140372302,5.27919781968,-9.31874550153
2,-5.486325235,-5.36454379,-37.858426675
15,-3.82424394389,5.28292217847,-9.309741085
16,-5.25586693712,-5.1824058726,-35.7137868663
*Step  = 11
*Time  = 2.25
*Data  = x;y;z
1,-3.67096601232,5.37896649706,-9.52645324445
2,-5.486325235,-5.36454379,-37.858426675
15,-3.83074913517,5.38366561608,-9.51566077523
16,-5.27649378405,-5.1984888189,-35.9060076223
*Step  = 12
*Time  = 2.3
*Data  = x;y;z
1,-3.620837299,5.47029753769,-9.73182538781
2,-5.486325235,-5.36454379,-37.858426675
15,-3.83699144622,5.47694836782,-9.71725162937
16,-5.29685658366,-5.21457126434,-36.0956669795
*Step  = 13
*Time  = 2.35
*Data  = x;y;z
1,-3.59014976957,5.55742391885,-9.93542074865
2,-5.486325235,-5.36454379,-37.858426675
15,-3.84299003565,5.56554481601,-9.91846002646
16,-5.31724048633,-5.23075387965,-36.2854577839
*Step  = 14
*Time  = 2.4
*Data  = x;y;z
1,-3.54834437277,5.63766869376,-10.1353784564
2,-5.486325235,-5.36454379,-37.858426675
15,-3.8485731719,5.64771460657,-10.1153335029
16,-5.33725035008,-5.24664771698,-36.471725914
*Step  = 15
*Time  = 2.45
*Data  = x;y;z
1,-3.50385543672,5.71224852977,-10.3332440449
2,-5.486325235,-5.36454379,-37.858426675
15,-3.8539770204,5.72443120884,-10.3099754627
16,-5.35709906199,-5.26241469334,-36.6564546251
*Step  = 16
*Time  = 2.5
*Data  = x;y;z
1,-3.47461420846,5.73922365072,-10.4273737379
2,-5.486325235,-5.36454379,-37.858426675
15,-3.85667648632,5.75276280259,-10.4020762217
16,-5.36681604947,-5.27037430537,-36.7467838596
*Step  = 17
*Time  = 2.55
*Data  = x;y;z
1,-3.43365091256,5.79177078829,-10.6079609062
2,-5.486325235,-5.36454379,-37.858426675
15,-3.86113767617,5.80747190125,-10.5799047643
16,-5.38539070438,-5.28533033888,-36.919525293
*Step  = 18
*Time  = 2.6
*Data  = x;y;z
1,-3.39136910936,5.82762320131,-10.7764397925
2,-5.486325235,-5.36454379,-37.858426675
15,-3.86535045783,5.84561847069,-10.7457290245
16,-5.40330712215,-5.29996849338,-37.0860214686
*Step  = 19
*Time  = 2.65
*Data  = x;y;z
1,-3.34957841058,5.85121031836,-10.9358136462
2,-5.486325235,-5.36454379,-37.858426675
15,-3.86960891539,5.87156962879,-10.9026302155
16,-5.42081870669,-5.31426219981,-37.2487184108
*Step  = 20
*Time  = 2.7
*Data  = x;y;z
1,-3.31331638683,5.86484973348,-11.0854790044
2,-5.486325235,-5.36454379,-37.858426675
15,-3.87370022159,5.88742759292,-11.0503609023
16,-5.43775846983,-5.32787912648,-37.4061533962
*Step  = 21
*Time  = 2.75
*Data  = x;y;z
1,-3.27671142507,5.86998075736,-11.2278482091
2,-5.486325235,-5.36454379,-37.858426675
15,-3.87780348982,5.89485849719,-11.1909425292
16,-5.45428004353,-5.34082092091,-37.5598176394
*Step  = 22
*Time  = 2.8
*Data  = x;y;z
1,-3.26055030805,5.85992171051,-11.2873402418
2,-5.486325235,-5.36454379,-37.858426675
15,-3.8799974977,5.88586299621,-11.2497731917
16,-5.46207519419,-5.34688714019,-37.6323285042
*Step  = 23
*Time  = 2.85
*Data  = x;y;z
1,-3.23872089896,5.85870353297,-11.421487303
2,-5.486325235,-5.36454379,-37.858426675
15,-3.88332974701,5.88639664236,-11.3835216648
16,-5.47751827339,-5.35823722419,-37.7762670667
*Step  = 24
*Time  = 2.9
*Data  = x;y;z
1,-3.2072243504,5.84658596973,-11.5463340322
2,-5.486325235,-5.36454379,-37.858426675
15,-3.88640896518,5.87647484469,-11.5076531502
16,-5.49205400566,-5.36857489395,-37.9119031131
*Step  = 25
*Time  = 2.95
*Data  = x;y;z
1,-3.20465211072,5.82552792084,-11.6608584723
2,-5.486325235,-5.36454379,-37.858426675
15,-3.88941554559,5.85634623534,-11.623423517
16,-5.50585116359,-5.37802249873,-38.0408221581
*Step  = 26
*Time  = 3
*Data  = x;y;z
1,-3.16915191648,5.81279629119,-11.6464750393
2,-5.486325235,-5.36454379,-37.858426675
15,-3.88927232119,5.84515963012,-11.6072171504
16,-5.50516065677,-5.3774116187,-38.0344344578
*Step  = 27
*Time  = 3.05
*Data  = x;y;z
1,-3.14619048688,5.82661093724,-11.449525696
2,-5.486325235,-5.36454379,-37.858426675
15,-3.88516708631,5.85859373414,-11.4069518455
16,-5.48402536438,-5.36296548872,-37.8369403333
*Step  = 28
*Time  = 3.1
*Data  = x;y;z
1,-3.20564794704,5.83580503549,-11.24664984
2,-5.486325235,-5.36454379,-37.858426675
15,-3.88206789277,5.8639043487,-11.2054070525
16,-5.46258895511,-5.34813307451,-37.6367410219
*Step  = 29
*Time  = 3.15
*Data  = x;y;z
1,-3.28578270554,5.82949426384,-11.1043890273
2,-5.486325235,-5.36454379,-37.858426675
15,-3.8790490253,5.85346160671,-11.0673898059
16,-5.44701584156,-5.33698705254,-37.491468385
*Step  = 30
*Time  = 3.2
*Data  = x;y;z
1,-3.36592039055,5.8055236598,-10.8826293634
2,-5.486325235,-5.36454379,-37.858426675
15,-3.87378709243,5.82515402552,-10.8501548535
16,-5.42249690227,-5.31882533172,-37.2629949364
*Step  = 31
*Time  = 3.25
*Data  = x;y;z
1,-3.4427396104,5.77262090776,-10.6544237839
2,-5.486325235,-5.36454379,-37.858426675
15,-3.8677346838,5.7883044289,-10.6266964741
16,-5.39693011124,-5.29884755641,-37.0251402006
*Step  = 32
*Time  = 3.3
*Data  = x;y;z
1,-3.50110044419,5.72307547559,-10.412455289
2,-5.486325235,-5.36454379,-37.858426675
15,-3.8608845269,5.735708319,-10.3885828079
16,-5.37006732128,-5.27702102899,-36.7754805226
*Step  = 33
*Time  = 3.35
*Data  = x;y;z
1,-3.53596643168,5.66975973478,-10.2348884754
2,-5.486325235,-5.36454379,-37.858426675
15,-3.85502511787,5.68057924406,-10.2135913035
16,-5.35053285283,-5.26062055751,-36.5940709298
*Step  = 34
*Time  = 3.4
*Data  = x;y;z
1,-3.56024379528,5.55109994255,-9.94439039971
2,-5.486325235,-5.36454379,-37.858426675
15,-3.84643812399,5.56024460484,-9.92518198857
16,-5.3205078805,-5.23671291629,-36.3146818098
*Step  = 35
*Time  = 3.45
*Data  = x;y;z
1,-3.59506774579,5.41603750492,-9.6394636353
2,-5.486325235,-5.36454379,-37.858426675
15,-3.83686167633,5.42327827184,-9.62319643128
16,-5.28964499265,-5.21255522569,-36.0272738119
*Step  = 36
*Time  = 3.5
*Data  = x;y;z
1,-3.63016747061,5.26938723389,-9.32913318059
2,-5.486325235,-5.36454379,-37.858426675
15,-3.82670195647,5.27487490413,-9.31586828817
16,-5.25846465439,-5.1882664825,-35.7367978386
*Step  = 37
*Time  = 3.55
*Data  = x;y;z
1,-3.6708136879,5.16703488284,-9.11666409616
2,-5.486325235,-5.36454379,-37.858426675
15,-3.81913920767,5.1709776019,-9.10662547964
16,-5.23714361117,-5.17134775653,-35.53822438
*Step  = 38
*Time  = 3.6
*Data  = x;y;z
1,-3.71644820541,5.00957596218,-8.80595229738
2,-5.486325235,-5.36454379,-37.858426675
15,-3.80827242117,5.01182924872,-8.79972569872
16,-5.20618863869,-5.14730827952,-35.2497000872
*Step  = 39
*Time  = 3.65
*Data  = x;y;z
1,-3.76856719467,4.84240452012,-8.49286213411
2,-5.486325235,-5.36454379,-37.858426675
15,-3.79644859665,4.84303212447,-8.49097149421
16,-5.17496481064,-5.122632744,-34.9587144422
*Step  = 40
*Time  = 3.7
*Data  = x;y;z
1,-3.82148856071,4.66803562141,-8.17867851379
2,-5.486325235,-5.36454379,-37.858426675
15,-3.78371613118,4.66726148006,-8.18123751246
16,-5.14358369434,-5.09732153755,-34.6663011746
*Step  = 41
*Time  = 3.75
*Data  = x;y;z
1,-3.86195315674,4.55062967137,-7.96716899217
2,-5.486325235,-5.36454379,-37.858426675
15,-3.77427890447,4.54894746924,-7.97311153337
16,-5.12222741342,-5.07886382647,-34.4675217288
*Step  = 42
*Time  = 3.8
*Data  = x;y;z
1,-3.90964249229,4.35818175919,-7.65168954486
2,-5.486325235,-5.36454379,-37.858426675
15,-3.75996367167,4.3556081738,-7.66177728715
16,-5.09071920891,-5.05249086204,-34.1739345167
*Step  = 43
*Time  = 3.85
*Data  = x;y;z
1,-3.95475895406,4.15790515641,-7.33388978018
2,-5.486325235,-5.36454379,-37.858426675
15,-3.74440411469,4.15470268534,-7.34795777036
16,-5.05896498028,-5.02526431268,-33.8780497832
*Step  = 44
*Time  = 3.9
*Data  = x;y;z
1,-3.99409404305,3.94526647737,-7.01214187037
2,-5.486325235,-5.36454379,-37.858426675
15,-3.72734776969,3.94172416018,-7.02977197643
16,-5.02683019048,-4.9971303506,-33.5785796955
*Step  = 45
*Time  = 3.95
*Data  = x;y;z
1,-4.01999002327,3.80004283936,-6.79376209377
2,-5.486325235,-5.36454379,-37.858426675
15,-3.71472182915,3.79637113676,-6.81378965932
16,-5.00486614085,-4.97631890803,-33.3740632713
*Step  = 46
*Time  = 4
*Data  = x;y;z
1,-4.01708428463,3.80175909396,-6.79015386241
2,-5.486325235,-5.36454379,-37.858426675
15,-3.71357986565,3.7980840456,-6.81013612516
16,-5.00396713334,-4.97193478208,-33.3662802557
*Step  = 47
*Time  = 4.05
*Data  = x;y;z
1,-3.93406843792,3.63312594097,-6.73757667359
2,-5.486325235,-5.36454379,-37.858426675
15,-3.71127435168,3.63044546505,-6.7523600674
16,-5.00014388856,-4.97233306158,-33.3300816619
*Step  = 48
*Time  = 4.1
*Data  = x;y;z
1,-3.8960092883,3.49230417837,-6.70872193152
2,-5.486325235,-5.36454379,-37.858426675
15,-3.71111720697,3.49009563739,-6.72101402936
16,-4.99878513224,-4.97513689437,-33.3167954392
*Step  = 49
*Time  = 4.15
*Data  = x;y;z
1,-3.85391489621,3.35221678795,-6.68420043709
2,-5.486325235,-5.36454379,-37.858426675
15,-3.71142029692,3.35052784398,-6.69369880783
16,-4.99784541682,-4.97856689735,-33.3073769455
*Step  = 50
*Time  = 4.2
*Data  = x;y;z
1,-3.82050866044,3.20956383535,-6.66050439878
2,-5.486325235,-5.36454379,-37.858426675
15,-3.71184592825,3.20828633176,-6.66775692327
16,-4.99703341325,-4.98227681002,-33.2991359322
*Step  = 51
*Time  = 4.25
*Data  = x;y;z
1,-3.78997597016,3.06339531939,-6.63653157418
2,-5.486325235,-5.36454379,-37.858426675
15,-3.71229141861,3.06248961381,-6.64172512123
16,-4.99620786613,-4.98606496357,-33.2907684317
*Step  = 52
*Time  = 4.3
*Data  = x;y;z
1,-3.75396396193,2.90909427795,-6.61207264162
2,-5.486325235,-5.36454379,-37.858426675
15,-3.71274742861,2.90861792789,-6.61483218692
16,-4.99532838679,-4.98998837336,-33.2818861379
*Step  = 53
*Time  = 4.35
*Data  = x;y;z
1,-3.7166894872,2.74862115375,-6.58749389284
2,-5.486325235,-5.36454379,-37.858426675
15,-3.71324778991,2.7485817302,-6.58772477471
16,-4.99443511574,-4.99396623342,-33.2728802451
*Step  = 54
*Time  = 4.4
*Data  = x;y;z
1,-3.67938914646,2.57989638723,-6.5629224247
2,-5.486325235,-5.36454379,-37.858426675
15,-3.71375096091,2.58028641288,-6.56061754592
16,-4.99353413394,-4.99800960626,-33.2638090481
*Step  = 55
*Time  = 4.45
*Data  = x;y;z
1,-3.64181991438,2.40413798829,-6.54003551018
2,-5.486325235,-5.36454379,-37.858426675
15,-3.71446890148,2.40495514201,-6.53515954159
16,-4.99280682834,-5.00213877117,-33.2563777914
*Step  = 56
*Time  = 4.5
*Data  = x;y;z
1,-3.59780031882,2.21749810205,-6.51778733387
2,-5.486325235,-5.36454379,-37.858426675
15,-3.71528590151,2.21880744277,-6.50990685803
16,-4.99211344758,-5.00633775513,-33.2492713547
*Step  = 57
*Time  = 4.55
*Data  = x;y;z
1,-3.56453744668,2.01857445859,-6.49765015811
2,-5.486325235,-5.36454379,-37.858426675
15,-3.71648861746,2.02025244733,-6.48747071062
16,-4.99173642597,-5.01071226671,-33.2451366873
*Step  = 58
*Time  = 4.6
*Data  = x;y;z
1,-3.52128792666,1.80559135837,-6.47771005698
2,-5.486325235,-5.36454379,-37.858426675
15,-3.71774950979,1.80774127633,-6.46456577594
16,-4.99133744885,-5.0149958533,-33.2408204484
*Step  = 59
*Time  = 4.65
*Data  = x;y;z
1,-3.4851700262,1.57504562737,-6.46168918966
2,-5.486325235,-5.36454379,-37.858426675
15,-3.71961041719,1.57758829446,-6.44606493187
16,-4.99142743719,-5.01953433457,-33.2410895744
*Step  = 60
*Time  = 4.7
*Data  = x;y;z
1,-3.44401131984,1.31908013355,-6.45031761531
2,-5.486325235,-5.36454379,-37.858426675
15,-3.72207963461,1.32206940719,-6.43190474002
16,-4.99205083994,-5.02438203845,-33.2463510847
*Step  = 61
*Time  = 4.75
*Data  = x;y;z
1,-3.42175063035,1.02801938262,-6.44681698728
2,-5.486325235,-5.36454379,-37.858426675
15,-3.72583541673,1.0312619112,-6.4268852054
16,-4.99375517402,-5.02958748455,-33.2617533359
*Step  = 62
*Time  = 4.8
*Data  = x;y;z
1,-3.4191881227,0.685166391012,-6.4587054298
2,-5.486325235,-5.36454379,-37.858426675
15,-3.7318337937,0.688477614767,-6.43851282294
16,-4.99743846206,-5.03546528628,-33.2957062526
*Step  = 63
*Time  = 4.85
*Data  = x;y;z
1,-3.4260581297,0.260547470169,-6.48791641948
2,-5.486325235,-5.36454379,-37.858426675
15,-3.74137656606,0.26386885813,-6.46797314538
16,-5.00344237753,-5.04217254606,-33.3514625704
*Step  = 64
*Time  = 4.9
*Data  = x;y;z
1,-3.48570486127,-0.22194264107,-6.53818132527
2,-5.486325235,-5.36454379,-37.858426675
15,-3.7532196524,-0.219134453008,-6.52177727023
16,-5.01224420895,-5.04976743367,-33.4333815009
*Step  = 65
*Time  = 4.95
*Data  = x;y;z
1,-3.51627270164,-0.682128654855,-6.57682628822
2,-5.486325235,-5.36454379,-37.858426675
15,-3.76326884622,-0.679543868163,-6.56206200475
16,-5.01942663011,-5.0561005595,-33.5001983569
*Step  = 66
*Time  = 4.99999
*Data  = x;y;z
1,-3.60466433189,-0.393434168631,-6.5417390665
2,-5.486325235,-5.36454379,-37.858426675
15,-3.75613762076,-0.39184658738,-6.53238890365
16,-5.01461746679,-5.0521723879,-33.4553759085
