*Step  = 1
*Time  = 1e-05
*Data  = x;y;z
1,-3.47046034294,3.46273700997,-11.2280645949
2,-5.486325235,-5.36454379,-37.858426675
15,-3.978316427,3.48475099738,-11.1935168188
16,-5.47923618845,-5.3594470755,-37.7923025711
*Step  = 2
*Time  = 1.8453091e-05
*Data  = x;y;z
1,-3.415976759,3.45524453312,-11.1962420742
2,-5.486325235,-5.36454379,-37.858426675
15,-3.97493243733,3.47946869496,-11.1582769468
16,-5.47556701434,-5.35681716389,-37.7580742247
*Step  = 3
*Time  = 6.0718546e-05
*Data  = x;y;z
1,-3.38840955051,3.44978435333,-11.1774958376
2,-5.486325235,-5.36454379,-37.858426675
15,-3.97303733056,3.47511757443,-11.1378195919
16,-5.47344902653,-5.35530160756,-37.7383151851
*Step  = 4
*Time  = 0.000272045821
*Data  = x;y;z
1,-3.37196669438,3.44448317356,-11.167164041
2,-5.486325235,-5.36454379,-37.858426675
15,-3.97214980579,3.47048533191,-11.1264186373
16,-5.47229775503,-5.35447867903,-37.7275744058
*Step  = 5
*Time  = 0.0013286822
*Data  = x;y;z
1,-3.36269171949,3.44031525342,-11.1572069871
2,-5.486325235,-5.36454379,-37.858426675
15,-3.97145481578,3.46667071832,-11.1158628827
16,-5.47122211026,-5.35370872407,-37.7175396816
*Step  = 6
*Time  = 0.00661186407
*Data  = x;y;z
1,-3.36246734139,3.42951848932,-11.1312879944
2,-5.486325235,-5.36454379,-37.858426675
15,-3.97022903433,3.45574345859,-11.0900161687
16,-5.46856327327,-5.35179977584,-37.6927379071
*Step  = 7
*Time  = 0.0330277735
*Data  = x;y;z
1,-3.38426349853,3.37928583041,-11.0181675995
2,-5.486325235,-5.36454379,-37.858426675
15,-3.96570251159,3.40396070069,-10.9787361488
16,-5.4571204708,-5.34356740089,-37.586006527
*Step  = 8
*Time  = 0.05
*Data  = x;y;z
1,-3.41301427148,3.35108040339,-10.9518193377
2,-5.486325235,-5.36454379,-37.858426675
15,-3.96332027492,3.37418292854,-10.9145495409
16,-5.4505063929,-5.33879679415,-37.5243199138
*Step  = 9
*Time  = 0.1
*Data  = x;y;z
1,-3.49094704747,3.25923548641,-10.7565801118
2,-5.486325235,-5.36454379,-37.858426675
15,-3.95620910652,3.27814347988,-10.725414512
16,-5.4310423748,-5.3247426164,-37.3427937163
*Step  = 10
*Time  = 0.15
*Data  = x;y;z
1,-3.61912113239,3.17570546417,-10.5781783983
2,-5.486325235,-5.36454379,-37.858426675
15,-3.95047551164,3.18873189855,-10.5562533841
16,-5.41364009449,-5.31213468407,-37.1805126133
*Step  = 11
*Time  = 0.2
*Data  = x;y;z
1,-3.73806707594,3.13507089929,-10.5034800825
2,-5.486325235,-5.36454379,-37.858426675
15,-3.94919818695,3.14323257676,-10.4896633582
16,-5.40680401332,-5.30716050593,-37.1167723948
*Step  = 12
*Time  = 0.25
*Data  = x;y;z
1,-3.88356630151,3.03579462253,-10.3342796433
2,-5.486325235,-5.36454379,-37.858426675
15,-3.94429134321,3.03806340442,-10.3303835951
16,-5.39053789411,-5.29536209711,-36.9650892883
*Step  = 13
*Time  = 0.3
*Data  = x;y;z
1,-4.00091521627,2.93302172593,-10.1664996364
2,-5.486325235,-5.36454379,-37.858426675
15,-3.9392255842,2.93079550534,-10.1704001579
16,-5.37427600819,-5.28354337223,-36.8134527609
*Step  = 14
*Time  = 0.35
*Data  = x;y;z
1,-4.09223746766,2.82425491108,-9.98317214568
2,-5.486325235,-5.36454379,-37.858426675
15,-3.93207399331,2.81867580145,-9.99314214911
16,-5.35620352822,-5.27038936295,-36.6449380468
*Step  = 15
*Time  = 0.4
*Data  = x;y;z
1,-4.16334365234,2.70639587857,-9.78624574196
2,-5.486325235,-5.36454379,-37.858426675
15,-3.92323298631,2.69832811253,-9.80094489348
16,-5.33659916465,-5.25609875652,-36.4621444593
*Step  = 16
*Time  = 0.45
*Data  = x;y;z
1,-4.21865021182,2.58688679945,-9.5851492921
2,-5.486325235,-5.36454379,-37.858426675
15,-3.91350651182,2.57700404705,-9.60351441044
16,-5.31644259782,-5.24137281081,-36.2742099254
*Step  = 17
*Time  = 0.5
*Data  = x;y;z
1,-4.25406526879,2.52755994867,-9.48251962759
2,-5.486325235,-5.36454379,-37.858426675
15,-3.90823207498,2.51656541265,-9.50316975508
16,-5.3061816549,-5.23382149498,-36.1785567789
*Step  = 18
*Time  = 0.55
*Data  = x;y;z
1,-4.32995378444,2.4006502005,-9.27968201747
2,-5.486325235,-5.36454379,-37.858426675
15,-3.89799413468,2.38742772403,-9.30500458486
16,-5.28599936959,-5.21900662423,-35.9903988224
*Step  = 19
*Time  = 0.6
*Data  = x;y;z
1,-4.39961843968,2.26635227185,-9.07477845567
2,-5.486325235,-5.36454379,-37.858426675
15,-3.88726689655,2.25126222743,-9.10426221919
16,-5.26560105382,-5.20397828178,-35.8002390391
*Step  = 20
*Time  = 0.65
*Data  = x;y;z
1,-4.46138168724,2.1321854682,-8.86521562801
2,-5.486325235,-5.36454379,-37.858426675
15,-3.87563228482,2.11559975646,-8.8983866688
16,-5.24467623662,-5.18849656658,-35.6051848257
*Step  = 21
*Time  = 0.7
*Data  = x;y;z
1,-4.52334937005,1.99652747465,-8.6534362383
2,-5.486325235,-5.36454379,-37.858426675
15,-3.86333418003,1.97857600275,-8.69016587608
16,-5.22350052138,-5.17276264175,-35.4078041925
*Step  = 22
*Time  = 0.75
*Data  = x;y;z
1,-4.60403323095,1.85355014164,-8.44167655208
2,-5.486325235,-5.36454379,-37.858426675
15,-3.85091320895,1.83389192695,-8.48278714768
16,-5.2024681278,-5.15706751325,-35.2117701676
*Step  = 23
*Time  = 0.8
*Data  = x;y;z
1,-4.63187136966,1.78376950878,-8.33320619739
2,-5.486325235,-5.36454379,-37.858426675
15,-3.84416521814,1.76363187842,-8.37589045892
16,-5.19160144046,-5.14882060784,-35.1105220068
*Step  = 24
*Time  = 0.85
*Data  = x;y;z
1,-4.69738785354,1.63961966123,-8.12471661231
2,-5.486325235,-5.36454379,-37.858426675
15,-3.83136440598,1.61840382697,-8.17074460981
16,-5.17082104064,-5.13319366209,-34.9168535683
*Step  = 25
*Time  = 0.9
*Data  = x;y;z
1,-4.75986779405,1.49159656311,-7.91169171294
2,-5.486325235,-5.36454379,-37.858426675
15,-3.81778397501,1.46950133785,-7.96080153252
16,-5.14956833199,-5.11713175174,-34.7187934926
*Step  = 26
*Time  = 0.95
*Data  = x;y;z
1,-4.84974555064,1.33186523127,-7.69972471464
2,-5.486325235,-5.36454379,-37.858426675
15,-3.80420618002,1.3084118,-7.75292266228
16,-5.12860675629,-5.10120603176,-34.5234563993
*Step  = 27
*Time  = 1
*Data  = x;y;z
1,-4.8225986572,1.33925055721,-7.6950914616
2,-5.486325235,-5.36454379,-37.858426675
15,-3.80347640206,1.31638280639,-7.74727659708
16,-5.12796950656,-5.10041195344,-34.5175977907
*Step  = 28
*Time  = 1.03
*Data  = x;y;z
1,-4.33109461343,2.52957712295,-8.18106576541
2,-5.486325235,-5.36454379,-37.858426675
15,-3.82818686675,2.51826783928,-8.21484995355
16,-5.16978822858,-5.12948866614,-34.9078266475
*Step  = 29
*Time  = 1.06
*Data  = x;y;z
1,-4.18797850576,2.88174839037,-8.25449561878
2,-5.486325235,-5.36454379,-37.858426675
15,-3.8267710573,2.87360755782,-8.27952939771
16,-5.1736181615,-5.13092054503,-34.9438611103
*Step  = 30
*Time  = 1.09
*Data  = x;y;z
1,-4.10699566758,3.11435686514,-8.29102880854
2,-5.486325235,-5.36454379,-37.858426675
15,-3.82405075012,3.10796693483,-8.31082418562
16,-5.17468698569,-5.13045949004,-34.9541296461
*Step  = 31
*Time  = 1.12
*Data  = x;y;z
1,-4.05647747773,3.30719158869,-8.32275892656
2,-5.486325235,-5.36454379,-37.858426675
15,-3.82180449765,3.30188196799,-8.3392246042
16,-5.17572136843,-5.13009569845,-34.9640511544
*Step  = 32
*Time  = 1.15
*Data  = x;y;z
1,-4.02908148493,3.47573352236,-8.35198576516
2,-5.486325235,-5.36454379,-37.858426675
15,-3.81999941261,3.47099451589,-8.36666638626
16,-5.17683700206,-5.12985229062,-34.9747175545
*Step  = 33
*Time  = 1.18
*Data  = x;y;z
1,-3.99219039098,3.60956868495,-8.37134100496
2,-5.486325235,-5.36454379,-37.858426675
15,-3.81795753982,3.60561340192,-8.38357136175
16,-5.17714644598,-5.12913264538,-34.9778401422
*Step  = 34
*Time  = 1.21
*Data  = x;y;z
1,-3.96271235723,3.73972073497,-8.39502262139
2,-5.486325235,-5.36454379,-37.858426675
15,-3.81646030404,3.73639556364,-8.40527236509
16,-5.17797204634,-5.12882600333,-34.9857685429
*Step  = 35
*Time  = 1.24
*Data  = x;y;z
1,-3.94514174813,3.86620295573,-8.42002302393
2,-5.486325235,-5.36454379,-37.858426675
15,-3.81519939092,3.86324413427,-8.42910170802
16,-5.17902774062,-5.1287104464,-34.9958391996
*Step  = 36
*Time  = 1.27
*Data  = x;y;z
1,-3.91916409666,3.97909315043,-8.44122626426
2,-5.486325235,-5.36454379,-37.858426675
15,-3.81387230027,3.97669223343,-8.44856677235
16,-5.17975643611,-5.12840309951,-35.002849127
*Step  = 37
*Time  = 1.3
*Data  = x;y;z
1,-3.89896868712,4.08487373235,-8.46102088166
2,-5.486325235,-5.36454379,-37.858426675
15,-3.81262585505,4.08290223598,-8.46702682567
16,-5.18044288946,-5.12810356254,-35.0094563456
*Step  = 38
*Time  = 1.33
*Data  = x;y;z
1,-3.88257423785,4.18467240888,-8.4804197403
2,-5.486325235,-5.36454379,-37.858426675
15,-3.81152045613,4.18304788018,-8.48535053152
16,-5.18116562619,-5.1278564903,-35.0163961445
*Step  = 39
*Time  = 1.36
*Data  = x;y;z
1,-3.86357232455,4.27929946039,-8.49962896809
2,-5.486325235,-5.36454379,-37.858426675
15,-3.81050674691,4.27808471907,-8.50330215881
16,-5.18190068339,-5.12767642221,-35.0234370844
*Step  = 40
*Time  = 1.39
*Data  = x;y;z
1,-3.84945859238,4.36808427109,-8.51735480843
2,-5.486325235,-5.36454379,-37.858426675
15,-3.80947756637,4.36716792019,-8.52011402881
16,-5.18255285367,-5.12742384564,-35.0297098138
*Step  = 41
*Time  = 1.42
*Data  = x;y;z
1,-3.84196277762,4.45495788858,-8.53608826522
2,-5.486325235,-5.36454379,-37.858426675
15,-3.80870211596,4.45419469874,-8.5383776177
16,-5.18339292839,-5.12737972665,-35.0377164012
*Step  = 42
*Time  = 1.45
*Data  = x;y;z
1,-3.82567734653,4.53411868207,-8.55183252116
2,-5.486325235,-5.36454379,-37.858426675
15,-3.80768757238,4.53370542109,-8.55306680153
16,-5.18390833854,-5.1270778975,-35.0427027023
*Step  = 43
*Time  = 1.48
*Data  = x;y;z
1,-3.82268219237,4.60778105239,-8.5660526115
2,-5.486325235,-5.36454379,-37.858426675
15,-3.80682098654,4.60741628471,-8.56713835427
16,-5.18442559217,-5.12679877426,-35.0476999595
*Step  = 44
*Time  = 1.51
*Data  = x;y;z
1,-3.80396722364,4.68136911646,-8.58222651021
2,-5.486325235,-5.36454379,-37.858426675
15,-3.80601230067,4.68141619776,-8.58208690601
16,-5.18503010822,-5.12662158383,-35.0535024187
*Step  = 45
*Time  = 1.54
*Data  = x;y;z
1,-3.79085921808,4.75653337871,-8.60032169871
2,-5.486325235,-5.36454379,-37.858426675
15,-3.80535372997,4.75686742679,-8.59933572087
16,-5.18584405351,-5.12659897957,-35.0612590375
*Step  = 46
*Time  = 1.57
*Data  = x;y;z
1,-3.78073514053,4.82643081793,-8.61556976423
2,-5.486325235,-5.36454379,-37.858426675
15,-3.80466454728,4.82698287841,-8.61394459521
16,-5.18645491523,-5.12644025299,-35.0671167768
*Step  = 47
*Time  = 1.6
*Data  = x;y;z
1,-3.76929930009,4.89353851268,-8.63036243266
2,-5.486325235,-5.36454379,-37.858426675
15,-3.80386356662,4.89433676058,-8.62802379299
16,-5.18700016724,-5.12622161118,-35.0723694289
*Step  = 48
*Time  = 1.63
*Data  = x;y;z
1,-3.75779942708,4.95956904736,-8.64516157507
2,-5.486325235,-5.36454379,-37.858426675
15,-3.80315351452,4.96061753417,-8.64210117141
16,-5.18757189425,-5.12605145711,-35.0778604376
*Step  = 49
*Time  = 1.66
*Data  = x;y;z
1,-3.74605170649,5.02361318759,-8.65966978674
2,-5.486325235,-5.36454379,-37.858426675
15,-3.80248341334,5.02491899613,-8.65587119377
16,-5.18814102033,-5.12591725269,-35.0833174777
*Step  = 50
*Time  = 1.69
*Data  = x;y;z
1,-3.73937131746,5.0858482109,-8.67342001899
2,-5.486325235,-5.36454379,-37.858426675
15,-3.8017694839,5.08729352588,-8.66923226707
16,-5.18866091601,-5.125708554,-35.0883270272
*Step  = 51
*Time  = 1.72
*Data  = x;y;z
1,-3.7267610358,5.14566465779,-8.6868664718
2,-5.486325235,-5.36454379,-37.858426675
15,-3.80108726401,5.1473878711,-8.68189002997
16,-5.18914522622,-5.12551152133,-35.0929943704
*Step  = 52
*Time  = 1.75
*Data  = x;y;z
1,-3.71531586791,5.2039482764,-8.70004091114
2,-5.486325235,-5.36454379,-37.858426675
15,-3.80043254133,5.20592345218,-8.69435576714
16,-5.18962552724,-5.12532879934,-35.0976200969
*Step  = 53
*Time  = 1.78
*Data  = x;y;z
1,-3.70463501699,5.26089374191,-8.71315966891
2,-5.486325235,-5.36454379,-37.858426675
15,-3.79979571617,5.26310395242,-8.70682026431
16,-5.19011681092,-5.12516852064,-35.1023453919
*Step  = 54
*Time  = 1.81
*Data  = x;y;z
1,-3.69472841678,5.31455659085,-8.72523711805
2,-5.486325235,-5.36454379,-37.858426675
15,-3.79915894494,5.31698416057,-8.71829691727
16,-5.19054382809,-5.12498032414,-35.1064664569
*Step  = 55
*Time  = 1.84
*Data  = x;y;z
1,-3.68498395775,5.36395840732,-8.73595394048
2,-5.486325235,-5.36454379,-37.858426675
15,-3.79857557557,5.36660074469,-8.72841895587
16,-5.19091269578,-5.12484712639,-35.1100182306
*Step  = 56
*Time  = 1.87
*Data  = x;y;z
1,-3.67940398534,5.41690931441,-8.74895574688
2,-5.486325235,-5.36454379,-37.858426675
15,-3.79801118149,5.41967055223,-8.74111790781
16,-5.19146225606,-5.12478448154,-35.1152754318
*Step  = 57
*Time  = 1.9
*Data  = x;y;z
1,-3.66734276153,5.46873574785,-8.76087637597
2,-5.486325235,-5.36454379,-37.858426675
15,-3.79739662142,5.47176589484,-8.75230170691
16,-5.19187622192,-5.12461473257,-35.119268278
*Step  = 58
*Time  = 1.93
*Data  = x;y;z
1,-3.65783968297,5.51908264963,-8.77248979182
2,-5.486325235,-5.36454379,-37.858426675
15,-3.796799154,5.52232278464,-8.76335177707
16,-5.19229166122,-5.12446562428,-35.1232703682
*Step  = 59
*Time  = 1.96
*Data  = x;y;z
1,-3.65609571285,5.5425703381,-8.77015882771
2,-5.486325235,-5.36454379,-37.858426675
15,-3.79583558289,5.5458300422,-8.76095933429
16,-5.1916931398,-5.12370803889,-35.117774588
*Step  = 60
*Time  = 1.99
*Data  = x;y;z
1,-3.66887056956,5.52417442345,-8.75026294302
2,-5.486325235,-5.36454379,-37.858426675
15,-3.7937651975,5.52708735933,-8.74199485808
16,-5.18995868196,-5.12239079664,-35.101634217
*Step  = 61
*Time  = 1.99999
*Data  = x;y;z
1,-3.6774618812,5.52491527461,-8.74939169354
2,-5.486325235,-5.36454379,-37.858426675
15,-3.79463207679,5.52764821426,-8.74163789836
16,-5.18991763088,-5.12231984115,-35.1012325568
*Step  = 1
*Time  = 2
*Data  = x;y;z
1,-3.67583711374,5.53453972093,-8.75461514094
2,-5.486325235,-5.36454379,-37.858426675
15,-3.79473799638,5.53731376734,-8.74675864406
16,-5.19027495117,-5.12244287335,-35.1046051214
*Step  = 2
*Time  = 2.00005
*Data  = x;y;z
1,-3.67526175175,5.54071239706,-8.7567025352
2,-5.486325235,-5.36454379,-37.858426675
15,-3.79466326306,5.54349911867,-8.7488149676
16,-5.19034928902,-5.12231238093,-35.1053497902
*Step  = 3
*Time  = 2.0003
*Data  = x;y;z
1,-3.67503143834,5.54614916815,-8.75919488674
2,-5.486325235,-5.36454379,-37.858426675
15,-3.79461062376,5.54894171817,-8.75129656879
16,-5.19047328287,-5.1222112433,-35.1065607091
*Step  = 4
*Time  = 2.00155
*Data  = x;y;z
1,-3.67480846794,5.55324923435,-8.76587750847
2,-5.486325235,-5.36454379,-37.858426675
15,-3.79470855104,5.55605429313,-8.75795879094
16,-5.19100903389,-5.12241544476,-35.1116178851
*Step  = 5
*Time  = 2.0078
*Data  = x;y;z
1,-3.67379105276,5.56988862307,-8.7934104726
2,-5.486325235,-5.36454379,-37.858426675
15,-3.79560877334,5.57275994961,-8.78536092228
16,-5.19363310829,-5.12430871859,-35.1361418331
*Step  = 6
*Time  = 2.03905
*Data  = x;y;z
1,-3.66736364419,5.64410330748,-8.92803678842
2,-5.486325235,-5.36454379,-37.858426675
15,-3.79974737663,5.64733935871,-8.91929747476
16,-5.20651655683,-5.13376510944,-35.2565145343
*Step  = 7
*Time  = 2.05
*Data  = x;y;z
1,-3.66057528541,5.6689488776,-8.97660836859
2,-5.486325235,-5.36454379,-37.858426675
15,-3.8014297921,5.67243288654,-8.96732837383
16,-5.21130651983,-5.13772406346,-35.3011375449
*Step  = 8
*Time  = 2.1
*Data  = x;y;z
1,-3.65373272878,5.77869348455,-9.18892069851
2,-5.486325235,-5.36454379,-37.858426675
15,-3.80795400895,5.78271947192,-9.17878472065
16,-5.23193212228,-5.15364952316,-35.4935987373
*Step  = 9
*Time  = 2.15
*Data  = x;y;z
1,-3.6348463059,5.87945285594,-9.39979964343
2,-5.486325235,-5.36454379,-37.858426675
15,-3.81458066758,5.88438499248,-9.38802437942
16,-5.25273679365,-5.1705574357,-35.6874350855
*Step  = 10
*Time  = 2.2
*Data  = x;y;z
1,-3.61248632935,5.91996856285,-9.5020203633
2,-5.486325235,-5.36454379,-37.858426675
15,-3.81803673434,5.92573971384,-9.48859233382
16,-5.26315507718,-5.17968604739,-35.7842708181
*Step  = 11
*Time  = 2.25
*Data  = x;y;z
1,-3.59844795261,6.01111326183,-9.7077944301
2,-5.486325235,-5.36454379,-37.858426675
15,-3.8240871713,6.01774569768,-9.6931395758
16,-5.28364329403,-5.19653489263,-35.9750170564
*Step  = 12
*Time  = 2.3
*Data  = x;y;z
1,-3.57930016041,6.09591995615,-9.91040430909
2,-5.486325235,-5.36454379,-37.858426675
15,-3.82991816759,6.10361211888,-9.89423239317
16,-5.30395661196,-5.21344805636,-36.1640097768
*Step  = 13
*Time  = 2.35
*Data  = x;y;z
1,-3.53938844924,6.17150525313,-10.1093720193
2,-5.486325235,-5.36454379,-37.858426675
15,-3.83540020655,6.18096967448,-10.0904158318
16,-5.32394069599,-5.23020437524,-36.3498429464
*Step  = 14
*Time  = 2.4
*Data  = x;y;z
1,-3.50224886811,6.23621789226,-10.2996889693
2,-5.486325235,-5.36454379,-37.858426675
15,-3.84051514096,6.24745549177,-10.2782269013
16,-5.34342293576,-5.24679520744,-36.5308596142
*Step  = 15
*Time  = 2.45
*Data  = x;y;z
1,-3.46082760289,6.28837175262,-10.4809710612
2,-5.486325235,-5.36454379,-37.858426675
15,-3.84532971452,6.30161194718,-10.4568361825
16,-5.36234828601,-5.26306243751,-36.7065846834
*Step  = 16
*Time  = 2.5
*Data  = x;y;z
1,-3.42406448535,6.3024978227,-10.5638402765
2,-5.486325235,-5.36454379,-37.858426675
15,-3.84798818643,6.31732895181,-10.5374015982
16,-5.37166912376,-5.27156137968,-36.7929167025
*Step  = 17
*Time  = 2.55
*Data  = x;y;z
1,-3.3990300915,6.345725777,-10.7334693537
2,-5.486325235,-5.36454379,-37.858426675
15,-3.85233779897,6.36211150022,-10.7056137369
16,-5.38996848044,-5.28719239245,-36.962771215
*Step  = 18
*Time  = 2.6
*Data  = x;y;z
1,-3.36058541797,6.37858735199,-10.8940592982
2,-5.486325235,-5.36454379,-37.858426675
15,-3.85667088474,6.39706859764,-10.8640596873
16,-5.4078555453,-5.30247849213,-37.1287379973
*Step  = 19
*Time  = 2.65
*Data  = x;y;z
1,-3.31872929656,6.4021314719,-11.0460477943
2,-5.486325235,-5.36454379,-37.858426675
15,-3.86112075331,6.42291045839,-11.0137895866
16,-5.425416371,-5.31729190226,-37.2917037165
*Step  = 20
*Time  = 2.7
*Data  = x;y;z
1,-3.27369564583,6.41694850503,-11.1891835796
2,-5.486325235,-5.36454379,-37.858426675
15,-3.86537298778,6.44021707564,-11.1546786718
16,-5.44242652666,-5.33124429845,-37.4496821565
*Step  = 21
*Time  = 2.75
*Data  = x;y;z
1,-3.25048448889,6.4277841457,-11.3266735572
2,-5.486325235,-5.36454379,-37.858426675
15,-3.8697118432,6.45274164129,-11.2914186631
16,-5.45929456123,-5.34455287531,-37.6065326447
*Step  = 22
*Time  = 2.8
*Data  = x;y;z
1,-3.21472564526,6.42064429518,-11.3815641914
2,-5.486325235,-5.36454379,-37.858426675
15,-3.8722278542,6.44741486537,-11.3445149287
16,-5.46732996269,-5.35081600921,-37.6812766261
*Step  = 23
*Time  = 2.85
*Data  = x;y;z
1,-3.19891373565,6.42824769614,-11.5130823877
2,-5.486325235,-5.36454379,-37.858426675
15,-3.87598385924,6.45646762038,-11.4760477172
16,-5.48333096171,-5.36242957131,-37.8304802749
*Step  = 24
*Time  = 2.9
*Data  = x;y;z
1,-3.17731836777,6.4270295699,-11.6360408925
2,-5.486325235,-5.36454379,-37.858426675
15,-3.87968538563,6.45695050142,-11.5988987374
16,-5.49869670147,-5.37305510142,-37.9739951602
*Step  = 25
*Time  = 2.95
*Data  = x;y;z
1,-3.15076018444,6.41964101462,-11.7515029351
2,-5.486325235,-5.36454379,-37.858426675
15,-3.88358109824,6.45149846602,-11.7140842644
16,-5.5136140226,-5.38276940832,-38.1136038005
*Step  = 26
*Time  = 3
*Data  = x;y;z
1,-3.11055226293,6.41000947171,-11.7316530964
2,-5.486325235,-5.36454379,-37.858426675
15,-3.8834652471,6.44353522253,-11.6923230303
16,-5.51307487395,-5.38210234443,-38.1086992576
*Step  = 27
*Time  = 3.05
*Data  = x;y;z
1,-3.06463103272,6.41080381564,-11.5252358174
2,-5.486325235,-5.36454379,-37.858426675
15,-3.8787804017,6.44484861228,-11.4814058215
16,-5.49098891746,-5.36761482392,-37.9020510836
*Step  = 28
*Time  = 3.1
*Data  = x;y;z
1,-3.12175070609,6.41170359046,-11.3185465615
2,-5.486325235,-5.36454379,-37.858426675
15,-3.87455935288,6.44198630259,-11.2758428291
16,-5.46849934677,-5.35265247101,-37.691765476
*Step  = 29
*Time  = 3.15
*Data  = x;y;z
1,-3.2150096815,6.40836072332,-11.1796697499
2,-5.486325235,-5.36454379,-37.858426675
15,-3.87066404495,6.43406873613,-11.1417114002
16,-5.45242204487,-5.34144277367,-37.5416693885
*Step  = 30
*Time  = 3.2
*Data  = x;y;z
1,-3.29475828758,6.38114574489,-10.9615208046
2,-5.486325235,-5.36454379,-37.858426675
15,-3.86500112447,6.40259973795,-10.9275444789
16,-5.42746609213,-5.32331677873,-37.3089849137
*Step  = 31
*Time  = 3.25
*Data  = x;y;z
1,-3.37541972665,6.34587517603,-10.738394605
2,-5.486325235,-5.36454379,-37.858426675
15,-3.85875961977,6.36328905225,-10.708898847
16,-5.4015889927,-5.30327675581,-37.0681787842
*Step  = 32
*Time  = 3.3
*Data  = x;y;z
1,-3.43979996474,6.29962892707,-10.5071059241
2,-5.486325235,-5.36454379,-37.858426675
15,-3.85199786071,6.31381091729,-10.4813956388
16,-5.37480476683,-5.28129395851,-36.8193384957
*Step  = 33
*Time  = 3.35
*Data  = x;y;z
1,-3.48112553959,6.26184199184,-10.3473284526
2,-5.486325235,-5.36454379,-37.858426675
15,-3.84648389676,6.27402656129,-10.3242653368
16,-5.35586448155,-5.26455917903,-36.6437501969
*Step  = 34
*Time  = 3.4
*Data  = x;y;z
1,-3.51213750088,6.17786819354,-10.0870299921
2,-5.486325235,-5.36454379,-37.858426675
15,-3.83902809392,6.18819475297,-10.0660822771
16,-5.32743851938,-5.24035229235,-36.3797782881
*Step  = 35
*Time  = 3.45
*Data  = x;y;z
1,-3.53923276718,6.0624242809,-9.79971865844
2,-5.486325235,-5.36454379,-37.858426675
15,-3.8302772643,6.07108043712,-9.78092264274
16,-5.29733156555,-5.21516593763,-36.099915188
*Step  = 36
*Time  = 3.5
*Data  = x;y;z
1,-3.56599316703,5.9327707132,-9.50156819841
2,-5.486325235,-5.36454379,-37.858426675
15,-3.82086329199,5.93986837601,-9.48499794585
16,-5.26665638966,-5.18964777117,-35.8145951416
*Step  = 37
*Time  = 3.55
*Data  = x;y;z
1,-3.59566650789,5.84082583366,-9.29563386874
2,-5.486325235,-5.36454379,-37.858426675
15,-3.81345263119,5.8466190314,-9.28143548193
16,-5.24535915216,-5.17129762534,-35.6166281381
*Step  = 38
*Time  = 3.6
*Data  = x;y;z
1,-3.61563920525,5.69125394473,-8.98589962533
2,-5.486325235,-5.36454379,-37.858426675
15,-3.80291957113,5.69587097373,-8.97363921779
16,-5.21411351587,-5.14562812709,-35.3256832433
*Step  = 39
*Time  = 3.65
*Data  = x;y;z
1,-3.65338534532,5.53392402767,-8.67381049628
2,-5.486325235,-5.36454379,-37.858426675
15,-3.79157251996,5.53706237195,-8.6647482436
16,-5.18270756835,-5.11937982832,-35.0332478501
*Step  = 40
*Time  = 3.7
*Data  = x;y;z
1,-3.69742910497,5.37195945553,-8.36205687823
2,-5.486325235,-5.36454379,-37.858426675
15,-3.77949431748,5.37366480229,-8.35667185887
16,-5.15130418355,-5.0924792038,-34.7408629253
*Step  = 41
*Time  = 3.75
*Data  = x;y;z
1,-3.73438232051,5.25982346345,-8.15119139369
2,-5.486325235,-5.36454379,-37.858426675
15,-3.77030694652,5.26052539205,-8.14883202218
16,-5.12971919654,-5.07232838514,-34.5402061065
*Step  = 42
*Time  = 3.8
*Data  = x;y;z
1,-3.77054788752,5.08069117184,-7.83846382939
2,-5.486325235,-5.36454379,-37.858426675
15,-3.75691594499,5.08045097008,-7.83935643277
16,-5.09830183215,-5.0444089768,-34.2476241497
*Step  = 43
*Time  = 3.85
*Data  = x;y;z
1,-3.79903591062,4.89946881712,-7.52731172764
2,-5.486325235,-5.36454379,-37.858426675
15,-3.74249844254,4.89857957555,-7.53099240734
16,-5.06688045593,-5.01538871438,-33.9550453307
*Step  = 44
*Time  = 3.9
*Data  = x;y;z
1,-3.83099623247,4.70705244445,-7.21211676013
2,-5.486325235,-5.36454379,-37.858426675
15,-3.72677294096,4.70560775207,-7.21885222049
16,-5.03513676731,-4.98508085219,-33.659443938
*Step  = 45
*Time  = 3.95
*Data  = x;y;z
1,-3.84951833085,4.57662326556,-6.99954317198
2,-5.486325235,-5.36454379,-37.858426675
15,-3.71502777727,4.57491916006,-7.00819782119
16,-5.01341612862,-4.96200615502,-33.4574692179
*Step  = 46
*Time  = 4
*Data  = x;y;z
1,-3.84658569867,4.58517506527,-7.00100060613
2,-5.486325235,-5.36454379,-37.858426675
15,-3.713807937,4.58347651111,-7.00959335418
16,-5.01255927172,-4.95578625493,-33.4504720741
*Step  = 47
*Time  = 4.05
*Data  = x;y;z
1,-3.78870362613,4.4752149557,-6.96962116039
2,-5.486325235,-5.36454379,-37.858426675
15,-3.71272288331,4.47424569467,-6.97457063169
16,-5.01045283395,-4.95557473267,-33.430553495
*Step  = 48
*Time  = 4.1
*Data  = x;y;z
1,-3.75347742654,4.3810533217,-6.95252206901
2,-5.486325235,-5.36454379,-37.858426675
15,-3.71303371347,4.38053937657,-6.95516690882
16,-5.0098804654,-4.95727864042,-33.4248143062
*Step  = 49
*Time  = 4.15
*Data  = x;y;z
1,-3.72412825529,4.28753919641,-6.93684588507
2,-5.486325235,-5.36454379,-37.858426675
15,-3.71355508278,4.28740547074,-6.93753889008
16,-5.00953251922,-4.95966893995,-33.4210852924
*Step  = 50
*Time  = 4.2
*Data  = x;y;z
1,-3.69753994476,4.19470798899,-6.92156460091
2,-5.486325235,-5.36454379,-37.858426675
15,-3.71416093852,4.19491709359,-6.92047293438
16,-5.00926183292,-4.96243123309,-33.4180287331
*Step  = 51
*Time  = 4.25
*Data  = x;y;z
1,-3.67389031986,4.10098967069,-6.9058419395
2,-5.486325235,-5.36454379,-37.858426675
15,-3.71476751381,4.101500889,-6.90315418129
16,-5.00899238151,-4.96553823971,-33.4149344035
*Step  = 52
*Time  = 4.3
*Data  = x;y;z
1,-3.64395537633,4.00668568169,-6.88971965017
2,-5.486325235,-5.36454379,-37.858426675
15,-3.71532936654,4.00757273644,-6.88502012674
16,-5.0086430291,-4.96872971134,-33.4110770805
*Step  = 53
*Time  = 4.35
*Data  = x;y;z
1,-3.61951155509,3.91140428074,-6.87346257677
2,-5.486325235,-5.36454379,-37.858426675
15,-3.71591951219,3.91259453486,-6.86710886266
16,-5.00832449769,-4.97214363669,-33.4074845868
*Step  = 54
*Time  = 4.4
*Data  = x;y;z
1,-3.59152156046,3.81460818113,-6.85680455719
2,-5.486325235,-5.36454379,-37.858426675
15,-3.7164720253,3.81614037056,-6.84855946029
16,-5.00793843065,-4.97556632392,-33.4032611215
*Step  = 55
*Time  = 4.45
*Data  = x;y;z
1,-3.56378176186,3.7177873813,-6.84030688163
2,-5.486325235,-5.36454379,-37.858426675
15,-3.71703729703,3.71965366246,-6.83017892393
16,-5.00755165123,-4.97904218917,-33.3990317865
*Step  = 56
*Time  = 4.5
*Data  = x;y;z
1,-3.53804241599,3.62075489203,-6.82407802845
2,-5.486325235,-5.36454379,-37.858426675
15,-3.71760836402,3.62292638432,-6.81219583903
16,-5.00717617038,-4.98251929145,-33.3949198163
*Step  = 57
*Time  = 4.55
*Data  = x;y;z
1,-3.51091335702,3.52201250414,-6.80828520995
2,-5.486325235,-5.36454379,-37.858426675
15,-3.71819868512,3.52450163625,-6.79455584163
16,-5.00682126303,-4.98602481224,-33.3910086468
*Step  = 58
*Time  = 4.6
*Data  = x;y;z
1,-3.4830196998,3.4215536052,-6.7927172219
2,-5.486325235,-5.36454379,-37.858426675
15,-3.71881203833,3.42436490937,-6.7770844893
16,-5.00647532125,-4.9895708979,-33.3871859626
*Step  = 59
*Time  = 4.65
*Data  = x;y;z
1,-3.45630802375,3.32058447181,-6.77771234234
2,-5.486325235,-5.36454379,-37.858426675
15,-3.71945924487,3.32369946748,-6.76025447827
16,-5.00616839709,-4.99315431085,-33.3837366048
*Step  = 60
*Time  = 4.7
*Data  = x;y;z
1,-3.42907147555,3.21831652545,-6.76284370277
2,-5.486325235,-5.36454379,-37.858426675
15,-3.72009986889,3.22173659187,-6.74352956303
16,-5.0058511719,-4.99673923742,-33.380200309
*Step  = 61
*Time  = 4.75
*Data  = x;y;z
1,-3.40615251621,3.11548910561,-6.74844539107
2,-5.486325235,-5.36454379,-37.858426675
15,-3.72078703904,3.11916002973,-6.72755596994
16,-5.00558216884,-5.00031050078,-33.3771310989
*Step  = 62
*Time  = 4.8
*Data  = x;y;z
1,-3.37280848999,3.0088873663,-6.73403202957
2,-5.486325235,-5.36454379,-37.858426675
15,-3.72144893716,3.01292532619,-6.71086499652
16,-5.00524841798,-5.00387412428,-33.3734618184
*Step  = 63
*Time  = 4.85
*Data  = x;y;z
1,-3.344707007,2.90109520248,-6.7197660712
2,-5.486325235,-5.36454379,-37.858426675
15,-3.72213042606,2.90543423751,-6.69468297194
16,-5.00494029917,-5.00747564235,-33.3700394045
*Step  = 64
*Time  = 4.9
*Data  = x;y;z
1,-3.31862155883,2.79244857881,-6.70641402138
2,-5.486325235,-5.36454379,-37.858426675
15,-3.72290151662,2.79706191828,-6.67954282973
16,-5.00471585998,-5.01112898631,-33.3674086397
*Step  = 65
*Time  = 4.95
*Data  = x;y;z
1,-3.29034870555,2.68129761267,-6.69345895453
2,-5.486325235,-5.36454379,-37.858426675
15,-3.72369686709,2.68620568452,-6.66466052342
16,-5.00450380073,-5.01480097993,-33.3649019497
*Step  = 66
*Time  = 4.99999
*Data  = x;y;z
1,-3.37363920351,2.75393283484,-6.719026535
2,-5.486325235,-5.36454379,-37.858426675
15,-3.72551208699,2.75793259651,-6.695683443
16,-5.00697370089,-5.01475729002,-33.3881896801
