*Step  = 1
*Time  = 1e-05
*Data  = x;y;z
1,-3.44098111467,3.43077314074,-11.2302303184
2,-5.486325235,-5.36454379,-37.858426675
15,-3.97980791686,3.45413017707,-11.1934958804
16,-5.47951711183,-5.35964837509,-37.7949232255
*Step  = 2
*Time  = 1.91295806e-05
*Data  = x;y;z
1,-3.38985437799,3.42553385033,-11.1976555932
2,-5.486325235,-5.36454379,-37.858426675
15,-3.97629024557,3.45094960572,-11.1577170797
16,-5.47577732662,-5.35696707035,-37.7600365254
*Step  = 3
*Time  = 6.47774835e-05
*Data  = x;y;z
1,-3.36389578465,3.42455727041,-11.1788173809
2,-5.486325235,-5.36454379,-37.858426675
15,-3.97421510521,3.45100445618,-11.1372614938
16,-5.47362773151,-5.35542833969,-37.7399828676
*Step  = 4
*Time  = 0.000293016998
*Data  = x;y;z
1,-3.34971584679,3.42806572712,-11.1678626704
2,-5.486325235,-5.36454379,-37.858426675
15,-3.97288349833,3.45506402921,-11.1254179682
16,-5.47235487281,-5.35451803633,-37.728107949
*Step  = 5
*Time  = 0.00143421457
*Data  = x;y;z
1,-3.33968816058,3.42693950823,-11.1577607893
2,-5.486325235,-5.36454379,-37.858426675
15,-3.97204244177,3.45431518962,-11.1146736001
16,-5.47123259875,-5.35371443437,-37.7176383395
*Step  = 6
*Time  = 0.00714020243
*Data  = x;y;z
1,-3.33701367393,3.41716029701,-11.1311011412
2,-5.486325235,-5.36454379,-37.858426675
15,-3.97076135434,3.44449782709,-11.0879091989
16,-5.46847074767,-5.35173111734,-37.6918758292
*Step  = 7
*Time  = 0.0356701418
*Data  = x;y;z
1,-3.35216211832,3.36570844561,-11.010411933
2,-5.486325235,-5.36454379,-37.858426675
15,-3.96586522481,3.39170627972,-10.9686266609
16,-5.45619805475,-5.34290324839,-37.5774030736
*Step  = 8
*Time  = 0.05
*Data  = x;y;z
1,-3.38539462492,3.34441440384,-10.9540649557
2,-5.486325235,-5.36454379,-37.858426675
15,-3.96379544939,3.36869272046,-10.9147310086
16,-5.45062956862,-5.33888803243,-37.525467712
*Step  = 9
*Time  = 0.1
*Data  = x;y;z
1,-3.46509628921,3.25598546723,-10.7562471223
2,-5.486325235,-5.36454379,-37.858426675
15,-3.95639605664,3.27594398673,-10.7231581474
16,-5.43091100038,-5.32466544101,-37.3415610821
*Step  = 10
*Time  = 0.15
*Data  = x;y;z
1,-3.58715047031,3.17983188812,-10.5805031037
2,-5.486325235,-5.36454379,-37.858426675
15,-3.95072408859,3.19411508196,-10.5562728479
16,-5.41372681001,-5.31224081894,-37.1813036276
*Step  = 11
*Time  = 0.2
*Data  = x;y;z
1,-3.70510526482,3.14197846483,-10.5040581188
2,-5.486325235,-5.36454379,-37.858426675
15,-3.949255562,3.15140806402,-10.4879567504
16,-5.40670569156,-5.30715603925,-37.1158284718
*Step  = 12
*Time  = 0.25
*Data  = x;y;z
1,-3.88725656516,3.04119209655,-10.3321594644
2,-5.486325235,-5.36454379,-37.858426675
15,-3.94435564122,3.04332270926,-10.3284857633
16,-5.39040743018,-5.29538127182,-36.9638282972
*Step  = 13
*Time  = 0.3
*Data  = x;y;z
1,-4.0139614023,2.93058242019,-10.1644000038
2,-5.486325235,-5.36454379,-37.858426675
15,-3.93951963839,2.92789975358,-10.1691050556
16,-5.37426631757,-5.28371514893,-36.8132947424
*Step  = 14
*Time  = 0.35
*Data  = x;y;z
1,-4.12306735198,2.8055494186,-9.98008483911
2,-5.486325235,-5.36454379,-37.858426675
15,-3.93288375435,2.79893444089,-9.99185186802
16,-5.35630026899,-5.27072542691,-36.6457426333
*Step  = 15
*Time  = 0.4
*Data  = x;y;z
1,-4.21426322347,2.67449562557,-9.78221457676
2,-5.486325235,-5.36454379,-37.858426675
15,-3.92441944869,2.66477038698,-9.79976741466
16,-5.33679763588,-5.25661671764,-36.4638622789
*Step  = 16
*Time  = 0.45
*Data  = x;y;z
1,-4.29360103236,2.54298034745,-9.58062795729
2,-5.486325235,-5.36454379,-37.858426675
15,-3.91488461656,2.53072756875,-9.60305778199
16,-5.31679195834,-5.24213235581,-36.2772935866
*Step  = 17
*Time  = 0.5
*Data  = x;y;z
1,-4.33315983744,2.47617160251,-9.47670212075
2,-5.486325235,-5.36454379,-37.858426675
15,-3.90966481972,2.46271967335,-9.50151131785
16,-5.30645385622,-5.23462254883,-36.1808906201
*Step  = 18
*Time  = 0.55
*Data  = x;y;z
1,-4.42498264972,2.34329717067,-9.27334278467
2,-5.486325235,-5.36454379,-37.858426675
15,-3.89944315974,2.32721453617,-9.30350164354
16,-5.28633857639,-5.22002473365,-35.9933087993
*Step  = 19
*Time  = 0.6
*Data  = x;y;z
1,-4.49125575299,2.21059192746,-9.06546570196
2,-5.486325235,-5.36454379,-37.858426675
15,-3.88823055045,2.19282482963,-9.09944407735
16,-5.26559175347,-5.20494002482,-35.7998447648
*Step  = 20
*Time  = 0.65
*Data  = x;y;z
1,-4.55780932889,2.072896652,-8.8560486556
2,-5.486325235,-5.36454379,-37.858426675
15,-3.87657247363,2.05358657159,-8.89379981728
16,-5.24473024925,-5.18973250962,-35.6053209796
*Step  = 21
*Time  = 0.7
*Data  = x;y;z
1,-4.65554040345,1.93182467926,-8.64565126812
2,-5.486325235,-5.36454379,-37.858426675
15,-3.86460768418,1.91027258735,-8.68858364523
16,-5.22391040339,-5.17452315702,-35.4111920692
*Step  = 22
*Time  = 0.75
*Data  = x;y;z
1,-4.73770759312,1.79217022468,-8.43301046113
2,-5.486325235,-5.36454379,-37.858426675
15,-3.85183094212,1.76898265668,-8.48014806172
16,-5.20273841524,-5.15901731788,-35.2137874026
*Step  = 23
*Time  = 0.8
*Data  = x;y;z
1,-4.7866228881,1.72118518819,-8.32466119359
2,-5.486325235,-5.36454379,-37.858426675
15,-3.8451560026,1.69703920175,-8.37426969105
16,-5.19198244343,-5.15107182651,-35.113517985
*Step  = 24
*Time  = 0.85
*Data  = x;y;z
1,-4.87054551972,1.57472951466,-8.11447951703
2,-5.486325235,-5.36454379,-37.858426675
15,-3.83217423482,1.54917992233,-8.16804403042
16,-5.17109523527,-5.13571644311,-34.9187773677
*Step  = 25
*Time  = 0.9
*Data  = x;y;z
1,-4.99912928571,1.41422490763,-7.9001311098
2,-5.486325235,-5.36454379,-37.858426675
15,-3.81877914823,1.38638164914,-7.95949928275
16,-5.15005468156,-5.12020715842,-34.7226137344
*Step  = 26
*Time  = 0.95
*Data  = x;y;z
1,-5.07818836463,1.26137427818,-7.68651982711
2,-5.486325235,-5.36454379,-37.858426675
15,-3.80477188292,1.23260049871,-7.74922379157
16,-5.12879486289,-5.1044731756,-34.5244156298
*Step  = 27
*Time  = 1
*Data  = x;y;z
1,-5.07829247633,1.26505164584,-7.68039949276
2,-5.486325235,-5.36454379,-37.858426675
15,-3.8041471809,1.23625743738,-7.7434519433
16,-5.12818134317,-5.10387086235,-34.5187343595
*Step  = 28
*Time  = 1.03
*Data  = x;y;z
1,-4.4924054707,2.34421320871,-8.10818604481
2,-5.486325235,-5.36454379,-37.858426675
15,-3.82473462314,2.32910552309,-8.15136519714
16,-5.16479427933,-5.12933944727,-34.8604165131
*Step  = 29
*Time  = 1.06
*Data  = x;y;z
1,-4.33758259178,2.70328868269,-8.1926761395
2,-5.486325235,-5.36454379,-37.858426675
15,-3.8251521278,2.69167728644,-8.22764562857
16,-5.17025883545,-5.13244437345,-34.9115773431
*Step  = 30
*Time  = 1.09
*Data  = x;y;z
1,-4.24075851227,2.91140007889,-8.22361007444
2,-5.486325235,-5.36454379,-37.858426675
15,-3.82271151616,2.90191629158,-8.25256779911
16,-5.17111207611,-5.13231848884,-34.919713857
*Step  = 31
*Time  = 1.12
*Data  = x;y;z
1,-4.17363482078,3.08392814651,-8.25072764144
2,-5.486325235,-5.36454379,-37.858426675
15,-3.82071203057,3.07591285949,-8.27535696735
16,-5.17195439047,-5.13223652291,-34.9277374664
*Step  = 32
*Time  = 1.15
*Data  = x;y;z
1,-4.11981801899,3.23227424628,-8.274667562
2,-5.486325235,-5.36454379,-37.858426675
15,-3.81892753611,3.22543337144,-8.29574824543
16,-5.17270416583,-5.13212163032,-34.9348911347
*Step  = 33
*Time  = 1.18
*Data  = x;y;z
1,-4.0867915472,3.362579851,-8.29602906993
2,-5.486325235,-5.36454379,-37.858426675
15,-3.81739416322,3.3564486304,-8.31491941582
16,-5.17344166097,-5.1320221201,-34.9419254099
*Step  = 34
*Time  = 1.21
*Data  = x;y;z
1,-4.05750287961,3.47906184724,-8.3153813814
2,-5.486325235,-5.36454379,-37.858426675
15,-3.81601852905,3.47356036372,-8.33232328228
16,-5.17410411694,-5.13188861651,-34.9482553218
*Step  = 35
*Time  = 1.24
*Data  = x;y;z
1,-4.06574130595,3.58741263019,-8.33544161036
2,-5.486325235,-5.36454379,-37.858426675
15,-3.81508795323,3.58169658528,-8.35298583624
16,-5.17515013096,-5.1320527458,-34.9581591154
*Step  = 36
*Time  = 1.27
*Data  = x;y;z
1,-4.02121200358,3.68332591056,-8.35153308858
2,-5.486325235,-5.36454379,-37.858426675
15,-3.81375426054,3.67859059391,-8.36605248424
16,-5.1755197446,-5.13176099018,-34.9617456787
*Step  = 37
*Time  = 1.3
*Data  = x;y;z
1,-3.9975270855,3.77654659528,-8.36818541505
2,-5.486325235,-5.36454379,-37.858426675
15,-3.81266371863,3.77232319237,-8.38111036916
16,-5.17611247802,-5.13164479402,-34.9674104693
*Step  = 38
*Time  = 1.33
*Data  = x;y;z
1,-3.97795859703,3.86108960783,-8.38309728775
2,-5.486325235,-5.36454379,-37.858426675
15,-3.81164512522,3.85728674601,-8.39471137851
16,-5.17662823588,-5.13150159165,-34.9723506321
*Step  = 39
*Time  = 1.36
*Data  = x;y;z
1,-3.96886391066,3.94335785452,-8.39913616478
2,-5.486325235,-5.36454379,-37.858426675
15,-3.81083845043,3.93974142201,-8.41014877113
16,-5.17734555065,-5.13151312462,-34.9791692369
*Step  = 40
*Time  = 1.39
*Data  = x;y;z
1,-3.94684975865,4.02192676863,-8.41413441058
2,-5.486325235,-5.36454379,-37.858426675
15,-3.80993942753,4.01879098576,-8.42365947608
16,-5.17789270388,-5.13141653856,-34.9843971957
*Step  = 41
*Time  = 1.42
*Data  = x;y;z
1,-3.93073603257,4.09532715309,-8.42800113863
2,-5.486325235,-5.36454379,-37.858426675
15,-3.80910511489,4.09253914769,-8.43644944855
16,-5.17841363706,-5.13132447523,-34.9893750507
*Step  = 42
*Time  = 1.45
*Data  = x;y;z
1,-3.91469499154,4.16669228885,-8.44162761322
2,-5.486325235,-5.36454379,-37.858426675
15,-3.80830319679,4.16425170907,-8.44900661585
16,-5.17892718439,-5.13123391455,-34.9942825252
*Step  = 43
*Time  = 1.48
*Data  = x;y;z
1,-3.90377565291,4.23411388697,-8.45466697355
2,-5.486325235,-5.36454379,-37.858426675
15,-3.80757012521,4.23190532561,-8.46132779664
16,-5.17944919865,-5.13116574482,-34.9992653457
*Step  = 44
*Time  = 1.51
*Data  = x;y;z
1,-3.88963983327,4.29891973075,-8.46789480416
2,-5.486325235,-5.36454379,-37.858426675
15,-3.80688924025,4.29701866061,-8.47361318522
16,-5.17998751212,-5.13112054095,-35.0043977948
*Step  = 45
*Time  = 1.54
*Data  = x;y;z
1,-3.87212006776,4.36211441688,-8.48076488947
2,-5.486325235,-5.36454379,-37.858426675
15,-3.80623423077,4.36059975523,-8.48531259001
16,-5.18049191752,-5.13107981614,-35.0092062831
*Step  = 46
*Time  = 1.57
*Data  = x;y;z
1,-3.86207637591,4.42337375257,-8.49307822264
2,-5.486325235,-5.36454379,-37.858426675
15,-3.80555259351,4.42207338811,-8.49697065802
16,-5.18098671273,-5.13101314595,-35.0139312931
*Step  = 47
*Time  = 1.6
*Data  = x;y;z
1,-3.85849808032,4.48390538994,-8.50656768907
2,-5.486325235,-5.36454379,-37.858426675
15,-3.80510816177,4.48267633814,-8.51023777179
16,-5.18167892292,-5.13114546262,-35.0204829217
*Step  = 48
*Time  = 1.63
*Data  = x;y;z
1,-3.84054715883,4.53743688798,-8.5163691739
2,-5.486325235,-5.36454379,-37.858426675
15,-3.80434115982,4.53660285992,-8.51885372356
16,-5.18193024726,-5.13092268194,-35.022932099
*Step  = 49
*Time  = 1.66
*Data  = x;y;z
1,-3.83174652866,4.5937344369,-8.52812783955
2,-5.486325235,-5.36454379,-37.858426675
15,-3.80374171754,4.59308890502,-8.53004504763
16,-5.18242196139,-5.13089101241,-35.02761971
*Step  = 50
*Time  = 1.69
*Data  = x;y;z
1,-3.82863960436,4.64967700097,-8.54042590273
2,-5.486325235,-5.36454379,-37.858426675
15,-3.803263271,4.64909165409,-8.54215969466
16,-5.18301078294,-5.13091316901,-35.0332170816
*Step  = 51
*Time  = 1.72
*Data  = x;y;z
1,-3.81203009141,4.70219703729,-8.55170363445
2,-5.486325235,-5.36454379,-37.858426675
15,-3.80267018413,4.70198100177,-8.55234185533
16,-5.18343423479,-5.13085196749,-35.0372631858
*Step  = 52
*Time  = 1.75
*Data  = x;y;z
1,-3.8006380111,4.7541521209,-8.56259948794
2,-5.486325235,-5.36454379,-37.858426675
15,-3.80210346726,4.75418596573,-8.56249973974
16,-5.18386289876,-5.13079949807,-35.0413566342
*Step  = 53
*Time  = 1.78
*Data  = x;y;z
1,-3.78711464694,4.80258646058,-8.57236600994
2,-5.486325235,-5.36454379,-37.858426675
15,-3.80153336909,4.80291965643,-8.571385713
16,-5.18420028224,-5.13069463879,-35.0445948059
*Step  = 54
*Time  = 1.81
*Data  = x;y;z
1,-3.78217834525,4.85193463494,-8.58364853973
2,-5.486325235,-5.36454379,-37.858426675
15,-3.80114118086,4.85237309689,-8.58236121706
16,-5.18474510583,-5.13074728289,-35.0497662912
*Step  = 55
*Time  = 1.84
*Data  = x;y;z
1,-3.77311412363,4.89959081414,-8.59414701515
2,-5.486325235,-5.36454379,-37.858426675
15,-3.80059097786,4.90022652222,-8.59228736888
16,-5.18516822706,-5.13069741857,-35.0538082339
*Step  = 56
*Time  = 1.87
*Data  = x;y;z
1,-3.76015012123,4.94561674349,-8.6036502931
2,-5.486325235,-5.36454379,-37.858426675
15,-3.80004650504,4.94654032641,-8.60095344885
16,-5.18549666676,-5.13058823747,-35.056963184
*Step  = 57
*Time  = 1.9
*Data  = x;y;z
1,-3.75388719671,4.99194631837,-8.61396564212
2,-5.486325235,-5.36454379,-37.858426675
15,-3.79957937077,4.99300465248,-8.61088423588
16,-5.18594896652,-5.1305949733,-35.0612677616
*Step  = 58
*Time  = 1.93
*Data  = x;y;z
1,-3.7391947479,5.03633327516,-8.62343897804
2,-5.486325235,-5.36454379,-37.858426675
15,-3.79909832552,5.03772149989,-8.61940282413
16,-5.18628963796,-5.13053236656,-35.064526795
*Step  = 59
*Time  = 1.96
*Data  = x;y;z
1,-3.73822391558,5.05753138087,-8.62113252518
2,-5.486325235,-5.36454379,-37.858426675
15,-3.79822520459,5.05892234182,-8.61708659913
16,-5.18576680689,-5.12990990286,-35.0597139144
*Step  = 60
*Time  = 1.99
*Data  = x;y;z
1,-3.75008068751,5.04097192814,-8.60362134229
2,-5.486325235,-5.36454379,-37.858426675
15,-3.79718685395,5.04206387084,-8.60043029494
16,-5.18423116656,-5.12875585015,-35.045397869
*Step  = 61
*Time  = 1.99999
*Data  = x;y;z
1,-3.75561704216,5.04129543866,-8.60331077197
2,-5.486325235,-5.36454379,-37.858426675
15,-3.79716088317,5.04225848579,-8.60049751583
16,-5.18422228366,-5.12872168257,-35.0453225883
*Step  = 1
*Time  = 2
*Data  = x;y;z
1,-3.7538591654,5.04449107436,-8.60493511958
2,-5.486325235,-5.36454379,-37.858426675
15,-3.79717685674,5.04549538239,-8.60200246649
16,-5.18431601292,-5.12870656104,-35.0462188284
*Step  = 2
*Time  = 2.00005
*Data  = x;y;z
1,-3.75383313027,5.04627418024,-8.60560886657
2,-5.486325235,-5.36454379,-37.858426675
15,-3.79714179354,5.04727848587,-8.60267708246
16,-5.18433568159,-5.12862877756,-35.0464267337
*Step  = 3
*Time  = 2.0003
*Data  = x;y;z
1,-3.75377280005,5.04827414368,-8.60715437593
2,-5.486325235,-5.36454379,-37.858426675
15,-3.79714918767,5.04928047421,-8.60421802348
16,-5.18444350018,-5.12861296883,-35.047458149
*Step  = 4
*Time  = 2.00155
*Data  = x;y;z
1,-3.75332129483,5.05265934889,-8.61306163267
2,-5.486325235,-5.36454379,-37.858426675
15,-3.79731185423,5.05368163795,-8.61008375829
16,-5.1849743043,-5.12889637133,-35.0524413118
*Step  = 5
*Time  = 2.0078
*Data  = x;y;z
1,-3.75102538867,5.06985993209,-8.64086206255
2,-5.486325235,-5.36454379,-37.858426675
15,-3.79823256417,5.07096550699,-8.63766673978
16,-5.18762067026,-5.13067907514,-35.0771886016
*Step  = 6
*Time  = 2.03905
*Data  = x;y;z
1,-3.7367839333,5.1488032055,-8.77731122024
2,-5.486325235,-5.36454379,-37.858426675
15,-3.80288829467,5.15041005607,-8.77283657115
16,-5.20078035652,-5.14001435855,-35.2001286296
*Step  = 7
*Time  = 2.05
*Data  = x;y;z
1,-3.72374937194,5.17290979597,-8.82430255229
2,-5.486325235,-5.36454379,-37.858426675
15,-3.8045357387,5.174897482,-8.81883895131
16,-5.20541698975,-5.14371126498,-35.2433342702
*Step  = 8
*Time  = 2.1
*Data  = x;y;z
1,-3.70405828757,5.2882920166,-9.03725463049
2,-5.486325235,-5.36454379,-37.858426675
15,-3.81158643885,5.2910876637,-9.02999021615
16,-5.22624992286,-5.15927030352,-35.43773981
*Step  = 9
*Time  = 2.15
*Data  = x;y;z
1,-3.66843984195,5.39646932035,-9.24861351348
2,-5.486325235,-5.36454379,-37.858426675
15,-3.81834834083,5.40057296156,-9.23850971324
16,-5.24701255104,-5.1752672977,-35.6313286179
*Step  = 10
*Time  = 2.2
*Data  = x;y;z
1,-3.64568679548,5.44341160054,-9.35192507552
2,-5.486325235,-5.36454379,-37.858426675
15,-3.82180583708,5.44834954148,-9.340080952
16,-5.25740872452,-5.18378098529,-35.7280947538
*Step  = 11
*Time  = 2.25
*Data  = x;y;z
1,-3.6266426515,5.54439641592,-9.56123315254
2,-5.486325235,-5.36454379,-37.858426675
15,-3.82821738849,5.55032353629,-9.54773106468
16,-5.27814650222,-5.19985012004,-35.9213753212
*Step  = 12
*Time  = 2.3
*Data  = x;y;z
1,-3.59340915449,5.63722115298,-9.76756213808
2,-5.486325235,-5.36454379,-37.858426675
15,-3.83440188651,5.64463145495,-9.75148971876
16,-5.29871432142,-5.2161160907,-36.1129323242
*Step  = 13
*Time  = 2.35
*Data  = x;y;z
1,-3.54156577225,5.7235350427,-9.97190721497
2,-5.486325235,-5.36454379,-37.858426675
15,-3.84021945592,5.73311881851,-9.95207021783
16,-5.31899032207,-5.23213028897,-36.3017427028
*Step  = 14
*Time  = 2.4
*Data  = x;y;z
1,-3.5021426135,5.80446502627,-10.171756956
2,-5.486325235,-5.36454379,-37.858426675
15,-3.84564260508,5.8159445353,-10.149066054
16,-5.33898186449,-5.24799126388,-36.487843896
*Step  = 15
*Time  = 2.45
*Data  = x;y;z
1,-3.46479320167,5.87569442458,-10.3670462525
2,-5.486325235,-5.36454379,-37.858426675
15,-3.85076087837,5.88910005775,-10.3417442582
16,-5.35868993194,-5.2637172144,-36.6712368123
*Step  = 16
*Time  = 2.5
*Data  = x;y;z
1,-3.425188389,5.89716341794,-10.456838859
2,-5.486325235,-5.36454379,-37.858426675
15,-3.85331097707,5.91229861553,-10.4288775885
16,-5.36809111369,-5.27155871475,-36.7585761554
*Step  = 17
*Time  = 2.55
*Data  = x;y;z
1,-3.38442392468,5.94700700651,-10.6349589738
2,-5.486325235,-5.36454379,-37.858426675
15,-3.85765070157,5.96433403466,-10.6043833594
16,-5.38657040462,-5.28650857752,-36.930399139
*Step  = 18
*Time  = 2.6
*Data  = x;y;z
1,-3.34784877417,5.98227940967,-10.8020899606
2,-5.486325235,-5.36454379,-37.858426675
15,-3.86190327112,6.00172118629,-10.7693478432
16,-5.40455645605,-5.30123233994,-37.0975257544
*Step  = 19
*Time  = 2.65
*Data  = x;y;z
1,-3.3011340627,6.00354687663,-10.9590736727
2,-5.486325235,-5.36454379,-37.858426675
15,-3.86614850378,6.0255690098,-10.9236220394
16,-5.42196803554,-5.31542709937,-37.2592967762
*Step  = 20
*Time  = 2.7
*Data  = x;y;z
1,-3.26169915471,6.01547915661,-11.1077789893
2,-5.486325235,-5.36454379,-37.858426675
15,-3.8704024313,6.03987976622,-11.0702702448
16,-5.43900482128,-5.32907736822,-37.4176491964
*Step  = 21
*Time  = 2.75
*Data  = x;y;z
1,-3.22775115171,6.01757938907,-11.2478338844
2,-5.486325235,-5.36454379,-37.858426675
15,-3.8746413301,6.04420347419,-11.2087581228
16,-5.45551480483,-5.34192807974,-37.5712391544
*Step  = 22
*Time  = 2.8
*Data  = x;y;z
1,-3.1998541861,6.00449156999,-11.3054733156
2,-5.486325235,-5.36454379,-37.858426675
15,-3.87691355401,6.03267858649,-11.2650272084
16,-5.46323869911,-5.34789844246,-37.6431046702
*Step  = 23
*Time  = 2.85
*Data  = x;y;z
1,-3.16444649518,5.9991380493,-11.4386232921
2,-5.486325235,-5.36454379,-37.858426675
15,-3.88048415617,6.02970854512,-11.3969567859
16,-5.47868936201,-5.35913494972,-37.7871657672
*Step  = 24
*Time  = 2.9
*Data  = x;y;z
1,-3.14131395585,5.98501550758,-11.5636247302
2,-5.486325235,-5.36454379,-37.858426675
15,-3.88394834354,6.01748166515,-11.5218085806
16,-5.49352388159,-5.36954593245,-37.9256525364
*Step  = 25
*Time  = 2.95
*Data  = x;y;z
1,-3.12310503002,5.95871596236,-11.6774579374
2,-5.486325235,-5.36454379,-37.858426675
15,-3.88738660067,5.99287667854,-11.6359474405
16,-5.50745449307,-5.37891759336,-38.0558957877
*Step  = 26
*Time  = 3
*Data  = x;y;z
1,-3.08760273948,5.93905392548,-11.6597596666
2,-5.486325235,-5.36454379,-37.858426675
15,-3.88733706218,5.97474417702,-11.6164455909
16,-5.50656681424,-5.37815872325,-38.0476710473
*Step  = 27
*Time  = 3.05
*Data  = x;y;z
1,-3.05902239356,5.94784056373,-11.4601595427
2,-5.486325235,-5.36454379,-37.858426675
15,-3.88331287118,5.98326022822,-11.4130006926
16,-5.48523674952,-5.36380920555,-37.8482521819
*Step  = 28
*Time  = 3.1
*Data  = x;y;z
1,-3.12705513712,5.95661317012,-11.2562250519
2,-5.486325235,-5.36454379,-37.858426675
15,-3.88003944128,5.98767268522,-11.2107650269
16,-5.46364236045,-5.34911305583,-37.64647362
*Step  = 29
*Time  = 3.15
*Data  = x;y;z
1,-3.21904657124,5.95145015585,-11.1141173333
2,-5.486325235,-5.36454379,-37.858426675
15,-3.87678276626,5.97784529949,-11.073584881
16,-5.44793100532,-5.33801104805,-37.4998540597
*Step  = 30
*Time  = 3.2
*Data  = x;y;z
1,-3.30666952402,5.92875001113,-10.8925009862
2,-5.486325235,-5.36454379,-37.858426675
15,-3.8714653131,5.95044223576,-10.8568194508
16,-5.42335985677,-5.32005767538,-37.2708000782
*Step  = 31
*Time  = 3.25
*Data  = x;y;z
1,-3.39226051068,5.89973698234,-10.6658331603
2,-5.486325235,-5.36454379,-37.858426675
15,-3.86536811861,5.91709172394,-10.6353525187
16,-5.3978405555,-5.30034858037,-37.0333052717
*Step  = 32
*Time  = 3.3
*Data  = x;y;z
1,-3.4549920218,5.85431318412,-10.4256361608
2,-5.486325235,-5.36454379,-37.858426675
15,-3.85848727811,5.8684029608,-10.3991831361
16,-5.3710061014,-5.2787537322,-36.7838429964
*Step  = 33
*Time  = 3.35
*Data  = x;y;z
1,-3.49045011256,5.80862591872,-10.2534668236
2,-5.486325235,-5.36454379,-37.858426675
15,-3.85275946573,5.82085328684,-10.2295284052
16,-5.35171913952,-5.26250907165,-36.6047594036
*Step  = 34
*Time  = 3.4
*Data  = x;y;z
1,-3.51955905528,5.6952858188,-9.96551412662
2,-5.486325235,-5.36454379,-37.858426675
15,-3.84434699434,5.7056194136,-9.94390093786
16,-5.32183165039,-5.23881931126,-36.3266309561
*Step  = 35
*Time  = 3.45
*Data  = x;y;z
1,-3.56364179707,5.56588631457,-9.66473412016
2,-5.486325235,-5.36454379,-37.858426675
15,-3.83521551826,5.57398877115,-9.64657898272
16,-5.29128906988,-5.21491688374,-36.0422243647
*Step  = 36
*Time  = 3.5
*Data  = x;y;z
1,-3.59575727909,5.417714097,-9.35202484225
2,-5.486325235,-5.36454379,-37.858426675
15,-3.82499042377,5.42409227213,-9.33665425154
16,-5.25983218627,-5.19061365301,-35.7491373054
*Step  = 37
*Time  = 3.55
*Data  = x;y;z
1,-3.63373335937,5.31466263735,-9.13861231247
2,-5.486325235,-5.36454379,-37.858426675
15,-3.81743283709,5.31952957395,-9.12625861236
16,-5.23835471452,-5.17365327043,-35.5491023414
*Step  = 38
*Time  = 3.6
*Data  = x;y;z
1,-3.67681258077,5.15321194548,-8.82459250623
2,-5.486325235,-5.36454379,-37.858426675
15,-3.80657484507,5.15638553016,-8.81585227582
16,-5.207120681,-5.14977484906,-35.2579072144
*Step  = 39
*Time  = 3.65
*Data  = x;y;z
1,-3.72809770194,4.98416611837,-8.50891591954
2,-5.486325235,-5.36454379,-37.858426675
15,-3.7948564939,4.98566377756,-8.50441287135
16,-5.17567343011,-5.12529290871,-34.9647834305
*Step  = 40
*Time  = 3.7
*Data  = x;y;z
1,-3.78496371596,4.80643972916,-8.1934191481
2,-5.486325235,-5.36454379,-37.858426675
15,-3.78224609063,4.80638421031,-8.19360207834
16,-5.14418417295,-5.10021030451,-34.6713340368
*Step  = 41
*Time  = 3.75
*Data  = x;y;z
1,-3.82686455258,4.68583124984,-7.98045500547
2,-5.486325235,-5.36454379,-37.858426675
15,-3.77286286289,4.68479830799,-7.98409359671
16,-5.12267761189,-5.08179331726,-34.4711505194
*Step  = 42
*Time  = 3.8
*Data  = x;y;z
1,-3.87703303095,4.49214079617,-7.66380092093
2,-5.486325235,-5.36454379,-37.858426675
15,-3.75871134285,4.49011243231,-7.67173232732
16,-5.09105697714,-5.05568369543,-34.1764939172
*Step  = 43
*Time  = 3.85
*Data  = x;y;z
1,-3.91896848099,4.28899033137,-7.34411629755
2,-5.486325235,-5.36454379,-37.858426675
15,-3.74322041332,4.28632269831,-7.35581153422
16,-5.05908969615,-5.02870861576,-33.8786015611
*Step  = 44
*Time  = 3.9
*Data  = x;y;z
1,-3.9576783086,4.07357416729,-7.02125140047
2,-5.486325235,-5.36454379,-37.858426675
15,-3.72632850996,4.07051107214,-7.03647469582
16,-5.02682546601,-5.00086908062,-33.577918041
*Step  = 45
*Time  = 3.95
*Data  = x;y;z
1,-3.98298830526,3.92500989514,-6.80175370185
2,-5.486325235,-5.36454379,-37.858426675
15,-3.71376187959,3.92178089552,-6.81934744801
16,-5.00471961387,-4.98011395402,-33.3720946934
*Step  = 46
*Time  = 4
*Data  = x;y;z
1,-3.9817284327,3.92719504431,-6.799766405
2,-5.486325235,-5.36454379,-37.858426675
15,-3.71272245648,3.9239448008,-6.81742165834
16,-5.00392454102,-4.97545270083,-33.3653306957
*Step  = 47
*Time  = 4.05
*Data  = x;y;z
1,-3.90639191216,3.7582683283,-6.74572907776
2,-5.486325235,-5.36454379,-37.858426675
15,-3.71032841845,3.75591417638,-6.75870706775
16,-4.99999809328,-4.97570598662,-33.3281879897
*Step  = 48
*Time  = 4.1
*Data  = x;y;z
1,-3.86061780674,3.61159344826,-6.71418864573
2,-5.486325235,-5.36454379,-37.858426675
15,-3.71000964607,3.60979860755,-6.72418302398
16,-4.9983961798,-4.97850396589,-33.3126124173
*Step  = 49
*Time  = 4.15
*Data  = x;y;z
1,-3.82858232742,3.46701315471,-6.68641615454
2,-5.486325235,-5.36454379,-37.858426675
15,-3.71013536418,3.46561273757,-6.69429537234
16,-4.99724298091,-4.9818667881,-33.3011977923
*Step  = 50
*Time  = 4.2
*Data  = x;y;z
1,-3.79787378425,3.31841766915,-6.66042282939
2,-5.486325235,-5.36454379,-37.858426675
15,-3.71049801539,3.3173932165,-6.66624674086
16,-4.99629261849,-4.98559771969,-33.2916552787
*Step  = 51
*Time  = 4.25
*Data  = x;y;z
1,-3.77283075705,3.16366327692,-6.63386680859
2,-5.486325235,-5.36454379,-37.858426675
15,-3.71085982714,3.16294303447,-6.63800130602
16,-4.99533322661,-4.98951514484,-33.2820161816
*Step  = 52
*Time  = 4.3
*Data  = x;y;z
1,-3.73644546607,3.00024411019,-6.60620414677
2,-5.486325235,-5.36454379,-37.858426675
15,-3.71117631163,2.99995307233,-6.6078938929
16,-4.9942227069,-4.99343629206,-33.2709645916
*Step  = 53
*Time  = 4.35
*Data  = x;y;z
1,-3.71864545024,2.8292459935,-6.57933335991
2,-5.486325235,-5.36454379,-37.858426675
15,-3.71170940828,2.82916684684,-6.57979731577
16,-4.99331616311,-4.99761009017,-33.2618178211
*Step  = 54
*Time  = 4.4
*Data  = x;y;z
1,-3.65643827836,2.64163237608,-6.54830668089
2,-5.486325235,-5.36454379,-37.858426675
15,-3.71180338927,2.64225798757,-6.54458839839
16,-4.99178842159,-5.00154564761,-33.2468630856
*Step  = 55
*Time  = 4.45
*Data  = x;y;z
1,-3.61918811206,2.44567042205,-6.51972617017
2,-5.486325235,-5.36454379,-37.858426675
15,-3.71227096477,2.44671191562,-6.51347206649
16,-4.99064556083,-5.00577005896,-33.2355154047
*Step  = 56
*Time  = 4.5
*Data  = x;y;z
1,-3.57999374617,2.23737721819,-6.49287086705
2,-5.486325235,-5.36454379,-37.858426675
15,-3.71300117875,2.23885079287,-6.48393412848
16,-4.98968145336,-5.01010555844,-33.2258541782
*Step  = 57
*Time  = 4.55
*Data  = x;y;z
1,-3.55544830429,2.01287832659,-6.46851382451
2,-5.486325235,-5.36454379,-37.858426675
15,-3.71416033424,2.01461958646,-6.45787685831
16,-4.9890928766,-5.01462829746,-33.2197217766
*Step  = 58
*Time  = 4.6
*Data  = x;y;z
1,-3.49648096105,1.76246913926,-6.44300906163
2,-5.486325235,-5.36454379,-37.858426675
15,-3.71531235922,1.76484656323,-6.42834499224
16,-4.98826473402,-5.01896802147,-33.2113732198
*Step  = 59
*Time  = 4.65
*Data  = x;y;z
1,-3.45227753771,1.48322376076,-6.42115244213
2,-5.486325235,-5.36454379,-37.858426675
15,-3.71710565278,1.48607270092,-6.40348039742
16,-4.98799777352,-5.02370915467,-33.2082696466
*Step  = 60
*Time  = 4.7
*Data  = x;y;z
1,-3.42403076708,1.1615791264,-6.40767499446
2,-5.486325235,-5.36454379,-37.858426675
15,-3.72026543931,1.16473604604,-6.38810640626
16,-4.98885503279,-5.0289856657,-33.2156937607
*Step  = 61
*Time  = 4.75
*Data  = x;y;z
1,-3.41555931533,0.759594796417,-6.40974981424
2,-5.486325235,-5.36454379,-37.858426675
15,-3.72601513022,0.762875876836,-6.38958244348
16,-4.9918548627,-5.03514575302,-33.243182528
*Step  = 62
*Time  = 4.8
*Data  = x;y;z
1,-3.43443378682,0.200761450899,-6.44349944179
2,-5.486325235,-5.36454379,-37.858426675
15,-3.73705225744,0.203940127033,-6.42440595533
16,-4.99920167821,-5.04309989993,-33.3113666453
*Step  = 63
*Time  = 4.85
*Data  = x;y;z
1,-3.52260679143,-0.517195999651,-6.51309832107
2,-5.486325235,-5.36454379,-37.858426675
15,-3.75407481829,-0.514772321667,-6.49916439409
16,-5.01158971416,-5.05287393004,-33.426758978
*Step  = 64
*Time  = 4.9
*Data  = x;y;z
1,-3.59388789019,-1.20284669492,-6.56445885826
2,-5.486325235,-5.36454379,-37.858426675
15,-3.76878008788,-1.20102096635,-6.5544412794
16,-5.02156963486,-5.06100724232,-33.5196777498
*Step  = 65
*Time  = 4.95
*Data  = x;y;z
1,-3.64540583384,-1.87730062967,-6.61784798323
2,-5.486325235,-5.36454379,-37.858426675
15,-3.78357795917,-1.87586252437,-6.610333373
16,-5.03143675646,-5.06904551949,-33.6115453743
*Step  = 66
*Time  = 4.99999
*Data  = x;y;z
1,-3.73842186355,-1.67524115164,-6.58769634544
2,-5.486325235,-5.36454379,-37.858426675
15,-3.77833830211,-1.67482462817,-6.58546271979
16,-5.02783172329,-5.06531149207,-33.5780818544
