*Step  = 1
*Time  = 1e-05
*Data  = x;y;z
1,-3.44113440066,3.4174486616,-11.2268988155
2,-5.486325235,-5.36454379,-37.858426675
15,-3.98005999746,3.44080919782,-11.1901894303
16,-5.47927869992,-5.35947783067,-37.7926990031
*Step  = 2
*Time  = 6e-05
*Data  = x;y;z
1,-3.3906703998,3.42332402342,-11.1976572158
2,-5.486325235,-5.36454379,-37.858426675
15,-3.97640399865,3.4487087688,-11.1577677157
16,-5.47580095383,-5.35698394011,-37.7602569641
*Step  = 3
*Time  = 0.000105644418
*Data  = x;y;z
1,-3.36345294374,3.42312535997,-11.1789390998
2,-5.486325235,-5.36454379,-37.858426675
15,-3.97429703516,3.44959470385,-11.1373451513
16,-5.47364855196,-5.35544313072,-37.7401771533
*Step  = 4
*Time  = 0.000333866506
*Data  = x;y;z
1,-3.34899206019,3.42701722262,-11.1679193296
2,-5.486325235,-5.36454379,-37.858426675
15,-3.97294026434,3.45404874327,-11.1254172844
16,-5.47236387595,-5.35452433208,-37.7281920067
*Step  = 5
*Time  = 0.00147497695
*Data  = x;y;z
1,-3.33902525524,3.42617671784,-11.1577050792
2,-5.486325235,-5.36454379,-37.858426675
15,-3.97207563493,3.45358191004,-11.1145659
16,-5.47122804623,-5.3537110237,-37.7175959373
*Step  = 6
*Time  = 0.00718052917
*Data  = x;y;z
1,-3.3361431289,3.41666592711,-11.1310500945
2,-5.486325235,-5.36454379,-37.858426675
15,-3.97078186758,3.44404124509,-11.0877919708
16,-5.46846327002,-5.3517256294,-37.691806131
*Step  = 7
*Time  = 0.0357082903
*Data  = x;y;z
1,-3.35123093322,3.36549639627,-11.0103859852
2,-5.486325235,-5.36454379,-37.858426675
15,-3.96587554463,3.39153339331,-10.9685316594
16,-5.45619101162,-5.34289821571,-37.5773373658
*Step  = 8
*Time  = 0.05
*Data  = x;y;z
1,-3.38461814142,3.344293783,-10.9540655302
2,-5.486325235,-5.36454379,-37.858426675
15,-3.96379845478,3.36860467372,-10.914675252
16,-5.45062630824,-5.3388861016,-37.5254371223
*Step  = 9
*Time  = 0.1
*Data  = x;y;z
1,-3.46412097124,3.25592827556,-10.7562676507
2,-5.486325235,-5.36454379,-37.858426675
15,-3.95640175282,3.27592641947,-10.7231074836
16,-5.43091005813,-5.32466656322,-37.341551539
*Step  = 10
*Time  = 0.15
*Data  = x;y;z
1,-3.58650264312,3.18012511231,-10.5804784705
2,-5.486325235,-5.36454379,-37.858426675
15,-3.95071523521,3.194433034,-10.5562018405
16,-5.41372266946,-5.31224212402,-37.1812632644
*Step  = 11
*Time  = 0.2
*Data  = x;y;z
1,-3.70585212167,3.14213142596,-10.503934499
2,-5.486325235,-5.36454379,-37.858426675
15,-3.94920096315,3.15152992022,-10.4878873634
16,-5.4067009911,-5.30715953494,-37.1157820928
*Step  = 12
*Time  = 0.25
*Data  = x;y;z
1,-3.88458232338,3.04028672728,-10.3331688726
2,-5.486325235,-5.36454379,-37.858426675
15,-3.94448370317,3.04252186119,-10.3293115803
16,-5.3905207333,-5.29547582814,-36.9648800417
*Step  = 13
*Time  = 0.3
*Data  = x;y;z
1,-4.01991246677,2.92805154928,-10.1637329302
2,-5.486325235,-5.36454379,-37.858426675
15,-3.93963672307,2.9251589038,-10.1688015869
16,-5.37425826039,-5.2837290506,-36.8132121478
*Step  = 14
*Time  = 0.35
*Data  = x;y;z
1,-4.12602685436,2.80432869938,-9.97962538318
2,-5.486325235,-5.36454379,-37.858426675
15,-3.93289141684,2.79761159389,-9.99155918108
16,-5.35627916114,-5.270737713,-36.6455356895
*Step  = 15
*Time  = 0.4
*Data  = x;y;z
1,-4.20523702306,2.67858708453,-9.78020146938
2,-5.486325235,-5.36454379,-37.858426675
15,-3.92405735111,2.66915306815,-9.79725986611
16,-5.33652654378,-5.25645660661,-36.4613213056
*Step  = 16
*Time  = 0.45
*Data  = x;y;z
1,-4.30053463685,2.54168091388,-9.58007955924
2,-5.486325235,-5.36454379,-37.858426675
15,-3.91492260743,2.52920633617,-9.60288504674
16,-5.31678948328,-5.24218378483,-36.2772521621
*Step  = 17
*Time  = 0.5
*Data  = x;y;z
1,-4.3379545533,2.47294837319,-9.47796125602
2,-5.486325235,-5.36454379,-37.858426675
15,-3.90988415551,2.45935237548,-9.50302410715
16,-5.30665885045,-5.23484135071,-36.1827784752
*Step  = 18
*Time  = 0.55
*Data  = x;y;z
1,-4.43466768988,2.33977331317,-9.27258413751
2,-5.486325235,-5.36454379,-37.858426675
15,-3.89952028312,2.32339766913,-9.30322974805
16,-5.28634416633,-5.22011862455,-35.9933313819
*Step  = 19
*Time  = 0.6
*Data  = x;y;z
1,-4.50293942531,2.20648591411,-9.0644321665
2,-5.486325235,-5.36454379,-37.858426675
15,-3.88828367151,2.18837612984,-9.09897658155
16,-5.26557904543,-5.20504512917,-35.7996898555
*Step  = 20
*Time  = 0.65
*Data  = x;y;z
1,-4.56366273586,2.06962137576,-8.85436524202
2,-5.486325235,-5.36454379,-37.858426675
15,-3.87643672331,2.0501400937,-8.89236731206
16,-5.24461201378,-5.1897898032,-35.6041743375
*Step  = 21
*Time  = 0.7
*Data  = x;y;z
1,-4.67046914093,1.92649162506,-8.6438167311
2,-5.486325235,-5.36454379,-37.858426675
15,-3.86450490941,1.90452687051,-8.68743507164
16,-5.22383529815,-5.17464709422,-35.4104386099
*Step  = 22
*Time  = 0.75
*Data  = x;y;z
1,-4.74779709681,1.78707149311,-8.43058485403
2,-5.486325235,-5.36454379,-37.858426675
15,-3.85170865584,1.76361125467,-8.47814947091
16,-5.20257705779,-5.15911637056,-35.2122202977
*Step  = 23
*Time  = 0.8
*Data  = x;y;z
1,-4.7956164969,1.71609659728,-8.32202110695
2,-5.486325235,-5.36454379,-37.858426675
15,-3.84501068097,1.6917097562,-8.37198695564
16,-5.19179204299,-5.1511815714,-35.1116720203
*Step  = 24
*Time  = 0.85
*Data  = x;y;z
1,-4.88562072779,1.56915010616,-8.11152224236
2,-5.486325235,-5.36454379,-37.858426675
15,-3.83202274422,1.5432168259,-8.16570897513
16,-5.1709003948,-5.13587086232,-34.9168791592
*Step  = 25
*Time  = 0.9
*Data  = x;y;z
1,-5.01242944609,1.40819989835,-7.89672140479
2,-5.486325235,-5.36454379,-37.858426675
15,-3.81856623241,1.3800247232,-7.95659072909
16,-5.1498018573,-5.12037010112,-34.7201639322
*Step  = 26
*Time  = 0.95
*Data  = x;y;z
1,-5.08910192334,1.25623720872,-7.68392228616
2,-5.486325235,-5.36454379,-37.858426675
15,-3.80453789958,1.22719332788,-7.7469305267
16,-5.12859016913,-5.10472965747,-34.5224029216
*Step  = 27
*Time  = 1
*Data  = x;y;z
1,-5.09418540711,1.25872845953,-7.67705575422
2,-5.486325235,-5.36454379,-37.858426675
15,-3.80394029112,1.22955375818,-7.74064690745
16,-5.12793485584,-5.10413351195,-34.5163223737
*Step  = 28
*Time  = 1.03
*Data  = x;y;z
1,-4.48883183436,2.39930462002,-8.12628321935
2,-5.486325235,-5.36454379,-37.858426675
15,-3.82543768546,2.38428329289,-8.16939899677
16,-5.16635609333,-5.13085851954,-34.8748847746
*Step  = 29
*Time  = 1.05903226
*Data  = x;y;z
1,-4.33141364222,2.74884729902,-8.20190046059
2,-5.486325235,-5.36454379,-37.858426675
15,-3.82566243833,2.73738152641,-8.2364473957
16,-5.17089993528,-5.13333719258,-34.9174356387
*Step  = 30
*Time  = 1.06
*Data  = x;y;z
1,-4.35053640786,2.65644823221,-8.11929732277
2,-5.486325235,-5.36454379,-37.858426675
15,-3.81921228647,2.64440078688,-8.15595798981
16,-5.16322813332,-5.12761811039,-34.8459421627
*Step  = 31
*Time  = 1.09
*Data  = x;y;z
1,-4.20674389195,2.98853839842,-8.24054055184
2,-5.486325235,-5.36454379,-37.858426675
15,-3.8239717929,2.9798487112,-8.2672070385
16,-5.17213206555,-5.13335862705,-34.9291095155
*Step  = 32
*Time  = 1.12
*Data  = x;y;z
1,-4.15719278336,3.14708788583,-8.26067854768
2,-5.486325235,-5.36454379,-37.858426675
15,-3.81985750607,3.13942083528,-8.28416898034
16,-5.17236300386,-5.13281877959,-34.9314797305
*Step  = 33
*Time  = 1.14903226
*Data  = x;y;z
1,-4.10883623997,3.30276185531,-8.28546105586
2,-5.486325235,-5.36454379,-37.858426675
15,-3.81759828398,3.2961346642,-8.30585637514
16,-5.17319777784,-5.1327616834,-34.9394305812
*Step  = 34
*Time  = 1.15
*Data  = x;y;z
1,-4.12904253695,3.23480658077,-8.22783831846
2,-5.486325235,-5.36454379,-37.858426675
15,-3.81438520348,3.22764680816,-8.25011104553
16,-5.16800148737,-5.12886901653,-34.8909940879
*Step  = 35
*Time  = 1.18
*Data  = x;y;z
1,-4.07352594157,3.44465535649,-8.31231062444
2,-5.486325235,-5.36454379,-37.858426675
15,-3.81763105652,3.43882582405,-8.33020368415
16,-5.17436138991,-5.13287550657,-34.9504501343
*Step  = 36
*Time  = 1.21
*Data  = x;y;z
1,-4.06407390579,3.55681758114,-8.32933082781
2,-5.486325235,-5.36454379,-37.858426675
15,-3.81525508091,3.5511435759,-8.3467233854
16,-5.17492939794,-5.13265436354,-34.9559137814
*Step  = 37
*Time  = 1.24
*Data  = x;y;z
1,-4.03746547049,3.66904716415,-8.35051972518
2,-5.486325235,-5.36454379,-37.858426675
15,-3.81429663087,3.66395292077,-8.3661054413
16,-5.17580950805,-5.13267767813,-34.9642729057
*Step  = 38
*Time  = 1.27
*Data  = x;y;z
1,-4.00187464728,3.76820271343,-8.36740320751
2,-5.486325235,-5.36454379,-37.858426675
15,-3.81283154967,3.76388352971,-8.38059769755
16,-5.17629419983,-5.13247809688,-34.9689329325
*Step  = 39
*Time  = 1.3
*Data  = x;y;z
1,-3.97907650134,3.86321021132,-8.3846404411
2,-5.486325235,-5.36454379,-37.858426675
15,-3.81173517581,3.85938334851,-8.39630346191
16,-5.1769286897,-5.13238297785,-34.9749897803
*Step  = 40
*Time  = 1.33
*Data  = x;y;z
1,-3.96709650529,3.95275964726,-8.40150654183
2,-5.486325235,-5.36454379,-37.858426675
15,-3.81080601053,3.94918234432,-8.41237783914
16,-5.17764576665,-5.13237308882,-34.9818111314
*Step  = 41
*Time  = 1.36
*Data  = x;y;z
1,-3.94318789997,4.03690228222,-8.41701876225
2,-5.486325235,-5.36454379,-37.858426675
15,-3.80979862392,4.03384661197,-8.42628227597
16,-5.17818463521,-5.13226010218,-34.9869642214
*Step  = 42
*Time  = 1.39
*Data  = x;y;z
1,-3.92512890487,4.11595293029,-8.43172017262
2,-5.486325235,-5.36454379,-37.858426675
15,-3.80888504674,4.11328791886,-8.43977937121
16,-5.17872834233,-5.13217837662,-34.992155842
*Step  = 43
*Time  = 1.42
*Data  = x;y;z
1,-3.907779895,4.19305657,-8.44633586511
2,-5.486325235,-5.36454379,-37.858426675
15,-3.80802017594,4.19076766317,-8.45324110229
16,-5.17928139807,-5.13210384239,-34.9974347799
*Step  = 44
*Time  = 1.45
*Data  = x;y;z
1,-3.8960719035,4.26662206288,-8.46114768617
2,-5.486325235,-5.36454379,-37.858426675
15,-3.80727305236,4.2645831133,-8.46728006052
16,-5.1799228738,-5.13212249414,-35.0035318922
*Step  = 45
*Time  = 1.48
*Data  = x;y;z
1,-3.87584105951,4.33589068294,-8.47460557404
2,-5.486325235,-5.36454379,-37.858426675
15,-3.80650354987,4.33429747413,-8.47938881085
16,-5.18041637164,-5.13205890079,-35.0082419628
*Step  = 46
*Time  = 1.51
*Data  = x;y;z
1,-3.86495278166,4.40346058659,-8.48790573806
2,-5.486325235,-5.36454379,-37.858426675
15,-3.80575290067,4.40209932911,-8.49197934833
16,-5.18095194984,-5.13201460161,-35.0133486454
*Step  = 47
*Time  = 1.54
*Data  = x;y;z
1,-3.85997999093,4.46981776901,-8.50222634399
2,-5.486325235,-5.36454379,-37.858426675
15,-3.80522018724,4.4685577933,-8.50598724428
16,-5.18166950468,-5.13215838042,-35.0201381704
*Step  = 48
*Time  = 1.57
*Data  = x;y;z
1,-3.84125021753,4.53104994621,-8.51387231401
2,-5.486325235,-5.36454379,-37.858426675
15,-3.80441694914,4.5302018787,-8.51639645739
16,-5.1820369388,-5.13202237735,-35.0236694642
*Step  = 49
*Time  = 1.6
*Data  = x;y;z
1,-3.82670966731,4.59330012133,-8.52660749849
2,-5.486325235,-5.36454379,-37.858426675
15,-3.80373753077,4.59277084517,-8.52817857451
16,-5.18253968176,-5.13198861205,-35.0284617405
*Step  = 50
*Time  = 1.63
*Data  = x;y;z
1,-3.824110547,4.65344841891,-8.53895379362
2,-5.486325235,-5.36454379,-37.858426675
15,-3.8031459507,4.65296506513,-8.54038431104
16,-5.18309950344,-5.13198900818,-35.0337886315
*Step  = 51
*Time  = 1.66
*Data  = x;y;z
1,-3.80794188675,4.71090983909,-8.55114568297
2,-5.486325235,-5.36454379,-37.858426675
15,-3.80250434105,4.71078439597,-8.55151585763
16,-5.18357848232,-5.13197448753,-35.0383508763
*Step  = 52
*Time  = 1.69
*Data  = x;y;z
1,-3.7928216887,4.76655436631,-8.56232044473
2,-5.486325235,-5.36454379,-37.858426675
15,-3.80186922152,4.76676321956,-8.56170541243
16,-5.1839809673,-5.13189809,-35.0422005668
*Step  = 53
*Time  = 1.72
*Data  = x;y;z
1,-3.78669743729,4.82165081575,-8.57416442971
2,-5.486325235,-5.36454379,-37.858426675
15,-3.80133924968,4.82198901897,-8.57317115449
16,-5.18451340554,-5.13191569188,-35.0472632306
*Step  = 54
*Time  = 1.75
*Data  = x;y;z
1,-3.7686138846,4.87426653035,-8.5856550014
2,-5.486325235,-5.36454379,-37.858426675
15,-3.80080137029,4.87501043116,-8.58347421813
16,-5.18496303312,-5.13190820733,-35.0515440303
*Step  = 55
*Time  = 1.78
*Data  = x;y;z
1,-3.76069896317,4.92530717383,-8.59604204132
2,-5.486325235,-5.36454379,-37.858426675
15,-3.80017750656,4.9262201407,-8.59337452171
16,-5.18535556642,-5.13182724972,-35.0553021916
*Step  = 56
*Time  = 1.81
*Data  = x;y;z
1,-3.75201610458,4.97685758496,-8.60731092722
2,-5.486325235,-5.36454379,-37.858426675
15,-3.79965524633,4.9779598599,-8.60409987886
16,-5.18584841762,-5.13187276782,-35.0599820241
*Step  = 57
*Time  = 1.84
*Data  = x;y;z
1,-3.73826227599,5.02552290311,-8.61708194702
2,-5.486325235,-5.36454379,-37.858426675
15,-3.79906801478,5.02693059204,-8.6129888304
16,-5.18618138991,-5.13178823427,-35.0631735769
*Step  = 58
*Time  = 1.87
*Data  = x;y;z
1,-3.72849327805,5.07395697028,-8.62770279762
2,-5.486325235,-5.36454379,-37.858426675
15,-3.79858831651,5.07558052756,-8.62299293472
16,-5.18663704109,-5.13182533373,-35.067501401
*Step  = 59
*Time  = 1.9
*Data  = x;y;z
1,-3.72020379293,5.1205965544,-8.63747539833
2,-5.486325235,-5.36454379,-37.858426675
15,-3.79803733201,5.12240030831,-8.63225798207
16,-5.18701588478,-5.13178575374,-35.0711191419
*Step  = 60
*Time  = 1.93
*Data  = x;y;z
1,-3.70783414727,5.16705103792,-8.6473910115
2,-5.486325235,-5.36454379,-37.858426675
15,-3.79751832488,5.16913051347,-8.64138903036
16,-5.18738934765,-5.13174551668,-35.0746851947
*Step  = 61
*Time  = 1.96
*Data  = x;y;z
1,-3.70497365748,5.18855434673,-8.64496382815
2,-5.486325235,-5.36454379,-37.858426675
15,-3.79664679296,5.19068061746,-8.6388208212
16,-5.18684494758,-5.13111868508,-35.069667623
*Step  = 62
*Time  = 1.99
*Data  = x;y;z
1,-3.71831263733,5.17081590083,-8.62684785878
2,-5.486325235,-5.36454379,-37.858426675
15,-3.79558912742,5.17260812877,-8.62164543337
16,-5.18526535659,-5.12993000591,-35.0549425903
*Step  = 63
*Time  = 1.99999
*Data  = x;y;z
1,-3.72000986085,5.1704736108,-8.62643342415
2,-5.486325235,-5.36454379,-37.858426675
15,-3.79555006059,5.1722256167,-8.62134881333
16,-5.18522898913,-5.1298848411,-35.0546085399
*Step  = 1
*Time  = 2
*Data  = x;y;z
1,-3.72014426779,5.17181916272,-8.62718237185
2,-5.486325235,-5.36454379,-37.858426675
15,-3.795559328,5.1735684049,-8.62210734495
16,-5.18527521833,-5.12987068713,-35.0550524017
*Step  = 2
*Time  = 2.00005
*Data  = x;y;z
1,-3.71985432008,5.17239890177,-8.62751613082
2,-5.486325235,-5.36454379,-37.858426675
15,-3.79553875059,5.17415467061,-8.62242258317
16,-5.18528026212,-5.12981089111,-35.0551162646
*Step  = 3
*Time  = 2.0003
*Data  = x;y;z
1,-3.71989956103,5.17353747706,-8.62887711595
2,-5.486325235,-5.36454379,-37.858426675
15,-3.7955634062,5.17529349575,-8.62378459409
16,-5.18538557247,-5.12981515541,-35.0561184246
*Step  = 4
*Time  = 2.00155
*Data  = x;y;z
1,-3.71906770783,5.17722242685,-8.63469712664
2,-5.486325235,-5.36454379,-37.858426675
15,-3.79573819326,5.17900472949,-8.62953671578
16,-5.185915815,-5.13011229369,-35.0610923623
*Step  = 5
*Time  = 2.0078
*Data  = x;y;z
1,-3.71824218941,5.19463824701,-8.66289278391
2,-5.486325235,-5.36454379,-37.858426675
15,-3.79666763642,5.19647551199,-8.65761587824
16,-5.18859922731,-5.13189694548,-35.0861908333
*Step  = 6
*Time  = 2.03905
*Data  = x;y;z
1,-3.69534402606,5.27386954847,-8.8005447305
2,-5.486325235,-5.36454379,-37.858426675
15,-3.80125453618,5.27644466915,-8.79341350361
16,-5.20178155453,-5.14113731746,-35.2093670286
*Step  = 7
*Time  = 2.05
*Data  = x;y;z
1,-3.68719652157,5.29768569747,-8.84729805621
2,-5.486325235,-5.36454379,-37.858426675
15,-3.80290241648,5.30053301358,-8.83951845586
16,-5.20643073045,-5.14484490443,-35.2526875007
*Step  = 8
*Time  = 2.1
*Data  = x;y;z
1,-3.65985939386,5.41516037624,-9.06295054908
2,-5.486325235,-5.36454379,-37.858426675
15,-3.80991054594,5.41906222128,-9.05287054844
16,-5.22738265383,-5.16028284327,-35.4482555553
*Step  = 9
*Time  = 2.15
*Data  = x;y;z
1,-3.63166934353,5.52601008744,-9.27673736924
2,-5.486325235,-5.36454379,-37.858426675
15,-3.816633238,5.53107339093,-9.26436149464
16,-5.24835882057,-5.17633751023,-35.6438628002
*Step  = 10
*Time  = 2.2
*Data  = x;y;z
1,-3.61217467397,5.57367846481,-9.37988686764
2,-5.486325235,-5.36454379,-37.858426675
15,-3.82002489755,5.57950479983,-9.36601410867
16,-5.25877188105,-5.1848897072,-35.7407767864
*Step  = 11
*Time  = 2.25
*Data  = x;y;z
1,-3.58619859426,5.6753862426,-9.59041537624
2,-5.486325235,-5.36454379,-37.858426675
15,-3.82636007492,5.68244470703,-9.57444262696
16,-5.27955425989,-5.20094490971,-35.9344846663
*Step  = 12
*Time  = 2.3
*Data  = x;y;z
1,-3.55221445925,5.76850429439,-9.79698966251
2,-5.486325235,-5.36454379,-37.858426675
15,-3.83235513506,5.77711326068,-9.77845409087
16,-5.30007110204,-5.21707945147,-36.125595898
*Step  = 13
*Time  = 2.35
*Data  = x;y;z
1,-3.50496446926,5.85657202775,-10.0022333432
2,-5.486325235,-5.36454379,-37.858426675
15,-3.83803666384,5.86725183852,-9.98030872946
16,-5.32040163126,-5.23308606697,-36.3149308349
*Step  = 14
*Time  = 2.4
*Data  = x;y;z
1,-3.46368379817,5.93637721046,-10.2021784156
2,-5.486325235,-5.36454379,-37.858426675
15,-3.84335456819,5.94905054216,-10.1773580202
16,-5.34040857228,-5.24899828608,-36.5011612316
*Step  = 15
*Time  = 2.45
*Data  = x;y;z
1,-3.41590919327,6.00191736215,-10.3935806729
2,-5.486325235,-5.36454379,-37.858426675
15,-3.8482523042,6.01690718414,-10.365549049
16,-5.3597760032,-5.26455436633,-36.6813469341
*Step  = 16
*Time  = 2.5
*Data  = x;y;z
1,-3.37842713369,6.01943766701,-10.4803108568
2,-5.486325235,-5.36454379,-37.858426675
15,-3.85078304864,6.03609921238,-10.4498119349
16,-5.36905598783,-5.27242014799,-36.7675121454
*Step  = 17
*Time  = 2.55
*Data  = x;y;z
1,-3.34407721334,6.06715395554,-10.656963146
2,-5.486325235,-5.36454379,-37.858426675
15,-3.85514300777,6.08581374262,-10.6243779673
16,-5.38755771737,-5.28744487421,-36.9395186777
*Step  = 18
*Time  = 2.6
*Data  = x;y;z
1,-3.29798507505,6.10007881217,-10.8226973847
2,-5.486325235,-5.36454379,-37.858426675
15,-3.85938631108,6.12124158087,-10.7873950854
16,-5.40545783388,-5.30210579209,-37.1058409186
*Step  = 19
*Time  = 2.65
*Data  = x;y;z
1,-3.26218943573,6.12046691899,-10.9780932996
2,-5.486325235,-5.36454379,-37.858426675
15,-3.86376491805,6.14382486987,-10.9408354748
16,-5.42295250062,-5.31637349567,-37.2683792198
*Step  = 20
*Time  = 2.7
*Data  = x;y;z
1,-3.20685801528,6.12937642005,-11.1249207999
2,-5.486325235,-5.36454379,-37.858426675
15,-3.86800628176,6.1557687407,-11.0846531201
16,-5.43984042177,-5.3298704281,-37.4253608854
*Step  = 21
*Time  = 2.75
*Data  = x;y;z
1,-3.16952455004,6.12869296159,-11.2640374284
2,-5.486325235,-5.36454379,-37.858426675
15,-3.87235427167,6.15748912798,-11.2220919515
16,-5.45638352905,-5.34268959646,-37.5792827654
*Step  = 22
*Time  = 2.8
*Data  = x;y;z
1,-3.15243155113,6.11283329863,-11.3203236254
2,-5.486325235,-5.36454379,-37.858426675
15,-3.87489135015,6.142765462,-11.2776777195
16,-5.46424189857,-5.34873479231,-37.6524121747
*Step  = 23
*Time  = 2.85
*Data  = x;y;z
1,-3.11319226898,6.10421067683,-11.4521569451
2,-5.486325235,-5.36454379,-37.858426675
15,-3.87862828256,6.1367239174,-11.4080712302
16,-5.47968072441,-5.35987441456,-37.796401163
*Step  = 24
*Time  = 2.9
*Data  = x;y;z
1,-3.07575842052,6.08476135123,-11.5762992624
2,-5.486325235,-5.36454379,-37.858426675
15,-3.88237173783,6.1198377093,-11.5312098597
16,-5.49452416362,-5.3701902637,-37.9350164024
*Step  = 25
*Time  = 2.95
*Data  = x;y;z
1,-3.04438726265,6.05440567177,-11.689950407
2,-5.486325235,-5.36454379,-37.858426675
15,-3.88616244766,6.0918230253,-11.6443963362
16,-5.508590718,-5.37953160442,-38.0665859161
*Step  = 26
*Time  = 3
*Data  = x;y;z
1,-3.01010633216,6.02846185226,-11.6694220227
2,-5.486325235,-5.36454379,-37.858426675
15,-3.88625167675,6.0673415315,-11.6221408147
16,-5.50757884313,-5.37867252956,-38.0572070397
*Step  = 27
*Time  = 3.05
*Data  = x;y;z
1,-2.97810877556,6.03628081737,-11.4686049529
2,-5.486325235,-5.36454379,-37.858426675
15,-3.88222265779,6.07490438946,-11.4171098391
16,-5.48615668878,-5.36443146679,-37.8568505987
*Step  = 28
*Time  = 3.1
*Data  = x;y;z
1,-3.0526193902,6.04554786004,-11.264279005
2,-5.486325235,-5.36454379,-37.858426675
15,-3.878728625,6.07943081576,-11.2147679618
16,-5.46440836692,-5.34980392962,-37.6535612581
*Step  = 29
*Time  = 3.15
*Data  = x;y;z
1,-3.15182234524,6.04382943928,-11.1228686219
2,-5.486325235,-5.36454379,-37.858426675
15,-3.87525625816,6.07270356697,-11.0786865785
16,-5.44864608109,-5.3387724893,-37.5064238803
*Step  = 30
*Time  = 3.2
*Data  = x;y;z
1,-3.24275605203,6.02405904238,-10.9009292432
2,-5.486325235,-5.36454379,-37.858426675
15,-3.8697690808,6.048014187,-10.8616705538
16,-5.42397675981,-5.32093542627,-37.2763832474
*Step  = 31
*Time  = 3.25
*Data  = x;y;z
1,-3.33392987624,5.99642892398,-10.6746765536
2,-5.486325235,-5.36454379,-37.858426675
15,-3.86367278788,6.01576279651,-10.6408467596
16,-5.39844120461,-5.30139717962,-37.0386717998
*Step  = 32
*Time  = 3.3
*Data  = x;y;z
1,-3.4045508943,5.95456576788,-10.4366625326
2,-5.486325235,-5.36454379,-37.858426675
15,-3.85684154773,5.97028460141,-10.4072803613
16,-5.37173239105,-5.28004599545,-36.790332513
*Step  = 33
*Time  = 3.35
*Data  = x;y;z
1,-3.44585043021,5.9143247874,-10.2677525511
2,-5.486325235,-5.36454379,-37.858426675
15,-3.85116205862,5.92794495637,-10.2411982223
16,-5.35259989124,-5.26391799116,-36.6126936812
*Step  = 34
*Time  = 3.4
*Data  = x;y;z
1,-3.47850960886,5.80610542621,-9.98157068421
2,-5.486325235,-5.36454379,-37.858426675
15,-3.8428671573,5.81765269642,-9.95748261253
16,-5.32279072155,-5.24037434525,-36.3352783811
*Step  = 35
*Time  = 3.45
*Data  = x;y;z
1,-3.51478102286,5.67667264147,-9.68090920751
2,-5.486325235,-5.36454379,-37.858426675
15,-3.83381325186,5.68615607168,-9.65968881837
16,-5.29215773078,-5.2165091841,-36.0500115947
*Step  = 36
*Time  = 3.5
*Data  = x;y;z
1,-3.55328451849,5.52999131008,-9.36852516336
2,-5.486325235,-5.36454379,-37.858426675
15,-3.82377155804,5.53749050971,-9.35047019067
16,-5.26074021579,-5.19236542597,-35.7572709591
*Step  = 37
*Time  = 3.55
*Data  = x;y;z
1,-3.59410958745,5.42668255096,-9.15424556723
2,-5.486325235,-5.36454379,-37.858426675
15,-3.81620243273,5.43254615414,-9.13938419485
16,-5.23916617116,-5.17542699021,-35.5563232977
*Step  = 38
*Time  = 3.6
*Data  = x;y;z
1,-3.63477385723,5.26160338027,-8.83699782959
2,-5.486325235,-5.36454379,-37.858426675
15,-3.80535140067,5.26576013549,-8.82555195954
16,-5.2076517072,-5.15160492065,-35.2624664308
*Step  = 39
*Time  = 3.65
*Data  = x;y;z
1,-3.69437699328,5.09433642925,-8.52151320334
2,-5.486325235,-5.36454379,-37.858426675
15,-3.79376017048,5.09655806067,-8.51484046933
16,-5.17623413375,-5.12731160972,-34.9696072166
*Step  = 40
*Time  = 3.7
*Data  = x;y;z
1,-3.74910338975,4.91203345989,-8.20251094387
2,-5.486325235,-5.36454379,-37.858426675
15,-3.78113825374,4.91268535481,-8.20036257282
16,-5.14444446599,-5.10237634795,-34.6733020666
*Step  = 41
*Time  = 3.75
*Data  = x;y;z
1,-3.79510434168,4.79057650521,-7.98994939142
2,-5.486325235,-5.36454379,-37.858426675
15,-3.77185082149,4.7901333785,-7.99150805264
16,-5.12295792574,-5.0840756105,-34.4733079599
*Step  = 42
*Time  = 3.8
*Data  = x;y;z
1,-3.84209398547,4.59275822105,-7.67073711665
2,-5.486325235,-5.36454379,-37.858426675
15,-3.7577799714,4.59131896749,-7.67636493599
16,-5.09114250083,-5.05837093835,-34.1767623981
*Step  = 43
*Time  = 3.85
*Data  = x;y;z
1,-3.88672051342,4.38790434619,-7.34976962367
2,-5.486325235,-5.36454379,-37.858426675
15,-3.74236921217,4.38572286823,-7.35934000917
16,-5.05904585006,-5.03157787726,-33.8776596766
*Step  = 44
*Time  = 3.9
*Data  = x;y;z
1,-3.92549877766,4.16921801499,-7.02560668174
2,-5.486325235,-5.36454379,-37.858426675
15,-3.72557475036,4.16658347151,-7.03872068854
16,-5.02665075346,-5.00397955836,-33.5757491795
*Step  = 45
*Time  = 3.95
*Data  = x;y;z
1,-3.95596571836,4.01897858069,-6.80575822172
2,-5.486325235,-5.36454379,-37.858426675
15,-3.71308240094,4.01607937755,-6.82157750128
16,-5.00449919093,-4.98327908852,-33.369520583
*Step  = 46
*Time  = 4
*Data  = x;y;z
1,-3.94929532269,4.02333878729,-6.80656420228
2,-5.486325235,-5.36454379,-37.858426675
15,-3.71218422678,4.02048590483,-6.82207774979
16,-5.00386935605,-4.97844621963,-33.364337498
*Step  = 47
*Time  = 4.05
*Data  = x;y;z
1,-3.89185406318,3.8508757417,-6.74924924726
2,-5.486325235,-5.36454379,-37.858426675
15,-3.70963518987,3.84869621821,-6.76128485031
16,-4.99973657345,-4.97836524774,-33.3253046905
*Step  = 48
*Time  = 4.1
*Data  = x;y;z
1,-3.84400288398,3.69556430384,-6.71396572278
2,-5.486325235,-5.36454379,-37.858426675
15,-3.70912305621,3.69396390585,-6.7229026357
16,-4.99785807376,-4.98123102985,-33.3071143278
*Step  = 49
*Time  = 4.15
*Data  = x;y;z
1,-3.82139225497,3.54312630911,-6.68362938395
2,-5.486325235,-5.36454379,-37.858426675
15,-3.70918311599,3.54180602346,-6.69107638906
16,-4.99659901123,-4.98476073448,-33.2946848818
*Step  = 50
*Time  = 4.2
*Data  = x;y;z
1,-3.79615799941,3.38375827918,-6.65377167173
2,-5.486325235,-5.36454379,-37.858426675
15,-3.70939365558,3.38274621963,-6.65954416905
16,-4.99540489631,-4.98847905434,-33.2828531499
*Step  = 51
*Time  = 4.25
*Data  = x;y;z
1,-3.7576645839,3.21383385645,-6.62315486269
2,-5.486325235,-5.36454379,-37.858426675
15,-3.70955057815,3.21327781045,-6.62636327251
16,-4.99409962821,-4.99239480745,-33.2699606999
*Step  = 52
*Time  = 4.3
*Data  = x;y;z
1,-3.73366045316,3.0374592081,-6.59239076046
2,-5.486325235,-5.36454379,-37.858426675
15,-3.70983450637,3.03718642084,-6.59398265271
16,-4.9928655598,-4.99638267136,-33.2577461238
*Step  = 53
*Time  = 4.35
*Data  = x;y;z
1,-3.6958686881,2.84259962658,-6.55893489358
2,-5.486325235,-5.36454379,-37.858426675
15,-3.70999073308,2.84275966618,-6.55798944354
16,-4.99137922706,-5.00060787524,-33.2431378639
*Step  = 54
*Time  = 4.4
*Data  = x;y;z
1,-3.67623975237,2.63891477804,-6.52621202227
2,-5.486325235,-5.36454379,-37.858426675
15,-3.71037845002,2.63929774007,-6.52392421238
16,-4.99006797631,-5.0049046241,-33.2301894711
*Step  = 55
*Time  = 4.45
*Data  = x;y;z
1,-3.63036331037,2.41091906513,-6.49024353938
2,-5.486325235,-5.36454379,-37.858426675
15,-3.71054296476,2.4118090763,-6.48485622163
16,-4.98836211507,-5.00907142977,-33.2135592151
*Step  = 56
*Time  = 4.5
*Data  = x;y;z
1,-3.58810158686,2.16401183707,-6.45651461376
2,-5.486325235,-5.36454379,-37.858426675
15,-3.71109011798,2.16536230402,-6.44825154073
16,-4.9869427915,-5.01357233384,-33.1996042573
*Step  = 57
*Time  = 4.55
*Data  = x;y;z
1,-3.55090775473,1.88812652991,-6.42446130252
2,-5.486325235,-5.36454379,-37.858426675
15,-3.71207666069,1.88987763548,-6.41365091552
16,-4.98581207641,-5.01810903322,-33.1883811629
*Step  = 58
*Time  = 4.6
*Data  = x;y;z
1,-3.49654654323,1.56366615232,-6.39104234234
2,-5.486325235,-5.36454379,-37.858426675
15,-3.71336778171,1.56599619385,-6.3765294048
16,-4.98465296236,-5.02281471104,-33.1768873454
*Step  = 59
*Time  = 4.65
*Data  = x;y;z
1,-3.47840589198,1.17559380547,-6.36690331591
2,-5.486325235,-5.36454379,-37.858426675
15,-3.71640935773,1.17812407821,-6.35116212302
16,-4.98493168367,-5.0283881838,-33.1788324417
*Step  = 60
*Time  = 4.7
*Data  = x;y;z
1,-3.4664140707,0.629107033098,-6.36029149276
2,-5.486325235,-5.36454379,-37.858426675
15,-3.72309585968,0.631809741926,-6.34369478686
16,-4.98790131988,-5.0351987864,-33.2059592621
*Step  = 61
*Time  = 4.75
*Data  = x;y;z
1,-3.61018684337,-0.445205699305,-6.43926815797
2,-5.486325235,-5.36454379,-37.858426675
15,-3.74590863655,-0.443784099939,-6.43110830817
16,-5.0038201767,-5.0483846926,-33.3541553838
*Step  = 62
*Time  = 4.8
*Data  = x;y;z
1,-3.78639167161,-1.82536538202,-6.55257963657
2,-5.486325235,-5.36454379,-37.858426675
15,-3.77663215571,-1.82546728409,-6.5531010449
16,-5.02490616875,-5.06386939414,-33.5506730981
*Step  = 63
*Time  = 4.84516129
*Data  = x;y;z
1,-3.93450151174,-8.58001366352,-6.64595547722
2,-5.486325235,-5.36454379,-37.858426675
15,-3.80274596188,-2.98138638756,-6.6522536179
16,-5.04208402427,-5.07638888491,-33.7107661853
