*Step  = 1
*Time  = 1e-05
*Data  = x;y;z
1,-3.44098111467,3.43077314074,-11.2302303184
2,-5.486325235,-5.36454379,-37.858426675
15,-3.97980791686,3.45413017707,-11.1934958804
16,-5.47951711183,-5.35964837509,-37.7949232255
*Step  = 2
*Time  = 1.91295806e-05
*Data  = x;y;z
1,-3.38985437799,3.42553385033,-11.1976555932
2,-5.486325235,-5.36454379,-37.858426675
15,-3.97629024557,3.45094960572,-11.1577170797
16,-5.47577732662,-5.35696707035,-37.7600365254
*Step  = 3
*Time  = 6.47774835e-05
*Data  = x;y;z
1,-3.36389578465,3.42455727041,-11.1788173809
2,-5.486325235,-5.36454379,-37.858426675
15,-3.97421510521,3.45100445618,-11.1372614938
16,-5.47362773151,-5.35542833969,-37.7399828676
*Step  = 4
*Time  = 0.000293016998
*Data  = x;y;z
1,-3.34971584679,3.42806572712,-11.1678626704
2,-5.486325235,-5.36454379,-37.858426675
15,-3.97288349833,3.45506402921,-11.1254179682
16,-5.47235487281,-5.35451803633,-37.728107949
*Step  = 5
*Time  = 0.00143421457
*Data  = x;y;z
1,-3.33968816058,3.42693950823,-11.1577607893
2,-5.486325235,-5.36454379,-37.858426675
15,-3.97204244177,3.45431518962,-11.1146736001
16,-5.47123259875,-5.35371443437,-37.7176383395
*Step  = 6
*Time  = 0.00714020243
*Data  = x;y;z
1,-3.33701367393,3.41716029701,-11.1311011412
2,-5.486325235,-5.36454379,-37.858426675
15,-3.97076135434,3.44449782709,-11.0879091989
16,-5.46847074767,-5.35173111734,-37.6918758292
*Step  = 7
*Time  = 0.0356701418
*Data  = x;y;z
1,-3.35216211832,3.36570844561,-11.010411933
2,-5.486325235,-5.36454379,-37.858426675
15,-3.96586522481,3.39170627972,-10.9686266609
16,-5.45619805475,-5.34290324839,-37.5774030736
*Step  = 8
*Time  = 0.05
*Data  = x;y;z
1,-3.38539462492,3.34441440384,-10.9540649557
2,-5.486325235,-5.36454379,-37.858426675
15,-3.96379544939,3.36869272046,-10.9147310086
16,-5.45062956862,-5.33888803243,-37.525467712
*Step  = 9
*Time  = 0.1
*Data  = x;y;z
1,-3.46509628921,3.25598546723,-10.7562471223
2,-5.486325235,-5.36454379,-37.858426675
15,-3.95639605664,3.27594398673,-10.7231581474
16,-5.43091100038,-5.32466544101,-37.3415610821
*Step  = 10
*Time  = 0.15
*Data  = x;y;z
1,-3.58715047031,3.17983188812,-10.5805031037
2,-5.486325235,-5.36454379,-37.858426675
15,-3.95072408859,3.19411508196,-10.5562728479
16,-5.41372681001,-5.31224081894,-37.1813036276
*Step  = 11
*Time  = 0.2
*Data  = x;y;z
1,-3.70510526482,3.14197846483,-10.5040581188
2,-5.486325235,-5.36454379,-37.858426675
15,-3.949255562,3.15140806402,-10.4879567504
16,-5.40670569156,-5.30715603925,-37.1158284718
*Step  = 12
*Time  = 0.25
*Data  = x;y;z
1,-3.88725656516,3.04119209655,-10.3321594644
2,-5.486325235,-5.36454379,-37.858426675
15,-3.94435564122,3.04332270925,-10.3284857633
16,-5.39040743018,-5.29538127182,-36.9638282972
*Step  = 13
*Time  = 0.3
*Data  = x;y;z
1,-4.0139614023,2.93058242019,-10.1644000038
2,-5.486325235,-5.36454379,-37.858426675
15,-3.93951963839,2.92789975358,-10.1691050556
16,-5.37426631757,-5.28371514893,-36.8132947424
*Step  = 14
*Time  = 0.35
*Data  = x;y;z
1,-4.12306735198,2.8055494186,-9.98008483911
2,-5.486325235,-5.36454379,-37.858426675
15,-3.93288375435,2.79893444089,-9.99185186802
16,-5.35630026899,-5.27072542691,-36.6457426333
*Step  = 15
*Time  = 0.4
*Data  = x;y;z
1,-4.21426322347,2.67449562556,-9.78221457676
2,-5.486325235,-5.36454379,-37.858426675
15,-3.92441944869,2.66477038697,-9.79976741466
16,-5.33679763588,-5.25661671764,-36.4638622789
*Step  = 16
*Time  = 0.45
*Data  = x;y;z
1,-4.29360103235,2.54298034746,-9.58062795729
2,-5.486325235,-5.36454379,-37.858426675
15,-3.91488461656,2.53072756875,-9.60305778199
16,-5.31679195834,-5.24213235581,-36.2772935866
*Step  = 17
*Time  = 0.5
*Data  = x;y;z
1,-4.33315983744,2.47617160251,-9.47670212075
2,-5.486325235,-5.36454379,-37.858426675
15,-3.90966481972,2.46271967335,-9.50151131785
16,-5.30645385622,-5.23462254883,-36.1808906201
*Step  = 18
*Time  = 0.55
*Data  = x;y;z
1,-4.42498265232,2.34329717002,-9.27334278487
2,-5.486325235,-5.36454379,-37.858426675
15,-3.89944315977,2.32721453545,-9.30350164388
16,-5.28633857643,-5.22002473368,-35.9933087997
*Step  = 19
*Time  = 0.6
*Data  = x;y;z
1,-4.49125575176,2.21059192754,-9.06546570188
2,-5.486325235,-5.36454379,-37.858426675
15,-3.88823055043,2.19282482975,-9.0994440772
16,-5.26559175345,-5.20494002481,-35.7998447646
*Step  = 20
*Time  = 0.65
*Data  = x;y;z
1,-4.55780932832,2.07289665207,-8.85604865554
2,-5.486325235,-5.36454379,-37.858426675
15,-3.87657247361,2.05358657167,-8.89379981719
16,-5.24473024924,-5.18973250961,-35.6053209795
*Step  = 21
*Time  = 0.7
*Data  = x;y;z
1,-4.65554040356,1.93182467932,-8.64565126817
2,-5.486325235,-5.36454379,-37.858426675
15,-3.86460768418,1.91027258741,-8.68858364528
16,-5.2239104034,-5.17452315703,-35.4111920692
*Step  = 22
*Time  = 0.75
*Data  = x;y;z
1,-4.73770759308,1.79217022475,-8.4330104612
2,-5.486325235,-5.36454379,-37.858426675
15,-3.85183094212,1.76898265675,-8.48014806178
16,-5.20273841525,-5.15901731788,-35.2137874026
*Step  = 23
*Time  = 0.8
*Data  = x;y;z
1,-4.78662288833,1.72118518824,-8.32466119367
2,-5.486325235,-5.36454379,-37.858426675
15,-3.84515600261,1.6970392018,-8.37426969114
16,-5.19198244343,-5.15107182652,-35.1135179851
*Step  = 24
*Time  = 0.85
*Data  = x;y;z
1,-4.87054551964,1.57472951477,-8.11447951712
2,-5.486325235,-5.36454379,-37.858426675
15,-3.83217423482,1.54917992243,-8.1680440305
16,-5.17109523528,-5.13571644312,-34.9187773677
*Step  = 25
*Time  = 0.9
*Data  = x;y;z
1,-4.99912928553,1.41422490779,-7.90013110992
2,-5.486325235,-5.36454379,-37.858426675
15,-3.81877914823,1.3863816493,-7.95949928286
16,-5.15005468157,-5.12020715843,-34.7226137345
*Step  = 26
*Time  = 0.95
*Data  = x;y;z
1,-5.07818836435,1.26137427837,-7.68651982724
2,-5.486325235,-5.36454379,-37.858426675
15,-3.80477188292,1.2326004989,-7.74922379168
16,-5.1287948629,-5.1044731756,-34.5244156299
*Step  = 27
*Time  = 1
*Data  = x;y;z
1,-5.07829247568,1.26505164614,-7.68039949297
2,-5.486325235,-5.36454379,-37.858426675
15,-3.8041471809,1.23625743769,-7.74345194347
16,-5.12818134319,-5.10387086236,-34.5187343596
*Step  = 28
*Time  = 1.03
*Data  = x;y;z
1,-4.85891067575,1.58224797512,-7.80386123668
2,-5.486325235,-5.36454379,-37.858426675
15,-3.80889049768,1.55850894589,-7.85929268551
16,-5.13830373303,-5.11081511558,-34.6132288647
*Step  = 29
*Time  = 1.06
*Data  = x;y;z
1,-4.66622776158,1.91231393504,-7.91983028303
2,-5.486325235,-5.36454379,-37.858426675
15,-3.81433535196,1.89304365603,-7.9699892586
16,-5.14824726972,-5.11755346126,-34.706064845
*Step  = 30
*Time  = 1.09
*Data  = x;y;z
1,-4.54195834053,2.18486219578,-8.01842037413
2,-5.486325235,-5.36454379,-37.858426675
15,-3.81961983552,2.16851307346,-8.0646677367
16,-5.15681435752,-5.12334487975,-34.7860494996
*Step  = 31
*Time  = 1.12
*Data  = x;y;z
1,-4.45755664225,2.32411629483,-8.05530182246
2,-5.486325235,-5.36454379,-37.858426675
15,-3.82031282964,2.30968654296,-8.0974282924
16,-5.15940282184,-5.12490579664,-34.8102612712
*Step  = 32
*Time  = 1.15
*Data  = x;y;z
1,-4.39596778232,2.43356658131,-8.08078841582
2,-5.486325235,-5.36454379,-37.858426675
15,-3.82035698028,2.42052676535,-8.11958552251
16,-5.16098312057,-5.12576020734,-34.8250665436
*Step  = 33
*Time  = 1.18
*Data  = x;y;z
1,-4.37514018928,2.54573424324,-8.11261122976
2,-5.486325235,-5.36454379,-37.858426675
15,-3.82114705329,2.53317805282,-8.150526002
16,-5.16342828738,-5.12722781508,-34.8479413306
*Step  = 34
*Time  = 1.21
*Data  = x;y;z
1,-4.32090623407,2.62248012156,-8.1263639693
2,-5.486325235,-5.36454379,-37.858426675
15,-3.82042601353,2.61113157002,-8.16087673232
16,-5.16388975419,-5.12726306669,-34.8523165372
*Step  = 35
*Time  = 1.24
*Data  = x;y;z
1,-4.29980821324,2.70075839676,-8.14327546926
2,-5.486325235,-5.36454379,-37.858426675
15,-3.82019744343,2.68987800048,-8.17656815578
16,-5.16489827569,-5.12770168825,-34.8617920878
*Step  = 36
*Time  = 1.27
*Data  = x;y;z
1,-4.2601816237,2.76516574159,-8.15426419547
2,-5.486325235,-5.36454379,-37.858426675
15,-3.81949546992,2.75516375824,-8.18500169505
16,-5.16522733653,-5.12764497806,-34.8649321333
*Step  = 37
*Time  = 1.3
*Data  = x;y;z
1,-4.23545865969,2.82638622593,-8.1659500802
2,-5.486325235,-5.36454379,-37.858426675
15,-3.81900799492,2.81692993712,-8.19509424681
16,-5.16574401818,-5.12772991212,-34.8698208952
*Step  = 38
*Time  = 1.33
*Data  = x;y;z
1,-4.21451910787,2.87988867318,-8.17430374733
2,-5.486325235,-5.36454379,-37.858426675
15,-3.81837930405,2.87088969273,-8.20210302172
16,-5.1659953139,-5.12763932186,-34.8722307422
*Step  = 39
*Time  = 1.36
*Data  = x;y;z
1,-4.19454581507,2.9342561116,-8.18478510581
2,-5.486325235,-5.36454379,-37.858426675
15,-3.81794231318,2.92569722884,-8.21127196028
16,-5.16646056463,-5.12770794958,-34.8766350084
*Step  = 40
*Time  = 1.39
*Data  = x;y;z
1,-4.19004525947,2.98949379588,-8.19742975532
2,-5.486325235,-5.36454379,-37.858426675
15,-3.81775747746,2.98102913751,-8.22362953688
16,-5.16723589492,-5.12799362916,-34.8839335726
*Step  = 41
*Time  = 1.42
*Data  = x;y;z
1,-4.16736228752,3.03679638208,-8.20600781742
2,-5.486325235,-5.36454379,-37.858426675
15,-3.81726268581,3.02883268742,-8.23069559447
16,-5.16753148327,-5.12793243349,-34.8867574567
*Step  = 42
*Time  = 1.45
*Data  = x;y;z
1,-4.13884053899,3.08412075841,-8.21499024599
2,-5.486325235,-5.36454379,-37.858426675
15,-3.8168111061,3.07679231226,-8.23776990212
16,-5.16783896998,-5.12787930279,-34.8896919855
*Step  = 43
*Time  = 1.48
*Data  = x;y;z
1,-4.13377899437,3.12948051498,-8.22327346953
2,-5.486325235,-5.36454379,-37.858426675
15,-3.81636506533,3.12225396016,-8.24571763237
16,-5.16821627751,-5.12788674441,-34.8932767846
*Step  = 44
*Time  = 1.51
*Data  = x;y;z
1,-4.12356313046,3.17164026609,-8.23108352795
2,-5.486325235,-5.36454379,-37.858426675
15,-3.81597413848,3.16463438274,-8.25284594713
16,-5.16854590626,-5.12786185662,-34.8964157802
*Step  = 45
*Time  = 1.54
*Data  = x;y;z
1,-4.11417285082,3.20973872413,-8.23791776933
2,-5.486325235,-5.36454379,-37.858426675
15,-3.81558010265,3.20293493561,-8.25905307262
16,-5.16881277288,-5.12780146929,-34.8989671925
*Step  = 46
*Time  = 1.57
*Data  = x;y;z
1,-4.10396471454,3.25009333808,-8.24647799487
2,-5.486325235,-5.36454379,-37.858426675
15,-3.81527773633,3.24351251273,-8.2669134452
16,-5.16922825808,-5.12784951929,-34.9029047441
*Step  = 47
*Time  = 1.6
*Data  = x;y;z
1,-4.09200747969,3.28987828314,-8.25449275614
2,-5.486325235,-5.36454379,-37.858426675
15,-3.81495048771,3.283559975,-8.27411887443
16,-5.16958654109,-5.12785964619,-34.9063076719
*Step  = 48
*Time  = 1.63
*Data  = x;y;z
1,-4.08350782787,3.32790224887,-8.26176326979
2,-5.486325235,-5.36454379,-37.858426675
15,-3.81457893457,3.32176678914,-8.2808114318
16,-5.16989501291,-5.12783427687,-34.9092464055
*Step  = 49
*Time  = 1.66
*Data  = x;y;z
1,-4.0748151968,3.36467996705,-8.26885253858
2,-5.486325235,-5.36454379,-37.858426675
15,-3.81423361389,3.35873253507,-8.28731198441
16,-5.17019677148,-5.12780679973,-34.9121217334
*Step  = 50
*Time  = 1.69
*Data  = x;y;z
1,-4.06522839149,3.39929240373,-8.27563756367
2,-5.486325235,-5.36454379,-37.858426675
15,-3.81389702112,3.39355377811,-8.29344262551
16,-5.17047637333,-5.12776416989,-34.9147903541
*Step  = 51
*Time  = 1.72
*Data  = x;y;z
1,-4.0627186856,3.43201904647,-8.28214353273
2,-5.486325235,-5.36454379,-37.858426675
15,-3.81362310495,3.42632930575,-8.29978411251
16,-5.17079418703,-5.12776531168,-34.9178115997
*Step  = 52
*Time  = 1.75
*Data  = x;y;z
1,-4.05167271226,3.46184513107,-8.28747722587
2,-5.486325235,-5.36454379,-37.858426675
15,-3.81325904561,3.45639731352,-8.30436575866
16,-5.1709559621,-5.12764980774,-34.9193782488
*Step  = 53
*Time  = 1.78
*Data  = x;y;z
1,-4.04378163351,3.49542505348,-8.29497634965
2,-5.486325235,-5.36454379,-37.858426675
15,-3.81301426322,3.4901498492,-8.31131584523
16,-5.17132334724,-5.1276771289,-34.9228644096
*Step  = 54
*Time  = 1.81
*Data  = x;y;z
1,-4.0369085028,3.52764095636,-8.30145086096
2,-5.486325235,-5.36454379,-37.858426675
15,-3.81271324317,3.52251396405,-8.31732075295
16,-5.17160459392,-5.12764296587,-34.9255469835
*Step  = 55
*Time  = 1.84
*Data  = x;y;z
1,-4.04630857196,3.56064592623,-8.30898721143
2,-5.486325235,-5.36454379,-37.858426675
15,-3.81258930247,3.55529891877,-8.32551335494
16,-5.17210047472,-5.12775866686,-34.9302332389
*Step  = 56
*Time  = 1.87
*Data  = x;y;z
1,-4.02861873755,3.58930750266,-8.314216575
2,-5.486325235,-5.36454379,-37.858426675
15,-3.81218376418,3.58435401162,-8.32952356331
16,-5.17220448957,-5.12759651591,-34.9312627031
*Step  = 57
*Time  = 1.9
*Data  = x;y;z
1,-4.04210096814,3.62018615429,-8.32160251041
2,-5.486325235,-5.36454379,-37.858426675
15,-3.81211450599,3.61492030543,-8.33784491472
16,-5.1727272256,-5.12773037388,-34.9362000937
*Step  = 58
*Time  = 1.93
*Data  = x;y;z
1,-4.02384273302,3.64484148606,-8.32565790947
2,-5.486325235,-5.36454379,-37.858426675
15,-3.81169344842,3.63998231615,-8.34064486422
16,-5.17274290645,-5.12752064545,-34.9364017059
*Step  = 59
*Time  = 1.96
*Data  = x;y;z
1,-4.01789378032,3.65736778104,-8.32447830247
2,-5.486325235,-5.36454379,-37.858426675
15,-3.81119199674,3.65263205434,-8.33909766223
16,-5.17243258921,-5.12711064035,-34.9335534568
*Step  = 60
*Time  = 1.99
*Data  = x;y;z
1,-4.01967131097,3.64695092086,-8.31512714499
2,-5.486325235,-5.36454379,-37.858426675
15,-3.81057360242,3.64215967202,-8.32995124385
16,-5.17156504868,-5.12637140509,-34.9254890001
*Step  = 61
*Time  = 1.99999
*Data  = x;y;z
1,-4.02067931232,3.64721214417,-8.31522695707
2,-5.486325235,-5.36454379,-37.858426675
15,-3.81055192237,3.64239654843,-8.33012368702
16,-5.1715568266,-5.12626771597,-34.9254368679
*Step  = 1
*Time  = 2
*Data  = x;y;z
1,-4.01881591897,3.64941408969,-8.31635986842
2,-5.486325235,-5.36454379,-37.858426675
15,-3.8105600236,3.64464054676,-8.33112453143
16,-5.1716161113,-5.12620326461,-34.9260167782
*Step  = 2
*Time  = 2.00005
*Data  = x;y;z
1,-4.0182769842,3.65112593191,-8.31718254615
2,-5.486325235,-5.36454379,-37.858426675
15,-3.8105514217,3.64636340455,-8.33191084327
16,-5.17165750352,-5.1261240785,-34.9264304023
*Step  = 3
*Time  = 2.0003
*Data  = x;y;z
1,-4.01788791996,3.65318470347,-8.31879744286
2,-5.486325235,-5.36454379,-37.858426675
15,-3.810580139,3.64842942152,-8.33349693611
16,-5.17177977568,-5.12610459733,-34.927598688
*Step  = 4
*Time  = 2.00155
*Data  = x;y;z
1,-4.0170023544,3.65763677156,-8.32450806366
2,-5.486325235,-5.36454379,-37.858426675
15,-3.81077928629,3.65289813212,-8.33913156607
16,-5.17230785522,-5.12638821126,-34.9325525839
*Step  = 5
*Time  = 2.0078
*Data  = x;y;z
1,-4.01335665787,3.6745509922,-8.35070001972
2,-5.486325235,-5.36454379,-37.858426675
15,-3.81181881269,3.66988301622,-8.36499288764
16,-5.17485803644,-5.12817999764,-34.956370279
*Step  = 6
*Time  = 2.03905
*Data  = x;y;z
1,-3.99818080902,3.75361295496,-8.47978269187
2,-5.486325235,-5.36454379,-37.858426675
15,-3.81702110459,3.74925362764,-8.49263073908
16,-5.18758260435,-5.13757294941,-35.0750970308
*Step  = 7
*Time  = 2.05
*Data  = x;y;z
1,-3.97425701326,3.77910614162,-8.5256068908
2,-5.486325235,-5.36454379,-37.858426675
15,-3.8188956008,3.77531923289,-8.53664277337
16,-5.19203449921,-5.14098585353,-35.1165999788
*Step  = 8
*Time  = 2.1
*Data  = x;y;z
1,-3.94023868235,3.89697175671,-8.72868381106
2,-5.486325235,-5.36454379,-37.858426675
15,-3.82677403154,3.89404352127,-8.73675075831
16,-5.21212165639,-5.15614639579,-35.303920681
*Step  = 9
*Time  = 2.15
*Data  = x;y;z
1,-3.88254206418,4.00795856032,-8.93297284672
2,-5.486325235,-5.36454379,-37.858426675
15,-3.83449021842,4.00664971094,-8.93639777335
16,-5.23227948084,-5.17150890061,-35.4918375096
*Step  = 10
*Time  = 2.2
*Data  = x;y;z
1,-3.85267871359,4.05939898357,-9.03598229076
2,-5.486325235,-5.36454379,-37.858426675
15,-3.83841576088,4.05900033155,-9.03699854195
16,-5.24247967099,-5.17934113488,-35.586899842
*Step  = 11
*Time  = 2.25
*Data  = x;y;z
1,-3.81306429584,4.16525665142,-9.23899746452
2,-5.486325235,-5.36454379,-37.858426675
15,-3.84565316605,4.16621423175,-9.23667355763
16,-5.26266221323,-5.19469322333,-35.7750224363
*Step  = 12
*Time  = 2.3
*Data  = x;y;z
1,-3.75997574203,4.26356109611,-9.43905555604
2,-5.486325235,-5.36454379,-37.858426675
15,-3.85236254633,4.26640778413,-9.43247392823
16,-5.28250065732,-5.20983918841,-35.9599000591
*Step  = 13
*Time  = 2.35
*Data  = x;y;z
1,-3.69139031894,4.35952837273,-9.63972208982
2,-5.486325235,-5.36454379,-37.858426675
15,-3.85889157715,4.36492927421,-9.62776416083
16,-5.30233171534,-5.22494605263,-36.14469552
*Step  = 14
*Time  = 2.4
*Data  = x;y;z
1,-3.64224529848,4.4516762933,-9.83923542637
2,-5.486325235,-5.36454379,-37.858426675
15,-3.86518531476,4.45918346663,-9.82332253486
16,-5.32220892441,-5.24008828613,-36.3298991277
*Step  = 15
*Time  = 2.45
*Data  = x;y;z
1,-3.58935969579,4.54096538264,-10.0389552632
2,-5.486325235,-5.36454379,-37.858426675
15,-3.87125559725,4.55086165309,-10.0188291587
16,-5.34210658968,-5.25522551857,-36.5152781274
*Step  = 16
*Time  = 2.5
*Data  = x;y;z
1,-3.56832908083,4.5805945262,-10.1387311735
2,-5.486325235,-5.36454379,-37.858426675
15,-3.87441296806,4.591557985,-10.1168918614
16,-5.35216872349,-5.26292962001,-36.6089960474
*Step  = 17
*Time  = 2.55
*Data  = x;y;z
1,-3.52781472283,4.6648491466,-10.3370183218
2,-5.486325235,-5.36454379,-37.858426675
15,-3.88028687991,4.67797780643,-10.3118358827
16,-5.37208044996,-5.27805949373,-36.7944784412
*Step  = 18
*Time  = 2.6
*Data  = x;y;z
1,-3.5008028597,4.74528370179,-10.5338609244
2,-5.486325235,-5.36454379,-37.858426675
15,-3.8858516591,4.76017694788,-10.5063897959
16,-5.39197968773,-5.29318530925,-36.979821386
*Step  = 19
*Time  = 2.65
*Data  = x;y;z
1,-3.4661046784,4.81987279935,-10.7277563273
2,-5.486325235,-5.36454379,-37.858426675
15,-3.89113090395,4.83691854456,-10.6974362312
16,-5.41158755706,-5.30807339335,-37.1624357875
*Step  = 20
*Time  = 2.7
*Data  = x;y;z
1,-3.43058161973,4.85684986934,-10.8988534564
2,-5.486325235,-5.36454379,-37.858426675
15,-3.89535440161,4.87613351593,-10.8660641618
16,-5.42933089458,-5.32168685456,-37.3276094498
*Step  = 21
*Time  = 2.75
*Data  = x;y;z
1,-3.40387270347,4.86727081336,-11.0532438584
2,-5.486325235,-5.36454379,-37.858426675
15,-3.89908797044,4.88847746852,-11.0190328013
16,-5.44582275735,-5.3343393886,-37.4811133305
*Step  = 22
*Time  = 2.8
*Data  = x;y;z
1,-3.40374096747,4.85852433661,-11.1207026115
2,-5.486325235,-5.36454379,-37.858426675
15,-3.9007673211,4.88012375492,-11.0869278385
16,-5.45341046779,-5.34015789208,-37.5517329446
*Step  = 23
*Time  = 2.85
*Data  = x;y;z
1,-3.40164853312,4.85349035808,-11.2582597174
2,-5.486325235,-5.36454379,-37.858426675
15,-3.90336062147,4.87594017889,-11.2253554444
16,-5.46821347135,-5.35121551894,-37.6896280322
*Step  = 24
*Time  = 2.9
*Data  = x;y;z
1,-3.3883529564,4.83681272317,-11.3856895874
2,-5.486325235,-5.36454379,-37.858426675
15,-3.9055718404,4.86059938323,-11.3531190421
16,-5.48190084621,-5.36130846368,-37.8171832521
*Step  = 25
*Time  = 2.95
*Data  = x;y;z
1,-3.37306730301,4.80807446263,-11.5045320575
2,-5.486325235,-5.36454379,-37.858426675
15,-3.9082602553,4.83331950574,-11.4721179812
16,-5.49495658321,-5.37080292372,-37.9389112522
*Step  = 26
*Time  = 3
*Data  = x;y;z
1,-3.34193809972,4.79728641013,-11.49540469
2,-5.486325235,-5.36454379,-37.858426675
15,-3.90785272415,4.82396799977,-11.4611736694
16,-5.49410143213,-5.3701655938,-37.9309456898
*Step  = 27
*Time  = 3.05
*Data  = x;y;z
1,-3.33158580172,4.82548432607,-11.3058029555
2,-5.486325235,-5.36454379,-37.858426675
15,-3.9039110259,4.85141319095,-11.2691549349
16,-5.47381403422,-5.35545578312,-37.7417697469
*Step  = 28
*Time  = 3.1
*Data  = x;y;z
1,-3.40353373143,4.84462843429,-11.1101062329
2,-5.486325235,-5.36454379,-37.858426675
15,-3.90179433236,4.86622325369,-11.0762666091
16,-5.45371269049,-5.34077189133,-37.5543735553
*Step  = 29
*Time  = 3.15
*Data  = x;y;z
1,-3.44056711483,4.83987045244,-10.9672121734
2,-5.486325235,-5.36454379,-37.858426675
15,-3.89938019618,4.85914377489,-10.9352054691
16,-5.43867940827,-5.32959474052,-37.4143044179
*Step  = 30
*Time  = 3.2
*Data  = x;y;z
1,-3.51481812412,4.81028364308,-10.7363320195
2,-5.486325235,-5.36454379,-37.858426675
15,-3.89427118772,4.82545731039,-10.7092984058
16,-5.41432507074,-5.31106102776,-37.1875461698
*Step  = 31
*Time  = 3.25
*Data  = x;y;z
1,-3.53829330249,4.72730077647,-10.468804629
2,-5.486325235,-5.36454379,-37.858426675
15,-3.88669940127,4.74051435621,-10.4437748725
16,-5.38620686186,-5.2893566742,-36.925822029
*Step  = 32
*Time  = 3.3
*Data  = x;y;z
1,-3.5591966794,4.57893659043,-10.1592253494
2,-5.486325235,-5.36454379,-37.858426675
15,-3.87687890906,4.59030708581,-10.1365664365
16,-5.35470397561,-5.26540494638,-36.632399543
*Step  = 33
*Time  = 3.35
*Data  = x;y;z
1,-3.59123902463,4.48287683645,-9.95342026577
2,-5.486325235,-5.36454379,-37.858426675
15,-3.87016206179,4.49246465486,-9.93355969284
16,-5.33393176445,-5.24955176702,-36.438916366
*Step  = 34
*Time  = 3.4
*Data  = x;y;z
1,-3.66336096359,4.34439176549,-9.65717190645
2,-5.486325235,-5.36454379,-37.858426675
15,-3.86098764311,4.35076250685,-9.64311934032
16,-5.3043733538,-5.22710900736,-36.1635052125
*Step  = 35
*Time  = 3.45
*Data  = x;y;z
1,-3.7306404281,4.19524008297,-9.35532386645
2,-5.486325235,-5.36454379,-37.858426675
15,-3.85084781409,4.19885851254,-9.34678268428
16,-5.27428197585,-5.20419665193,-35.8831032122
*Step  = 36
*Time  = 3.5
*Data  = x;y;z
1,-3.82807092235,4.04515731652,-9.05553927569
2,-5.486325235,-5.36454379,-37.858426675
15,-3.84029711352,4.04549930703,-9.05467350772
16,-5.24461881269,-5.18154645401,-35.6066604467
*Step  = 37
*Time  = 3.55
*Data  = x;y;z
1,-3.87677106906,3.94189837785,-8.85078756708
2,-5.486325235,-5.36454379,-37.858426675
15,-3.8323659928,3.94071902631,-8.85393353055
16,-5.22423173545,-5.16585225107,-35.4166744526
*Step  = 38
*Time  = 3.6
*Data  = x;y;z
1,-3.93984090168,3.77762974193,-8.54836709616
2,-5.486325235,-5.36454379,-37.858426675
15,-3.82048575165,3.77471314296,-8.55681762281
16,-5.19418573023,-5.14277306891,-35.1366110329
*Step  = 39
*Time  = 3.65
*Data  = x;y;z
1,-4.00325631311,3.60228161264,-8.24108662045
2,-5.486325235,-5.36454379,-37.858426675
15,-3.80752817604,3.59791345332,-8.25493294395
16,-5.16368803388,-5.1190946715,-34.8523443482
*Step  = 40
*Time  = 3.7
*Data  = x;y;z
1,-4.06557785553,3.41624528224,-7.93121300217
2,-5.486325235,-5.36454379,-37.858426675
15,-3.79340664971,3.41074241461,-7.95039739424
16,-5.13292213484,-5.09482277423,-34.565602102
*Step  = 41
*Time  = 3.75
*Data  = x;y;z
1,-4.11736034044,3.28396273107,-7.71842931484
2,-5.486325235,-5.36454379,-37.858426675
15,-3.78289033403,3.27766234819,-7.74189830856
16,-5.11179760958,-5.07756938129,-34.3688053085
*Step  = 42
*Time  = 3.8
*Data  = x;y;z
1,-4.18076771032,3.07578336037,-7.40230296408
2,-5.486325235,-5.36454379,-37.858426675
15,-3.76658090026,3.0688388946,-7.43102209799
16,-5.08046082111,-5.05231591427,-34.076711845
*Step  = 43
*Time  = 3.85
*Data  = x;y;z
1,-4.23747734943,2.84937855916,-7.07915686811
2,-5.486325235,-5.36454379,-37.858426675
15,-3.74851651774,2.84217587752,-7.11247459098
16,-5.04842352184,-5.02618746982,-33.7780595146
*Step  = 44
*Time  = 3.9
*Data  = x;y;z
1,-4.28649680746,2.60463133586,-6.74678846785
2,-5.486325235,-5.36454379,-37.858426675
15,-3.72820750005,2.59752215955,-6.78401165474
16,-5.0154886214,-4.99918777392,-33.470981347
*Step  = 45
*Time  = 3.95
*Data  = x;y;z
1,-4.32806912257,2.43696787168,-6.52023074786
2,-5.486325235,-5.36454379,-37.858426675
15,-3.71348393406,2.42993782242,-6.56056209123
16,-4.99306371699,-4.98018930936,-33.2619366201
*Step  = 46
*Time  = 4
*Data  = x;y;z
1,-4.33358284476,2.43895271481,-6.51188442038
2,-5.486325235,-5.36454379,-37.858426675
15,-3.71251221971,2.43182937534,-6.55281353471
16,-4.992150955,-4.97805654394,-33.2536391929
*Step  = 47
*Time  = 4.05
*Data  = x;y;z
1,-4.21553448678,2.1398240617,-6.4294150902
2,-5.486325235,-5.36454379,-37.858426675
15,-3.70846057499,2.13406369792,-6.46295804193
16,-4.98587654231,-4.97827191256,-33.1944009891
*Step  = 48
*Time  = 4.1
*Data  = x;y;z
1,-4.16757654445,1.88147469206,-6.39092395142
2,-5.486325235,-5.36454379,-37.858426675
15,-3.70852879918,1.8763090631,-6.42115999858
16,-4.98411728288,-4.98195339785,-33.1772731996
*Step  = 49
*Time  = 4.15
*Data  = x;y;z
1,-4.11073727221,1.60158329036,-6.35530993517
2,-5.486325235,-5.36454379,-37.858426675
15,-3.70894639926,1.59710454012,-6.381548505
16,-4.9826242112,-4.98585366427,-33.1626415191
*Step  = 50
*Time  = 4.2
*Data  = x;y;z
1,-4.03766371749,1.28427492293,-6.32052131819
2,-5.486325235,-5.36454379,-37.858426675
15,-3.70966140325,1.28065278784,-6.34165151761
16,-4.98125099187,-4.98983786119,-33.1491426846
*Step  = 51
*Time  = 4.25
*Data  = x;y;z
1,-3.96011494814,0.911372370154,-6.29040773079
2,-5.486325235,-5.36454379,-37.858426675
15,-3.71212652564,0.90865855217,-6.30606673481
16,-4.98061705703,-4.99423861451,-33.1425636089
*Step  = 52
*Time  = 4.3
*Data  = x;y;z
1,-3.894470412,0.445484817118,-6.28022288102
2,-5.486325235,-5.36454379,-37.858426675
15,-3.71627352972,0.443550319505,-6.2910881653
16,-4.98261797563,-5.00015032245,-33.1606231102
*Step  = 53
*Time  = 4.35
*Data  = x;y;z
1,-3.88413378978,-0.206889096199,-6.32359295549
2,-5.486325235,-5.36454379,-37.858426675
15,-3.72995283565,-0.208553169381,-6.33253244426
16,-4.99186410375,-5.01004337971,-33.2464348841
*Step  = 54
*Time  = 4.4
*Data  = x;y;z
1,-3.9531861521,-0.948270960347,-6.41047338317
2,-5.486325235,-5.36454379,-37.858426675
15,-3.74899666683,-0.950468054537,-6.42158366064
16,-5.00672231041,-5.02254643892,-33.3847469092
*Step  = 55
*Time  = 4.45
*Data  = x;y;z
1,-4.00649004068,-1.58501889264,-6.46745673986
2,-5.486325235,-5.36454379,-37.858426675
15,-3.7642285111,-1.58761767365,-6.47997714473
16,-5.0174799328,-5.03205942163,-33.4848320221
*Step  = 56
*Time  = 4.5
*Data  = x;y;z
1,-4.05205652798,-2.18000776051,-6.52435591135
2,-5.486325235,-5.36454379,-37.858426675
15,-3.7789108287,-2.18292912525,-6.5378072142
16,-5.02778345385,-5.04119505113,-33.5806885885
*Step  = 57
*Time  = 4.55
*Data  = x;y;z
1,-4.10197544001,-2.75436647575,-6.58482193222
2,-5.486325235,-5.36454379,-37.858426675
15,-3.79370683042,-2.75765405948,-6.59929133676
16,-5.03823210793,-5.05033161869,-33.6778990279
*Step  = 58
*Time  = 4.6
*Data  = x;y;z
1,-4.14037749485,-3.3076053011,-6.64729328921
2,-5.486325235,-5.36454379,-37.858426675
15,-3.80855693795,-3.3111346936,-6.66219280925
16,-5.04862387481,-5.05930874934,-33.7746001037
*Step  = 59
*Time  = 4.65
*Data  = x;y;z
1,-4.16182990511,-3.84837017811,-6.71408771064
2,-5.486325235,-5.36454379,-37.858426675
15,-3.82358713845,-3.85195877533,-6.72862981659
16,-5.05922694835,-5.06834198796,-33.8732965348
*Step  = 60
*Time  = 4.7
*Data  = x;y;z
1,-4.19398809745,-4.37729854475,-6.78827347061
2,-5.486325235,-5.36454379,-37.858426675
15,-3.83953165302,-4.3810505657,-6.80285106498
16,-5.07050669466,-5.07767070113,-33.9783081324
*Step  = 61
*Time  = 4.75
*Data  = x;y;z
1,-4.21914876645,-4.88568739704,-6.86120103959
2,-5.486325235,-5.36454379,-37.858426675
15,-3.85465871583,-4.8895367355,-6.87560139384
16,-5.08141607761,-5.08672559744,-34.0798986483
*Step  = 62
*Time  = 4.8
*Data  = x;y;z
1,-4.23463838524,-5.37617951542,-6.93537523361
2,-5.486325235,-5.36454379,-37.858426675
15,-3.87025242367,-5.38001911329,-6.94925144822
16,-5.09222918418,-5.09565792464,-34.1805597024
*Step  = 63
*Time  = 4.85
*Data  = x;y;z
1,-4.24641290409,-5.85681952542,-7.01086235506
2,-5.486325235,-5.36454379,-37.858426675
15,-3.88553798508,-5.86061374653,-7.02409320733
16,-5.10300791967,-5.10450209755,-34.2809291913
*Step  = 64
*Time  = 4.9
*Data  = x;y;z
1,-4.24940350835,-6.32498532573,-7.08990012069
2,-5.486325235,-5.36454379,-37.858426675
15,-3.90065895938,-6.32864395769,-7.10223054638
16,-5.1139700415,-5.11341741114,-34.3830353276
*Step  = 65
*Time  = 4.95
*Data  = x;y;z
1,-4.25776415104,-6.77832505504,-7.1710083189
2,-5.486325235,-5.36454379,-37.858426675
15,-3.9158939135,-6.78190387073,-7.18266709475
16,-5.12498808716,-5.12230595441,-34.4856665576
*Step  = 66
*Time  = 4.99999
*Data  = x;y;z
1,-4.2869859829,-6.63735260739,-7.12359290945
2,-5.486325235,-5.36454379,-37.858426675
15,-3.90945667064,-6.6413071269,-7.13647619961
16,-5.11923104757,-5.11804114231,-34.4319591649
