*Step  = 1
*Time  = 1e-05
*Data  = RCx;RCy;RCz;RCthx;RCthy;RCthz
1,-0.554107924909,0,0,0.000101058351595,0,0
2,0.103581616541,0,0,-0.00248040532516,0,0
3,-0.0507974236338,-0,-0,0.00426107838578,0,0
*Step  = 2
*Time  = 6e-05
*Data  = RCx;RCy;RCz;RCthx;RCthy;RCthz
1,-0.611349056634,0,0,0.000139819347066,0,0
2,0.0939348894109,0,0,-0.00275002789746,0,0
3,-0.0795499482229,-0,-0,0.00640358441282,0,0
*Step  = 3
*Time  = 0.00011
*Data  = RCx;RCy;RCz;RCthx;RCthy;RCthz
1,-0.636377034586,0,0,0.000163905367069,0,0
2,0.0851436993315,0,0,-0.00287030728236,0,0
3,-0.0966552907505,-0,-0,0.00787321466832,0,0
*Step  = 4
*Time  = 0.00036
*Data  = RCx;RCy;RCz;RCthx;RCthy;RCthz
1,-0.649664783777,0,0,0.000178138110587,0,0
2,0.0788901390923,0,0,-0.00296506904781,0,0
3,-0.105842330204,-0,-0,0.00844145130943,0,0
*Step  = 5
*Time  = 0.00161
*Data  = RCx;RCy;RCz;RCthx;RCthy;RCthz
1,-0.660602748416,0,0,0.000185762987465,0,0
2,0.0757592300357,0,0,-0.00304096111523,0,0
3,-0.110283084114,-0,-0,0.00862494833653,0,0
*Step  = 6
*Time  = 0.00786
*Data  = RCx;RCy;RCz;RCthx;RCthy;RCthz
1,-0.669429185837,0,0,0.00018080470987,0,0
2,0.0753267517927,0,0,-0.00306054585844,0,0
3,-0.109627661336,-0,-0,0.00882451544019,0,0
*Step  = 7
*Time  = 0.03911
*Data  = RCx;RCy;RCz;RCthx;RCthy;RCthz
1,-0.684880650827,0,0,0.000125410022839,0,0
2,0.0665757809564,0,0,-0.00293316760343,0,0
3,-0.088852081552,-0,-0,0.0101324888236,0,0
*Step  = 8
*Time  = 0.05
*Data  = RCx;RCy;RCz;RCthx;RCthy;RCthz
1,-0.665277632297,0,0,0.000110212157206,0,0
2,-0.00477870737535,0,0,-0.00287109810663,0,0
3,-0.0784048045091,-0,-0,0.0135631053355,0,0
*Step  = 9
*Time  = 0.1
*Data  = RCx;RCy;RCz;RCthx;RCthy;RCthz
1,-0.593387326312,0,0,1.1592830971e-05,0,0
2,-0.328798735948,0,0,-0.00290453660965,0,0
3,0.0244512074016,0,0,0.0334384410932,0,0
*Step  = 10
*Time  = 0.15
*Data  = RCx;RCy;RCz;RCthx;RCthy;RCthz
1,-0.552979637275,0,0,-4.9473637755e-05,0,0
2,-0.517811404278,0,0,-0.0033368435788,0,0
3,0.0739205582225,0,0,0.0461806051442,0,0
*Step  = 11
*Time  = 0.2
*Data  = RCx;RCy;RCz;RCthx;RCthy;RCthz
1,-0.539251822227,0,0,-0.000105691840406,0,0
2,-0.623936806788,0,0,-0.00376203049205,0,0
3,0.100712346972,0,0,0.054166233172,0,0
*Step  = 12
*Time  = 0.25
*Data  = RCx;RCy;RCz;RCthx;RCthy;RCthz
1,-0.527307097903,0,0,-0.000160336074468,0,0
2,-0.691940481492,0,0,-0.00400808318839,0,0
3,0.118276081256,0,0,0.0597175334181,0,0
*Step  = 13
*Time  = 0.3
*Data  = RCx;RCy;RCz;RCthx;RCthy;RCthz
1,-0.510691151564,0,0,-0.000212856143079,0,0
2,-0.749959018431,0,0,-0.00430789114827,0,0
3,0.138597074094,0,0,0.0653601731987,0,0
*Step  = 14
*Time  = 0.35
*Data  = RCx;RCy;RCz;RCthx;RCthy;RCthz
1,-0.513990426175,0,0,-0.000265858645388,0,0
2,-0.790417416955,0,0,-0.00447516558386,0,0
3,0.149594796965,0,0,0.0691524587891,0,0
*Step  = 15
*Time  = 0.4
*Data  = RCx;RCy;RCz;RCthx;RCthy;RCthz
1,-0.491268287231,0,0,-0.000324593590985,0,0
2,-0.828520996196,0,0,-0.0047138871255,0,0
3,0.167255109941,0,0,0.0738397139161,0,0
*Step  = 16
*Time  = 0.45
*Data  = RCx;RCy;RCz;RCthx;RCthy;RCthz
1,-0.503694920937,0,0,-0.000377573815663,0,0
2,-0.861654059682,0,0,-0.00481331482285,0,0
3,0.175268187519,0,0,0.0768054938622,0,0
*Step  = 17
*Time  = 0.5
*Data  = RCx;RCy;RCz;RCthx;RCthy;RCthz
1,-0.504250414445,0,0,-0.000433695119994,0,0
2,-0.892199175622,0,0,-0.00492045791211,0,0
3,0.184073027793,0,0,0.0797419468472,0,0
*Step  = 18
*Time  = 0.55
*Data  = RCx;RCy;RCz;RCthx;RCthy;RCthz
1,-0.498713005342,0,0,-0.000490804392918,0,0
2,-0.922598846368,0,0,-0.00502260187261,0,0
3,0.193890832041,0,0,0.0827768113042,0,0
*Step  = 19
*Time  = 0.6
*Data  = RCx;RCy;RCz;RCthx;RCthy;RCthz
1,-0.497586087939,0,0,-0.000546864571658,0,0
2,-0.950695189465,0,0,-0.00514230657801,0,0
3,0.203306665132,0,0,0.0856840650197,0,0
*Step  = 20
*Time  = 0.65
*Data  = RCx;RCy;RCz;RCthx;RCthy;RCthz
1,-0.495626620016,0,0,-0.000602883819731,0,0
2,-0.97670706101,0,0,-0.00524475152683,0,0
3,0.211969523127,0,0,0.0883986989131,0,0
*Step  = 21
*Time  = 0.7
*Data  = RCx;RCy;RCz;RCthx;RCthy;RCthz
1,-0.498177430066,0,0,-0.00065908286936,0,0
2,-1.00082494103,0,0,-0.00537330450616,0,0
3,0.220272559483,0,0,0.0909937561471,0,0
*Step  = 22
*Time  = 0.75
*Data  = RCx;RCy;RCz;RCthx;RCthy;RCthz
1,-0.496910940675,0,0,-0.000716831309238,0,0
2,-1.02328337973,0,0,-0.00547736414252,0,0
3,0.228214032165,0,0,0.0934803745592,0,0
*Step  = 23
*Time  = 0.8
*Data  = RCx;RCy;RCz;RCthx;RCthy;RCthz
1,-0.491166579008,0,0,-0.00077420833251,0,0
2,-1.04659403045,0,0,-0.00554384267397,0,0
3,0.236232020384,0,0,0.0959141257079,0,0
*Step  = 24
*Time  = 0.85
*Data  = RCx;RCy;RCz;RCthx;RCthy;RCthz
1,-0.488726614774,0,0,-0.00083070383899,0,0
2,-1.06823384028,0,0,-0.00561228319462,0,0
3,0.24363522924,0,0,0.0981785842796,0,0
*Step  = 25
*Time  = 0.9
*Data  = RCx;RCy;RCz;RCthx;RCthy;RCthz
1,-0.44510856575,0,0,-0.000896446537452,0,0
2,-1.08091836702,0,0,-0.00571396224373,0,0
3,0.256550843027,0,0,0.101096947377,0,0
*Step  = 26
*Time  = 0.95
*Data  = RCx;RCy;RCz;RCthx;RCthy;RCthz
1,-0.453343960346,0,0,-0.00095326197716,0,0
2,-1.09681756362,0,0,-0.00573439740239,0,0
3,0.263026796794,0,0,0.102787501857,0,0
*Step  = 27
*Time  = 0.99999
*Data  = RCx;RCy;RCz;RCthx;RCthy;RCthz
1,-0.469502216876,0,0,-0.00100214190134,0,0
2,-1.116360382,0,0,-0.00578683980996,0,0
3,0.267541516514,0,0,0.104539204655,0,0
*Step  = 1
*Time  = 1
*Data  = RCx;RCy;RCz;RCthx;RCthy;RCthz
1,-0.488711948194,0,0,-0.00100233654595,0,0
2,-1.09532791651,0,0,-0.00580237107675,0,0
3,0.254158321092,0,0,0.102645787247,0,0
*Step  = 2
*Time  = 1.00005
*Data  = RCx;RCy;RCz;RCthx;RCthy;RCthz
1,-0.49222165864,0,0,-0.00100294055645,0,0
2,-1.09580080928,0,0,-0.0058002436297,0,0
3,0.25317562784,0,0,0.102530461313,0,0
*Step  = 3
*Time  = 1.0003
*Data  = RCx;RCy;RCz;RCthx;RCthy;RCthz
1,-0.493775124918,0,0,-0.00100285247482,0,0
2,-1.09642782295,0,0,-0.00579906389755,0,0
3,0.252675054018,0,0,0.102490252939,0,0
*Step  = 4
*Time  = 1.00155
*Data  = RCx;RCy;RCz;RCthx;RCthy;RCthz
1,-0.494925850402,0,0,-0.000991120895395,0,0
2,-1.09734196564,0,0,-0.00580548242302,0,0
3,0.252766692019,0,0,0.102535166358,0,0
*Step  = 5
*Time  = 1.0078
*Data  = RCx;RCy;RCz;RCthx;RCthy;RCthz
1,-0.494433400976,0,0,-0.000732195613712,0,0
2,-1.09995222629,0,0,-0.00579209798867,0,0
3,0.255477268369,0,0,0.102683983969,0,0
*Step  = 6
*Time  = 1.03905
*Data  = RCx;RCy;RCz;RCthx;RCthy;RCthz
1,-0.524361133437,0,0,0.000778238877761,0,0
2,-1.12195937343,0,0,-0.00567809924845,0,0
3,0.269083679072,0,0,0.103153254827,0,0
*Step  = 7
*Time  = 1.05
*Data  = RCx;RCy;RCz;RCthx;RCthy;RCthz
1,-0.490033916058,0,0,-0.00100583006521,0,0
2,-1.11418181999,0,0,-0.00587986531413,0,0
3,0.257653011286,0,0,0.104492803945,0,0
*Step  = 8
*Time  = 1.1
*Data  = RCx;RCy;RCz;RCthx;RCthy;RCthz
1,-0.50610018298,0,0,-0.0276470899966,0,0
2,-1.06766505681,0,0,-0.00843609931898,0,0
3,0.0760379766234,0,0,0.111244029016,0,0
*Step  = 9
*Time  = 1.15
*Data  = RCx;RCy;RCz;RCthx;RCthy;RCthz
1,-0.480771087293,0,0,-0.0542235815448,0,0
2,-0.936608057841,0,0,-0.00982601223514,0,0
3,-0.144142918766,-0,-0,0.112865457934,0,0
*Step  = 10
*Time  = 1.2
*Data  = RCx;RCy;RCz;RCthx;RCthy;RCthz
1,-0.455674431962,0,0,-0.0807338367386,0,0
2,-0.770939183951,0,0,-0.0105222148092,0,0
3,-0.377701751763,-0,-0,0.113978520837,0,0
*Step  = 11
*Time  = 1.25
*Data  = RCx;RCy;RCz;RCthx;RCthy;RCthz
1,-0.40589783312,0,0,-0.107234637385,0,0
2,-0.593095138198,0,0,-0.0110041810282,0,0
3,-0.610587215945,-0,-0,0.112784173676,0,0
*Step  = 12
*Time  = 1.3
*Data  = RCx;RCy;RCz;RCthx;RCthy;RCthz
1,-0.36535496317,0,0,-0.133693774692,0,0
2,-0.388970455054,0,0,-0.0110834117126,0,0
3,-0.8539137609,-0,-0,0.109323568974,0,0
*Step  = 13
*Time  = 1.35
*Data  = RCx;RCy;RCz;RCthx;RCthy;RCthz
1,-0.297188365017,0,0,-0.160116435443,0,0
2,-0.168664318551,0,0,-0.0106895390532,0,0
3,-1.0993937792,-0,-0,0.103734227789,0,0
*Step  = 14
*Time  = 1.4
*Data  = RCx;RCy;RCz;RCthx;RCthy;RCthz
1,-0.201544429965,0,0,-0.186517416905,0,0
2,0.0663443010468,0,0,-0.00996528001512,0,0
3,-1.34234700163,-0,-0,0.0965094503928,0,0
*Step  = 15
*Time  = 1.45
*Data  = RCx;RCy;RCz;RCthx;RCthy;RCthz
1,-0.0667325581435,0,0,-0.212893302593,0,0
2,0.342954554601,0,0,-0.00829915610702,0,0
3,-1.59088807082,-0,-0,0.0851042048188,0,0
*Step  = 16
*Time  = 1.5
*Data  = RCx;RCy;RCz;RCthx;RCthy;RCthz
1,0.0392549095225,0,0,-0.239285188913,0,0
2,0.545796402631,0,0,-0.00720452565598,0,0
3,-1.83862886371,-0,-0,0.0780825739574,0,0
*Step  = 17
*Time  = 1.55
*Data  = RCx;RCy;RCz;RCthx;RCthy;RCthz
1,0.115140862624,0,0,-0.265691900365,0,0
2,0.695326214905,0,0,-0.00675013768142,0,0
3,-2.08860751235,-0,-0,0.0740892211673,0,0
*Step  = 18
*Time  = 1.6
*Data  = RCx;RCy;RCz;RCthx;RCthy;RCthz
1,0.197838456796,0,0,-0.292122653917,0,0
2,0.831265171233,0,0,-0.00635984227101,0,0
3,-2.33780356418,-0,-0,0.0711769136947,0,0
*Step  = 19
*Time  = 1.65
*Data  = RCx;RCy;RCz;RCthx;RCthy;RCthz
1,0.289165169684,0,0,-0.318557124886,0,0
2,0.965616948169,0,0,-0.00581209557618,0,0
3,-2.58675025132,-0,-0,0.0668106728985,0,0
*Step  = 20
*Time  = 1.7
*Data  = RCx;RCy;RCz;RCthx;RCthy;RCthz
1,0.355680622576,0,0,-0.345002600648,0,0
2,1.09718209389,0,0,-0.00521626123231,0,0
3,-2.84012913311,-0,-0,0.0623924113759,0,0
*Step  = 21
*Time  = 1.75
*Data  = RCx;RCy;RCz;RCthx;RCthy;RCthz
1,0.434809000253,0,0,-0.371463607518,0,0
2,1.23992431317,0,0,-0.00454329291487,0,0
3,-3.09378139342,-0,-0,0.0573891234669,0,0
*Step  = 22
*Time  = 1.8
*Data  = RCx;RCy;RCz;RCthx;RCthy;RCthz
1,0.474636139727,0,0,-0.397952285885,0,0
2,1.39108302164,0,0,-0.00533907115068,0,0
3,-3.3564207689,-0,-0,0.0567494486149,0,0
*Step  = 23
*Time  = 1.85
*Data  = RCx;RCy;RCz;RCthx;RCthy;RCthz
1,0.547796564492,0,0,-0.424430345469,0,0
2,1.55174135352,0,0,-0.0025602946077,0,0
3,-3.60975911346,-0,-0,0.0437305207489,0,0
*Step  = 24
*Time  = 1.9
*Data  = RCx;RCy;RCz;RCthx;RCthy;RCthz
1,0.606224378056,0,0,-0.450947104313,0,0
2,1.71847114972,0,0,-0.00119031162205,0,0
3,-3.87690139657,-0,-0,0.0398503003586,0,0
*Step  = 25
*Time  = 1.95
*Data  = RCx;RCy;RCz;RCthx;RCthy;RCthz
1,0.6352690996,0,0,-0.477506158914,0,0
2,1.8976791747,0,0,-0.00204209374061,0,0
3,-4.15198386642,-0,-0,0.0421993550449,0,0
*Step  = 26
*Time  = 2
*Data  = RCx;RCy;RCz;RCthx;RCthy;RCthz
1,0.69687113309,0,0,-0.504039448809,0,0
2,2.08405577573,0,0,-0.000619309602539,0,0
3,-4.41664719854,-0,-0,0.0383084702587,0,0
*Step  = 27
*Time  = 2.05
*Data  = RCx;RCy;RCz;RCthx;RCthy;RCthz
1,0.697928696735,0,0,-0.503906933114,0,0
2,2.171775039,0,0,0.00264793827867,0,0
3,-4.41150023521,-0,-0,0.0171878277773,0,0
*Step  = 28
*Time  = 2.1
*Data  = RCx;RCy;RCz;RCthx;RCthy;RCthz
1,0.860450961226,0,0,-0.504718513945,0,0
2,1.83312463514,0,0,-0.00195787772732,0,0
3,-4.46830944751,-0,-0,0.0715807303603,0,0
*Step  = 29
*Time  = 2.15
*Data  = RCx;RCy;RCz;RCthx;RCthy;RCthz
1,0.88617296855,0,0,-0.505191170447,0,0
2,1.57680802275,0,0,0.00273959442984,0,0
3,-4.48829450772,-0,-0,0.0899009786586,0,0
*Step  = 30
*Time  = 2.2
*Data  = RCx;RCy;RCz;RCthx;RCthy;RCthz
1,0.760117493506,0,0,-0.506242514926,0,0
2,1.01631709904,0,0,-0.000254357030942,0,0
3,-4.46085313975,-0,-0,0.125905801752,0,0
*Step  = 31
*Time  = 2.25
*Data  = RCx;RCy;RCz;RCthx;RCthy;RCthz
1,0.451702344075,0,0,-0.507739662059,0,0
2,0.301969791911,0,0,-0.0106418510794,0,0
3,-4.40060959819,-0,-0,0.170294024787,0,0
*Step  = 32
*Time  = 2.3
*Data  = RCx;RCy;RCz;RCthx;RCthy;RCthz
1,0.317652041446,0,0,-0.509176572132,0,0
2,-0.253946144966,0,0,-0.0156072899834,0,0
3,-4.3718073188,-0,-0,0.202144915016,0,0
*Step  = 33
*Time  = 2.35
*Data  = RCx;RCy;RCz;RCthx;RCthy;RCthz
1,0.345632276745,0,0,-0.510155988286,0,0
2,-0.555990322716,0,0,-0.0133734412019,0,0
3,-4.37102927272,-0,-0,0.218398726359,0,0
*Step  = 34
*Time  = 2.4
*Data  = RCx;RCy;RCz;RCthx;RCthy;RCthz
1,0.183003034496,0,0,-0.500536412284,0,0
2,-1.08741860925,0,0,-0.0142451950611,0,0
3,-4.59701729771,-0,-0,0.222194993636,0,0
*Step  = 35
*Time  = 2.45
*Data  = RCx;RCy;RCz;RCthx;RCthy;RCthz
1,0.277588506901,0,0,-0.501595747875,0,0
2,-1.45682716729,0,0,-0.0136593942583,0,0
3,-4.49584828123,-0,-0,0.24199502951,0,0
*Step  = 36
*Time  = 2.5
*Data  = RCx;RCy;RCz;RCthx;RCthy;RCthz
1,0.291144370504,0,0,-0.502640256447,0,0
2,-1.7294425698,0,0,-0.0132519686329,0,0
3,-4.45195873133,-0,-0,0.255435551479,0,0
*Step  = 37
*Time  = 2.54998
*Data  = RCx;RCy;RCz;RCthx;RCthy;RCthz
1,0.299867367687,0,0,-0.503643234718,0,0
2,-1.98931523191,0,0,-0.0126221762764,0,0
3,-4.41079464862,-0,-0,0.267765755072,0,0
