*Step  = 1
*Time  = 1e-05
*Data  = x;y;z
1,-3.43234290214,3.26512335599,-11.1870723946
2,-5.486325235,-5.36454379,-37.858426675
16,-3.98282288428,3.2889873685,-11.1495746497
17,-5.47622962538,-5.35728149146,-37.7642602035
*Step  = 2
*Time  = 6e-05
*Data  = x;y;z
1,-3.3648514777,3.21106506046,-11.1550433796
2,-5.486325235,-5.36454379,-37.858426675
16,-3.98158845903,3.23779643184,-11.1128985485
17,-5.47284595408,-5.35485535761,-37.7326955955
*Step  = 3
*Time  = 0.00031
*Data  = x;y;z
1,-3.33655698264,3.18427316822,-11.1369068733
2,-5.486325235,-5.36454379,-37.858426675
16,-3.9808754303,3.21219314786,-11.0927532545
17,-5.47097926764,-5.3535187022,-37.715281408
*Step  = 4
*Time  = 0.00156
*Data  = x;y;z
1,-3.32181601168,3.16790826744,-11.1215617811
2,-5.486325235,-5.36454379,-37.858426675
16,-3.9802104448,3.19641420276,-11.0763696199
17,-5.46940415846,-5.35238997069,-37.7005877221
*Step  = 5
*Time  = 0.00781
*Data  = x;y;z
1,-3.31973398211,3.15180870736,-11.0880507188
2,-5.486325235,-5.36454379,-37.858426675
16,-3.97860431011,3.18022138307,-11.0428011327
17,-5.4659851067,-5.34993452593,-37.6686949192
*Step  = 6
*Time  = 0.03906
*Data  = x;y;z
1,-3.35148631487,3.11298000801,-10.9488303063
2,-5.486325235,-5.36454379,-37.858426675
16,-3.97171444536,3.13919462402,-10.9062751767
17,-5.45179483931,-5.33972516084,-37.5363370204
*Step  = 7
*Time  = 0.05
*Data  = x;y;z
1,-3.37242326809,3.11656964171,-10.9124471242
2,-5.486325235,-5.36454379,-37.858426675
16,-3.96984911956,3.14164293668,-10.8714706036
17,-5.44804945122,-5.33701740905,-37.5014081529
*Step  = 8
*Time  = 0.1
*Data  = x;y;z
1,-3.43367101496,3.07383569116,-10.7081420637
2,-5.486325235,-5.36454379,-37.858426675
16,-3.95984286729,3.09519790026,-10.6720134814
17,-5.42722491743,-5.32198613725,-37.3071910909
*Step  = 9
*Time  = 0.15
*Data  = x;y;z
1,-3.54394464314,3.02527943055,-10.5246545202
2,-5.486325235,-5.36454379,-37.858426675
16,-3.95237999632,3.04130198563,-10.4966674224
17,-5.40900337102,-5.30880275827,-37.1372625444
*Step  = 10
*Time  = 0.2
*Data  = x;y;z
1,-3.62067500713,3.01114101116,-10.4569314399
2,-5.486325235,-5.36454379,-37.858426675
16,-3.95078244695,3.0238653146,-10.4343519715
17,-5.40249709428,-5.30407153615,-37.0765961663
*Step  = 11
*Time  = 0.25
*Data  = x;y;z
1,-3.83928946752,2.84823638952,-10.2347905868
2,-5.486325235,-5.36454379,-37.858426675
16,-3.94502572194,2.85216640443,-10.2274824283
17,-5.38211041324,-5.28931771632,-36.886475316
*Step  = 12
*Time  = 0.3
*Data  = x;y;z
1,-4.0061372105,2.64734167171,-9.97740190526
2,-5.486325235,-5.36454379,-37.858426675
16,-3.93649182228,2.64485043801,-9.98229924645
17,-5.35803571353,-5.271885304,-36.6619627249
*Step  = 13
*Time  = 0.35
*Data  = x;y;z
1,-4.11635913972,2.45346518106,-9.72012369771
2,-5.486325235,-5.36454379,-37.858426675
16,-3.92643392588,2.44694037393,-9.73361777987
17,-5.33341745238,-5.25403237477,-36.4323883767
*Step  = 14
*Time  = 0.4
*Data  = x;y;z
1,-4.19985437619,2.25519672164,-9.46057705349
2,-5.486325235,-5.36454379,-37.858426675
16,-3.91544366098,2.24583248078,-9.48095489295
17,-5.30837450431,-5.2358413122,-36.1988608503
*Step  = 15
*Time  = 0.45
*Data  = x;y;z
1,-4.30163511577,2.05160164035,-9.19889696015
2,-5.486325235,-5.36454379,-37.858426675
16,-3.90397022441,2.03908088587,-9.22762434521
17,-5.28330247882,-5.21759020085,-35.9650708095
*Step  = 16
*Time  = 0.5
*Data  = x;y;z
1,-4.35387073125,1.94126466135,-9.06145162519
2,-5.486325235,-5.36454379,-37.858426675
16,-3.89769178265,1.92723108187,-9.09462970612
17,-5.27018877416,-5.20798221857,-35.8428067274
*Step  = 17
*Time  = 0.55
*Data  = x;y;z
1,-4.4629877268,1.72941923481,-8.80087414467
2,-5.486325235,-5.36454379,-37.858426675
16,-3.88578785515,1.71250584771,-8.84321664707
17,-5.24539203639,-5.18985409283,-35.6115982453
*Step  = 18
*Time  = 0.6
*Data  = x;y;z
1,-4.56688278088,1.52075078511,-8.54615260109
2,-5.486325235,-5.36454379,-37.858426675
16,-3.87351954634,1.5014524906,-8.59732062715
17,-5.22111331276,-5.17204207958,-35.3852298458
*Step  = 19
*Time  = 0.65
*Data  = x;y;z
1,-4.68773622556,1.29483462417,-8.28033833014
2,-5.486325235,-5.36454379,-37.858426675
16,-3.86030076197,1.27302951401,-8.34182708532
17,-5.19597644977,-5.15354752889,-35.1508670743
*Step  = 20
*Time  = 0.7
*Data  = x;y;z
1,-4.81461938647,1.07263274337,-8.01603864856
2,-5.486325235,-5.36454379,-37.858426675
16,-3.84631635941,1.04855436428,-8.08832818148
17,-5.17098604499,-5.135082478,-34.9178786593
*Step  = 21
*Time  = 0.75
*Data  = x;y;z
1,-4.94957201425,0.840650078277,-7.74753793561
2,-5.486325235,-5.36454379,-37.858426675
16,-3.83165460388,0.814522811143,-7.83149107717
17,-5.14574329764,-5.1163547073,-34.6825423612
*Step  = 22
*Time  = 0.8
*Data  = x;y;z
1,-5.02385814118,0.716610098535,-7.60968238348
2,-5.486325235,-5.36454379,-37.858426675
16,-3.82365293358,0.689449964919,-7.69998653625
17,-5.1328422163,-5.10662624904,-34.5623001489
*Step  = 23
*Time  = 0.85
*Data  = x;y;z
1,-5.15597213974,0.476315495753,-7.34305859896
2,-5.486325235,-5.36454379,-37.858426675
16,-3.80806858242,0.447836088575,-7.44495454801
17,-5.10784855531,-5.0879444851,-34.3292921765
*Step  = 24
*Time  = 0.9
*Data  = x;y;z
1,-5.29183037126,0.237362021829,-7.07847983921
2,-5.486325235,-5.36454379,-37.858426675
16,-3.79194250663,0.207932614944,-7.19224036791
17,-5.08307580091,-5.06932171911,-34.0983455508
*Step  = 25
*Time  = 0.95
*Data  = x;y;z
1,-5.40753069913,0.000662098850862,-6.82099351992
2,-5.486325235,-5.36454379,-37.858426675
16,-3.7756006442,-0.0288907914246,-6.94524983727
17,-5.05890294103,-5.05104067442,-33.872988717
*Step  = 26
*Time  = 1
*Data  = x;y;z
1,-5.43100600963,-0.0133539819836,-6.80821825219
2,-5.486325235,-5.36454379,-37.858426675
16,-3.77482448046,-0.0433646792137,-6.93488893706
17,-5.05799134266,-5.04998793273,-33.8645630045
*Step  = 27
*Time  = 1.0116129
*Data  = x;y;z
1,-4.43546291718,1.77823637202,-7.89528547045
2,-5.486325235,-5.36454379,-37.858426675
16,-3.83502660026,1.76733474014,-7.93063905985
17,-5.14510889318,-5.11297417715,-34.6771313889
*Step  = 28
*Time  = 1.02179809
*Data  = x;y;z
1,-4.33950473105,2.20671190579,-8.05575467343
2,-5.486325235,-5.36454379,-37.858426675
16,-3.84557760282,2.19773236768,-8.08858300754
17,-5.15942001781,-5.12270159604,-34.8106992014
*Step  = 29
*Time  = 1.03
*Data  = x;y;z
1,-4.31441038042,2.36368602401,-8.09411914072
2,-5.486325235,-5.36454379,-37.858426675
16,-3.84696033803,2.35517894553,-8.12608380673
17,-5.16228924586,-5.12425718395,-34.8375557416
*Step  = 30
*Time  = 1.06
*Data  = x;y;z
1,-4.12627037917,2.79572749167,-8.2452254229
2,-5.486325235,-5.36454379,-37.858426675
16,-3.85262707904,2.79073691721,-8.26433379768
17,-5.17322287995,-5.13128376856,-34.9397006663
*Step  = 31
*Time  = 1.09
*Data  = x;y;z
1,-4.02794801093,3.0103272932,-8.28037259831
2,-5.486325235,-5.36454379,-37.858426675
16,-3.85126103029,3.00709868835,-8.29285379065
17,-5.17427990082,-5.13109230042,-34.9497485663
*Step  = 32
*Time  = 1.12
*Data  = x;y;z
1,-3.98157739998,3.17819551711,-8.30910086783
2,-5.486325235,-5.36454379,-37.858426675
16,-3.85023072317,3.17579118119,-8.31841108638
17,-5.17534134531,-5.13101283419,-34.9598203087
*Step  = 33
*Time  = 1.15
*Data  = x;y;z
1,-3.93068107573,3.31858578872,-8.33385296822
2,-5.486325235,-5.36454379,-37.858426675
16,-3.84927042713,3.31709309698,-8.33963488268
17,-5.17616506647,-5.13082201006,-34.9676638218
*Step  = 34
*Time  = 1.18
*Data  = x;y;z
1,-3.88246972734,3.44824855733,-8.35964012354
2,-5.486325235,-5.36454379,-37.858426675
16,-3.84857594961,3.44762612609,-8.3620466614
17,-5.17717739678,-5.1308131566,-34.977258818
*Step  = 35
*Time  = 1.21
*Data  = x;y;z
1,-3.84701105032,3.5637822681,-8.38234479472
2,-5.486325235,-5.36454379,-37.858426675
16,-3.84793455977,3.563799253,-8.3822792815
17,-5.17807642852,-5.13075811982,-34.9857907107
*Step  = 36
*Time  = 1.24
*Data  = x;y;z
1,-3.81429257987,3.66955126642,-8.40364432806
2,-5.486325235,-5.36454379,-37.858426675
16,-3.8473483046,3.67016006986,-8.40130264518
17,-5.17892988398,-5.13071822575,-34.9938886674
*Step  = 37
*Time  = 1.27
*Data  = x;y;z
1,-3.78321947129,3.76606090909,-8.42436693807
2,-5.486325235,-5.36454379,-37.858426675
16,-3.84692328647,3.76723574874,-8.41985990527
17,-5.17981872231,-5.1307366453,-35.0023101904
*Step  = 38
*Time  = 1.3
*Data  = x;y;z
1,-3.75914634499,3.85709299423,-8.443916382
2,-5.486325235,-5.36454379,-37.858426675
16,-3.84650791277,3.85870617895,-8.43774914574
17,-5.18067711416,-5.13077052487,-35.010441189
*Step  = 39
*Time  = 1.33
*Data  = x;y;z
1,-3.73381749903,3.9420625482,-8.46274326043
2,-5.486325235,-5.36454379,-37.858426675
16,-3.84616066028,3.94413958191,-8.45482662694
17,-5.18150794472,-5.1308042434,-35.018311057
*Step  = 40
*Time  = 1.36
*Data  = x;y;z
1,-3.71301799297,4.02136574246,-8.48060797287
2,-5.486325235,-5.36454379,-37.858426675
16,-3.84588527467,4.02382501012,-8.47125961948
17,-5.18233281184,-5.13088274223,-35.0261153144
*Step  = 41
*Time  = 1.39
*Data  = x;y;z
1,-3.70025119121,4.09434682881,-8.49666845579
2,-5.486325235,-5.36454379,-37.858426675
16,-3.84557321552,4.09703972186,-8.48646876009
17,-5.18306792838,-5.13088364577,-35.0330862778
*Step  = 42
*Time  = 1.42
*Data  = x;y;z
1,-3.67240905149,4.16483699836,-8.51423018973
2,-5.486325235,-5.36454379,-37.858426675
16,-3.84539558285,4.1680457033,-8.50211131502
17,-5.18389402237,-5.13103474218,-35.040887954
*Step  = 43
*Time  = 1.45
*Data  = x;y;z
1,-3.65092334804,4.23429489699,-8.5309833883
2,-5.486325235,-5.36454379,-37.858426675
16,-3.84520001589,4.23790232548,-8.51740244948
17,-5.18467481182,-5.13111830907,-35.0482745596
*Step  = 44
*Time  = 1.48
*Data  = x;y;z
1,-3.63466681134,4.30063398843,-8.54691754468
2,-5.486325235,-5.36454379,-37.858426675
16,-3.84495592524,4.30454282835,-8.53225642146
17,-5.18542915941,-5.13118928688,-35.0554149652
*Step  = 45
*Time  = 1.51
*Data  = x;y;z
1,-3.61496337222,4.36375225545,-8.56240395727
2,-5.486325235,-5.36454379,-37.858426675
16,-3.84476200088,4.36802796588,-8.5464168525
17,-5.18615010759,-5.13126220016,-35.0622376444
*Step  = 46
*Time  = 1.54
*Data  = x;y;z
1,-3.59917389931,4.42540788438,-8.57792024838
2,-5.486325235,-5.36454379,-37.858426675
16,-3.84460896346,4.42997900127,-8.5608869752
17,-5.1869117527,-5.13137345658,-35.0694387992
*Step  = 47
*Time  = 1.57
*Data  = x;y;z
1,-3.5806036224,4.48384309829,-8.59241570124
2,-5.486325235,-5.36454379,-37.858426675
16,-3.84443075735,4.48876148435,-8.57413932505
17,-5.18758029665,-5.13142100097,-35.07577044
*Step  = 48
*Time  = 1.6
*Data  = x;y;z
1,-3.56498652124,4.54077003264,-8.60714043768
2,-5.486325235,-5.36454379,-37.858426675
16,-3.84430277299,4.5459820342,-8.58783661788
17,-5.18830466625,-5.13152722348,-35.082619805
*Step  = 49
*Time  = 1.63
*Data  = x;y;z
1,-3.54954677144,4.59269625375,-8.61933972591
2,-5.486325235,-5.36454379,-37.858426675
16,-3.8440646956,4.59819680611,-8.59901844292
17,-5.18882213062,-5.13149344837,-35.0875367286
*Step  = 50
*Time  = 1.66
*Data  = x;y;z
1,-3.53408361237,4.64553204563,-8.63323307105
2,-5.486325235,-5.36454379,-37.858426675
16,-3.84395242357,4.65132440969,-8.61190010758
17,-5.1895015059,-5.13159057288,-35.0939617324
*Step  = 51
*Time  = 1.69
*Data  = x;y;z
1,-3.5132407068,4.69689320234,-8.64759204164
2,-5.486325235,-5.36454379,-37.858426675
16,-3.84395637133,4.70307952427,-8.62485666847
17,-5.19024013564,-5.13183002775,-35.1009170281
*Step  = 52
*Time  = 1.72
*Data  = x;y;z
1,-3.50179720799,4.74681916745,-8.66050874335
2,-5.486325235,-5.36454379,-37.858426675
16,-3.84377638453,4.75322185892,-8.63707211948
17,-5.19085903025,-5.13187945936,-35.1067805538
*Step  = 53
*Time  = 1.75
*Data  = x;y;z
1,-3.48959725633,4.7968342299,-8.67401652392
2,-5.486325235,-5.36454379,-37.858426675
16,-3.84367097419,4.8034693235,-8.64981503493
17,-5.1915332382,-5.13196653098,-35.1131602021
*Step  = 54
*Time  = 1.78
*Data  = x;y;z
1,-3.47482967162,4.84474974695,-8.6870332307
2,-5.486325235,-5.36454379,-37.858426675
16,-3.84357316612,4.85166577252,-8.66188077535
17,-5.1921639579,-5.13203273651,-35.1191314876
*Step  = 55
*Time  = 1.81
*Data  = x;y;z
1,-3.46302107245,4.89231187003,-8.70024171113
2,-5.486325235,-5.36454379,-37.858426675
16,-3.84349800237,4.89945402135,-8.67435541325
17,-5.19283654962,-5.13214482085,-35.125490887
*Step  = 56
*Time  = 1.84
*Data  = x;y;z
1,-3.44704719291,4.93690413721,-8.71199323653
2,-5.486325235,-5.36454379,-37.858426675
16,-3.84335860134,4.94434965181,-8.68507435713
17,-5.19336359546,-5.13215427617,-35.1304911694
*Step  = 57
*Time  = 1.87
*Data  = x;y;z
1,-3.43300096249,4.97920372918,-8.72280302313
2,-5.486325235,-5.36454379,-37.858426675
16,-3.84318512255,4.98691582692,-8.69499046029
17,-5.19383337833,-5.1321439161,-35.134953031
*Step  = 58
*Time  = 1.9
*Data  = x;y;z
1,-3.42173945338,5.02096678078,-8.73387499568
2,-5.486325235,-5.36454379,-37.858426675
16,-3.84305216157,5.02889403409,-8.70536895135
17,-5.19435518363,-5.13218797392,-35.1398971874
*Step  = 59
*Time  = 1.93
*Data  = x;y;z
1,-3.4078889733,5.06345859856,-8.74586761047
2,-5.486325235,-5.36454379,-37.858426675
16,-3.84298221045,5.0716510606,-8.71649271462
17,-5.19494997019,-5.13230267687,-35.1455183124
*Step  = 60
*Time  = 1.96
*Data  = x;y;z
1,-3.40258666104,5.08079278357,-8.74248128182
2,-5.486325235,-5.36454379,-37.858426675
16,-3.84225114149,5.08907396219,-8.71272838087
17,-5.19434312409,-5.13165836219,-35.1399009128
*Step  = 61
*Time  = 1.99
*Data  = x;y;z
1,-3.4244359686,5.06578155339,-8.72249915605
2,-5.486325235,-5.36454379,-37.858426675
16,-3.84085023932,5.07362683762,-8.6941777175
17,-5.19253967197,-5.13008787439,-35.1231324968
*Step  = 62
*Time  = 1.99999
*Data  = x;y;z
1,-3.43435562125,5.06861078487,-8.72311866786
2,-5.486325235,-5.36454379,-37.858426675
16,-3.84080409682,5.07627122852,-8.69549308814
17,-5.1925762426,-5.12992725841,-35.1235163686
*Step  = 1
*Time  = 2
*Data  = x;y;z
1,-3.43664199249,5.07430217881,-8.72659535361
2,-5.486325235,-5.36454379,-37.858426675
16,-3.84091474917,5.08192504283,-8.69913811423
17,-5.19281665592,-5.12989508367,-35.125805988
*Step  = 2
*Time  = 2.00005
*Data  = x;y;z
1,-3.43784151212,5.07803562477,-8.72860459692
2,-5.486325235,-5.36454379,-37.858426675
16,-3.84091339545,5.08564006412,-8.70123567083
17,-5.19291193021,-5.12973021968,-35.126747763
*Step  = 3
*Time  = 2.0003
*Data  = x;y;z
1,-3.43847944102,5.0816769567,-8.73124477301
2,-5.486325235,-5.36454379,-37.858426675
16,-3.84093673796,5.08927624258,-8.70392071513
17,-5.19307083879,-5.12961438183,-35.1282835464
*Step  = 4
*Time  = 2.00155
*Data  = x;y;z
1,-3.43849559327,5.08749745572,-8.73814429651
2,-5.486325235,-5.36454379,-37.858426675
16,-3.84112086922,5.09511775913,-8.71081129446
17,-5.19364282588,-5.12980344106,-35.1336771551
*Step  = 5
*Time  = 2.0078
*Data  = x;y;z
1,-3.43600667225,5.10555104729,-8.76671586798
2,-5.486325235,-5.36454379,-37.858426675
16,-3.84211505634,5.11331248944,-8.73915037497
17,-5.19631548141,-5.13156657124,-35.158683814
*Step  = 6
*Time  = 2.03905
*Data  = x;y;z
1,-3.42035566147,5.18364777695,-8.90272811548
2,-5.486325235,-5.36454379,-37.858426675
16,-3.84706000466,5.19218076279,-8.87376702502
17,-5.20943569539,-5.14129905777,-35.281200334
*Step  = 7
*Time  = 2.05
*Data  = x;y;z
1,-3.40792667286,5.20514959767,-8.94779440833
2,-5.486325235,-5.36454379,-37.858426675
16,-3.84885506882,5.21409372366,-8.91787126239
17,-5.21398849294,-5.14525741418,-35.3235751068
*Step  = 8
*Time  = 2.1
*Data  = x;y;z
1,-3.39429164248,5.32051648,-9.16104056482
2,-5.486325235,-5.36454379,-37.858426675
16,-3.85643231665,5.33053353331,-9.12976995319
17,-5.23490052831,-5.16148130302,-35.5186575282
*Step  = 9
*Time  = 2.15
*Data  = x;y;z
1,-3.37013124982,5.42698256492,-9.37071610808
2,-5.486325235,-5.36454379,-37.858426675
16,-3.86380321771,5.4383534489,-9.33740554969
17,-5.25572790393,-5.17832479243,-35.7127385872
*Step  = 10
*Time  = 2.2
*Data  = x;y;z
1,-3.3491189362,5.47156216171,-9.47129289395
2,-5.486325235,-5.36454379,-37.858426675
16,-3.86749507123,5.48383611754,-9.43640027198
17,-5.26605362302,-5.18733586442,-35.8087628357
*Step  = 11
*Time  = 2.25
*Data  = x;y;z
1,-3.32427841847,5.56839353923,-9.67674940634
2,-5.486325235,-5.36454379,-37.858426675
16,-3.87440583293,5.58215505943,-9.63986628308
17,-5.28667605206,-5.20418602826,-36.0008065088
*Step  = 12
*Time  = 2.3
*Data  = x;y;z
1,-3.29416167725,5.6566747113,-9.87859413239
2,-5.486325235,-5.36454379,-37.858426675
16,-3.8809874023,5.67212756407,-9.83947934848
17,-5.30710265465,-5.22103522601,-36.1909299458
*Step  = 13
*Time  = 2.35
*Data  = x;y;z
1,-3.26405525617,5.73946533398,-10.0770113842
2,-5.486325235,-5.36454379,-37.858426675
16,-3.8872505659,5.75668672503,-10.0357496932
17,-5.32732813917,-5.23774503917,-36.3791191016
*Step  = 14
*Time  = 2.4
*Data  = x;y;z
1,-3.22349499955,5.80959369549,-10.2691018581
2,-5.486325235,-5.36454379,-37.858426675
16,-3.89313310524,5.82895576472,-10.2250967193
17,-5.34708736386,-5.25410543537,-36.562906863
*Step  = 15
*Time  = 2.45
*Data  = x;y;z
1,-3.18065251217,5.8665307818,-10.452437156
2,-5.486325235,-5.36454379,-37.858426675
16,-3.8986550004,5.88818482214,-10.4057166063
17,-5.36633503691,-5.27016510534,-36.741845193
*Step  = 16
*Time  = 2.5
*Data  = x;y;z
1,-3.14683093865,5.8815272981,-10.5328685573
2,-5.486325235,-5.36454379,-37.858426675
16,-3.90139500096,5.90470778782,-10.4840204736
17,-5.37549707087,-5.27831665189,-36.8268318171
*Step  = 17
*Time  = 2.55
*Data  = x;y;z
1,-3.11468039088,5.92730455366,-10.704896804
2,-5.486325235,-5.36454379,-37.858426675
16,-3.90654926287,5.95257332398,-10.6542883321
17,-5.39419029297,-5.29376459355,-37.0005841789
*Step  = 18
*Time  = 2.6
*Data  = x;y;z
1,-3.073667597,5.95992091003,-10.8670095865
2,-5.486325235,-5.36454379,-37.858426675
16,-3.91160800123,5.98761277767,-10.8142033049
17,-5.41239552528,-5.30873549917,-37.1697811426
*Step  = 19
*Time  = 2.65
*Data  = x;y;z
1,-3.02884153999,5.98260921477,-11.018611732
2,-5.486325235,-5.36454379,-37.858426675
16,-3.91656028567,6.01290923311,-10.9634548391
17,-5.43007078382,-5.32302487794,-37.334101903
*Step  = 20
*Time  = 2.7
*Data  = x;y;z
1,-2.98026981529,5.99681642867,-11.1631983227
2,-5.486325235,-5.36454379,-37.858426675
16,-3.92165745727,6.02992452742,-11.1056023678
17,-5.4475303636,-5.33668626106,-37.4965547165
*Step  = 21
*Time  = 2.75
*Data  = x;y;z
1,-2.92814221619,6.00116831975,-11.2991678566
2,-5.486325235,-5.36454379,-37.858426675
16,-3.92670451885,6.03728343224,-11.239074454
17,-5.4645054111,-5.34936172428,-37.6547100183
*Step  = 22
*Time  = 2.8
*Data  = x;y;z
1,-2.88841992317,5.9890471978,-11.3515350923
2,-5.486325235,-5.36454379,-37.858426675
16,-3.92936695002,6.02712764151,-11.2894415769
17,-5.47247648037,-5.35517057642,-37.7290288046
*Step  = 23
*Time  = 2.85
*Data  = x;y;z
1,-2.85591126541,5.99173817553,-11.484349303
2,-5.486325235,-5.36454379,-37.858426675
16,-3.93422806279,6.03224703202,-11.4214325884
17,-5.48912043011,-5.36637744509,-37.884567921
*Step  = 24
*Time  = 2.9
*Data  = x;y;z
1,-2.81088854297,5.98097388271,-11.6074909496
2,-5.486325235,-5.36454379,-37.858426675
16,-3.93905645486,6.02441955322,-11.5432620246
17,-5.50506116571,-5.37640828373,-38.0338301306
*Step  = 25
*Time  = 2.95
*Data  = x;y;z
1,-2.77143352404,5.96309963466,-11.7241603725
2,-5.486325235,-5.36454379,-37.858426675
16,-3.94393662155,6.00932172449,-11.6592172839
17,-5.5205433754,-5.38540527282,-38.1791270435
*Step  = 26
*Time  = 3
*Data  = x;y;z
1,-2.72123367007,5.94320351416,-11.6982821941
2,-5.486325235,-5.36454379,-37.858426675
16,-3.94405991063,5.99125276909,-11.6302696486
17,-5.51967941187,-5.3844087705,-38.1712112351
*Step  = 27
*Time  = 3.05
*Data  = x;y;z
1,-2.69026856327,5.93580553253,-11.4742448749
2,-5.486325235,-5.36454379,-37.858426675
16,-3.93787678301,5.98272083992,-11.4011071581
17,-5.49555696973,-5.37007356259,-37.9449654919
*Step  = 28
*Time  = 3.1
*Data  = x;y;z
1,-2.76593198414,5.93831047268,-11.2634823854
2,-5.486325235,-5.36454379,-37.858426675
16,-3.93142540868,5.9802406956,-11.1928585103
17,-5.47139138452,-5.35533939142,-37.718561413
*Step  = 29
*Time  = 3.15
*Data  = x;y;z
1,-2.85509154009,5.94203201544,-11.1287138424
2,-5.486325235,-5.36454379,-37.858426675
16,-3.92662938352,5.9794858212,-11.0627822866
17,-5.45486531772,-5.34451148788,-37.5640472678
*Step  = 30
*Time  = 3.2
*Data  = x;y;z
1,-2.93770618005,5.92192975981,-10.9115475591
2,-5.486325235,-5.36454379,-37.858426675
16,-3.91974028819,5.95465800318,-10.8496544272
17,-5.42925224142,-5.32679669948,-37.3249399392
*Step  = 31
*Time  = 3.25
*Data  = x;y;z
1,-3.02970042814,5.89249782211,-10.6898330645
2,-5.486325235,-5.36454379,-37.858426675
16,-3.91261859396,5.92047526778,-10.6330535599
17,-5.40306344616,-5.30723778833,-37.0809599102
*Step  = 32
*Time  = 3.3
*Data  = x;y;z
1,-3.11549996684,5.8479435733,-10.4596609476
2,-5.486325235,-5.36454379,-37.858426675
16,-3.90516498583,5.87164624607,-10.4080350621
17,-5.37618695704,-5.28579510844,-36.8309848269
*Step  = 33
*Time  = 3.35
*Data  = x;y;z
1,-3.17242157415,5.80907897217,-10.3019757872
2,-5.486325235,-5.36454379,-37.858426675
16,-3.89939941517,5.83010985211,-10.2540540889
17,-5.35746071489,-5.26961604795,-36.6571573096
*Step  = 34
*Time  = 3.4
*Data  = x;y;z
1,-3.21609494386,5.71069582952,-10.0340155057
2,-5.486325235,-5.36454379,-37.858426675
16,-3.8908018795,5.72898158657,-9.98905481105
17,-5.32839156806,-5.24570279532,-36.386855761
*Step  = 35
*Time  = 3.45
*Data  = x;y;z
1,-3.25474797173,5.58203748503,-9.74418937835
2,-5.486325235,-5.36454379,-37.858426675
16,-3.88104342138,5.59781910358,-9.70223817994
17,-5.29801156386,-5.22091204889,-36.1042007843
*Step  = 36
*Time  = 3.5
*Data  = x;y;z
1,-3.29428335673,5.44540614217,-9.44844291522
2,-5.486325235,-5.36454379,-37.858426675
16,-3.87066836467,5.45881490623,-9.40964990022
17,-5.2674063587,-5.19576294462,-35.8193861539
*Step  = 37
*Time  = 3.55
*Data  = x;y;z
1,-3.33037356755,5.34865307755,-9.2465430812
2,-5.486325235,-5.36454379,-37.858426675
16,-3.86276363644,5.36036278917,-9.21065783664
17,-5.24639254448,-5.17769519841,-35.6239671326
*Step  = 38
*Time  = 3.6
*Data  = x;y;z
1,-3.36770191704,5.19107987057,-8.93954616442
2,-5.486325235,-5.36454379,-37.858426675
16,-3.85111540909,5.20075438002,-8.90687515242
17,-5.21526025083,-5.15209647681,-35.3340393214
*Step  = 39
*Time  = 3.65
*Data  = x;y;z
1,-3.4140149581,5.02543527737,-8.63257749835
2,-5.486325235,-5.36454379,-37.858426675
16,-3.83873543156,5.03309953691,-8.60384820784
17,-5.18414812955,-5.12573198109,-35.0443460122
*Step  = 40
*Time  = 3.7
*Data  = x;y;z
1,-3.46424431964,4.85364971244,-8.32615300249
2,-5.486325235,-5.36454379,-37.858426675
16,-3.82561151379,4.85946438984,-8.30171350583
17,-5.1531177244,-5.09860146302,-34.7554290579
*Step  = 41
*Time  = 3.75
*Data  = x;y;z
1,-3.50385775993,4.73645776596,-8.12274372787
2,-5.486325235,-5.36454379,-37.858426675
16,-3.81600565361,4.74108982289,-8.1016373847
17,-5.13220169218,-5.07841017335,-34.5609444516
*Step  = 42
*Time  = 3.8
*Data  = x;y;z
1,-3.55228177936,4.54750545898,-7.81561364947
2,-5.486325235,-5.36454379,-37.858426675
16,-3.80152278452,4.55072029014,-7.79882499824
17,-5.10131707445,-5.05008719265,-34.2732851823
*Step  = 43
*Time  = 3.85
*Data  = x;y;z
1,-3.60587104482,4.352478083,-7.50998041562
2,-5.486325235,-5.36454379,-37.858426675
16,-3.78600082764,4.35445745539,-7.49794828629
17,-5.07060302613,-5.02062537951,-33.9872075867
*Step  = 44
*Time  = 3.9
*Data  = x;y;z
1,-3.64895503351,4.14407966932,-7.19932937361
2,-5.486325235,-5.36454379,-37.858426675
16,-3.7691244793,4.14517304131,-7.19136256488
17,-5.03953550948,-4.99002441292,-33.6977031911
*Step  = 45
*Time  = 3.95
*Data  = x;y;z
1,-3.67972917165,4.00237796674,-6.99301099741
2,-5.486325235,-5.36454379,-37.858426675
16,-3.75679697518,4.00298659216,-6.98793919188
17,-5.01868949131,-4.96698487572,-33.5036382178
*Step  = 46
*Time  = 4
*Data  = x;y;z
1,-3.6753776127,4.01453419826,-6.99938329595
2,-5.486325235,-5.36454379,-37.858426675
16,-3.75608591544,4.01518206176,-6.99404512521
17,-5.01842771614,-4.96106540051,-33.5019485868
*Step  = 47
*Time  = 4.05
*Data  = x;y;z
1,-3.58590132342,3.90208109599,-6.96251010862
2,-5.486325235,-5.36454379,-37.858426675
16,-3.75377008684,3.9034217473,-6.95130818489
17,-5.01552749647,-4.96034674458,-33.4746679134
*Step  = 48
*Time  = 4.1
*Data  = x;y;z
1,-3.52830501643,3.80994472225,-6.94091844822
2,-5.486325235,-5.36454379,-37.858426675
16,-3.75302159888,3.81172654325,-6.92585093027
17,-5.01426379395,-4.96174806025,-33.462548228
*Step  = 49
*Time  = 4.15
*Data  = x;y;z
1,-3.47220647804,3.71855584667,-6.92005528734
2,-5.486325235,-5.36454379,-37.858426675
16,-3.75242505735,3.72075816399,-6.90118061719
17,-5.01312476188,-4.96381620783,-33.4515247742
*Step  = 50
*Time  = 4.2
*Data  = x;y;z
1,-3.42070690189,3.62559408898,-6.89849603351
2,-5.486325235,-5.36454379,-37.858426675
16,-3.75183004435,3.62817002373,-6.87611867696
17,-5.01197798706,-4.96631684242,-33.4403847268
*Step  = 51
*Time  = 4.25
*Data  = x;y;z
1,-3.36971770777,3.53130363418,-6.8768247968
2,-5.486325235,-5.36454379,-37.858426675
16,-3.75126870895,3.53423922477,-6.850954206
17,-5.01083814253,-4.96907521317,-33.4292872078
*Step  = 52
*Time  = 4.3
*Data  = x;y;z
1,-3.31826176643,3.43447147465,-6.8543691323
2,-5.486325235,-5.36454379,-37.858426675
16,-3.75064078337,3.43775918368,-6.82495650656
17,-5.00963045816,-4.97198162862,-33.4175451306
*Step  = 53
*Time  = 4.35
*Data  = x;y;z
1,-3.26899368068,3.33763926937,-6.83280000149
2,-5.486325235,-5.36454379,-37.858426675
16,-3.75011834057,3.34125315866,-6.79996032126
17,-5.00851208887,-4.97507116663,-33.4066332285
*Step  = 54
*Time  = 4.4
*Data  = x;y;z
1,-3.2208225221,3.23809160437,-6.81050852396
2,-5.486325235,-5.36454379,-37.858426675
16,-3.74952885507,3.24201181803,-6.77432618614
17,-5.00733320481,-4.97830288194,-33.3951497059
*Step  = 55
*Time  = 4.45
*Data  = x;y;z
1,-3.17062150249,3.13609499583,-6.7885519542
2,-5.486325235,-5.36454379,-37.858426675
16,-3.74896442045,3.14032662665,-6.74885842127
17,-5.00617231079,-4.98161580541,-33.383839173
*Step  = 56
*Time  = 4.5
*Data  = x;y;z
1,-3.11273983049,3.03017075157,-6.76485393368
2,-5.486325235,-5.36454379,-37.858426675
16,-3.74821489828,3.03475763557,-6.72106850947
17,-5.00478413785,-4.98479279223,-33.3704166846
*Step  = 57
*Time  = 4.55
*Data  = x;y;z
1,-3.05551849623,2.92164235247,-6.74144418567
2,-5.486325235,-5.36454379,-37.858426675
16,-3.74746765135,2.92656787039,-6.69360547401
17,-5.00341660553,-4.98803700647,-33.3571965062
*Step  = 58
*Time  = 4.6
*Data  = x;y;z
1,-2.99578625988,2.81082478808,-6.71798667985
2,-5.486325235,-5.36454379,-37.858426675
16,-3.74669438357,2.81609369919,-6.66589078792
17,-5.00201471292,-4.99134849179,-33.34366037
*Step  = 59
*Time  = 4.65
*Data  = x;y;z
1,-2.93360012722,2.69606291722,-6.69423665665
2,-5.486325235,-5.36454379,-37.858426675
16,-3.74587352007,2.70167937519,-6.63766626797
17,-5.00056201359,-4.9946584457,-33.3296613488
*Step  = 60
*Time  = 4.7
*Data  = x;y;z
1,-2.87253413755,2.57851488729,-6.67093904496
2,-5.486325235,-5.36454379,-37.858426675
16,-3.74510667258,2.58445826698,-6.60993937089
17,-4.99914923851,-4.99804973509,-33.3160440773
*Step  = 61
*Time  = 4.75
*Data  = x;y;z
1,-2.80932342341,2.45722594012,-6.64772145724
2,-5.486325235,-5.36454379,-37.858426675
16,-3.74429741119,2.46349680631,-6.5821718741
17,-4.99771542561,-5.00148973206,-33.3022403596
*Step  = 62
*Time  = 4.8
*Data  = x;y;z
1,-2.74084107888,2.33267727291,-6.62404679942
2,-5.486325235,-5.36454379,-37.858426675
16,-3.74339408841,2.33929620453,-6.55350216665
17,-4.99618054924,-5.00489496134,-33.2875053538
*Step  = 63
*Time  = 4.85
*Data  = x;y;z
1,-2.67378489036,2.20401036598,-6.6009484802
2,-5.486325235,-5.36454379,-37.858426675
16,-3.74254522214,2.21095555583,-6.52550467279
17,-4.99469668078,-5.00829697193,-33.2732647048
*Step  = 64
*Time  = 4.9
*Data  = x;y;z
1,-2.60338191039,2.07083366683,-6.57788949851
2,-5.486325235,-5.36454379,-37.858426675
16,-3.7416659939,2.0781104664,-6.49728123781
17,-4.99318438367,-5.01177489752,-33.258765484
*Step  = 65
*Time  = 4.95
*Data  = x;y;z
1,-2.5363462674,1.93490159882,-6.55603391783
2,-5.486325235,-5.36454379,-37.858426675
16,-3.7409108586,1.9424744407,-6.47048431675
17,-4.99179479769,-5.01537260859,-33.2454231957
*Step  = 66
*Time  = 4.99999
*Data  = x;y;z
1,-2.64515635483,2.02106788476,-6.58857711697
2,-5.486325235,-5.36454379,-37.858426675
16,-3.74402093739,2.02801943682,-6.51086773712
17,-4.99523863242,-5.0161131456,-33.2776851874
