*Step  = 1
*Time  = 1e-05
*Data  = x;y;z
1,-3.55338073586,3.36890270824,-11.2010863663
2,-5.486325235,-5.36454379,-37.858426675
15,-3.97978429725,3.38738633471,-11.1727023589
16,-5.4775914501,-5.35826433074,-37.7769611292
*Step  = 2
*Time  = 1.8453091e-05
*Data  = x;y;z
1,-3.48407987737,3.3421132691,-11.1691841201
2,-5.486325235,-5.36454379,-37.858426675
15,-3.97728802739,3.36348850784,-11.1362835338
16,-5.47399997279,-5.35569136762,-37.7434570161
*Step  = 3
*Time  = 6.0718546e-05
*Data  = x;y;z
1,-3.45365265635,3.33080086437,-11.1531011456
2,-5.486325235,-5.36454379,-37.858426675
15,-3.97598065438,3.35343485303,-11.1182239255
16,-5.47220945845,-5.35441192578,-37.7267522222
*Step  = 4
*Time  = 0.000272045821
*Data  = x;y;z
1,-3.44022013134,3.32491106629,-11.1433429563
2,-5.486325235,-5.36454379,-37.858426675
15,-3.97520708221,3.34808888208,-11.1076119856
16,-5.47114955098,-5.35365547654,-37.7168632942
*Step  = 5
*Time  = 0.0013286822
*Data  = x;y;z
1,-3.43163883024,3.32074083282,-11.1333441485
2,-5.486325235,-5.36454379,-37.858426675
15,-3.97449768677,3.34424337529,-11.0970872218
16,-5.47007446981,-5.35288657786,-37.7068335319
*Step  = 6
*Time  = 0.00661186407
*Data  = x;y;z
1,-3.4347928911,3.31419857687,-11.1061575031
2,-5.486325235,-5.36454379,-37.858426675
15,-3.97291883583,3.33742040247,-11.0702455309
16,-5.46726545734,-5.35086988829,-37.6806308689
*Step  = 7
*Time  = 0.0330277735
*Data  = x;y;z
1,-3.46520022771,3.28578845716,-10.9896651581
2,-5.486325235,-5.36454379,-37.858426675
15,-3.96684754831,3.30708628305,-10.9563304008
16,-5.45531199594,-5.34226607164,-37.5691381349
*Step  = 8
*Time  = 0.05
*Data  = x;y;z
1,-3.5012766167,3.27275726449,-10.9283129052
2,-5.486325235,-5.36454379,-37.858426675
15,-3.9641196318,3.29220142052,-10.8977076517
16,-5.44911272003,-5.33778834991,-37.5113229483
*Step  = 9
*Time  = 0.1
*Data  = x;y;z
1,-3.58526422558,3.20070022829,-10.7350992528
2,-5.486325235,-5.36454379,-37.858426675
15,-3.95600957211,3.21579142641,-10.7108842643
16,-5.4296877823,-5.32373792431,-37.3301715223
*Step  = 10
*Time  = 0.15
*Data  = x;y;z
1,-3.72423004711,3.13082511167,-10.5562580272
2,-5.486325235,-5.36454379,-37.858426675
15,-3.94924997523,3.13969424848,-10.541815829
16,-5.41209981885,-5.31096081613,-37.1661728682
*Step  = 11
*Time  = 0.2
*Data  = x;y;z
1,-3.85000839374,3.09754574305,-10.4831435284
2,-5.486325235,-5.36454379,-37.858426675
15,-3.9475416954,3.10132864457,-10.4769679623
16,-5.40534434518,-5.30601800907,-37.1031951057
*Step  = 12
*Time  = 0.25
*Data  = x;y;z
1,-3.9845082469,3.00543572577,-10.317795055
2,-5.486325235,-5.36454379,-37.858426675
15,-3.9423489499,3.00385322691,-10.3204138021
16,-5.38928612581,-5.2943064385,-36.9534750913
*Step  = 13
*Time  = 0.3
*Data  = x;y;z
1,-4.0814861534,2.91374808915,-10.1477514726
2,-5.486325235,-5.36454379,-37.858426675
15,-3.9362139085,2.90847371095,-10.1566731849
16,-5.37253021661,-5.28204545173,-36.7972624691
*Step  = 14
*Time  = 0.35
*Data  = x;y;z
1,-4.14630633723,2.81738333458,-9.96697887014
2,-5.486325235,-5.36454379,-37.858426675
15,-3.92870205541,2.80974777189,-9.98024107881
16,-5.35449377928,-5.26881229996,-36.6291205673
*Step  = 15
*Time  = 0.4
*Data  = x;y;z
1,-4.18891302572,2.71213477047,-9.77374453997
2,-5.486325235,-5.36454379,-37.858426675
15,-3.91962244515,2.70301049477,-9.78997694272
16,-5.3350165435,-5.254481678,-36.4475566719
*Step  = 16
*Time  = 0.45
*Data  = x;y;z
1,-4.23236782291,2.59914686475,-9.57264583361
2,-5.486325235,-5.36454379,-37.858426675
15,-3.90955970033,2.58859343879,-9.5918374229
16,-5.31473761726,-5.23950821555,-36.2585319873
*Step  = 17
*Time  = 0.5
*Data  = x;y;z
1,-4.25879045327,2.54600403211,-9.46887882028
2,-5.486325235,-5.36454379,-37.858426675
15,-3.90390295611,2.53460975503,-9.48983881234
16,-5.3042425381,-5.2316782878,-36.1607300005
*Step  = 18
*Time  = 0.55
*Data  = x;y;z
1,-4.31003820444,2.42025025723,-9.26720142628
2,-5.486325235,-5.36454379,-37.858426675
15,-3.89361037086,2.40736506506,-9.29142863333
16,-5.28403591626,-5.21664628166,-35.9724046415
*Step  = 19
*Time  = 0.6
*Data  = x;y;z
1,-4.37260390448,2.29041994345,-9.0619658631
2,-5.486325235,-5.36454379,-37.858426675
15,-3.88273968645,2.27582325969,-9.08998831862
16,-5.26352641907,-5.20130577299,-35.7812740498
*Step  = 20
*Time  = 0.65
*Data  = x;y;z
1,-4.42103776576,2.15542987094,-8.85073137263
2,-5.486325235,-5.36454379,-37.858426675
15,-3.87084460754,2.13965437559,-8.88171744938
16,-5.24234495286,-5.1853789876,-35.5838973122
*Step  = 21
*Time  = 0.7
*Data  = x;y;z
1,-4.48200455118,2.01312143447,-8.63764600523
2,-5.486325235,-5.36454379,-37.858426675
15,-3.85858852198,1.99593523293,-8.67212279772
16,-5.22106804284,-5.16927833269,-35.3856499349
*Step  = 22
*Time  = 0.75
*Data  = x;y;z
1,-4.53100420475,1.86724823712,-8.42281803199
2,-5.486325235,-5.36454379,-37.858426675
15,-3.84579541161,1.84910140101,-8.46005152698
16,-5.19956870296,-5.1529033396,-35.185346944
*Step  = 23
*Time  = 0.8
*Data  = x;y;z
1,-4.55805964746,1.79727357564,-8.31304211763
2,-5.486325235,-5.36454379,-37.858426675
15,-3.83890850265,1.77860944599,-8.35182780457
16,-5.18855683798,-5.14433117123,-35.0828005587
*Step  = 24
*Time  = 0.85
*Data  = x;y;z
1,-4.59791611522,1.64489731189,-8.09905801286
2,-5.486325235,-5.36454379,-37.858426675
15,-3.82555045488,1.62566654006,-8.13985297286
16,-5.16710920841,-5.12783563343,-34.8830001455
*Step  = 25
*Time  = 0.9
*Data  = x;y;z
1,-4.65053093223,1.48588011777,-7.88368572645
2,-5.486325235,-5.36454379,-37.858426675
15,-3.81189655592,1.46586409419,-7.92699507938
16,-5.14562720654,-5.11119097395,-34.6828950882
*Step  = 26
*Time  = 0.95
*Data  = x;y;z
1,-4.70335659465,1.32253113714,-7.66838708381
2,-5.486325235,-5.36454379,-37.858426675
15,-3.79783385889,1.30182919526,-7.7140396364
16,-5.12417317622,-5.09443802459,-34.4830674943
*Step  = 27
*Time  = 1
*Data  = x;y;z
1,-4.69770822417,1.32815758194,-7.66229278109
2,-5.486325235,-5.36454379,-37.858426675
15,-3.79710571465,1.30756033411,-7.7079393895
16,-5.12349009901,-5.09349384802,-34.4768135026
*Step  = 28
*Time  = 1.03
*Data  = x;y;z
1,-4.53439933564,1.92808926303,-7.93578807373
2,-5.486325235,-5.36454379,-37.858426675
15,-3.81282428816,1.91156917237,-7.97849291834
16,-5.14827396132,-5.11102113663,-34.7079951368
*Step  = 29
*Time  = 1.06
*Data  = x;y;z
1,-4.41881419131,2.39696682785,-8.12950143787
2,-5.486325235,-5.36454379,-37.858426675
15,-3.82422466385,2.38333683687,-8.16924522766
16,-5.16554505133,-5.12301262603,-34.8691324491
*Step  = 30
*Time  = 1.09
*Data  = x;y;z
1,-4.34053063485,2.62339968983,-8.19323037644
2,-5.486325235,-5.36454379,-37.858426675
15,-3.82520440531,2.61157177409,-8.22866451995
16,-5.1699856287,-5.12552162095,-34.9107099367
*Step  = 31
*Time  = 1.12
*Data  = x;y;z
1,-4.2758393672,2.74246261236,-8.21277311064
2,-5.486325235,-5.36454379,-37.858426675
15,-3.8239039482,2.73207788659,-8.24417792825
16,-5.17052643225,-5.12519651399,-34.9159277067
*Step  = 32
*Time  = 1.15
*Data  = x;y;z
1,-4.22415709538,2.84205533417,-8.23037845238
2,-5.486325235,-5.36454379,-37.858426675
15,-3.82282817135,2.83282332109,-8.25847688459
16,-5.17107749247,-5.12491130999,-34.921235887
*Step  = 33
*Time  = 1.18
*Data  = x;y;z
1,-4.18347598509,2.93450435661,-8.2504730436
2,-5.486325235,-5.36454379,-37.858426675
15,-3.82224552858,2.92618555692,-8.27589287673
16,-5.17199086428,-5.12490432004,-34.9299194022
*Step  = 34
*Time  = 1.21
*Data  = x;y;z
1,-4.14578478845,3.02583495309,-8.27103747107
2,-5.486325235,-5.36454379,-37.858426675
15,-3.8215794269,3.01836030463,-8.29391122048
16,-5.1729346664,-5.12490915202,-34.938892924
*Step  = 35
*Time  = 1.24
*Data  = x;y;z
1,-4.11457056926,3.11950635915,-8.29495402422
2,-5.486325235,-5.36454379,-37.858426675
15,-3.82120541979,3.11273444513,-8.31567593194
16,-5.17421855015,-5.12512513188,-34.9510478821
*Step  = 36
*Time  = 1.27
*Data  = x;y;z
1,-4.09072235737,3.1881456104,-8.30688795765
2,-5.486325235,-5.36454379,-37.858426675
15,-3.82033256745,3.18189697349,-8.32602761514
16,-5.17454161597,-5.12466551166,-34.9542366438
*Step  = 37
*Time  = 1.3
*Data  = x;y;z
1,-4.06955714746,3.2503974917,-8.3191614239
2,-5.486325235,-5.36454379,-37.858426675
15,-3.81965031532,3.24461597525,-8.33687206172
16,-5.17496767225,-5.1243214058,-34.9583766195
*Step  = 38
*Time  = 1.33
*Data  = x;y;z
1,-4.04820819021,3.32955779913,-8.34201539306
2,-5.486325235,-5.36454379,-37.858426675
15,-3.81950584688,3.32426063039,-8.35820370992
16,-5.17629826031,-5.12462106846,-34.9709581487
*Step  = 39
*Time  = 1.36
*Data  = x;y;z
1,-4.03436504337,3.39290288754,-8.35576438534
2,-5.486325235,-5.36454379,-37.858426675
15,-3.81894249076,3.3879077176,-8.37101378189
16,-5.17689181444,-5.12438678841,-34.9766652196
*Step  = 40
*Time  = 1.39
*Data  = x;y;z
1,-4.01943950208,3.4421203221,-8.36445371005
2,-5.486325235,-5.36454379,-37.858426675
15,-3.81825377553,3.43745047809,-8.37870591736
16,-5.17709321031,-5.12390607867,-34.9787049576
*Step  = 41
*Time  = 1.42
*Data  = x;y;z
1,-4.01598499761,3.49497093333,-8.37797541994
2,-5.486325235,-5.36454379,-37.858426675
15,-3.81799474897,3.49037047708,-8.39198944482
16,-5.17783062641,-5.12383645663,-34.9857398906
*Step  = 42
*Time  = 1.45
*Data  = x;y;z
1,-4.0157036439,3.54539229012,-8.39111992069
2,-5.486325235,-5.36454379,-37.858426675
15,-3.81774922138,3.54078789088,-8.40511146052
16,-5.17856332365,-5.1237669769,-34.9927311929
*Step  = 43
*Time  = 1.48
*Data  = x;y;z
1,-4.00928517086,3.60861303222,-8.41101487922
2,-5.486325235,-5.36454379,-37.858426675
15,-3.81774390393,3.60415288518,-8.42451630475
16,-5.17980572655,-5.12405824011,-35.0044805798
*Step  = 44
*Time  = 1.51
*Data  = x;y;z
1,-3.98744827157,3.65700659446,-8.4211738835
2,-5.486325235,-5.36454379,-37.858426675
15,-3.81712454159,3.65303641032,-8.43318067916
16,-5.18008808293,-5.12364054225,-35.0072769608
*Step  = 45
*Time  = 1.54
*Data  = x;y;z
1,-3.97875144826,3.69743724074,-8.4291394312
2,-5.486325235,-5.36454379,-37.858426675
15,-3.81659956344,3.69365395407,-8.4405684425
16,-5.18032282931,-5.12323847198,-35.0096167294
*Step  = 46
*Time  = 1.57
*Data  = x;y;z
1,-3.97084468404,3.74043963826,-8.44029209494
2,-5.486325235,-5.36454379,-37.858426675
15,-3.81629968392,3.73683043214,-8.45117328446
16,-5.18086016105,-5.12307934173,-35.0147739547
*Step  = 47
*Time  = 1.6
*Data  = x;y;z
1,-3.96432545598,3.78251752909,-8.45114642846
2,-5.486325235,-5.36454379,-37.858426675
15,-3.81600192973,3.77905040463,-8.46157810705
16,-5.18138416976,-5.12292032393,-35.0198048434
*Step  = 48
*Time  = 1.63
*Data  = x;y;z
1,-3.95705603573,3.83612452603,-8.46821801428
2,-5.486325235,-5.36454379,-37.858426675
15,-3.81594787664,3.83282274543,-8.47811632585
16,-5.18240892697,-5.1231118727,-35.0295118159
*Step  = 49
*Time  = 1.66
*Data  = x;y;z
1,-3.9519738162,3.87923357665,-8.47847478097
2,-5.486325235,-5.36454379,-37.858426675
15,-3.81555292877,3.87603847109,-8.48803250919
16,-5.18285873831,-5.12288775375,-35.0338548603
*Step  = 50
*Time  = 1.69
*Data  = x;y;z
1,-3.95546102729,3.91553597756,-8.48617503003
2,-5.486325235,-5.36454379,-37.858426675
15,-3.81516927964,3.91224724394,-8.49599662638
16,-5.18318074727,-5.12258494778,-35.0370019234
*Step  = 51
*Time  = 1.72
*Data  = x;y;z
1,-3.94427141894,3.95126876749,-8.49560767044
2,-5.486325235,-5.36454379,-37.858426675
15,-3.81486494066,3.94823259872,-8.50465915367
16,-5.18358179823,-5.12237274073,-35.0408779296
*Step  = 52
*Time  = 1.75
*Data  = x;y;z
1,-3.93875043538,3.9872501917,-8.50532829895
2,-5.486325235,-5.36454379,-37.858426675
15,-3.81461712911,3.98433527722,-8.51400067467
16,-5.1840495757,-5.12222284391,-35.0453732823
*Step  = 53
*Time  = 1.78
*Data  = x;y;z
1,-3.93371445224,4.0342055011,-8.520914559
2,-5.486325235,-5.36454379,-37.858426675
15,-3.8145930857,4.0314057005,-8.52921442936
16,-5.1849946201,-5.12241130753,-35.0543249087
*Step  = 54
*Time  = 1.81
*Data  = x;y;z
1,-3.92609213627,4.07157970743,-8.52976948646
2,-5.486325235,-5.36454379,-37.858426675
15,-3.81421447758,4.06894785059,-8.53755985891
16,-5.18533642082,-5.12214129,-35.0576529636
*Step  = 55
*Time  = 1.84
*Data  = x;y;z
1,-3.92127019766,4.10282172113,-8.53639520268
2,-5.486325235,-5.36454379,-37.858426675
15,-3.81380561644,4.10029161543,-8.54387492838
16,-5.18553651367,-5.12179601264,-35.0596521725
*Step  = 56
*Time  = 1.87
*Data  = x;y;z
1,-3.91960461624,4.13666214314,-8.54591346515
2,-5.486325235,-5.36454379,-37.858426675
15,-3.81360492697,4.1341645475,-8.55327955541
16,-5.18602653115,-5.12170031779,-35.0643468589
*Step  = 57
*Time  = 1.9
*Data  = x;y;z
1,-3.91596562943,4.16905311696,-8.55495353563
2,-5.486325235,-5.36454379,-37.858426675
15,-3.81338992537,4.16663428652,-8.56207326671
16,-5.18646893817,-5.12156755502,-35.0685980554
*Step  = 58
*Time  = 1.93
*Data  = x;y;z
1,-3.90819226661,4.21052866479,-8.56928563622
2,-5.486325235,-5.36454379,-37.858426675
15,-3.81340206794,4.20829156376,-8.57585207392
16,-5.18732584433,-5.12174647445,-35.0767137983
*Step  = 59
*Time  = 1.96
*Data  = x;y;z
1,-3.90663522938,4.22713642173,-8.56859869001
2,-5.486325235,-5.36454379,-37.858426675
15,-3.81273106525,4.22491868397,-8.57510871798
16,-5.18695581115,-5.12101117188,-35.0733882394
*Step  = 60
*Time  = 1.99
*Data  = x;y;z
1,-3.90721529489,4.21200961734,-8.55421564429
2,-5.486325235,-5.36454379,-37.858426675
15,-3.81176597786,4.20975459227,-8.56086066073
16,-5.18558904353,-5.11967679261,-35.0607263427
*Step  = 61
*Time  = 1.99999
*Data  = x;y;z
1,-3.90935381874,4.21330824367,-8.55507637901
2,-5.486325235,-5.36454379,-37.858426675
15,-3.81173693929,4.21100111821,-8.56187174067
16,-5.18561408522,-5.11945660516,-35.0610248706
*Step  = 1
*Time  = 2
*Data  = x;y;z
1,-3.90988060223,4.22037386562,-8.55934825436
2,-5.486325235,-5.36454379,-37.858426675
15,-3.81184251516,4.21805573177,-8.56616786536
16,-5.18590672565,-5.11941250804,-35.0638255678
*Step  = 2
*Time  = 2.00005
*Data  = x;y;z
1,-3.90897767577,4.2251890965,-8.56175375032
2,-5.486325235,-5.36454379,-37.858426675
15,-3.81182601365,4.22289071363,-8.56851167234
16,-5.1860218144,-5.11921557356,-35.0649759851
*Step  = 3
*Time  = 2.0003
*Data  = x;y;z
1,-3.9080930618,4.22955548361,-8.56454504958
2,-5.486325235,-5.36454379,-37.858426675
15,-3.81182557727,4.22727628303,-8.57124187625
16,-5.18618315281,-5.11905707108,-35.0665579782
*Step  = 4
*Time  = 2.00155
*Data  = x;y;z
1,-3.90699123916,4.23582522699,-8.57133124116
2,-5.486325235,-5.36454379,-37.858426675
15,-3.81198599317,4.23357152552,-8.57794081363
16,-5.18674325684,-5.11922189781,-35.0718580459
*Step  = 5
*Time  = 2.0078
*Data  = x;y;z
1,-3.90424611977,4.25378649521,-8.59864864852
2,-5.486325235,-5.36454379,-37.858426675
15,-3.81295071771,4.25160373128,-8.60500210849
16,-5.18932995714,-5.12102953164,-35.0960527158
*Step  = 6
*Time  = 2.03905
*Data  = x;y;z
1,-3.8863134966,4.32783578109,-8.72733767587
2,-5.486325235,-5.36454379,-37.858426675
15,-3.81771534391,4.32613455838,-8.73211803753
16,-5.201885935,-5.13094477156,-35.2131814728
*Step  = 7
*Time  = 2.05
*Data  = x;y;z
1,-3.88087303684,4.35311541656,-8.77437317918
2,-5.486325235,-5.36454379,-37.858426675
15,-3.81949687925,4.3515744205,-8.77864183192
16,-5.20650695797,-5.1347222426,-35.2562486
*Step  = 8
*Time  = 2.1
*Data  = x;y;z
1,-3.8566418843,4.46572587275,-8.97873967337
2,-5.486325235,-5.36454379,-37.858426675
15,-3.82692030883,4.46493778291,-8.98080905112
16,-5.22663938918,-5.15108287343,-35.4438760067
*Step  = 9
*Time  = 2.15
*Data  = x;y;z
1,-3.81878610384,4.56962735093,-9.18386716452
2,-5.486325235,-5.36454379,-37.858426675
15,-3.83434320151,4.57006151767,-9.18278479489
16,-5.24694264969,-5.16793435495,-35.6329333113
*Step  = 10
*Time  = 2.2
*Data  = x;y;z
1,-3.80138903541,4.61671178654,-9.28723403763
2,-5.486325235,-5.36454379,-37.858426675
15,-3.83816602601,4.61776330785,-9.28468025514
16,-5.2573292721,-5.17679462874,-35.7295507898
*Step  = 11
*Time  = 2.25
*Data  = x;y;z
1,-3.7731156783,4.71312106226,-9.4895144591
2,-5.486325235,-5.36454379,-37.858426675
15,-3.84507259318,4.7152784969,-9.48452344605
16,-5.27747953208,-5.19342970045,-35.9171238812
*Step  = 12
*Time  = 2.3
*Data  = x;y;z
1,-3.7425333711,4.80368018178,-9.69149604221
2,-5.486325235,-5.36454379,-37.858426675
15,-3.85186347436,4.80710894441,-9.68393140407
16,-5.29770850447,-5.21024918203,-36.1053306732
*Step  = 13
*Time  = 2.35
*Data  = x;y;z
1,-3.70283205596,4.88831141458,-9.89184619609
2,-5.486325235,-5.36454379,-37.858426675
15,-3.85839593881,4.89340420582,-9.88110376902
16,-5.31777783757,-5.2268925343,-36.2920080738
*Step  = 14
*Time  = 2.4
*Data  = x;y;z
1,-3.67227981373,4.96782778239,-10.0898103325
2,-5.486325235,-5.36454379,-37.858426675
15,-3.86469171826,4.97439050183,-10.0765561037
16,-5.33774818793,-5.24343736979,-36.4777132271
*Step  = 15
*Time  = 2.45
*Data  = x;y;z
1,-3.63372793769,5.04309681262,-10.2865671614
2,-5.486325235,-5.36454379,-37.858426675
15,-3.87078851268,5.05150638479,-10.2702614999
16,-5.35760226139,-5.25983265169,-36.6622993538
*Step  = 16
*Time  = 2.5
*Data  = x;y;z
1,-3.60468583843,5.07375018509,-10.3835616532
2,-5.486325235,-5.36454379,-37.858426675
15,-3.87388016798,5.08348095889,-10.3650689964
16,-5.36746428793,-5.26804665231,-36.7539400109
*Step  = 17
*Time  = 2.55
*Data  = x;y;z
1,-3.57623087368,5.14315037582,-10.5761455797
2,-5.486325235,-5.36454379,-37.858426675
15,-3.87946620666,5.15452463661,-10.5553746439
16,-5.38701777676,-5.28408550824,-36.9356936893
*Step  = 18
*Time  = 2.6
*Data  = x;y;z
1,-3.53786796688,5.19006287676,-10.7554295074
2,-5.486325235,-5.36454379,-37.858426675
15,-3.88449757766,5.2035234374,-10.7318704358
16,-5.40559378891,-5.29949532779,-37.1082459016
*Step  = 19
*Time  = 2.65
*Data  = x;y;z
1,-3.5036368551,5.21592691651,-10.9189965293
2,-5.486325235,-5.36454379,-37.858426675
15,-3.88908587646,5.23138237326,-10.8931510025
16,-5.42316260837,-5.31418254639,-37.2713468425
*Step  = 20
*Time  = 2.7
*Data  = x;y;z
1,-3.47787603247,5.22688628352,-11.0712109242
2,-5.486325235,-5.36454379,-37.858426675
15,-3.89357167352,5.24405847229,-11.0438080001
16,-5.44007633042,-5.32819558926,-37.4283715757
*Step  = 21
*Time  = 2.75
*Data  = x;y;z
1,-3.46986090486,5.22756429235,-11.214012918
2,-5.486325235,-5.36454379,-37.858426675
15,-3.89791650091,5.2457468328,-11.1864222379
16,-5.45642401464,-5.34144228532,-37.5802305618
*Step  = 22
*Time  = 2.8
*Data  = x;y;z
1,-3.45739303326,5.21476199463,-11.2747030911
2,-5.486325235,-5.36454379,-37.858426675
15,-3.90010133124,5.23380166907,-11.2465508908
16,-5.46398076563,-5.34751951515,-37.650436234
*Step  = 23
*Time  = 2.85
*Data  = x;y;z
1,-3.47363989528,5.20833479353,-11.4091673444
2,-5.486325235,-5.36454379,-37.858426675
15,-3.90377751095,5.22732366262,-11.382756906
16,-5.47939407443,-5.35934231545,-37.7938758257
*Step  = 24
*Time  = 2.9
*Data  = x;y;z
1,-3.49501464347,5.18927000791,-11.5329839336
2,-5.486325235,-5.36454379,-37.858426675
15,-3.90708135865,5.20791412452,-11.5087454732
16,-5.4937241138,-5.37001463697,-37.9273694207
*Step  = 25
*Time  = 2.95
*Data  = x;y;z
1,-3.4968635966,5.16061439531,-11.6485894441
2,-5.486325235,-5.36454379,-37.858426675
15,-3.9107059257,5.17976904549,-11.6252208362
16,-5.50733664368,-5.3798164911,-38.0543343878
*Step  = 26
*Time  = 3
*Data  = x;y;z
1,-3.46466626775,5.14755233488,-11.6343781357
2,-5.486325235,-5.36454379,-37.858426675
15,-3.91047230214,5.16816254502,-11.6091950287
16,-5.50640656199,-5.37902578611,-38.0457180847
*Step  = 27
*Time  = 3.05
*Data  = x;y;z
1,-3.42316134954,5.17346975196,-11.439395835
2,-5.486325235,-5.36454379,-37.858426675
15,-3.9054126991,5.19494129744,-11.4104193903
16,-5.48517394667,-5.36370747583,-37.8476918183
*Step  = 28
*Time  = 3.1
*Data  = x;y;z
1,-3.4392168911,5.19799949668,-11.2422834271
2,-5.486325235,-5.36454379,-37.858426675
15,-3.90122067233,5.21774363119,-11.212892697
16,-5.46380025101,-5.34800616631,-37.6484742469
*Step  = 29
*Time  = 3.15
*Data  = x;y;z
1,-3.47685212524,5.20514933986,-11.1058776913
2,-5.486325235,-5.36454379,-37.858426675
15,-3.89784647693,5.2226393953,-11.0783976276
16,-5.44866604681,-5.33652324977,-37.5075644484
*Step  = 30
*Time  = 3.2
*Data  = x;y;z
1,-3.51701909007,5.19054223812,-10.8849934546
2,-5.486325235,-5.36454379,-37.858426675
15,-3.8917755011,5.20542949345,-10.8598620809
16,-5.42412695172,-5.31725562878,-37.2793295238
*Step  = 31
*Time  = 3.25
*Data  = x;y;z
1,-3.57229045387,5.16298679173,-10.6562362268
2,-5.486325235,-5.36454379,-37.858426675
15,-3.88501128276,5.1748376394,-10.6348877878
16,-5.39865564799,-5.29622891772,-37.0427733759
*Step  = 32
*Time  = 3.3
*Data  = x;y;z
1,-3.61413433267,5.10143070354,-10.4061581339
2,-5.486325235,-5.36454379,-37.858426675
15,-3.87738633814,5.11091034161,-10.3879866398
16,-5.37146302422,-5.27316039447,-36.7903661427
*Step  = 33
*Time  = 3.35
*Data  = x;y;z
1,-3.62886764185,5.02239091911,-10.2117832922
2,-5.486325235,-5.36454379,-37.858426675
15,-3.8705428223,5.03078086294,-10.1951299093
16,-5.35093155633,-5.25570517643,-36.5997374308
*Step  = 34
*Time  = 3.4
*Data  = x;y;z
1,-3.65857327627,4.89268410746,-9.91480622651
2,-5.486325235,-5.36454379,-37.858426675
15,-3.86091699516,4.89929765753,-9.90087365952
16,-5.32068012176,-5.23069220697,-36.3184742485
*Step  = 35
*Time  = 3.45
*Data  = x;y;z
1,-3.6837332273,4.75334923105,-9.61288152264
2,-5.486325235,-5.36454379,-37.858426675
15,-3.85075212858,4.75846712186,-9.6013529588
16,-5.2901169341,-5.20532017505,-36.034215824
*Step  = 36
*Time  = 3.5
*Data  = x;y;z
1,-3.7268305056,4.61036885689,-9.31050816921
2,-5.486325235,-5.36454379,-37.858426675
15,-3.8402012096,4.61361054338,-9.30266453544
16,-5.25972886348,-5.17991699114,-35.7515051984
*Step  = 37
*Time  = 3.55
*Data  = x;y;z
1,-3.77275306665,4.514622695,-9.10577824582
2,-5.486325235,-5.36454379,-37.858426675
15,-3.83246739781,4.51624934819,-9.10163915678
16,-5.23917005685,-5.1622915699,-35.5602986865
*Step  = 38
*Time  = 3.6
*Data  = x;y;z
1,-3.81586604854,4.35780883034,-8.80314194697
2,-5.486325235,-5.36454379,-37.858426675
15,-3.821130751,4.35794143116,-8.80277650925
16,-5.20893228837,-5.13657273081,-35.2788674802
*Step  = 39
*Time  = 3.65
*Data  = x;y;z
1,-3.86305931633,4.19430049537,-8.49914514289
2,-5.486325235,-5.36454379,-37.858426675
15,-3.80896718446,4.19304869869,-8.50290062428
16,-5.17859620089,-5.11026122075,-34.9965042964
*Step  = 40
*Time  = 3.7
*Data  = x;y;z
1,-3.91331722172,4.02644491744,-8.1961140158
2,-5.486325235,-5.36454379,-37.858426675
15,-3.79609262988,4.02397006609,-8.20424992388
16,-5.14837743578,-5.08335250698,-34.7152324626
*Step  = 41
*Time  = 3.75
*Data  = x;y;z
1,-3.95900200709,3.91053098386,-7.99152017759
2,-5.486325235,-5.36454379,-37.858426675
15,-3.78661482602,3.90711911526,-8.00346638384
16,-5.1279038572,-5.06392876629,-34.5248512666
*Step  = 42
*Time  = 3.8
*Data  = x;y;z
1,-4.00469613092,3.72312507111,-7.68738021165
2,-5.486325235,-5.36454379,-37.858426675
15,-3.7722195471,3.71898975378,-7.70339714951
16,-5.09768771229,-5.03573961159,-34.243552044
*Step  = 43
*Time  = 3.85
*Data  = x;y;z
1,-4.05580237853,3.52461822147,-7.37884045768
2,-5.486325235,-5.36454379,-37.858426675
15,-3.75634943418,3.51988327102,-7.39925194943
16,-5.06712761253,-5.00641355417,-33.9590111083
*Step  = 44
*Time  = 3.9
*Data  = x;y;z
1,-4.10192491434,3.31839282757,-7.06950296719
2,-5.486325235,-5.36454379,-37.858426675
15,-3.73928479921,3.31336362587,-7.09388284564
16,-5.03654556591,-4.97620723746,-33.6741899045
*Step  = 45
*Time  = 3.95
*Data  = x;y;z
1,-4.13728145129,3.1751510314,-6.85758519236
2,-5.486325235,-5.36454379,-37.858426675
15,-3.7265549703,3.16996925561,-6.88491351459
16,-5.01557631451,-4.95405680899,-33.47903027
*Step  = 46
*Time  = 4
*Data  = x;y;z
1,-4.13608055435,3.17759770026,-6.85085674967
2,-5.486325235,-5.36454379,-37.858426675
15,-3.72528381322,3.17238590351,-6.87829750905
16,-5.0145708169,-4.95009904402,-33.4702239767
*Step  = 47
*Time  = 4.05
*Data  = x;y;z
1,-4.03625048773,3.02249834954,-6.80200432567
2,-5.486325235,-5.36454379,-37.858426675
15,-3.72307434691,3.01854812314,-6.82309140108
16,-5.01094320294,-4.95011082046,-33.4358565908
*Step  = 48
*Time  = 4.1
*Data  = x;y;z
1,-3.97863701212,2.89147541704,-6.77376265685
2,-5.486325235,-5.36454379,-37.858426675
15,-3.72273838447,2.88826818994,-6.79105745015
16,-5.00943397914,-4.95228105097,-33.421171686
*Step  = 49
*Time  = 4.15
*Data  = x;y;z
1,-3.93055350549,2.76235573192,-6.75026412366
2,-5.486325235,-5.36454379,-37.858426675
15,-3.72287103532,2.75977026507,-6.76433261089
16,-5.00842573429,-4.95506069844,-33.4111326602
*Step  = 50
*Time  = 4.2
*Data  = x;y;z
1,-3.89120524544,2.63330916948,-6.72902775673
2,-5.486325235,-5.36454379,-37.858426675
15,-3.72321387452,2.63123224148,-6.74041747737
16,-5.00766483787,-4.95814058575,-33.4033965432
*Step  = 51
*Time  = 4.25
*Data  = x;y;z
1,-3.84840615096,2.50263103501,-6.70881153085
2,-5.486325235,-5.36454379,-37.858426675
15,-3.7236345283,2.50109917525,-6.71728219194
16,-5.00696984779,-4.96129264767,-33.3962806871
*Step  = 52
*Time  = 4.3
*Data  = x;y;z
1,-3.80406359989,2.36817977218,-6.68891150472
2,-5.486325235,-5.36454379,-37.858426675
15,-3.72408651467,2.3672048393,-6.69434417636
16,-5.00629005157,-4.96451669786,-33.389308121
*Step  = 53
*Time  = 4.35
*Data  = x;y;z
1,-3.75526204503,2.22943399253,-6.67101920787
2,-5.486325235,-5.36454379,-37.858426675
15,-3.72475272567,2.22906470937,-6.6730936289
16,-5.00579459001,-4.96786049847,-33.3840662042
*Step  = 54
*Time  = 4.4
*Data  = x;y;z
1,-3.71148981326,2.08916373749,-6.65445867682
2,-5.486325235,-5.36454379,-37.858426675
15,-3.72551890178,2.08933235236,-6.6535055668
16,-5.00542396606,-4.97126158028,-33.3800081691
*Step  = 55
*Time  = 4.45
*Data  = x;y;z
1,-3.67079660638,1.9458254215,-6.64010606535
2,-5.486325235,-5.36454379,-37.858426675
15,-3.72649843327,1.94649023585,-6.63632715525
16,-5.00528727728,-4.97481261573,-33.3781480446
*Step  = 56
*Time  = 4.5
*Data  = x;y;z
1,-3.63911243793,1.79844062223,-6.62894376516
2,-5.486325235,-5.36454379,-37.858426675
15,-3.72788261821,1.79949304332,-6.62293383541
16,-5.00553561016,-4.97850110551,-33.3799094027
*Step  = 57
*Time  = 4.55
*Data  = x;y;z
1,-3.59530760452,1.64468808062,-6.61791454829
2,-5.486325235,-5.36454379,-37.858426675
15,-3.72923552591,1.64626547073,-6.60886561135
16,-5.00572757416,-4.98206411129,-33.3811664057
*Step  = 58
*Time  = 4.6
*Data  = x;y;z
1,-3.56089559797,1.48504659562,-6.6108137119
2,-5.486325235,-5.36454379,-37.858426675
15,-3.7310637,1.48703827329,-6.59935707999
16,-5.00639415896,-4.98583538037,-33.3868805146
*Step  = 59
*Time  = 4.65
*Data  = x;y;z
1,-3.53741981338,1.32049166078,-6.60778438048
2,-5.486325235,-5.36454379,-37.858426675
15,-3.7333701992,1.32277171862,-6.59465342889
16,-5.00755577698,-4.98976250416,-33.3972509916
*Step  = 60
*Time  = 4.7
*Data  = x;y;z
1,-3.50975974149,1.14558507058,-6.60812986797
2,-5.486325235,-5.36454379,-37.858426675
15,-3.73608719601,1.1482042692,-6.5930446483
16,-5.0090889569,-4.99375838513,-33.4111224475
*Step  = 61
*Time  = 4.75
*Data  = x;y;z
1,-3.49996365387,0.961910704976,-6.61579268479
2,-5.486325235,-5.36454379,-37.858426675
15,-3.7397343197,0.964672013435,-6.59992567042
16,-5.01154152908,-4.99814864644,-33.4336147241
*Step  = 62
*Time  = 4.8
*Data  = x;y;z
1,-3.50043069631,0.763358402325,-6.63142878327
2,-5.486325235,-5.36454379,-37.858426675
15,-3.74438396886,0.766156253157,-6.61544927342
16,-5.01497482961,-5.00291287342,-33.4653092672
*Step  = 63
*Time  = 4.85
*Data  = x;y;z
1,-3.50316443447,0.554405455176,-6.65219232795
2,-5.486325235,-5.36454379,-37.858426675
15,-3.74967536646,0.557223118517,-6.63620544474
16,-5.01902724878,-5.00774331889,-33.5028358888
*Step  = 64
*Time  = 4.9
*Data  = x;y;z
1,-3.51742236807,0.339976454492,-6.67816169705
2,-5.486325235,-5.36454379,-37.858426675
15,-3.75561654231,0.342691702311,-6.66288612722
16,-5.02371894986,-5.01270251449,-33.5463747357
*Step  = 65
*Time  = 4.95
*Data  = x;y;z
1,-3.53155554054,0.135014381998,-6.70223715232
2,-5.486325235,-5.36454379,-37.858426675
15,-3.76122297519,0.137625905198,-6.68766357105
16,-5.02810356194,-5.01730759021,-33.587067701
*Step  = 66
*Time  = 4.99999
*Data  = x;y;z
1,-3.5847796815,0.345598838783,-6.66593636581
2,-5.486325235,-5.36454379,-37.858426675
15,-3.75503509504,0.347537977565,-6.65486448625
16,-5.02297747396,-5.0125728328,-33.5393875263
