*Step  = 1
*Time  = 1e-05
*Data  = x;y;z
1,-3.55338073586,3.36890270824,-11.2010863663
2,-5.486325235,-5.36454379,-37.858426675
15,-3.97978429725,3.38738633471,-11.1727023589
16,-5.4775914501,-5.35826433074,-37.7769611292
*Step  = 2
*Time  = 1.8453091e-05
*Data  = x;y;z
1,-3.48407987737,3.34211326909,-11.1691841201
2,-5.486325235,-5.36454379,-37.858426675
15,-3.97728802739,3.36348850784,-11.1362835338
16,-5.47399997279,-5.35569136762,-37.7434570161
*Step  = 3
*Time  = 6.0718546e-05
*Data  = x;y;z
1,-3.45365265635,3.33080086437,-11.1531011456
2,-5.486325235,-5.36454379,-37.858426675
15,-3.97598065438,3.35343485303,-11.1182239255
16,-5.47220945845,-5.35441192578,-37.7267522222
*Step  = 4
*Time  = 0.000272045821
*Data  = x;y;z
1,-3.44022013134,3.32491106629,-11.1433429563
2,-5.486325235,-5.36454379,-37.858426675
15,-3.97520708221,3.34808888209,-11.1076119856
16,-5.47114955098,-5.35365547654,-37.7168632942
*Step  = 5
*Time  = 0.0013286822
*Data  = x;y;z
1,-3.43163883024,3.32074083282,-11.1333441485
2,-5.486325235,-5.36454379,-37.858426675
15,-3.97449768677,3.34424337529,-11.0970872218
16,-5.47007446981,-5.35288657786,-37.7068335319
*Step  = 6
*Time  = 0.00661186407
*Data  = x;y;z
1,-3.4347928911,3.31419857687,-11.1061575031
2,-5.486325235,-5.36454379,-37.858426675
15,-3.97291883583,3.33742040247,-11.0702455309
16,-5.46726545734,-5.35086988829,-37.6806308689
*Step  = 7
*Time  = 0.0330277735
*Data  = x;y;z
1,-3.46520022771,3.28578845716,-10.9896651581
2,-5.486325235,-5.36454379,-37.858426675
15,-3.96684754831,3.30708628305,-10.9563304008
16,-5.45531199594,-5.34226607164,-37.5691381349
*Step  = 8
*Time  = 0.05
*Data  = x;y;z
1,-3.5012766167,3.27275726449,-10.9283129052
2,-5.486325235,-5.36454379,-37.858426675
15,-3.9641196318,3.29220142052,-10.8977076517
16,-5.44911272003,-5.33778834991,-37.5113229483
*Step  = 9
*Time  = 0.1
*Data  = x;y;z
1,-3.58526422558,3.20070022829,-10.7350992528
2,-5.486325235,-5.36454379,-37.858426675
15,-3.95600957211,3.21579142641,-10.7108842643
16,-5.4296877823,-5.32373792431,-37.3301715223
*Step  = 10
*Time  = 0.15
*Data  = x;y;z
1,-3.72423004711,3.13082511167,-10.5562580272
2,-5.486325235,-5.36454379,-37.858426675
15,-3.94924997523,3.13969424848,-10.541815829
16,-5.41209981885,-5.31096081613,-37.1661728682
*Step  = 11
*Time  = 0.2
*Data  = x;y;z
1,-3.85000839374,3.09754574306,-10.4831435284
2,-5.486325235,-5.36454379,-37.858426675
15,-3.9475416954,3.10132864457,-10.4769679623
16,-5.40534434518,-5.30601800907,-37.1031951057
*Step  = 12
*Time  = 0.25
*Data  = x;y;z
1,-3.98341185424,3.00560645297,-10.3175976552
2,-5.486325235,-5.36454379,-37.858426675
15,-3.94233468661,3.00406458779,-10.320150222
16,-5.38926050316,-5.29428747388,-36.9532362993
*Step  = 13
*Time  = 0.3
*Data  = x;y;z
1,-4.07964671989,2.91382332486,-10.1485320245
2,-5.486325235,-5.36454379,-37.858426675
15,-3.93630502651,2.90861918612,-10.1573417893
16,-5.37260885048,-5.28210297733,-36.7979955313
*Step  = 14
*Time  = 0.35
*Data  = x;y;z
1,-4.14562115843,2.81726616481,-9.96695085135
2,-5.486325235,-5.36454379,-37.858426675
15,-3.92871999742,2.80965564094,-9.98017306808
16,-5.35448985418,-5.26880944585,-36.6290839439
*Step  = 15
*Time  = 0.4
*Data  = x;y;z
1,-4.18920365778,2.71215893173,-9.77363927888
2,-5.486325235,-5.36454379,-37.858426675
15,-3.91964446199,2.70302598834,-9.78988836984
16,-5.33500747086,-5.25447472299,-36.447472149
*Step  = 16
*Time  = 0.45
*Data  = x;y;z
1,-4.30695270565,2.60243724718,-9.5957622589
2,-5.486325235,-5.36454379,-37.858426675
15,-3.91231824395,2.5895368624,-9.61910154456
16,-5.31758239459,-5.24158908925,-36.2850541826
*Step  = 17
*Time  = 0.5
*Data  = x;y;z
1,-4.29246463496,2.55201188237,-9.4815563627
2,-5.486325235,-5.36454379,-37.858426675
15,-3.90515570095,2.53957534274,-9.50438038464
16,-5.30572545762,-5.23276233474,-36.1745559415
*Step  = 18
*Time  = 0.55
*Data  = x;y;z
1,-4.32695481758,2.42262778571,-9.27245873861
2,-5.486325235,-5.36454379,-37.858426675
15,-3.89416135605,2.40923401617,-9.29761095197
16,-5.28466728355,-5.21710838276,-35.9782910536
*Step  = 19
*Time  = 0.6
*Data  = x;y;z
1,-4.37893881167,2.29195731476,-9.06347504573
2,-5.486325235,-5.36454379,-37.858426675
15,-3.88269959043,2.27716698899,-9.09189747467
16,-5.26372727699,-5.20144984633,-35.7831496786
*Step  = 20
*Time  = 0.65
*Data  = x;y;z
1,-4.42443888097,2.15641000466,-8.85201126604
2,-5.486325235,-5.36454379,-37.858426675
15,-3.87091485306,2.14053623118,-8.88317525527
16,-5.24248860246,-5.18548321274,-35.5852372154
*Step  = 21
*Time  = 0.7
*Data  = x;y;z
1,-4.48950595555,2.01088382952,-8.63731365786
2,-5.486325235,-5.36454379,-37.858426675
15,-3.85863540296,1.99348862647,-8.67218373975
16,-5.22109108809,-5.16929835977,-35.3858641119
*Step  = 22
*Time  = 0.75
*Data  = x;y;z
1,-4.53087850139,1.86673850422,-8.42257070083
2,-5.486325235,-5.36454379,-37.858426675
15,-3.84577892597,1.84859082974,-8.45982683555
16,-5.19955648697,-5.15289391616,-35.1852333071
*Step  = 23
*Time  = 0.8
*Data  = x;y;z
1,-4.55699340697,1.79683676344,-8.31261460069
2,-5.486325235,-5.36454379,-37.858426675
15,-3.83886331448,1.77819545395,-8.35137050012
16,-5.18851757396,-5.14429960669,-35.0824354317
*Step  = 24
*Time  = 0.85
*Data  = x;y;z
1,-4.59725629476,1.64521080517,-8.09919686494
2,-5.486325235,-5.36454379,-37.858426675
15,-3.8255609278,1.62599335506,-8.13997185674
16,-5.16712237972,-5.12784253394,-34.8831236341
*Step  = 25
*Time  = 0.9
*Data  = x;y;z
1,-4.64916786237,1.48548853966,-7.88341080237
2,-5.486325235,-5.36454379,-37.858426675
15,-3.81185127725,1.46550034949,-7.92665493047
16,-5.1455945484,-5.11116593787,-34.6825912347
*Step  = 26
*Time  = 0.95
*Data  = x;y;z
1,-4.70404037635,1.32182912615,-7.66790659462
2,-5.486325235,-5.36454379,-37.858426675
15,-3.79779074452,1.30110667007,-7.71360071301
16,-5.12413370449,-5.09440856718,-34.4826999647
*Step  = 27
*Time  = 1
*Data  = x;y;z
1,-4.6978021449,1.32782874804,-7.66213744037
2,-5.486325235,-5.36454379,-37.858426675
15,-3.79708442837,1.30722506514,-7.70779148541
16,-5.12347757186,-5.09348483238,-34.4766969844
*Step  = 28
*Time  = 1.03
*Data  = x;y;z
1,-4.42173192561,2.34705243628,-8.12451548516
2,-5.486325235,-5.36454379,-37.858426675
15,-3.82439113314,2.33336581394,-8.16370556249
16,-5.1652625122,-5.12329181211,-34.8663857095
*Step  = 29
*Time  = 1.06
*Data  = x;y;z
1,-4.31796494151,2.70611267605,-8.2313146058
2,-5.486325235,-5.36454379,-37.858426675
15,-3.82682374722,2.69484007739,-8.26502313238
16,-5.17309784271,-5.12804265258,-34.9396687479
*Step  = 30
*Time  = 1.09
*Data  = x;y;z
1,-4.22233572459,2.9171564431,-8.27424868388
2,-5.486325235,-5.36454379,-37.858426675
15,-3.8253865613,2.90803021311,-8.3018457474
16,-5.17500535416,-5.12839561663,-34.9577091967
*Step  = 31
*Time  = 1.12
*Data  = x;y;z
1,-4.15391651816,3.06484227771,-8.29793612807
2,-5.486325235,-5.36454379,-37.858426675
15,-3.82341400511,3.05723139161,-8.3210878968
16,-5.17555201703,-5.12779053853,-34.9630578544
*Step  = 32
*Time  = 1.15
*Data  = x;y;z
1,-4.10988017668,3.1879587911,-8.32143019769
2,-5.486325235,-5.36454379,-37.858426675
15,-3.82211972961,3.18132178737,-8.34165181369
16,-5.17640913477,-5.1274657113,-34.9712904514
*Step  = 33
*Time  = 1.18
*Data  = x;y;z
1,-4.0694696573,3.31890662618,-8.35273107647
2,-5.486325235,-5.36454379,-37.858426675
15,-3.82131895476,3.31317376689,-8.37016715046
16,-5.1779699541,-5.12763854372,-34.9860920331
*Step  = 34
*Time  = 1.21
*Data  = x;y;z
1,-4.03753447733,3.42478173569,-8.37380755606
2,-5.486325235,-5.36454379,-37.858426675
15,-3.82021140827,3.41975304503,-8.3890928726
16,-5.17875378069,-5.12725222981,-34.993646386
*Step  = 35
*Time  = 1.24
*Data  = x;y;z
1,-4.03175190809,3.51524782766,-8.39208134167
2,-5.486325235,-5.36454379,-37.858426675
15,-3.81950502029,3.51032927594,-8.40700126351
16,-5.17956499324,-5.12695312175,-35.0014376766
*Step  = 36
*Time  = 1.27
*Data  = x;y;z
1,-4.01410458485,3.59948847754,-8.4115707707
2,-5.486325235,-5.36454379,-37.858426675
15,-3.81865487053,3.59495260959,-8.4252905463
16,-5.18045701457,-5.12675399966,-35.0099811508
*Step  = 37
*Time  = 1.3
*Data  = x;y;z
1,-3.98988897314,3.67949815923,-8.4297467162
2,-5.486325235,-5.36454379,-37.858426675
15,-3.81790127503,3.67550128095,-8.44180409155
16,-5.18120177191,-5.12648223158,-35.0171391187
*Step  = 38
*Time  = 1.33
*Data  = x;y;z
1,-3.97409947163,3.76885203779,-8.45433672237
2,-5.486325235,-5.36454379,-37.858426675
15,-3.81752005572,3.76520803193,-8.46527938721
16,-5.18255533789,-5.12665747015,-35.02997686
*Step  = 39
*Time  = 1.36
*Data  = x;y;z
1,-3.9690439326,3.84548364002,-8.4718772654
2,-5.486325235,-5.36454379,-37.858426675
15,-3.81687748023,3.84193750137,-8.48249017943
16,-5.18338332367,-5.12646385416,-35.0379094658
*Step  = 40
*Time  = 1.39
*Data  = x;y;z
1,-3.95354878746,3.91010033979,-8.48518465088
2,-5.486325235,-5.36454379,-37.858426675
15,-3.81611053891,3.9068934526,-8.49476296442
16,-5.18382929483,-5.12604665381,-35.0422644813
*Step  = 41
*Time  = 1.42
*Data  = x;y;z
1,-3.94521041993,3.97499438739,-8.50128147866
2,-5.486325235,-5.36454379,-37.858426675
15,-3.81561055243,3.97196675855,-8.51029274556
16,-5.18460079181,-5.12591271621,-35.0496457563
*Step  = 42
*Time  = 1.45
*Data  = x;y;z
1,-3.93544074897,4.03763570284,-8.51682683626
2,-5.486325235,-5.36454379,-37.858426675
15,-3.81512500813,4.03482164313,-8.52517835674
16,-5.18532980134,-5.12575930531,-35.0566278523
*Step  = 43
*Time  = 1.48
*Data  = x;y;z
1,-3.92743708708,4.10951321521,-8.53775902465
2,-5.486325235,-5.36454379,-37.858426675
15,-3.81486530803,4.10687704206,-8.54554567855
16,-5.1865109199,-5.12593811081,-35.0678285306
*Step  = 44
*Time  = 1.51
*Data  = x;y;z
1,-3.91971796974,4.17063963472,-8.55255355519
2,-5.486325235,-5.36454379,-37.858426675
15,-3.81432763103,4.16816875581,-8.55982908542
16,-5.18717564189,-5.12574584336,-35.0742110459
*Step  = 45
*Time  = 1.54
*Data  = x;y;z
1,-3.91375452419,4.2239821658,-8.56476505964
2,-5.486325235,-5.36454379,-37.858426675
15,-3.81382101634,4.22163676176,-8.57165661402
16,-5.18768507511,-5.125501867,-35.0791279544
*Step  = 46
*Time  = 1.57
*Data  = x;y;z
1,-3.91082335828,4.28499115466,-8.58233148263
2,-5.486325235,-5.36454379,-37.858426675
15,-3.81351808219,4.28270490354,-8.58901590946
16,-5.18865360796,-5.1255924233,-35.088331458
*Step  = 47
*Time  = 1.6
*Data  = x;y;z
1,-3.89935396006,4.34407295937,-8.59871534017
2,-5.486325235,-5.36454379,-37.858426675
15,-3.8131796195,4.34204599321,-8.6046249684
16,-5.18947376813,-5.12556399014,-35.0961516559
*Step  = 48
*Time  = 1.63
*Data  = x;y;z
1,-3.89499312172,4.39050209978,-8.60854284372
2,-5.486325235,-5.36454379,-37.858426675
15,-3.8126114041,4.38856254357,-8.61418414274
16,-5.18981432422,-5.12526229457,-35.0994785286
*Step  = 49
*Time  = 1.66
*Data  = x;y;z
1,-3.88998482861,4.43936930374,-8.62150174625
2,-5.486325235,-5.36454379,-37.858426675
15,-3.81223842618,4.43753705805,-8.62681399404
16,-5.19042995651,-5.12514165446,-35.1053776866
*Step  = 50
*Time  = 1.69
*Data  = x;y;z
1,-3.89075028687,4.48890906793,-8.63497213172
2,-5.486325235,-5.36454379,-37.858426675
15,-3.81191506086,4.48704930445,-8.64034520879
16,-5.19112587446,-5.12508416307,-35.1120256672
*Step  = 51
*Time  = 1.72
*Data  = x;y;z
1,-3.89039239099,4.54234858139,-8.6510439617
2,-5.486325235,-5.36454379,-37.858426675
15,-3.81172388708,4.54049081206,-8.65639098448
16,-5.19203142829,-5.12516998522,-35.1206321361
*Step  = 52
*Time  = 1.75
*Data  = x;y;z
1,-3.88266602063,4.59407076489,-8.66637508481
2,-5.486325235,-5.36454379,-37.858426675
15,-3.81143369241,4.59238691424,-8.67120239204
16,-5.19282169787,-5.12518930187,-35.128159841
*Step  = 53
*Time  = 1.78
*Data  = x;y;z
1,-3.87525858695,4.63436884841,-8.67508523274
2,-5.486325235,-5.36454379,-37.858426675
15,-3.81091309178,4.63284641677,-8.67944293228
16,-5.19307717124,-5.1248326077,-35.1306925654
*Step  = 54
*Time  = 1.81
*Data  = x;y;z
1,-3.87083957901,4.67747770509,-8.6872000131
2,-5.486325235,-5.36454379,-37.858426675
15,-3.81061136104,4.67605140979,-8.69127030466
16,-5.19366532682,-5.12475399161,-35.1363213
*Step  = 55
*Time  = 1.84
*Data  = x;y;z
1,-3.87822927326,4.72201464691,-8.70018623289
2,-5.486325235,-5.36454379,-37.858426675
15,-3.81041207455,4.72040710657,-8.7047576061
16,-5.19439721993,-5.12476145071,-35.1432969162
*Step  = 56
*Time  = 1.87
*Data  = x;y;z
1,-3.86712610085,4.76733936711,-8.71466472199
2,-5.486325235,-5.36454379,-37.858426675
15,-3.81023432869,4.765989613,-8.71849152169
16,-5.19515748399,-5.1248355399,-35.1505244614
*Step  = 57
*Time  = 1.9
*Data  = x;y;z
1,-3.86446171853,4.8126692171,-8.72807247534
2,-5.486325235,-5.36454379,-37.858426675
15,-3.80991336159,4.81137380955,-8.73172914353
16,-5.19582885717,-5.12478551576,-35.1569422598
*Step  = 58
*Time  = 1.93
*Data  = x;y;z
1,-3.85719069432,4.8489646424,-8.73622585987
2,-5.486325235,-5.36454379,-37.858426675
15,-3.80943098778,4.84782945811,-8.73942532802
16,-5.19605629944,-5.12442475286,-35.1592113716
*Step  = 59
*Time  = 1.96
*Data  = x;y;z
1,-3.85505515867,4.86676321773,-8.73548072984
2,-5.486325235,-5.36454379,-37.858426675
15,-3.80871995664,4.86566119619,-8.73858778407
16,-5.1956481585,-5.12368960878,-35.1555251639
*Step  = 60
*Time  = 1.99
*Data  = x;y;z
1,-3.85784092229,4.85034595535,-8.71868567149
2,-5.486325235,-5.36454379,-37.858426675
15,-3.80764223289,4.84915184636,-8.72206745677
16,-5.1940902341,-5.12229064215,-35.1410596584
*Step  = 61
*Time  = 1.99999
*Data  = x;y;z
1,-3.86121837917,4.85187371091,-8.7191152232
2,-5.486325235,-5.36454379,-37.858426675
15,-3.80758825705,4.85059763113,-8.72272762689
16,-5.19408511244,-5.1221162795,-35.14105969
*Step  = 1
*Time  = 2
*Data  = x;y;z
1,-3.86146874757,4.86175544001,-8.72484432466
2,-5.486325235,-5.36454379,-37.858426675
15,-3.80773066641,4.86047626338,-8.72845954429
16,-5.19448380037,-5.12218811278,-35.1448416693
*Step  = 2
*Time  = 2.00005
*Data  = x;y;z
1,-3.86039638907,4.86836542268,-8.72772381453
2,-5.486325235,-5.36454379,-37.858426675
15,-3.80769009924,4.86711018692,-8.73126880835
16,-5.1946134416,-5.12202093665,-35.1461249653
*Step  = 3
*Time  = 2.0003
*Data  = x;y;z
1,-3.85931527196,4.87420456048,-8.73078954467
2,-5.486325235,-5.36454379,-37.858426675
15,-3.80765650864,4.87297337356,-8.7342639593
16,-5.19477098458,-5.12187115591,-35.1476706672
*Step  = 4
*Time  = 2.00155
*Data  = x;y;z
1,-3.85886043637,4.88191690926,-8.73804732175
2,-5.486325235,-5.36454379,-37.858426675
15,-3.80778638719,4.88069734858,-8.74148200765
16,-5.19534686761,-5.12205053291,-35.1531201561
*Step  = 5
*Time  = 2.0078
*Data  = x;y;z
1,-3.85071443077,4.89968404534,-8.76583939785
2,-5.486325235,-5.36454379,-37.858426675
15,-3.80869449656,4.89867301489,-8.76866807477
16,-5.19791882205,-5.12384862494,-35.1771811203
*Step  = 6
*Time  = 2.03905
*Data  = x;y;z
1,-3.84974420039,4.97660270641,-8.89865605797
2,-5.486325235,-5.36454379,-37.858426675
15,-3.81319481712,4.97569117128,-8.90111387774
16,-5.21076552833,-5.13375143472,-35.2971120339
*Step  = 7
*Time  = 2.05
*Data  = x;y;z
1,-3.83876367251,5.00148832758,-8.94642009361
2,-5.486325235,-5.36454379,-37.858426675
15,-3.81496530674,5.00088776694,-8.94801900126
16,-5.21544407376,-5.13768768367,-35.3406862858
*Step  = 8
*Time  = 2.1
*Data  = x;y;z
1,-3.82558019701,5.11195535932,-9.15401332214
2,-5.486325235,-5.36454379,-37.858426675
15,-3.82208434385,5.1118623521,-9.15424813438
16,-5.23585689957,-5.15438348819,-35.5309232893
*Step  = 9
*Time  = 2.15
*Data  = x;y;z
1,-3.797090499,5.21256673632,-9.36019389176
2,-5.486325235,-5.36454379,-37.858426675
15,-3.82909877478,5.21346141758,-9.35804791705
16,-5.25630203096,-5.1716252689,-35.721244442
*Step  = 10
*Time  = 2.2
*Data  = x;y;z
1,-3.78417064891,5.25704197533,-9.46275990666
2,-5.486325235,-5.36454379,-37.858426675
15,-3.83273194755,5.25843087464,-9.4595180672
16,-5.26672004485,-5.18083718018,-35.8180608998
*Step  = 11
*Time  = 2.25
*Data  = x;y;z
1,-3.76587550155,5.35116342965,-9.66625577472
2,-5.486325235,-5.36454379,-37.858426675
15,-3.83933467339,5.35336282678,-9.66136250441
16,-5.28702533872,-5.19787176205,-36.0070073879
*Step  = 12
*Time  = 2.3
*Data  = x;y;z
1,-3.74264161352,5.43752283115,-9.86799889761
2,-5.486325235,-5.36454379,-37.858426675
15,-3.84583179265,5.44074841854,-9.86115459987
16,-5.30735134023,-5.21518998855,-36.1959906936
*Step  = 13
*Time  = 2.35
*Data  = x;y;z
1,-3.71038787449,5.51541194341,-10.0665879969
2,-5.486325235,-5.36454379,-37.858426675
15,-3.85209239966,5.52002721838,-10.0572213451
16,-5.32741421153,-5.23224514298,-36.3824737114
*Step  = 14
*Time  = 2.4
*Data  = x;y;z
1,-3.67835000644,5.58614234957,-10.2625117554
2,-5.486325235,-5.36454379,-37.858426675
15,-3.85806349505,5.59222941394,-10.2507025674
16,-5.34730745992,-5.24913404398,-36.5673243546
*Step  = 15
*Time  = 2.45
*Data  = x;y;z
1,-3.63851229052,5.64657610853,-10.4513154533
2,-5.486325235,-5.36454379,-37.858426675
15,-3.86364309165,5.65448959002,-10.4366135938
16,-5.36665935973,-5.2656266211,-36.7470589009
*Step  = 16
*Time  = 2.5
*Data  = x;y;z
1,-3.60728371616,5.66408170368,-10.5392181866
2,-5.486325235,-5.36454379,-37.858426675
15,-3.86646862053,5.67334824874,-10.5223861712
16,-5.37606586212,-5.27394747759,-36.8342819177
*Step  = 17
*Time  = 2.55
*Data  = x;y;z
1,-3.57650802044,5.70626179813,-10.7124745216
2,-5.486325235,-5.36454379,-37.858426675
15,-3.87134936404,5.71716597957,-10.6935291863
16,-5.39438203022,-5.28959491827,-37.0042920617
*Step  = 18
*Time  = 2.6
*Data  = x;y;z
1,-3.54232758024,5.73433687687,-10.8750825515
2,-5.486325235,-5.36454379,-37.858426675
15,-3.87613951405,5.7470733031,-10.8539367702
16,-5.41219774514,-5.30490568842,-37.1695603703
*Step  = 19
*Time  = 2.65
*Data  = x;y;z
1,-3.51436516054,5.75200872683,-11.0282864693
2,-5.486325235,-5.36454379,-37.858426675
15,-3.88092908529,5.76640622648,-11.0054371768
16,-5.42956103369,-5.31964802301,-37.3306493097
*Step  = 20
*Time  = 2.7
*Data  = x;y;z
1,-3.48999520237,5.7609425245,-11.1735149226
2,-5.486325235,-5.36454379,-37.858426675
15,-3.88569886746,5.77691036285,-11.1493212692
16,-5.44653112006,-5.33371532866,-37.4881872378
*Step  = 21
*Time  = 2.75
*Data  = x;y;z
1,-3.47635880092,5.76221914883,-11.3110377543
2,-5.486325235,-5.36454379,-37.858426675
15,-3.89051227813,5.77935932998,-11.2862742281
16,-5.46310926521,-5.34698278236,-37.642255924
*Step  = 22
*Time  = 2.8
*Data  = x;y;z
1,-3.46595888475,5.75090732707,-11.3667334824
2,-5.486325235,-5.36454379,-37.858426675
15,-3.89309930803,5.7687761866,-11.3414914241
16,-5.47089611329,-5.35310792128,-37.7146603637
*Step  = 23
*Time  = 2.85
*Data  = x;y;z
1,-3.46376666109,5.74699592513,-11.498514115
2,-5.486325235,-5.36454379,-37.858426675
15,-3.89760021937,5.76558299798,-11.4735989722
16,-5.48679447398,-5.36488371912,-37.8628024176
*Step  = 24
*Time  = 2.9
*Data  = x;y;z
1,-3.45924002544,5.7317067565,-11.6200194772
2,-5.486325235,-5.36454379,-37.858426675
15,-3.90187457031,5.75110006953,-11.5954453674
16,-5.50179480658,-5.37547610081,-38.0028089431
*Step  = 25
*Time  = 2.95
*Data  = x;y;z
1,-3.46360448553,5.70814725824,-11.7334043278
2,-5.486325235,-5.36454379,-37.858426675
15,-3.90597381037,5.72794187281,-11.7098387022
16,-5.51603428715,-5.38500880049,-38.1359634267
*Step  = 26
*Time  = 3
*Data  = x;y;z
1,-3.43161562018,5.69487525057,-11.7145827407
2,-5.486325235,-5.36454379,-37.858426675
15,-3.90588149982,5.71605664045,-11.6893392217
16,-5.51523158913,-5.38417590803,-38.1285942522
*Step  = 27
*Time  = 3.05
*Data  = x;y;z
1,-3.38600291622,5.71404072476,-11.5123433099
2,-5.486325235,-5.36454379,-37.858426675
15,-3.90044789871,5.73618078144,-11.4832420802
16,-5.49343716775,-5.36939791741,-37.9248807194
*Step  = 28
*Time  = 3.1
*Data  = x;y;z
1,-3.42010275131,5.73514426173,-11.3130058409
2,-5.486325235,-5.36454379,-37.858426675
15,-3.89541951868,5.75481421779,-11.2847180546
16,-5.47147415336,-5.35425662346,-37.7197331471
*Step  = 29
*Time  = 3.15
*Data  = x;y;z
1,-3.47767562061,5.74142390147,-11.1766083307
2,-5.486325235,-5.36454379,-37.858426675
15,-3.89099719237,5.75808860055,-11.1515109778
16,-5.45562946482,-5.34283338722,-37.5719579531
*Step  = 30
*Time  = 3.2
*Data  = x;y;z
1,-3.52281523768,5.72661931517,-10.9605398309
2,-5.486325235,-5.36454379,-37.858426675
15,-3.8843900625,5.74060053813,-10.9379963936
16,-5.43081231933,-5.32415968248,-37.340817596
*Step  = 31
*Time  = 3.25
*Data  = x;y;z
1,-3.57484320487,5.70285140014,-10.7390673336
2,-5.486325235,-5.36454379,-37.858426675
15,-3.87728184949,5.71404532977,-10.7197833812
16,-5.40513597025,-5.30355687737,-37.1021476637
*Step  = 32
*Time  = 3.3
*Data  = x;y;z
1,-3.63786160221,5.66652959758,-10.5080837289
2,-5.486325235,-5.36454379,-37.858426675
15,-3.86986751507,5.67472367277,-10.493023089
16,-5.37875959357,-5.28123851849,-36.8573320209
*Step  = 33
*Time  = 3.35
*Data  = x;y;z
1,-3.66367379352,5.62693269895,-10.3445489491
2,-5.486325235,-5.36454379,-37.858426675
15,-3.86392777007,5.63378186543,-10.331431171
16,-5.35991334804,-5.26434874072,-36.6826939586
*Step  = 34
*Time  = 3.4
*Data  = x;y;z
1,-3.68023885704,5.52611219528,-10.0703520293
2,-5.486325235,-5.36454379,-37.858426675
15,-3.85529182187,5.53177367974,-10.0587982661
16,-5.33080299223,-5.23950003154,-36.4123542264
*Step  = 35
*Time  = 3.45
*Data  = x;y;z
1,-3.6954796809,5.40375510421,-9.77891606843
2,-5.486325235,-5.36454379,-37.858426675
15,-3.84564099433,5.40832455628,-9.76895023255
16,-5.3005463246,-5.21370475079,-36.1312140364
*Step  = 36
*Time  = 3.5
*Data  = x;y;z
1,-3.72189339481,5.26712235044,-9.47747294129
2,-5.486325235,-5.36454379,-37.858426675
15,-3.83521694764,5.27035023364,-9.46993410603
16,-5.26977228398,-5.18755099797,-35.8450904518
*Step  = 37
*Time  = 3.55
*Data  = x;y;z
1,-3.75033660921,5.1703293241,-9.27009054799
2,-5.486325235,-5.36454379,-37.858426675
15,-3.8274172209,5.17242582892,-9.26494743254
16,-5.24860085084,-5.16903953539,-35.6483268222
*Step  = 38
*Time  = 3.6
*Data  = x;y;z
1,-3.79555216266,5.01887291912,-8.96575976169
2,-5.486325235,-5.36454379,-37.858426675
15,-3.81646616725,5.01940052775,-8.96436208202
16,-5.21803837673,-5.14281284474,-35.3639732283
*Step  = 39
*Time  = 3.65
*Data  = x;y;z
1,-3.82803074272,4.86003551537,-8.6602840899
2,-5.486325235,-5.36454379,-37.858426675
15,-3.80465579592,4.85949169114,-8.66184826411
16,-5.18727980645,-5.11586685721,-35.0777875608
*Step  = 40
*Time  = 3.7
*Data  = x;y;z
1,-3.87202990907,4.69254867489,-8.35422579796
2,-5.486325235,-5.36454379,-37.858426675
15,-3.79207770898,4.69084412554,-8.35957056567
16,-5.15651702662,-5.08807527073,-34.7916004758
*Step  = 41
*Time  = 3.75
*Data  = x;y;z
1,-3.91081474255,4.5805441655,-8.14868767028
2,-5.486325235,-5.36454379,-37.858426675
15,-3.78279448321,4.57797553585,-8.15725360842
16,-5.13564811708,-5.06768543416,-34.5977209471
*Step  = 42
*Time  = 3.8
*Data  = x;y;z
1,-3.95110203634,4.40046092606,-7.84467517881
2,-5.486325235,-5.36454379,-37.858426675
15,-3.76910945741,4.39715976813,-7.8568074788
16,-5.10519118287,-5.0387183963,-34.3143361814
*Step  = 43
*Time  = 3.85
*Data  = x;y;z
1,-3.99653604087,4.21303875242,-7.54054091927
2,-5.486325235,-5.36454379,-37.858426675
15,-3.75432234634,4.20910434357,-7.55656033972
16,-5.07475281663,-5.008555392,-34.0311490007
*Step  = 44
*Time  = 3.9
*Data  = x;y;z
1,-4.03214723267,4.01344810982,-7.23174020327
2,-5.486325235,-5.36454379,-37.858426675
15,-3.73817645405,4.00922386883,-7.25099634743
16,-5.04395903495,-4.97725752462,-33.7445475949
*Step  = 45
*Time  = 3.95
*Data  = x;y;z
1,-4.05689856649,3.87791848908,-7.02499222067
2,-5.486325235,-5.36454379,-37.858426675
15,-3.72629981262,3.87356185126,-7.04649178276
16,-5.02315207931,-4.95373093186,-33.551195143
*Step  = 46
*Time  = 4
*Data  = x;y;z
1,-4.06090855563,3.8907132684,-7.02637714966
2,-5.486325235,-5.36454379,-37.858426675
15,-3.72532381055,3.88625398977,-7.04832652871
16,-5.02259513138,-4.94843498543,-33.5469193842
*Step  = 47
*Time  = 4.05
*Data  = x;y;z
1,-3.99241622248,3.78254842051,-6.99250297461
2,-5.486325235,-5.36454379,-37.858426675
15,-3.72394078281,3.77899233508,-7.01016697537
16,-5.02018392644,-4.94812228046,-33.5241087797
*Step  = 48
*Time  = 4.1
*Data  = x;y;z
1,-3.95021352384,3.6883803843,-6.97142357463
2,-5.486325235,-5.36454379,-37.858426675
15,-3.72385149815,3.68539519082,-6.98637013921
16,-5.01917018317,-4.94972769451,-33.5141803674
*Step  = 49
*Time  = 4.15
*Data  = x;y;z
1,-3.91521033989,3.5963195376,-6.9528418023
2,-5.486325235,-5.36454379,-37.858426675
15,-3.72406157197,3.59381158259,-6.96549451831
16,-5.01845939433,-4.95201797365,-33.5070010176
*Step  = 50
*Time  = 4.2
*Data  = x;y;z
1,-3.88337578596,3.50418859382,-6.93491754767
2,-5.486325235,-5.36454379,-37.858426675
15,-3.72435536791,3.50211390602,-6.94545842779
16,-5.0178371968,-4.95467345717,-33.5006036778
*Step  = 51
*Time  = 4.25
*Data  = x;y;z
1,-3.85005762689,3.4102799128,-6.91651389475
2,-5.486325235,-5.36454379,-37.858426675
15,-3.72464123326,3.40865358984,-6.92483741422
16,-5.01717463559,-4.95754068219,-33.4937937786
*Step  = 52
*Time  = 4.3
*Data  = x;y;z
1,-3.81644395379,3.31524503979,-6.89831355468
2,-5.486325235,-5.36454379,-37.858426675
15,-3.72494295825,3.31406605035,-6.90439201168
16,-5.01652885043,-4.9605650501,-33.4871254369
*Step  = 53
*Time  = 4.35
*Data  = x;y;z
1,-3.78470924405,3.21980139949,-6.8809058875
2,-5.486325235,-5.36454379,-37.858426675
15,-3.72535178961,3.21904148116,-6.88485503024
16,-5.01596462985,-4.96367356198,-33.481220326
*Step  = 54
*Time  = 4.4
*Data  = x;y;z
1,-3.75667876697,3.12355094731,-6.86454017922
2,-5.486325235,-5.36454379,-37.858426675
15,-3.72586066919,3.12315894416,-6.86659237433
16,-5.0155092967,-4.96687694466,-33.4763394843
*Step  = 55
*Time  = 4.45
*Data  = x;y;z
1,-3.72058518198,3.02531440506,-6.84745301664
2,-5.486325235,-5.36454379,-37.858426675
15,-3.72627183333,3.02538626225,-6.84707371995
16,-5.01492723914,-4.97003095718,-33.4702770521
*Step  = 56
*Time  = 4.5
*Data  = x;y;z
1,-3.69064615881,2.9269338763,-6.831826368
2,-5.486325235,-5.36454379,-37.858426675
15,-3.72681584571,2.92738790837,-6.82941233329
16,-5.01450176952,-4.97330311483,-33.4656869333
*Step  = 57
*Time  = 4.55
*Data  = x;y;z
1,-3.6568143621,2.82521638988,-6.81612671976
2,-5.486325235,-5.36454379,-37.858426675
15,-3.72734932307,2.82609591797,-6.81141575521
16,-5.01404790998,-4.97656398215,-33.4608400723
*Step  = 58
*Time  = 4.6
*Data  = x;y;z
1,-3.62800315559,2.72241442451,-6.80094281993
2,-5.486325235,-5.36454379,-37.858426675
15,-3.72795454967,2.7236524669,-6.79426480178
16,-5.0136595579,-4.97986177614,-33.4566156034
*Step  = 59
*Time  = 4.65
*Data  = x;y;z
1,-3.59370273031,2.61733149108,-6.78607302597
2,-5.486325235,-5.36454379,-37.858426675
15,-3.72855621685,2.61899061045,-6.77705753618
16,-5.01326207907,-4.98317570979,-33.4523122268
*Step  = 60
*Time  = 4.7
*Data  = x;y;z
1,-3.56105644324,2.51146598629,-6.77156619295
2,-5.486325235,-5.36454379,-37.858426675
15,-3.72919613938,2.51352070737,-6.76031854491
16,-5.01288925949,-4.98649083262,-33.4482502552
*Step  = 61
*Time  = 4.75
*Data  = x;y;z
1,-3.52752677816,2.40265259676,-6.757337508
2,-5.486325235,-5.36454379,-37.858426675
15,-3.72986910821,2.40510867271,-6.74379322026
16,-5.0125346721,-4.98979451778,-33.4443715824
*Step  = 62
*Time  = 4.8
*Data  = x;y;z
1,-3.4967406613,2.29159964656,-6.74438689825
2,-5.486325235,-5.36454379,-37.858426675
15,-3.73067233118,2.29442026535,-6.72872879836
16,-5.01231271899,-4.99314965859,-33.4417469886
*Step  = 63
*Time  = 4.85
*Data  = x;y;z
1,-3.46933988933,2.17955592744,-6.7331584869
2,-5.486325235,-5.36454379,-37.858426675
15,-3.73163920479,2.18269779925,-6.71561011738
16,-5.01226511587,-4.99657974377,-33.4407658332
*Step  = 64
*Time  = 4.9
*Data  = x;y;z
1,-3.43979868086,2.06362115012,-6.72299774973
2,-5.486325235,-5.36454379,-37.858426675
15,-3.73270516733,2.06710670793,-6.70342875015
16,-5.01230796699,-5.00004232333,-33.4406423562
*Step  = 65
*Time  = 4.95
*Data  = x;y;z
1,-3.41309357989,1.94547889508,-6.71424235592
2,-5.486325235,-5.36454379,-37.858426675
15,-3.73391678302,1.94927215337,-6.69284396298
16,-5.01249961258,-5.00354125417,-33.4419255301
*Step  = 66
*Time  = 4.99999
*Data  = x;y;z
1,-3.4962323448,2.02020465455,-6.7347907111
2,-5.486325235,-5.36454379,-37.858426675
15,-3.73525641889,2.02304070192,-6.7188229961
16,-5.01447053677,-5.00322630904,-33.4605682766
