*Step  = 1
*Time  = 1e-05
*Data  = x;y;z
1,-3.44123392648,3.47446206062,-11.2373890984
2,-5.486325235,-5.36454379,-37.858426675
14,-3.97849345041,3.49775067364,-11.2008207412
15,-5.47990740462,-5.35992950706,-37.7985635011
*Step  = 2
*Time  = 6e-05
*Data  = x;y;z
1,-3.38425152687,3.49189985632,-11.2088551843
2,-5.486325235,-5.36454379,-37.858426675
14,-3.97434112646,3.51747303795,-11.1686894001
15,-5.47636639031,-5.35739009318,-37.7655313192
*Step  = 3
*Time  = 0.00010385413
*Data  = x;y;z
1,-3.35417433638,3.49259757021,-11.1951871784
2,-5.486325235,-5.36454379,-37.858426675
14,-3.97269296932,3.51939932354,-11.1530791343
15,-5.47471689094,-5.35620930413,-37.7501430922
*Step  = 4
*Time  = 0.000323124782
*Data  = x;y;z
1,-3.34047949348,3.49400372374,-11.1852877652
2,-5.486325235,-5.36454379,-37.858426675
14,-3.97157447003,3.5213437627,-11.1423155294
15,-5.47357246382,-5.35539023643,-37.7394666279
*Step  = 5
*Time  = 0.00141947804
*Data  = x;y;z
1,-3.33120899576,3.49427695091,-11.1743370038
2,-5.486325235,-5.36454379,-37.858426675
14,-3.97065116143,3.52195151519,-11.130784601
15,-5.47235155546,-5.3545151171,-37.7280772636
*Step  = 6
*Time  = 0.00690124434
*Data  = x;y;z
1,-3.32722832303,3.49186571926,-11.1439155587
2,-5.486325235,-5.36454379,-37.858426675
14,-3.968985125,3.51950894291,-11.1001838272
15,-5.46911661792,-5.35219028551,-37.6979026055
*Step  = 7
*Time  = 0.0343100758
*Data  = x;y;z
1,-3.32460509132,3.47253171853,-11.0096282575
2,-5.486325235,-5.36454379,-37.858426675
14,-3.96290959184,3.49937288916,-10.9660408744
15,-5.45500101458,-5.34202295063,-37.5662463034
*Step  = 8
*Time  = 0.05
*Data  = x;y;z
1,-3.36858320805,3.46614175699,-10.9345810146
2,-5.486325235,-5.36454379,-37.858426675
14,-3.95973841878,3.49065319403,-10.8942260109
15,-5.44740600014,-5.33653723389,-37.4954140984
*Step  = 9
*Time  = 0.1
*Data  = x;y;z
1,-3.46354101197,3.4354625361,-10.7153469368
2,-5.486325235,-5.36454379,-37.858426675
14,-3.95223743339,3.45480094667,-10.6816154611
15,-5.42524762831,-5.32053909474,-37.2887586243
*Step  = 10
*Time  = 0.15
*Data  = x;y;z
1,-3.59181898657,3.41247375209,-10.5222119981
2,-5.486325235,-5.36454379,-37.858426675
14,-3.94819594489,3.42588638252,-10.496906511
15,-5.4062551857,-5.30681666442,-37.111632642
*Step  = 11
*Time  = 0.2
*Data  = x;y;z
1,-3.6995293061,3.36706485761,-10.3178724515
2,-5.486325235,-5.36454379,-37.858426675
14,-3.94261449541,3.37573639552,-10.3005983475
15,-5.38586378354,-5.29207121876,-36.9214629344
*Step  = 12
*Time  = 0.25
*Data  = x;y;z
1,-3.78806876473,3.30743851863,-10.0969358275
2,-5.486325235,-5.36454379,-37.858426675
14,-3.93538691524,3.31240466528,-10.0864693043
15,-5.3636636276,-5.27598757891,-36.7144335184
*Step  = 13
*Time  = 0.3
*Data  = x;y;z
1,-3.87667762637,3.2418074313,-9.86262562876
2,-5.486325235,-5.36454379,-37.858426675
14,-3.9265495192,3.24339094036,-9.85908942922
15,-5.34006706892,-5.25885368588,-36.4943914437
*Step  = 14
*Time  = 0.35
*Data  = x;y;z
1,-3.9294953191,3.16340539935,-9.61153137552
2,-5.486325235,-5.36454379,-37.858426675
14,-3.91563379818,3.16299232515,-9.61251097538
15,-5.31449152552,-5.24022744606,-36.2559075473
*Step  = 15
*Time  = 0.4
*Data  = x;y;z
1,-3.99904354304,3.08197268482,-9.35871864295
2,-5.486325235,-5.36454379,-37.858426675
14,-3.90426120143,3.07933212112,-9.36538582328
15,-5.28885066977,-5.22146153732,-36.0168345206
*Step  = 16
*Time  = 0.45
*Data  = x;y;z
1,-4.09082984137,2.98978262748,-9.10072916032
2,-5.486325235,-5.36454379,-37.858426675
14,-3.89218044227,2.98463107686,-9.11457758291
15,-5.26285111562,-5.20235641766,-35.7744279873
*Step  = 17
*Time  = 0.5
*Data  = x;y;z
1,-4.15884897181,2.89135673681,-8.83709233228
2,-5.486325235,-5.36454379,-37.858426675
14,-3.87905177754,2.88463533061,-8.85646951333
15,-5.23614759766,-5.18266397641,-35.5254630463
*Step  = 18
*Time  = 0.55
*Data  = x;y;z
1,-4.23006530627,2.78858161673,-8.57394780514
2,-5.486325235,-5.36454379,-37.858426675
14,-3.86570566022,2.78052126829,-8.59909593185
15,-5.2095971326,-5.16300259884,-35.2779283915
*Step  = 19
*Time  = 0.6
*Data  = x;y;z
1,-4.30325720913,2.67767198224,-8.30919579843
2,-5.486325235,-5.36454379,-37.858426675
14,-3.85195463215,2.66854392907,-8.34027821935
15,-5.18298659682,-5.14326797863,-35.0298211755
*Step  = 20
*Time  = 0.65
*Data  = x;y;z
1,-4.3709882245,2.55553028185,-8.04063294228
2,-5.486325235,-5.36454379,-37.858426675
14,-3.8373520097,2.54574366299,-8.07718456392
15,-5.15596272991,-5.12309220103,-34.7778686761
*Step  = 21
*Time  = 0.7
*Data  = x;y;z
1,-4.42376823769,2.42374995325,-7.76591854202
2,-5.486325235,-5.36454379,-37.858426675
14,-3.82153137932,2.41383303737,-7.80686285635
15,-5.1282128125,-5.10219389578,-34.5191572865
*Step  = 22
*Time  = 0.75
*Data  = x;y;z
1,-4.48713492682,2.2821335798,-7.48745367938
2,-5.486325235,-5.36454379,-37.858426675
14,-3.80452979591,2.27215376559,-7.53324359259
15,-5.10010837658,-5.08075539777,-34.2571597626
*Step  = 23
*Time  = 0.8
*Data  = x;y;z
1,-4.55271984375,2.1300613024,-7.20378328897
2,-5.486325235,-5.36454379,-37.858426675
14,-3.78628300301,2.12024791687,-7.25428627242
15,-5.07147924767,-5.05874280233,-33.990262072
*Step  = 24
*Time  = 0.85
*Data  = x;y;z
1,-4.61052403534,1.96649782108,-6.91648227726
2,-5.486325235,-5.36454379,-37.858426675
14,-3.76694695924,1.95719829505,-6.97094555857
15,-5.04246060108,-5.03618795633,-33.7197254615
*Step  = 25
*Time  = 0.9
*Data  = x;y;z
1,-4.65273444095,1.79602207136,-6.62526353243
2,-5.486325235,-5.36454379,-37.858426675
14,-3.74625827355,1.78760379676,-6.68250090555
15,-5.01294571545,-5.01292576261,-33.4445566093
*Step  = 26
*Time  = 0.95
*Data  = x;y;z
1,-4.70540296893,1.61835914871,-6.33204198764
2,-5.486325235,-5.36454379,-37.858426675
14,-3.72450361255,1.61091090129,-6.39234483152
15,-4.98328302826,-4.98923152989,-33.1679921105
*Step  = 27
*Time  = 1
*Data  = x;y;z
1,-4.71749740299,1.62350127229,-6.31144014222
2,-5.486325235,-5.36454379,-37.858426675
14,-3.7223561966,1.61592706494,-6.37299057343
15,-4.98120158661,-4.98684117791,-33.1486746582
*Step  = 28
*Time  = 1.05
*Data  = x;y;z
1,-4.5392123185,1.39332478731,-6.27822652041
2,-5.486325235,-5.36454379,-37.858426675
14,-3.72056827337,1.38716040962,-6.32842675966
15,-4.97855196387,-4.98901814121,-33.1235208321
*Step  = 29
*Time  = 1.1
*Data  = x;y;z
1,-4.43058335453,1.18280140911,-6.26528575104
2,-5.486325235,-5.36454379,-37.858426675
14,-3.72121297262,1.17751439227,-6.30855553138
15,-4.97832274851,-4.99281448152,-33.1209615778
*Step  = 30
*Time  = 1.15
*Data  = x;y;z
1,-4.32910535839,0.973724724891,-6.26376624708
2,-5.486325235,-5.36454379,-37.858426675
14,-3.7229847753,0.969250809829,-6.30047069436
15,-4.97924298063,-4.99720904641,-33.1291550609
*Step  = 31
*Time  = 1.2
*Data  = x;y;z
1,-4.25120796286,0.767976438396,-6.27191439365
2,-5.486325235,-5.36454379,-37.858426675
14,-3.72574155058,0.764132126656,-6.30340946301
15,-4.9812114262,-5.00203632093,-33.1471642018
*Step  = 32
*Time  = 1.25
*Data  = x;y;z
1,-4.19543477957,0.561527691482,-6.29202536245
2,-5.486325235,-5.36454379,-37.858426675
14,-3.72985039996,0.558148188568,-6.31964227545
15,-4.98454264757,-5.00743467715,-33.1779292691
*Step  = 33
*Time  = 1.3
*Data  = x;y;z
1,-4.15063951974,0.354541370389,-6.32129882026
2,-5.486325235,-5.36454379,-37.858426675
14,-3.7349442453,0.351544135356,-6.34569687056
15,-4.98887317561,-5.01305915691,-33.2180669265
*Step  = 34
*Time  = 1.35
*Data  = x;y;z
1,-4.12416784917,0.15303584728,-6.35578596516
2,-5.486325235,-5.36454379,-37.858426675
14,-3.74058931692,0.150285884928,-6.37804706978
15,-4.99378556981,-5.01867959744,-33.2636750987
*Step  = 35
*Time  = 1.4
*Data  = x;y;z
1,-4.11508360052,-0.0410085234268,-6.39577927466
2,-5.486325235,-5.36454379,-37.858426675
14,-3.7467941673,-0.0436361436237,-6.41692940069
15,-4.99931335806,-5.02438053745,-33.3150589183
*Step  = 36
*Time  = 1.45
*Data  = x;y;z
1,-4.10275414609,-0.219612141107,-6.4297208905
2,-5.486325235,-5.36454379,-37.858426675
14,-3.75226129259,-0.222101122443,-6.44969169693
15,-5.00406943499,-5.02944966276,-33.359256186
*Step  = 37
*Time  = 1.5
*Data  = x;y;z
1,-4.09259026601,-0.388052307347,-6.46219872858
2,-5.486325235,-5.36454379,-37.858426675
14,-3.75744750843,-0.390421453701,-6.48114621458
15,-5.00858308789,-5.03427932731,-33.4011989442
*Step  = 38
*Time  = 1.55
*Data  = x;y;z
1,-4.07489239028,-0.545793905612,-6.49120922087
2,-5.486325235,-5.36454379,-37.858426675
14,-3.7621247735,-0.547994779898,-6.50877670368
15,-5.01259585185,-5.03874292869,-33.4384723225
*Step  = 39
*Time  = 1.6
*Data  = x;y;z
1,-4.05945942874,-0.695704646805,-6.51864109296
2,-5.486325235,-5.36454379,-37.858426675
14,-3.76655713664,-0.697756077148,-6.53498189463
15,-5.0163706556,-5.04306167964,-33.4735247676
*Step  = 40
*Time  = 1.65
*Data  = x;y;z
1,-4.03825513589,-0.838124086103,-6.54322049334
2,-5.486325235,-5.36454379,-37.858426675
14,-3.77058687088,-0.839989780045,-6.55807244642
15,-5.01974579582,-5.04712557225,-33.5048484713
*Step  = 41
*Time  = 1.7
*Data  = x;y;z
1,-4.01886405598,-0.973478649955,-6.56688229696
2,-5.486325235,-5.36454379,-37.858426675
14,-3.77445927463,-0.975173774228,-6.58037302059
15,-5.02296272151,-5.05110857962,-33.5346956642
*Step  = 42
*Time  = 1.75
*Data  = x;y;z
1,-3.99847364355,-1.10480729453,-6.58981295238
2,-5.486325235,-5.36454379,-37.858426675
14,-3.77819734052,-1.10632742858,-6.6019100788
15,-5.02604728295,-5.05499935797,-33.563309634
*Step  = 43
*Time  = 1.8
*Data  = x;y;z
1,-3.97860719129,-1.2322195015,-6.61224934704
2,-5.486325235,-5.36454379,-37.858426675
14,-3.78183298081,-1.23357064112,-6.62300004905
15,-5.02903414984,-5.05880469438,-33.5910152428
*Step  = 44
*Time  = 1.85
*Data  = x;y;z
1,-3.9566809528,-1.3549224537,-6.63331137128
2,-5.486325235,-5.36454379,-37.858426675
14,-3.78525842967,-1.35609355143,-6.6426299711
15,-5.03181157653,-5.06246733785,-33.6167689278
*Step  = 45
*Time  = 1.9
*Data  = x;y;z
1,-3.93502664076,-1.47369658482,-6.65317459273
2,-5.486325235,-5.36454379,-37.858426675
14,-3.78850727997,-1.4746923816,-6.66110010246
15,-5.03441611106,-5.06602892438,-33.6409092475
*Step  = 46
*Time  = 1.95
*Data  = x;y;z
1,-3.91225382486,-1.5889303709,-6.67166471163
2,-5.486325235,-5.36454379,-37.858426675
14,-3.7915614029,-1.5897463371,-6.67816088339
15,-5.03682419399,-5.06946719565,-33.6632178266
*Step  = 47
*Time  = 1.99999
*Data  = x;y;z
1,-3.98714507382,-1.52352774613,-6.62828292262
2,-5.486325235,-5.36454379,-37.858426675
14,-3.7869580429,-1.52488051257,-6.6392759893
15,-5.03241311161,-5.06672758821,-33.6220552943
