*Step  = 1
*Time  = 1e-05
*Data  = RCx;RCy;RCz;RCthx;RCthy;RCthz
1,-0.553723376102,0,0,0.000101453738887,0,0
2,0.0867014483877,0,0,-0.00239422011278,0,0
3,-0.0563123952206,-0,-0,0.00341954994624,0,0
*Step  = 2
*Time  = 6e-05
*Data  = RCx;RCy;RCz;RCthx;RCthy;RCthz
1,-0.609512569227,0,0,0.000139387302421,0,0
2,0.0678987183145,0,0,-0.00259882985716,0,0
3,-0.0881486355981,-0,-0,0.00494908588805,0,0
*Step  = 3
*Time  = 0.00011
*Data  = RCx;RCy;RCz;RCthx;RCthy;RCthz
1,-0.636963050983,0,0,0.000161993997194,0,0
2,0.0574848663904,0,0,-0.00272331627166,0,0
3,-0.105772560042,-0,-0,0.00603076758523,0,0
*Step  = 4
*Time  = 0.00036
*Data  = RCx;RCy;RCz;RCthx;RCthy;RCthz
1,-0.651347393127,0,0,0.000175039672093,0,0
2,0.0528290131978,0,0,-0.00277134240885,0,0
3,-0.115223874936,-0,-0,0.00669001182478,0,0
*Step  = 5
*Time  = 0.00161
*Data  = RCx;RCy;RCz;RCthx;RCthy;RCthz
1,-0.66081688745,0,0,0.000181021185586,0,0
2,0.0500333571673,0,0,-0.00281684249638,0,0
3,-0.119734294264,-0,-0,0.0069594223554,0,0
*Step  = 6
*Time  = 0.00786
*Data  = RCx;RCy;RCz;RCthx;RCthy;RCthz
1,-0.667580406724,0,0,0.000175163901573,0,0
2,0.0487718205616,0,0,-0.00282858448967,0,0
3,-0.118843986803,-0,-0,0.00723008257255,0,0
*Step  = 7
*Time  = 0.03911
*Data  = RCx;RCy;RCz;RCthx;RCthy;RCthz
1,-0.680024629589,0,0,0.000118351331931,0,0
2,-0.00366818026313,0,0,-0.00268558808093,0,0
3,-0.0885556018996,-0,-0,0.0107646961234,0,0
*Step  = 8
*Time  = 0.05
*Data  = RCx;RCy;RCz;RCthx;RCthy;RCthz
1,-0.662369745225,0,0,0.0001024508588,0,0
2,-0.059771621428,0,0,-0.00265754526384,0,0
3,-0.0792176132743,-0,-0,0.0138212660432,0,0
*Step  = 9
*Time  = 0.1
*Data  = RCx;RCy;RCz;RCthx;RCthy;RCthz
1,-0.563954623113,0,0,9.8490988676e-06,0,0
2,-0.449229782044,0,0,-0.00273796373385,0,0
3,0.0323090263868,0,0,0.0372161227306,0,0
*Step  = 10
*Time  = 0.15
*Data  = RCx;RCy;RCz;RCthx;RCthy;RCthz
1,-0.53240306754,0,0,-4.6502308617e-05,0,0
2,-0.630425529204,0,0,-0.00318309075006,0,0
3,0.0760485459588,0,0,0.049202703007,0,0
*Step  = 11
*Time  = 0.2
*Data  = RCx;RCy;RCz;RCthx;RCthy;RCthz
1,-0.500403311255,0,0,-0.000104802428666,0,0
2,-0.736707801074,0,0,-0.00350392901745,0,0
3,0.102561121717,0,0,0.0570400754792,0,0
*Step  = 12
*Time  = 0.25
*Data  = RCx;RCy;RCz;RCthx;RCthy;RCthz
1,-0.506303493073,0,0,-0.000156924279198,0,0
2,-0.7985399474,0,0,-0.00371830713035,0,0
3,0.115304229823,0,0,0.0616756426487,0,0
*Step  = 13
*Time  = 0.3
*Data  = RCx;RCy;RCz;RCthx;RCthy;RCthz
1,-0.502783389795,0,0,-0.000210686227538,0,0
2,-0.85624594865,0,0,-0.00391505046572,0,0
3,0.128736552893,0,0,0.0662555863617,0,0
*Step  = 14
*Time  = 0.35
*Data  = RCx;RCy;RCz;RCthx;RCthy;RCthz
1,-0.475904103789,0,0,-0.000271614702068,0,0
2,-0.903429045487,0,0,-0.00410438477525,0,0
3,0.145673107345,0,0,0.0709437528568,0,0
*Step  = 15
*Time  = 0.4
*Data  = RCx;RCy;RCz;RCthx;RCthy;RCthz
1,-0.490550747823,0,0,-0.000322705882492,0,0
2,-0.944024752283,0,0,-0.00425227734016,0,0
3,0.155415709226,0,0,0.074363548864,0,0
*Step  = 16
*Time  = 0.45
*Data  = RCx;RCy;RCz;RCthx;RCthy;RCthz
1,-0.489247051083,0,0,-0.000375756632805,0,0
2,-0.980082674745,0,0,-0.00439726963632,0,0
3,0.16537410215,0,0,0.0777814022979,0,0
*Step  = 17
*Time  = 0.5
*Data  = RCx;RCy;RCz;RCthx;RCthy;RCthz
1,-0.484236247888,0,0,-0.00042921603918,0,0
2,-1.0149270824,0,0,-0.0045350352696,0,0
3,0.17573309299,0,0,0.0811748422621,0,0
*Step  = 18
*Time  = 0.55
*Data  = RCx;RCy;RCz;RCthx;RCthy;RCthz
1,-0.479557592517,0,0,-0.000482961884552,0,0
2,-1.04669911145,0,0,-0.00465871609645,0,0
3,0.18557806816,0,0,0.0843886387806,0,0
*Step  = 19
*Time  = 0.6
*Data  = RCx;RCy;RCz;RCthx;RCthy;RCthz
1,-0.476601439461,0,0,-0.000536919875352,0,0
2,-1.07452858026,0,0,-0.00476914299476,0,0
3,0.194423651839,0,0,0.0872888311769,0,0
*Step  = 20
*Time  = 0.65
*Data  = RCx;RCy;RCz;RCthx;RCthy;RCthz
1,-0.479265408699,0,0,-0.000592090051747,0,0
2,-1.09960566699,0,0,-0.00490190478906,0,0
3,0.203279510286,0,0,0.0900716646511,0,0
*Step  = 21
*Time  = 0.7
*Data  = RCx;RCy;RCz;RCthx;RCthy;RCthz
1,-0.473256195949,0,0,-0.000647232680133,0,0
2,-1.1249399593,0,0,-0.00500506681907,0,0
3,0.212175854867,0,0,0.0928899306327,0,0
*Step  = 22
*Time  = 0.75
*Data  = RCx;RCy;RCz;RCthx;RCthy;RCthz
1,-0.433821798819,0,0,-0.000712219039508,0,0
2,-1.138785895,0,0,-0.00515367552456,0,0
3,0.225824785526,0,0,0.0961318766253,0,0
*Step  = 23
*Time  = 0.8
*Data  = RCx;RCy;RCz;RCthx;RCthy;RCthz
1,-0.441210249788,0,0,-0.000771018051706,0,0
2,-1.15612590229,0,0,-0.00520451353235,0,0
3,0.233003169796,0,0,0.0980670045939,0,0
*Step  = 24
*Time  = 0.85
*Data  = RCx;RCy;RCz;RCthx;RCthy;RCthz
1,-0.458542424576,0,0,-0.000823405460269,0,0
2,-1.17849376314,0,0,-0.00525480688127,0,0
3,0.237516655841,0,0,0.0999235718149,0,0
*Step  = 25
*Time  = 0.9
*Data  = RCx;RCy;RCz;RCthx;RCthy;RCthz
1,-0.455629633751,0,0,-0.000877834919931,0,0
2,-1.20307056511,0,0,-0.00532215797901,0,0
3,0.244446540679,0,0,0.102295000959,0,0
*Step  = 26
*Time  = 0.95
*Data  = RCx;RCy;RCz;RCthx;RCthy;RCthz
1,-0.452725047919,0,0,-0.000931680548711,0,0
2,-1.22712268796,0,0,-0.00538089264541,0,0
3,0.25133711244,0,0,0.10458162806,0,0
*Step  = 27
*Time  = 0.99999
*Data  = RCx;RCy;RCz;RCthx;RCthy;RCthz
1,-0.449840952784,0,0,-0.00098477701147,0,0
2,-1.25043396059,0,0,-0.00543672284253,0,0
3,0.258081133831,0,0,0.106800366806,0,0
*Step  = 1
*Time  = 1
*Data  = RCx;RCy;RCz;RCthx;RCthy;RCthz
1,-0.465305450305,0,0,-0.000985049915025,0,0
2,-1.22893622355,0,0,-0.00545471130274,0,0
3,0.245514348798,0,0,0.105022552355,0,0
*Step  = 2
*Time  = 1.00005
*Data  = RCx;RCy;RCz;RCthx;RCthy;RCthz
1,-0.468201858365,0,0,-0.000986805837604,0,0
2,-1.22900262314,0,0,-0.00544386254395,0,0
3,0.244510463561,0,0,0.104860790754,0,0
*Step  = 3
*Time  = 1.0003
*Data  = RCx;RCy;RCz;RCthx;RCthy;RCthz
1,-0.468727214466,0,0,-0.000987903936835,0,0
2,-1.22960582609,0,0,-0.00543401542495,0,0
3,0.244087192258,0,0,0.104798282159,0,0
*Step  = 4
*Time  = 1.00155
*Data  = RCx;RCy;RCz;RCthx;RCthy;RCthz
1,-0.469151351733,0,0,-0.000977498755479,0,0
2,-1.23044265882,0,0,-0.00542809799814,0,0
3,0.244061646277,0,0,0.104789769803,0,0
*Step  = 5
*Time  = 1.0078
*Data  = RCx;RCy;RCz;RCthx;RCthy;RCthz
1,-0.468081527592,0,0,-0.000720334362814,0,0
2,-1.23270274477,0,0,-0.00540224981983,0,0
3,0.246553930808,0,0,0.104878291566,0,0
*Step  = 6
*Time  = 1.03905
*Data  = RCx;RCy;RCz;RCthx;RCthy;RCthz
1,-0.46185764207,0,0,0.000772892995716,0,0
2,-1.24505309171,0,0,-0.00525496168145,0,0
3,0.261427623344,0,0,0.105479274193,0,0
*Step  = 7
*Time  = 1.05
*Data  = RCx;RCy;RCz;RCthx;RCthy;RCthz
1,-0.467678399118,0,0,-0.00100807072076,0,0
2,-1.24097185398,0,0,-0.00542478522066,0,0
3,0.247680858096,0,0,0.106008722864,0,0
*Step  = 8
*Time  = 1.1
*Data  = RCx;RCy;RCz;RCthx;RCthy;RCthz
1,-0.470058462829,0,0,-0.0276717644553,0,0
2,-1.20594074119,0,0,-0.00808198417911,0,0
3,0.0698338918431,0,0,0.11299427663,0,0
*Step  = 9
*Time  = 1.15
*Data  = RCx;RCy;RCz;RCthx;RCthy;RCthz
1,-0.457191565185,0,0,-0.0542689685349,0,0
2,-1.08651468333,0,0,-0.00962805532568,0,0
3,-0.149885158793,-0,-0,0.114286804373,0,0
*Step  = 10
*Time  = 1.2
*Data  = RCx;RCy;RCz;RCthx;RCthy;RCthz
1,-0.43662712,0,0,-0.0807719366631,0,0
2,-0.920930526754,0,0,-0.0103712416714,0,0
3,-0.38612791146,-0,-0,0.115473665982,0,0
*Step  = 11
*Time  = 1.25
*Data  = RCx;RCy;RCz;RCthx;RCthy;RCthz
1,-0.405116847534,0,0,-0.10726803941,0,0
2,-0.744610571663,0,0,-0.0109572004798,0,0
3,-0.621964944071,-0,-0,0.114053801318,0,0
*Step  = 12
*Time  = 1.3
*Data  = RCx;RCy;RCz;RCthx;RCthy;RCthz
1,-0.35252653578,0,0,-0.133729227581,0,0
2,-0.54918540045,0,0,-0.0111754464765,0,0
3,-0.862457520001,-0,-0,0.111472144901,0,0
*Step  = 13
*Time  = 1.35
*Data  = RCx;RCy;RCz;RCthx;RCthy;RCthz
1,-0.299402347301,0,0,-0.160147762219,0,0
2,-0.346541492494,0,0,-0.0110011885456,0,0
3,-1.10985803529,-0,-0,0.107150471962,0,0
*Step  = 14
*Time  = 1.4
*Data  = RCx;RCy;RCz;RCthx;RCthy;RCthz
1,-0.21817617151,0,0,-0.186540437095,0,0
2,-0.122186213485,0,0,-0.0103245200421,0,0
3,-1.35775259271,-0,-0,0.100489979514,0,0
*Step  = 15
*Time  = 1.45
*Data  = RCx;RCy;RCz;RCthx;RCthy;RCthz
1,-0.102228997646,0,0,-0.212915423705,0,0
2,0.138034283659,0,0,-0.00915333886354,0,0
3,-1.60837983085,-0,-0,0.0907868975133,0,0
*Step  = 16
*Time  = 1.5
*Data  = RCx;RCy;RCz;RCthx;RCthy;RCthz
1,0.0284540494848,0,0,-0.239286348935,0,0
2,0.389185546862,0,0,-0.00757835326031,0,0
3,-1.85705049938,-0,-0,0.0806647727911,0,0
*Step  = 17
*Time  = 1.55
*Data  = RCx;RCy;RCz;RCthx;RCthy;RCthz
1,0.117956949126,0,0,-0.265673704159,0,0
2,0.568935098564,0,0,-0.0069286941884,0,0
3,-2.10824192083,-0,-0,0.0748189506142,0,0
*Step  = 18
*Time  = 1.6
*Data  = RCx;RCy;RCz;RCthx;RCthy;RCthz
1,0.202509181933,0,0,-0.29208864769,0,0
2,0.698467328541,0,0,-0.00640904543284,0,0
3,-2.36121563943,-0,-0,0.0714416462393,0,0
*Step  = 19
*Time  = 1.65
*Data  = RCx;RCy;RCz;RCthx;RCthy;RCthz
1,0.307976633044,0,0,-0.318508496483,0,0
2,0.818613837053,0,0,-0.00580045559101,0,0
3,-2.61299234615,-0,-0,0.0667946093258,0,0
*Step  = 20
*Time  = 1.7
*Data  = RCx;RCy;RCz;RCthx;RCthy;RCthz
1,0.380003079511,0,0,-0.344933754839,0,0
2,0.942863827282,0,0,-0.00517291296441,0,0
3,-2.87060682291,-0,-0,0.0611446800447,0,0
*Step  = 21
*Time  = 1.75
*Data  = RCx;RCy;RCz;RCthx;RCthy;RCthz
1,0.449957433024,0,0,-0.37138648413,0,0
2,1.0667775102,0,0,-0.0055510271723,0,0
3,-3.13235872709,-0,-0,0.0587178560915,0,0
*Step  = 22
*Time  = 1.8
*Data  = RCx;RCy;RCz;RCthx;RCthy;RCthz
1,0.514852852335,0,0,-0.397831384919,0,0
2,1.20289114308,0,0,-0.00501947719942,0,0
3,-3.39568398555,-0,-0,0.0532053564303,0,0
*Step  = 23
*Time  = 1.85
*Data  = RCx;RCy;RCz;RCthx;RCthy;RCthz
1,0.571169572202,0,0,-0.424295535968,0,0
2,1.35010057046,0,0,-0.0039588495767,0,0
3,-3.66247693455,-0,-0,0.0463446210762,0,0
*Step  = 24
*Time  = 1.9
*Data  = RCx;RCy;RCz;RCthx;RCthy;RCthz
1,0.645054695826,0,0,-0.45077847244,0,0
2,1.50748448398,0,0,-0.00239911465053,0,0
3,-3.93031802224,-0,-0,0.0401995868459,0,0
*Step  = 25
*Time  = 1.95
*Data  = RCx;RCy;RCz;RCthx;RCthy;RCthz
1,0.703420222447,0,0,-0.47727306816,0,0
2,1.66843121273,0,0,-0.00161402963848,0,0
3,-4.20752944724,-0,-0,0.0373551161497,0,0
*Step  = 26
*Time  = 2
*Data  = RCx;RCy;RCz;RCthx;RCthy;RCthz
1,0.760854377716,0,0,-0.50376440929,0,0
2,1.84141564057,0,0,5.0721091012e-05,0,0
3,-4.48120224893,-0,-0,0.0325147968434,0,0
*Step  = 27
*Time  = 2.05
*Data  = RCx;RCy;RCz;RCthx;RCthy;RCthz
1,0.765593158472,0,0,-0.503625353545,0,0
2,1.96273269403,0,0,0.00307194027609,0,0
3,-4.4591898453,-0,-0,0.00684430132276,0,0
*Step  = 28
*Time  = 2.1
*Data  = RCx;RCy;RCz;RCthx;RCthy;RCthz
1,0.945395698582,0,0,-0.504418791302,0,0
2,1.46389521749,0,0,-0.00241339609845,0,0
3,-4.55717995494,-0,-0,0.0766348341184,0,0
*Step  = 29
*Time  = 2.15
*Data  = RCx;RCy;RCz;RCthx;RCthy;RCthz
1,0.78921246631,0,0,-0.50540233157,0,0
2,0.708261949435,0,0,-0.00660911928739,0,0
3,-4.56248927706,-0,-0,0.123424279578,0,0
*Step  = 30
*Time  = 2.2
*Data  = RCx;RCy;RCz;RCthx;RCthy;RCthz
1,0.548424317994,0,0,-0.50660316241,0,0
2,-0.164321298516,0,0,-0.0100912121412,0,0
3,-4.52740467771,-0,-0,0.169738309016,0,0
*Step  = 31
*Time  = 2.25
*Data  = RCx;RCy;RCz;RCthx;RCthy;RCthz
1,0.488392726512,0,0,-0.507621081021,0,0
2,-0.707842757516,0,0,-0.0114416539902,0,0
3,-4.52591553071,-0,-0,0.196310718392,0,0
*Step  = 32
*Time  = 2.3
*Data  = RCx;RCy;RCz;RCthx;RCthy;RCthz
1,0.510608782513,0,0,-0.508839477529,0,0
2,-1.30913325784,0,0,-0.0111452413278,0,0
3,-4.48269278594,-0,-0,0.223545780448,0,0
*Step  = 33
*Time  = 2.35
*Data  = RCx;RCy;RCz;RCthx;RCthy;RCthz
1,0.526706915103,0,0,-0.50989853895,0,0
2,-1.74095341966,0,0,-0.0106868499361,0,0
3,-4.46341288943,-0,-0,0.241738812601,0,0
*Step  = 34
*Time  = 2.4
*Data  = RCx;RCy;RCz;RCthx;RCthy;RCthz
1,0.362007330693,0,0,-0.500405449959,0,0
2,-2.32542150814,0,0,-0.0120359851605,0,0
3,-4.65453846714,-0,-0,0.246364746295,0,0
*Step  = 35
*Time  = 2.45
*Data  = RCx;RCy;RCz;RCthx;RCthy;RCthz
1,0.500763477445,0,0,-0.501475760006,0,0
2,-2.72913200124,0,0,-0.00953036437141,0,0
3,-4.5485832999,-0,-0,0.263898579794,0,0
*Step  = 36
*Time  = 2.5
*Data  = RCx;RCy;RCz;RCthx;RCthy;RCthz
1,0.541395684515,0,0,-0.502452624272,0,0
2,-3.04544595499,0,0,-0.00809797498404,0,0
3,-4.49956273619,-0,-0,0.276214769112,0,0
*Step  = 37
*Time  = 2.54998
*Data  = RCx;RCy;RCz;RCthx;RCthy;RCthz
1,0.583004663015,0,0,-0.503394600323,0,0
2,-3.33287957369,0,0,-0.00673214180168,0,0
3,-4.45953526444,-0,-0,0.287292006659,0,0
