*Step  = 1
*Time  = 1e-05
*Data  = RCx;RCy;RCz;RCthx;RCthy;RCthz
1,-0.553964942328,0,0,0.000101270793332,0,0
2,0.0994287588421,0,0,-0.00245812399058,0,0
3,-0.0521897953737,-0,-0,0.00405854340917,0,0
*Step  = 2
*Time  = 6e-05
*Data  = RCx;RCy;RCz;RCthx;RCthy;RCthz
1,-0.611359035305,0,0,0.000139808896369,0,0
2,0.0878217864537,0,0,-0.00271604741033,0,0
3,-0.08167551345,-0,-0,0.00603313164943,0,0
*Step  = 3
*Time  = 0.00011
*Data  = RCx;RCy;RCz;RCthx;RCthy;RCthz
1,-0.636278362507,0,0,0.000163643211836,0,0
2,0.0780289470438,0,0,-0.00283128910949,0,0
3,-0.0990910363416,-0,-0,0.00740366493301,0,0
*Step  = 4
*Time  = 0.00036
*Data  = RCx;RCy;RCz;RCthx;RCthy;RCthz
1,-0.649925582005,0,0,0.00017750807116,0,0
2,0.0714012421852,0,0,-0.00291065054117,0,0
3,-0.108605166424,-0,-0,0.00801718635186,0,0
*Step  = 5
*Time  = 0.00161
*Data  = RCx;RCy;RCz;RCthx;RCthy;RCthz
1,-0.660727350937,0,0,0.000184692020933,0,0
2,0.0679879822916,0,0,-0.00298170244697,0,0
3,-0.113071700954,-0,-0,0.00819038702091,0,0
*Step  = 6
*Time  = 0.00786
*Data  = RCx;RCy;RCz;RCthx;RCthy;RCthz
1,-0.669246859116,0,0,0.000179418851422,0,0
2,0.0675393600983,0,0,-0.00300029203455,0,0
3,-0.112292729957,-0,-0,0.00839514886261,0,0
*Step  = 7
*Time  = 0.03911
*Data  = RCx;RCy;RCz;RCthx;RCthy;RCthz
1,-0.683577276009,0,0,0.00012358793367,0,0
2,0.0515021354635,0,0,-0.00287065062586,0,0
3,-0.0895448908455,-0,-0,0.0101296660822,0,0
*Step  = 8
*Time  = 0.05
*Data  = RCx;RCy;RCz;RCthx;RCthy;RCthz
1,-0.66618040058,0,0,0.00010780499315,0,0
2,-0.0178647386648,0,0,-0.00281874737653,0,0
3,-0.0783269388963,-0,-0,0.0135827221693,0,0
*Step  = 9
*Time  = 0.1
*Data  = RCx;RCy;RCz;RCthx;RCthy;RCthz
1,-0.588249016563,0,0,1.06906244927e-05,0,0
2,-0.349931273526,0,0,-0.00288500582221,0,0
3,0.0260840233386,0,0,0.0341198720652,0,0
*Step  = 10
*Time  = 0.15
*Data  = RCx;RCy;RCz;RCthx;RCthy;RCthz
1,-0.545455482397,0,0,-4.90725961722e-05,0,0
2,-0.543570154264,0,0,-0.00330434147709,0,0
3,0.0753217426227,0,0,0.0470179874473,0,0
*Step  = 11
*Time  = 0.2
*Data  = RCx;RCy;RCz;RCthx;RCthy;RCthz
1,-0.536628303074,0,0,-0.000105142359853,0,0
2,-0.643640998263,0,0,-0.00371236688203,0,0
3,0.0999563263221,0,0,0.0545008108679,0,0
*Step  = 12
*Time  = 0.25
*Data  = RCx;RCy;RCz;RCthx;RCthy;RCthz
1,-0.51157327807,0,0,-0.000159780228459,0,0
2,-0.717641911307,0,0,-0.00399305968738,0,0
3,0.12168033157,0,0,0.0608024063217,0,0
*Step  = 13
*Time  = 0.3
*Data  = RCx;RCy;RCz;RCthx;RCthy;RCthz
1,-0.515626789094,0,0,-0.000212818750972,0,0
2,-0.76607295879,0,0,-0.0041832140429,0,0
3,0.133972581463,0,0,0.0649657002174,0,0
*Step  = 14
*Time  = 0.35
*Data  = RCx;RCy;RCz;RCthx;RCthy;RCthz
1,-0.512215995788,0,0,-0.000266766504545,0,0
2,-0.812705873258,0,0,-0.00438958449528,0,0
3,0.14754571711,0,0,0.069297801426,0,0
*Step  = 15
*Time  = 0.4
*Data  = RCx;RCy;RCz;RCthx;RCthy;RCthz
1,-0.481470098563,0,0,-0.000327102414507,0,0
2,-0.850552864073,0,0,-0.00460563217626,0,0
3,0.165589980272,0,0,0.0740029164034,0,0
*Step  = 16
*Time  = 0.45
*Data  = RCx;RCy;RCz;RCthx;RCthy;RCthz
1,-0.499260758251,0,0,-0.000379132341964,0,0
2,-0.88270355785,0,0,-0.00470512990841,0,0
3,0.173125539431,0,0,0.0767842582898,0,0
*Step  = 17
*Time  = 0.5
*Data  = RCx;RCy;RCz;RCthx;RCthy;RCthz
1,-0.501245967421,0,0,-0.000434739172119,0,0
2,-0.913235079519,0,0,-0.00483985518919,0,0
3,0.182150928979,0,0,0.0797866764641,0,0
*Step  = 18
*Time  = 0.55
*Data  = RCx;RCy;RCz;RCthx;RCthy;RCthz
1,-0.494785795621,0,0,-0.00049030138495,0,0
2,-0.945131997144,0,0,-0.00496064215709,0,0
3,0.192608721573,0,0,0.0830277904303,0,0
*Step  = 19
*Time  = 0.6
*Data  = RCx;RCy;RCz;RCthx;RCthy;RCthz
1,-0.493484584441,0,0,-0.000545471120475,0,0
2,-0.973389608286,0,0,-0.00508399512398,0,0
3,0.202007571611,0,0,0.0859866468573,0,0
*Step  = 20
*Time  = 0.65
*Data  = RCx;RCy;RCz;RCthx;RCthy;RCthz
1,-0.491511854842,0,0,-0.000600453379066,0,0
2,-0.999391919092,0,0,-0.00519664584626,0,0
3,0.210720321757,0,0,0.0887636720622,0,0
*Step  = 21
*Time  = 0.7
*Data  = RCx;RCy;RCz;RCthx;RCthy;RCthz
1,-0.49757136979,0,0,-0.00065710377401,0,0
2,-1.02270871366,0,0,-0.00533633806107,0,0
3,0.21874861287,0,0,0.0913062644399,0,0
*Step  = 22
*Time  = 0.75
*Data  = RCx;RCy;RCz;RCthx;RCthy;RCthz
1,-0.489419983144,0,0,-0.000714310949114,0,0
2,-1.04709854043,0,0,-0.00541855926341,0,0
3,0.227305987912,0,0,0.0939714039784,0,0
*Step  = 23
*Time  = 0.8
*Data  = RCx;RCy;RCz;RCthx;RCthy;RCthz
1,-0.486569303083,0,0,-0.000771283740977,0,0
2,-1.06984538097,0,0,-0.00548342943191,0,0
3,0.23473673976,0,0,0.0962900633017,0,0
*Step  = 24
*Time  = 0.85
*Data  = RCx;RCy;RCz;RCthx;RCthy;RCthz
1,-0.484111123936,0,0,-0.000827667561231,0,0
2,-1.09226692945,0,0,-0.00555173140561,0,0
3,0.242303188557,0,0,0.0985941304921,0,0
*Step  = 25
*Time  = 0.9
*Data  = RCx;RCy;RCz;RCthx;RCthy;RCthz
1,-0.448705628543,0,0,-0.000888482018786,0,0
2,-1.10725179097,0,0,-0.00569868267592,0,0
3,0.256714215568,0,0,0.101692788048,0,0
*Step  = 26
*Time  = 0.95
*Data  = RCx;RCy;RCz;RCthx;RCthy;RCthz
1,-0.466038049746,0,0,-0.000941178955399,0,0
2,-1.12361765796,0,0,-0.00566490850199,0,0
3,0.258833035046,0,0,0.103015265937,0,0
*Step  = 27
*Time  = 0.99999
*Data  = RCx;RCy;RCz;RCthx;RCthy;RCthz
1,-0.463829402243,0,0,-0.000994163287292,0,0
2,-1.14542041497,0,0,-0.0057065738493,0,0
3,0.26562585935,0,0,0.105199102382,0,0
*Step  = 1
*Time  = 1
*Data  = RCx;RCy;RCz;RCthx;RCthy;RCthz
1,-0.484127729764,0,0,-0.000995972007486,0,0
2,-1.12426879963,0,0,-0.00570918066772,0,0
3,0.251880312324,0,0,0.103202644139,0,0
*Step  = 2
*Time  = 1.00005
*Data  = RCx;RCy;RCz;RCthx;RCthy;RCthz
1,-0.488489883651,0,0,-0.000997533634306,0,0
2,-1.12472955498,0,0,-0.00570357732334,0,0
3,0.250895456998,0,0,0.103050435859,0,0
*Step  = 3
*Time  = 1.0003
*Data  = RCx;RCy;RCz;RCthx;RCthy;RCthz
1,-0.490241529603,0,0,-0.00099793395812,0,0
2,-1.12539428673,0,0,-0.00570190311083,0,0
3,0.250479724076,0,0,0.103006690133,0,0
*Step  = 4
*Time  = 1.00155
*Data  = RCx;RCy;RCz;RCthx;RCthy;RCthz
1,-0.491580035218,0,0,-0.00098673601647,0,0
2,-1.12602863908,0,0,-0.00571056728394,0,0
3,0.250517058642,0,0,0.103030906182,0,0
*Step  = 5
*Time  = 1.0078
*Data  = RCx;RCy;RCz;RCthx;RCthy;RCthz
1,-0.490789312182,0,0,-0.000727983066872,0,0
2,-1.12855313609,0,0,-0.00569761278318,0,0
3,0.253315023038,0,0,0.103190902842,0,0
*Step  = 6
*Time  = 1.03905
*Data  = RCx;RCy;RCz;RCthx;RCthy;RCthz
1,-0.485417203818,0,0,0.000766367228062,0,0
2,-1.14083612798,0,0,-0.00556649098432,0,0
3,0.268377505445,0,0,0.103811250914,0,0
*Step  = 7
*Time  = 1.05
*Data  = RCx;RCy;RCz;RCthx;RCthy;RCthz
1,-0.491239486665,0,0,-0.00101255145941,0,0
2,-1.13640605286,0,0,-0.00575566249084,0,0
3,0.255001821219,0,0,0.104426489286,0,0
*Step  = 8
*Time  = 1.1
*Data  = RCx;RCy;RCz;RCthx;RCthy;RCthz
1,-0.503009702562,0,0,-0.0276538825249,0,0
2,-1.09171900337,0,0,-0.00838496655507,0,0
3,0.074661507968,0,0,0.111492133788,0,0
*Step  = 9
*Time  = 1.15
*Data  = RCx;RCy;RCz;RCthx;RCthy;RCthz
1,-0.479594520353,0,0,-0.0542315838359,0,0
2,-0.96228378511,0,0,-0.00982064237138,0,0
3,-0.145186001486,-0,-0,0.113134091615,0,0
*Step  = 10
*Time  = 1.2
*Data  = RCx;RCy;RCz;RCthx;RCthy;RCthz
1,-0.451547458345,0,0,-0.0807422356195,0,0
2,-0.7952927995,0,0,-0.0105122327479,0,0
3,-0.37895439081,-0,-0,0.114313722126,0,0
*Step  = 11
*Time  = 1.25
*Data  = RCx;RCy;RCz;RCthx;RCthy;RCthz
1,-0.403691527414,0,0,-0.107243041892,0,0
2,-0.61861151239,0,0,-0.0110156103698,0,0
3,-0.612081337054,-0,-0,0.113061342245,0,0
*Step  = 12
*Time  = 1.3
*Data  = RCx;RCy;RCz;RCthx;RCthy;RCthz
1,-0.36595367115,0,0,-0.133700333169,0,0
2,-0.418022786179,0,0,-0.0110988549417,0,0
3,-0.855740948466,-0,-0,0.109699456615,0,0
*Step  = 13
*Time  = 1.35
*Data  = RCx;RCy;RCz;RCthx;RCthy;RCthz
1,-0.304326210041,0,0,-0.160120865202,0,0
2,-0.202837599276,0,0,-0.0107852518005,0,0
3,-1.10183674924,-0,-0,0.104489009616,0,0
*Step  = 14
*Time  = 1.4
*Data  = RCx;RCy;RCz;RCthx;RCthy;RCthz
1,-0.20880431178,0,0,-0.18651934004,0,0
2,0.0284596572403,0,0,-0.0100271005668,0,0
3,-1.34573519655,-0,-0,0.0974836739172,0,0
*Step  = 15
*Time  = 1.45
*Data  = RCx;RCy;RCz;RCthx;RCthy;RCthz
1,-0.0756045504704,0,0,-0.212893806649,0,0
2,0.308568622172,0,0,-0.00847914562425,0,0
3,-1.59384113003,-0,-0,0.0861222229711,0,0
*Step  = 16
*Time  = 1.5
*Data  = RCx;RCy;RCz;RCthx;RCthy;RCthz
1,0.0340238952533,0,0,-0.239283926297,0,0
2,0.515068971655,0,0,-0.00730943561619,0,0
3,-1.84203217732,-0,-0,0.0788801746123,0,0
*Step  = 17
*Time  = 1.55
*Data  = RCx;RCy;RCz;RCthx;RCthy;RCthz
1,0.114160343324,0,0,-0.265686381084,0,0
2,0.671532869967,0,0,-0.00677514028316,0,0
3,-2.09266246095,-0,-0,0.0742291442179,0,0
*Step  = 18
*Time  = 1.6
*Data  = RCx;RCy;RCz;RCthx;RCthy;RCthz
1,0.199376666862,0,0,-0.292115090796,0,0
2,0.805908657224,0,0,-0.0063657454181,0,0
3,-2.34208871064,-0,-0,0.0711973409985,0,0
*Step  = 19
*Time  = 1.65
*Data  = RCx;RCy;RCz;RCthx;RCthy;RCthz
1,0.293552574208,0,0,-0.318546454485,0,0
2,0.938708699117,0,0,-0.0057893462438,0,0
3,-2.5919050046,-0,-0,0.0666663922586,0,0
*Step  = 20
*Time  = 1.7
*Data  = RCx;RCy;RCz;RCthx;RCthy;RCthz
1,0.359952729096,0,0,-0.344986983526,0,0
2,1.0681818323,0,0,-0.00520721541092,0,0
3,-2.84593618247,-0,-0,0.0620640535323,0,0
*Step  = 21
*Time  = 1.75
*Data  = RCx;RCy;RCz;RCthx;RCthy;RCthz
1,0.440387704115,0,0,-0.371445550722,0,0
2,1.20813739129,0,0,-0.00454364072833,0,0
3,-3.10089170818,-0,-0,0.0570636459406,0,0
*Step  = 22
*Time  = 1.8
*Data  = RCx;RCy;RCz;RCthx;RCthy;RCthz
1,0.482260311646,0,0,-0.397928433506,0,0
2,1.35482125495,0,0,-0.00528797570651,0,0
3,-3.36447467206,-0,-0,0.0563000281265,0,0
*Step  = 23
*Time  = 1.85
*Data  = RCx;RCy;RCz;RCthx;RCthy;RCthz
1,0.541880909169,0,0,-0.42441810099,0,0
2,1.51214757695,0,0,-0.00391954268295,0,0
3,-3.62304710509,-0,-0,0.0482531040178,0,0
*Step  = 24
*Time  = 1.9
*Data  = RCx;RCy;RCz;RCthx;RCthy;RCthz
1,0.607604867854,0,0,-0.450926579269,0,0
2,1.67713919354,0,0,-0.00302094630096,0,0
3,-3.88862908624,-0,-0,0.0433003345512,0,0
*Step  = 25
*Time  = 1.95
*Data  = RCx;RCy;RCz;RCthx;RCthy;RCthz
1,0.682280827994,0,0,-0.477425344499,0,0
2,1.85384523784,0,0,0.000342939569263,0,0
3,-4.15119080114,-0,-0,0.0321888386862,0,0
*Step  = 26
*Time  = 2
*Data  = RCx;RCy;RCz;RCthx;RCthy;RCthz
1,0.68952764946,0,0,-0.503989326581,0,0
2,2.04024692022,0,0,-0.000611151580524,0,0
3,-4.43518288865,-0,-0,0.0386435079321,0,0
*Step  = 27
*Time  = 2.05
*Data  = RCx;RCy;RCz;RCthx;RCthy;RCthz
1,0.716996259771,0,0,-0.503849301143,0,0
2,2.12997681129,0,0,0.00259723101878,0,0
3,-4.42046690063,-0,-0,0.0156999669058,0,0
*Step  = 28
*Time  = 2.1
*Data  = RCx;RCy;RCz;RCthx;RCthy;RCthz
1,0.880994733229,0,0,-0.504655496293,0,0
2,1.76703816986,0,0,-0.00197756835516,0,0
3,-4.48417302404,-0,-0,0.0721205247048,0,0
*Step  = 29
*Time  = 2.15
*Data  = RCx;RCy;RCz;RCthx;RCthy;RCthz
1,0.860661008837,0,0,-0.505508522081,0,0
2,1.32127971225,0,0,-0.00473465785947,0,0
3,-4.49027239739,-0,-0,0.104159370871,0,0
*Step  = 30
*Time  = 2.2
*Data  = RCx;RCy;RCz;RCthx;RCthy;RCthz
1,0.743297579891,0,0,-0.506121533052,0,0
2,0.930025877127,0,0,0.000513153152845,0,0
3,-4.49820113223,-0,-0,0.12879396213,0,0
*Step  = 31
*Time  = 2.25
*Data  = RCx;RCy;RCz;RCthx;RCthy;RCthz
1,0.440754096595,0,0,-0.507724712185,0,0
2,0.10580087207,0,0,-0.0107591441992,0,0
3,-4.41862543288,-0,-0,0.175472097912,0,0
*Step  = 32
*Time  = 2.3
*Data  = RCx;RCy;RCz;RCthx;RCthy;RCthz
1,0.383444487033,0,0,-0.509003221048,0,0
2,-0.400687154012,0,0,-0.0125666660626,0,0
3,-4.40198070748,-0,-0,0.203651901541,0,0
*Step  = 33
*Time  = 2.35
*Data  = RCx;RCy;RCz;RCthx;RCthy;RCthz
1,0.361462240167,0,0,-0.510114430159,0,0
2,-0.786595226877,0,0,-0.0130914820164,0,0
3,-4.38525053772,-0,-0,0.223342051798,0,0
*Step  = 34
*Time  = 2.4
*Data  = RCx;RCy;RCz;RCthx;RCthy;RCthz
1,0.208073859853,0,0,-0.500447212056,0,0
2,-1.32632566777,0,0,-0.0145196948019,0,0
3,-4.61073406154,-0,-0,0.227663734325,0,0
*Step  = 35
*Time  = 2.45
*Data  = RCx;RCy;RCz;RCthx;RCthy;RCthz
1,0.311138834633,0,0,-0.501573197235,0,0
2,-1.70396183104,0,0,-0.0130552476253,0,0
3,-4.50782915918,-0,-0,0.246804755441,0,0
*Step  = 36
*Time  = 2.5
*Data  = RCx;RCy;RCz;RCthx;RCthy;RCthz
1,0.334429253447,0,0,-0.502599058171,0,0
2,-1.99323314078,0,0,-0.0123634074531,0,0
3,-4.46272991791,-0,-0,0.260217185911,0,0
*Step  = 37
*Time  = 2.54998
*Data  = RCx;RCy;RCz;RCthx;RCthy;RCthz
1,0.355672686116,0,0,-0.503599896897,0,0
2,-2.25863332962,0,0,-0.0116281047555,0,0
3,-4.42433191903,-0,-0,0.272103518272,0,0
