*Step  = 1
*Time  = 1e-05
*Data  = RCx;RCy;RCz;RCthx;RCthy;RCthz
1,-0.55408362514,0,0,0.000101138281301,0,0
2,0.102441333564,0,0,-0.00247451327637,0,0
3,-0.0511864551648,-0,-0,0.00420814977395,0,0
*Step  = 2
*Time  = 6e-05
*Data  = RCx;RCy;RCz;RCthx;RCthy;RCthz
1,-0.611522967919,0,0,0.000139830372153,0,0
2,0.0922811246491,0,0,-0.00274273407054,0,0
3,-0.0801123258388,-0,-0,0.00629647265579,0,0
*Step  = 3
*Time  = 0.00031
*Data  = RCx;RCy;RCz;RCthx;RCthy;RCthz
1,-0.636363492947,0,0,0.000163464421124,0,0
2,0.0831808914068,0,0,-0.00285828225649,0,0
3,-0.0972230554464,-0,-0,0.00774184437109,0,0
*Step  = 4
*Time  = 0.00156
*Data  = RCx;RCy;RCz;RCthx;RCthy;RCthz
1,-0.650209284164,0,0,0.000175734755086,0,0
2,0.0771942894459,0,0,-0.00294451677485,0,0
3,-0.105851811384,-0,-0,0.00834198077129,0,0
*Step  = 5
*Time  = 0.00781
*Data  = RCx;RCy;RCz;RCthx;RCthy;RCthz
1,-0.66297208648,0,0,0.000173977833362,0,0
2,0.0756797560592,0,0,-0.00299766264316,0,0
3,-0.107073133672,-0,-0,0.00861465938157,0,0
*Step  = 6
*Time  = 0.03906
*Data  = RCx;RCy;RCz;RCthx;RCthy;RCthz
1,-0.680240490569,0,0,0.000120776444048,0,0
2,0.0641595666069,0,0,-0.00289136947376,0,0
3,-0.0870927703793,-0,-0,0.0100771114005,0,0
*Step  = 7
*Time  = 0.05
*Data  = RCx;RCy;RCz;RCthx;RCthy;RCthz
1,-0.663399833706,0,0,0.000105682966473,0,0
2,-0.0121102948136,0,0,-0.0028516263123,0,0
3,-0.0762042865954,-0,-0,0.0137977878193,0,0
*Step  = 8
*Time  = 0.1
*Data  = RCx;RCy;RCz;RCthx;RCthy;RCthz
1,-0.58685639861,0,0,1.04836689462e-05,0,0
2,-0.351139683263,0,0,-0.00290709730495,0,0
3,0.027293594003,0,0,0.0343930914321,0,0
*Step  = 9
*Time  = 0.15
*Data  = RCx;RCy;RCz;RCthx;RCthy;RCthz
1,-0.544431876244,0,0,-4.94057695953e-05,0,0
2,-0.544719830358,0,0,-0.00330718127141,0,0
3,0.0755829982347,0,0,0.0471267287002,0,0
*Step  = 10
*Time  = 0.2
*Data  = RCx;RCy;RCz;RCthx;RCthy;RCthz
1,-0.536144665772,0,0,-0.000105231752111,0,0
2,-0.645909562774,0,0,-0.00370717227768,0,0
3,0.10004939716,0,0,0.0545932976198,0,0
*Step  = 11
*Time  = 0.25
*Data  = RCx;RCy;RCz;RCthx;RCthy;RCthz
1,-0.511897977734,0,0,-0.000159871191709,0,0
2,-0.720378806176,0,0,-0.00398405873168,0,0
3,0.12148169874,0,0,0.0608486504519,0,0
*Step  = 12
*Time  = 0.3
*Data  = RCx;RCy;RCz;RCthx;RCthy;RCthz
1,-0.515581390104,0,0,-0.000212917619834,0,0
2,-0.769065666604,0,0,-0.0041728432398,0,0
3,0.133659310715,0,0,0.0650002403099,0,0
*Step  = 13
*Time  = 0.35
*Data  = RCx;RCy;RCz;RCthx;RCthy;RCthz
1,-0.511186613176,0,0,-0.000267040375642,0,0
2,-0.816701003364,0,0,-0.00437464896195,0,0
3,0.147366668391,0,0,0.0693702374273,0,0
*Step  = 14
*Time  = 0.4
*Data  = RCx;RCy;RCz;RCthx;RCthy;RCthz
1,-0.48189926278,0,0,-0.000327269551933,0,0
2,-0.853973999977,0,0,-0.00459211627136,0,0
3,0.165082375107,0,0,0.0740094895014,0,0
*Step  = 15
*Time  = 0.45
*Data  = RCx;RCy;RCz;RCthx;RCthy;RCthz
1,-0.498132965581,0,0,-0.000379218807847,0,0
2,-0.886747755668,0,0,-0.00469090529618,0,0
3,0.17290266577,0,0,0.0768518434643,0,0
*Step  = 16
*Time  = 0.5
*Data  = RCx;RCy;RCz;RCthx;RCthy;RCthz
1,-0.500024681149,0,0,-0.000434694357704,0,0
2,-0.918386740888,0,0,-0.00482619388822,0,0
3,0.182255972767,0,0,0.0799301442508,0,0
*Step  = 17
*Time  = 0.55
*Data  = RCx;RCy;RCz;RCthx;RCthy;RCthz
1,-0.494282905923,0,0,-0.000490301533488,0,0
2,-0.949297464037,0,0,-0.00494678477058,0,0
3,0.1923278746,0,0,0.0830920381461,0,0
*Step  = 18
*Time  = 0.6
*Data  = RCx;RCy;RCz;RCthx;RCthy;RCthz
1,-0.493706159439,0,0,-0.000545353295426,0,0
2,-0.97696316448,0,0,-0.00507189639962,0,0
3,0.201451783666,0,0,0.0860020433676,0,0
*Step  = 19
*Time  = 0.65
*Data  = RCx;RCy;RCz;RCthx;RCthy;RCthz
1,-0.491855324692,0,0,-0.000600307682773,0,0
2,-1.00263139223,0,0,-0.00518905018752,0,0
3,0.210159135289,0,0,0.0887694067353,0,0
*Step  = 20
*Time  = 0.7
*Data  = RCx;RCy;RCz;RCthx;RCthy;RCthz
1,-0.496966376256,0,0,-0.000656887361468,0,0
2,-1.02675047683,0,0,-0.00532476204459,0,0
3,0.218591472698,0,0,0.0913805888924,0,0
*Step  = 21
*Time  = 0.75
*Data  = RCx;RCy;RCz;RCthx;RCthy;RCthz
1,-0.488981909054,0,0,-0.000714146736461,0,0
2,-1.05065167403,0,0,-0.00540678355582,0,0
3,0.226867404674,0,0,0.0940033205873,0,0
*Step  = 22
*Time  = 0.8
*Data  = RCx;RCy;RCz;RCthx;RCthy;RCthz
1,-0.486001643958,0,0,-0.0007709389465,0,0
2,-1.07393289599,0,0,-0.00547234106376,0,0
3,0.234487587266,0,0,0.0963615991181,0,0
*Step  = 23
*Time  = 0.85
*Data  = RCx;RCy;RCz;RCthx;RCthy;RCthz
1,-0.483263752163,0,0,-0.000827363508295,0,0
2,-1.09654318484,0,0,-0.00553932053515,0,0
3,0.242039881441,0,0,0.0986722496204,0,0
*Step  = 24
*Time  = 0.9
*Data  = RCx;RCy;RCz;RCthx;RCthy;RCthz
1,-0.448097055425,0,0,-0.000888382964487,0,0
2,-1.11150612221,0,0,-0.00568377904865,0,0
3,0.256417513879,0,0,0.101758873182,0,0
*Step  = 25
*Time  = 0.95
*Data  = RCx;RCy;RCz;RCthx;RCthy;RCthz
1,-0.464838880048,0,0,-0.000941217768405,0,0
2,-1.12762605257,0,0,-0.0056497580208,0,0
3,0.258483602803,0,0,0.103072851823,0,0
*Step  = 26
*Time  = 0.99999
*Data  = RCx;RCy;RCz;RCthx;RCthy;RCthz
1,-0.463368427354,0,0,-0.000993983245923,0,0
2,-1.14984601534,0,0,-0.00569641115734,0,0
3,0.265346374126,0,0,0.105282182175,0,0
*Step  = 1
*Time  = 1
*Data  = RCx;RCy;RCz;RCthx;RCthy;RCthz
1,-0.48324091592,0,0,-0.000995689759043,0,0
2,-1.1287021447,0,0,-0.00569736390025,0,0
3,0.251617257853,0,0,0.103294380945,0,0
*Step  = 2
*Time  = 1.00005
*Data  = RCx;RCy;RCz;RCthx;RCthy;RCthz
1,-0.487832806008,0,0,-0.000997283063891,0,0
2,-1.12916568494,0,0,-0.00569119298306,0,0
3,0.250594384838,0,0,0.103133905404,0,0
*Step  = 3
*Time  = 1.0003
*Data  = RCx;RCy;RCz;RCthx;RCthy;RCthz
1,-0.489562513788,0,0,-0.000997668021679,0,0
2,-1.12980221033,0,0,-0.00569003157918,0,0
3,0.25016767362,0,0,0.103089415139,0,0
*Step  = 4
*Time  = 1.00155
*Data  = RCx;RCy;RCz;RCthx;RCthy;RCthz
1,-0.490744574168,0,0,-0.000986461448826,0,0
2,-1.13047992377,0,0,-0.00569863888745,0,0
3,0.250253191617,0,0,0.103122332448,0,0
*Step  = 5
*Time  = 1.0078
*Data  = RCx;RCy;RCz;RCthx;RCthy;RCthz
1,-0.490097008721,0,0,-0.000727736856373,0,0
2,-1.13300280975,0,0,-0.00568609832788,0,0
3,0.253048517456,0,0,0.103280764363,0,0
*Step  = 6
*Time  = 1.03905
*Data  = RCx;RCy;RCz;RCthx;RCthy;RCthz
1,-0.484485650199,0,0,0.000766636539636,0,0
2,-1.145310536,0,0,-0.00555537100043,0,0
3,0.268101835425,0,0,0.103907031571,0,0
*Step  = 7
*Time  = 1.05
*Data  = RCx;RCy;RCz;RCthx;RCthy;RCthz
1,-0.490622808987,0,0,-0.00101207555832,0,0
2,-1.14092158961,0,0,-0.0057447533481,0,0
3,0.254726818528,0,0,0.104519155057,0,0
*Step  = 8
*Time  = 1.1
*Data  = RCx;RCy;RCz;RCthx;RCthy;RCthz
1,-0.502330946796,0,0,-0.0276540145208,0,0
2,-1.09642507898,0,0,-0.00837702747641,0,0
3,0.0744997120816,0,0,0.111593075185,0,0
*Step  = 9
*Time  = 1.15
*Data  = RCx;RCy;RCz;RCthx;RCthy;RCthz
1,-0.479501221415,0,0,-0.0542320494904,0,0
2,-0.966980671586,0,0,-0.00981788865411,0,0
3,-0.145359183374,-0,-0,0.113206385151,0,0
*Step  = 10
*Time  = 1.2
*Data  = RCx;RCy;RCz;RCthx;RCthy;RCthz
1,-0.450430896726,0,0,-0.0807430012341,0,0
2,-0.799569095806,0,0,-0.0105100360025,0,0
3,-0.379087484835,-0,-0,0.114387936505,0,0
*Step  = 11
*Time  = 1.25
*Data  = RCx;RCy;RCz;RCthx;RCthy;RCthz
1,-0.403559061223,0,0,-0.107243425489,0,0
2,-0.623134484148,0,0,-0.0110174214229,0,0
3,-0.612338629917,-0,-0,0.113127808292,0,0
*Step  = 12
*Time  = 1.3
*Data  = RCx;RCy;RCz;RCthx;RCthy;RCthz
1,-0.366440879923,0,0,-0.133700323616,0,0
2,-0.423371372078,0,0,-0.0111027170905,0,0
3,-0.856106720882,-0,-0,0.109801458895,0,0
*Step  = 13
*Time  = 1.35
*Data  = RCx;RCy;RCz;RCthx;RCthy;RCthz
1,-0.30489632403,0,0,-0.160121090969,0,0
2,-0.208527708426,0,0,-0.010795648339,0,0
3,-1.10227361261,-0,-0,0.104624814144,0,0
*Step  = 14
*Time  = 1.4
*Data  = RCx;RCy;RCz;RCthx;RCthy;RCthz
1,-0.209805020448,0,0,-0.186519517727,0,0
2,0.0223754889024,0,0,-0.0100490987376,0,0
3,-1.34624328923,-0,-0,0.0976602109725,0,0
*Step  = 15
*Time  = 1.45
*Data  = RCx;RCy;RCz;RCthx;RCthy;RCthz
1,-0.0810782633639,0,0,-0.212895298271,0,0
2,0.299421746017,0,0,-0.00864542678044,0,0
3,-1.59478406026,-0,-0,0.0864864867098,0,0
*Step  = 16
*Time  = 1.5
*Data  = RCx;RCy;RCz;RCthx;RCthy;RCthz
1,0.03310615176,0,0,-0.239283990364,0,0
2,0.508990619274,0,0,-0.00735596061499,0,0
3,-1.84279574215,-0,-0,0.0790352182816,0,0
*Step  = 17
*Time  = 1.55
*Data  = RCx;RCy;RCz;RCthx;RCthy;RCthz
1,0.115100923789,0,0,-0.265685395488,0,0
2,0.667370231546,0,0,-0.00677441417387,0,0
3,-2.09325254135,-0,-0,0.0742520733932,0,0
*Step  = 18
*Time  = 1.6
*Data  = RCx;RCy;RCz;RCthx;RCthy;RCthz
1,0.199909657535,0,0,-0.292113684802,0,0
2,0.801568746589,0,0,-0.00636694757594,0,0
3,-2.34277175382,-0,-0,0.0712015150806,0,0
*Step  = 19
*Time  = 1.65
*Data  = RCx;RCy;RCz;RCthx;RCthy;RCthz
1,0.295189859124,0,0,-0.31854452866,0,0
2,0.934154308674,0,0,-0.00577920172676,0,0
3,-2.59272995727,-0,-0,0.0666252017255,0,0
*Step  = 20
*Time  = 1.7
*Data  = RCx;RCy;RCz;RCthx;RCthy;RCthz
1,0.379538165582,0,0,-0.344987878884,0,0
2,1.06362256572,0,0,-0.00511001458088,0,0
3,-2.8441510474,-0,-0,0.0616469363466,0,0
*Step  = 21
*Time  = 1.75
*Data  = RCx;RCy;RCz;RCthx;RCthy;RCthz
1,0.437954276758,0,0,-0.371443071606,0,0
2,1.20366525044,0,0,-0.00451714611655,0,0
3,-3.10260051394,-0,-0,0.0568368355379,0,0
*Step  = 22
*Time  = 1.8
*Data  = RCx;RCy;RCz;RCthx;RCthy;RCthz
1,0.485792305436,0,0,-0.397925638831,0,0
2,1.3492586585,0,0,-0.00527247794865,0,0
3,-3.36535529706,-0,-0,0.0561216000736,0,0
*Step  = 23
*Time  = 1.85
*Data  = RCx;RCy;RCz;RCthx;RCthy;RCthz
1,0.539144718314,0,0,-0.424412575644,0,0
2,1.50633328178,0,0,-0.00395807710094,0,0
3,-3.62540255252,-0,-0,0.0482265712257,0,0
*Step  = 24
*Time  = 1.9
*Data  = RCx;RCy;RCz;RCthx;RCthy;RCthz
1,0.605420416721,0,0,-0.450920736006,0,0
2,1.67101482701,0,0,-0.00307482670849,0,0
3,-3.89095661038,-0,-0,0.0437116414123,0,0
*Step  = 25
*Time  = 1.95
*Data  = RCx;RCy;RCz;RCthx;RCthy;RCthz
1,0.681096145618,0,0,-0.477420652597,0,0
2,1.84788321544,0,0,0.000286498839609,0,0
3,-4.15391157075,-0,-0,0.0331105716826,0,0
*Step  = 26
*Time  = 2
*Data  = RCx;RCy;RCz;RCthx;RCthy;RCthz
1,0.690494448581,0,0,-0.503984179955,0,0
2,2.03404760205,0,0,-0.00071870345845,0,0
3,-4.43731494047,-0,-0,0.0393591709299,0,0
*Step  = 27
*Time  = 2.05
*Data  = RCx;RCy;RCz;RCthx;RCthy;RCthz
1,0.704444453082,0,0,-0.503846478273,0,0
2,2.12602264724,0,0,0.00243739147445,0,0
3,-4.42584350761,-0,-0,0.0176474254968,0,0
*Step  = 28
*Time  = 2.1
*Data  = RCx;RCy;RCz;RCthx;RCthy;RCthz
1,0.899360437333,0,0,-0.504441487239,0,0
2,1.79900464285,0,0,0.00312726616207,0,0
3,-4.48130522535,-0,-0,0.0576270992488,0,0
*Step  = 29
*Time  = 2.15
*Data  = RCx;RCy;RCz;RCthx;RCthy;RCthz
1,0.915893626302,0,0,-0.505289197205,0,0
2,1.37160107154,0,0,0.00100646325582,0,0
3,-4.49860926896,-0,-0,0.0962854469259,0,0
*Step  = 30
*Time  = 2.2
*Data  = RCx;RCy;RCz;RCthx;RCthy;RCthz
1,0.597806118354,0,0,-0.506644962028,0,0
2,0.620393296816,0,0,-0.00880961439994,0,0
3,-4.45336243195,-0,-0,0.14735184213,0,0
*Step  = 31
*Time  = 2.25
*Data  = RCx;RCy;RCz;RCthx;RCthy;RCthz
1,0.45157306325,0,0,-0.507723745341,0,0
2,0.121258357276,0,0,-0.011333004155,0,0
3,-4.44492721819,-0,-0,0.175871364635,0,0
*Step  = 32
*Time  = 2.3
*Data  = RCx;RCy;RCz;RCthx;RCthy;RCthz
1,0.395212714285,0,0,-0.509006305324,0,0
2,-0.424006507903,0,0,-0.0126417807699,0,0
3,-4.40567021788,-0,-0,0.205183873464,0,0
*Step  = 33
*Time  = 2.35
*Data  = RCx;RCy;RCz;RCthx;RCthy;RCthz
1,0.374756301303,0,0,-0.51011977123,0,0
2,-0.812051195572,0,0,-0.0130660546757,0,0
3,-4.38690162018,-0,-0,0.225027347124,0,0
*Step  = 34
*Time  = 2.4
*Data  = RCx;RCy;RCz;RCthx;RCthy;RCthz
1,0.22269272491,0,0,-0.500453794822,0,0
2,-1.34611836198,0,0,-0.0144899047032,0,0
3,-4.61097867326,-0,-0,0.229251135429,0,0
*Step  = 35
*Time  = 2.45
*Data  = RCx;RCy;RCz;RCthx;RCthy;RCthz
1,0.323072445002,0,0,-0.501577049788,0,0
2,-1.71895373314,0,0,-0.0129687631433,0,0
3,-4.50861348224,-0,-0,0.24811195655,0,0
*Step  = 36
*Time  = 2.5
*Data  = RCx;RCy;RCz;RCthx;RCthy;RCthz
1,0.343018050862,0,0,-0.502605127525,0,0
2,-2.00073702552,0,0,-0.0123682916919,0,0
3,-4.46252825963,-0,-0,0.261312323546,0,0
*Step  = 37
*Time  = 2.54998
*Data  = RCx;RCy;RCz;RCthx;RCthy;RCthz
1,0.361422459204,0,0,-0.503610946286,0,0
2,-2.25539705555,0,0,-0.0116075076355,0,0
3,-4.4240097768,-0,-0,0.272947169088,0,0
