*Step  = 1
*Time  = 1e-05
*Data  = RCx;RCy;RCz;RCthx;RCthy;RCthz
1,-0.554732901422,0,0,0.000100388614482,0,0
2,0.104953804486,0,0,-0.0024962911907,0,0
3,-0.0501944875178,-0,-0,0.00430631203312,0,0
*Step  = 2
*Time  = 6e-05
*Data  = RCx;RCy;RCz;RCthx;RCthy;RCthz
1,-0.609375438968,0,0,0.000140282765722,0,0
2,0.0952060551423,0,0,-0.00273902431219,0,0
3,-0.0792544130183,-0,-0,0.00655184126734,0,0
*Step  = 3
*Time  = 0.00031
*Data  = RCx;RCy;RCz;RCthx;RCthy;RCthz
1,-0.635783131722,0,0,0.000163894230483,0,0
2,0.0872950788995,0,0,-0.00286785317193,0,0
3,-0.0958518725507,-0,-0,0.00802747362164,0,0
*Step  = 4
*Time  = 0.00156
*Data  = RCx;RCy;RCz;RCthx;RCthy;RCthz
1,-0.650043116046,0,0,0.000176242259443,0,0
2,0.0817404413884,0,0,-0.00297279552109,0,0
3,-0.104166850629,-0,-0,0.00858547613685,0,0
*Step  = 5
*Time  = 0.00781
*Data  = RCx;RCy;RCz;RCthx;RCthy;RCthz
1,-0.662845538652,0,0,0.000174731311126,0,0
2,0.0802625621564,0,0,-0.00302932480539,0,0
3,-0.105454553523,-0,-0,0.00886120053413,0,0
*Step  = 6
*Time  = 0.03906
*Data  = RCx;RCy;RCz;RCthx;RCthy;RCthz
1,-0.680399787865,0,0,0.000121824091561,0,0
2,0.0712696323415,0,0,-0.00292435282452,0,0
3,-0.0864566079327,-0,-0,0.0101504406894,0,0
*Step  = 7
*Time  = 0.05
*Data  = RCx;RCy;RCz;RCthx;RCthy;RCthz
1,-0.661855275429,0,0,0.000107668720789,0,0
2,-0.00183554877914,0,0,-0.00287650695302,0,0
3,-0.0767253929805,-0,-0,0.013659620061,0,0
*Step  = 8
*Time  = 0.1
*Data  = RCx;RCy;RCz;RCthx;RCthy;RCthz
1,-0.594576058133,0,0,1.031259843e-05,0,0
2,-0.322846816172,0,0,-0.00292275040183,0,0
3,0.0247697784411,0,0,0.0333159829923,0,0
*Step  = 9
*Time  = 0.15
*Data  = RCx;RCy;RCz;RCthx;RCthy;RCthz
1,-0.553504194038,0,0,-5.13168061706e-05,0,0
2,-0.507684769108,0,0,-0.00334687928475,0,0
3,0.0737644208113,0,0,0.0458750077549,0,0
*Step  = 10
*Time  = 0.2
*Data  = RCx;RCy;RCz;RCthx;RCthy;RCthz
1,-0.547974913013,0,0,-0.000104601887221,0,0
2,-0.614045962923,0,0,-0.00380837223557,0,0
3,0.100291341088,0,0,0.0538760025176,0,0
*Step  = 11
*Time  = 0.25
*Data  = RCx;RCy;RCz;RCthx;RCthy;RCthz
1,-0.528459430497,0,0,-0.000159063792655,0,0
2,-0.683778712325,0,0,-0.00404290415525,0,0
3,0.118980590865,0,0,0.0597218179907,0,0
*Step  = 12
*Time  = 0.3
*Data  = RCx;RCy;RCz;RCthx;RCthy;RCthz
1,-0.506461719547,0,0,-0.00021363858407,0,0
2,-0.740912307146,0,0,-0.00432771730842,0,0
3,0.139602061318,0,0,0.0653869924132,0,0
*Step  = 13
*Time  = 0.35
*Data  = RCx;RCy;RCz;RCthx;RCthy;RCthz
1,-0.515132224044,0,0,-0.00026668377546,0,0
2,-0.781572936748,0,0,-0.00449513021351,0,0
3,0.150167770659,0,0,0.0690503485062,0,0
*Step  = 14
*Time  = 0.4
*Data  = RCx;RCy;RCz;RCthx;RCthy;RCthz
1,-0.48635709308,0,0,-0.000327381485129,0,0
2,-0.818051576662,0,0,-0.00471139916422,0,0
3,0.167689182147,0,0,0.073639505806,0,0
*Step  = 15
*Time  = 0.45
*Data  = RCx;RCy;RCz;RCthx;RCthy;RCthz
1,-0.50486735399,0,0,-0.000380621317148,0,0
2,-0.850948410255,0,0,-0.00480431642295,0,0
3,0.17516162711,0,0,0.0763945645536,0,0
*Step  = 16
*Time  = 0.5
*Data  = RCx;RCy;RCz;RCthx;RCthy;RCthz
1,-0.505379085422,0,0,-0.000436310980431,0,0
2,-0.881870920218,0,0,-0.00493053686126,0,0
3,0.18440962864,0,0,0.0794366170506,0,0
*Step  = 17
*Time  = 0.55
*Data  = RCx;RCy;RCz;RCthx;RCthy;RCthz
1,-0.501072725986,0,0,-0.000492726297728,0,0
2,-0.911802842129,0,0,-0.0050522229895,0,0
3,0.194143917734,0,0,0.0824831577547,0,0
*Step  = 18
*Time  = 0.6
*Data  = RCx;RCy;RCz;RCthx;RCthy;RCthz
1,-0.497988446252,0,0,-0.000548185485495,0,0
2,-0.941455288525,0,0,-0.0051739445099,0,0
3,0.204366996383,0,0,0.0855692397467,0,0
*Step  = 19
*Time  = 0.65
*Data  = RCx;RCy;RCz;RCthx;RCthy;RCthz
1,-0.49796887638,0,0,-0.000603698275928,0,0
2,-0.966283916805,0,0,-0.00528462127567,0,0
3,0.212615727857,0,0,0.0882146494424,0,0
*Step  = 20
*Time  = 0.7
*Data  = RCx;RCy;RCz;RCthx;RCthy;RCthz
1,-0.500222144353,0,0,-0.000660455913971,0,0
2,-0.990062493375,0,0,-0.00540621412851,0,0
3,0.2208038952,0,0,0.0907625279875,0,0
*Step  = 21
*Time  = 0.75
*Data  = RCx;RCy;RCz;RCthx;RCthy;RCthz
1,-0.496673079756,0,0,-0.00071942000802,0,0
2,-1.013980983,0,0,-0.00548968495632,0,0
3,0.229083953253,0,0,0.093302565206,0,0
*Step  = 22
*Time  = 0.8
*Data  = RCx;RCy;RCz;RCthx;RCthy;RCthz
1,-0.491371542577,0,0,-0.000776770673192,0,0
2,-1.03673574535,0,0,-0.0055589542555,0,0
3,0.236802533742,0,0,0.0956848091709,0,0
*Step  = 23
*Time  = 0.85
*Data  = RCx;RCy;RCz;RCthx;RCthy;RCthz
1,-0.489476059565,0,0,-0.000833020485075,0,0
2,-1.05854464788,0,0,-0.00563361773156,0,0
3,0.244313053894,0,0,0.0979748115459,0,0
*Step  = 24
*Time  = 0.9
*Data  = RCx;RCy;RCz;RCthx;RCthy;RCthz
1,-0.485922827198,0,0,-0.000888537102091,0,0
2,-1.0792511137,0,0,-0.00569562069701,0,0
3,0.251650057691,0,0,0.100217206612,0,0
*Step  = 25
*Time  = 0.95
*Data  = RCx;RCy;RCz;RCthx;RCthy;RCthz
1,-0.449556458168,0,0,-0.00094558658466,0,0
2,-1.09339033713,0,0,-0.00587225258722,0,0
3,0.266690475309,0,0,0.103440173229,0,0
*Step  = 26
*Time  = 0.99999
*Data  = RCx;RCy;RCz;RCthx;RCthy;RCthz
1,-0.467346285977,0,0,-0.000996960383235,0,0
2,-1.10876109002,0,0,-0.00583440959801,0,0
3,0.268617895308,0,0,0.104702741742,0,0
*Step  = 1
*Time  = 1
*Data  = RCx;RCy;RCz;RCthx;RCthy;RCthz
1,-0.488919856761,0,0,-0.000999726512687,0,0
2,-1.08794714539,0,0,-0.0058180854973,0,0
3,0.254807829472,0,0,0.102662480935,0,0
*Step  = 2
*Time  = 1.00005
*Data  = RCx;RCy;RCz;RCthx;RCthy;RCthz
1,-0.494059792014,0,0,-0.00100179177037,0,0
2,-1.08835266493,0,0,-0.00580293746432,0,0
3,0.253493225778,0,0,0.102449870316,0,0
*Step  = 3
*Time  = 1.0003
*Data  = RCx;RCy;RCz;RCthx;RCthy;RCthz
1,-0.496128243854,0,0,-0.00100236484273,0,0
2,-1.08901876891,0,0,-0.00579848404676,0,0
3,0.252871745516,0,0,0.102380731203,0,0
*Step  = 4
*Time  = 1.00155
*Data  = RCx;RCy;RCz;RCthx;RCthy;RCthz
1,-0.49749376895,0,0,-0.000990905607846,0,0
2,-1.09015011052,0,0,-0.00580488492764,0,0
3,0.252944320116,0,0,0.102426501248,0,0
*Step  = 5
*Time  = 1.0078
*Data  = RCx;RCy;RCz;RCthx;RCthy;RCthz
1,-0.497141053886,0,0,-0.000732281296355,0,0
2,-1.09299722529,0,0,-0.00579460769838,0,0
3,0.255699494116,0,0,0.102591466255,0,0
*Step  = 6
*Time  = 1.03905
*Data  = RCx;RCy;RCz;RCthx;RCthy;RCthz
1,-0.49169973714,0,0,0.000761333360585,0,0
2,-1.10550479107,0,0,-0.00566153647389,0,0
3,0.270652040999,0,0,0.103194446024,0,0
*Step  = 7
*Time  = 1.05
*Data  = RCx;RCy;RCz;RCthx;RCthy;RCthz
1,-0.49719628752,0,0,-0.00101670005164,0,0
2,-1.10132469347,0,0,-0.00585207028833,0,0
3,0.257365428985,0,0,0.10384081172,0,0
*Step  = 8
*Time  = 1.1
*Data  = RCx;RCy;RCz;RCthx;RCthy;RCthz
1,-0.507082368583,0,0,-0.0276564351526,0,0
2,-1.05644710206,0,0,-0.00842961940807,0,0
3,0.0759661592705,0,0,0.11080440545,0,0
*Step  = 9
*Time  = 1.15
*Data  = RCx;RCy;RCz;RCthx;RCthy;RCthz
1,-0.481364070273,0,0,-0.0542279810639,0,0
2,-0.924753148261,0,0,-0.00984901910426,0,0
3,-0.143484485343,-0,-0,0.112686107947,0,0
*Step  = 10
*Time  = 1.2
*Data  = RCx;RCy;RCz;RCthx;RCthy;RCthz
1,-0.470786658537,0,0,-0.0807351966055,0,0
2,-0.761670277862,0,0,-0.0105458669574,0,0
3,-0.378653789094,-0,-0,0.113630862802,0,0
*Step  = 11
*Time  = 1.25
*Data  = RCx;RCy;RCz;RCthx;RCthy;RCthz
1,-0.391570699117,0,0,-0.107241638197,0,0
2,-0.579413227055,0,0,-0.0110111730339,0,0
3,-0.608102543521,-0,-0,0.112747743665,0,0
*Step  = 12
*Time  = 1.3
*Data  = RCx;RCy;RCz;RCthx;RCthy;RCthz
1,-0.364711143706,0,0,-0.13369942704,0,0
2,-0.376799017031,0,0,-0.0111209586285,0,0
3,-0.852222343609,-0,-0,0.10893990391,0,0
*Step  = 13
*Time  = 1.35
*Data  = RCx;RCy;RCz;RCthx;RCthy;RCthz
1,-0.298116539808,0,0,-0.160118229552,0,0
2,-0.154712538527,0,0,-0.0106837734791,0,0
3,-1.09824791627,-0,-0,0.103362059464,0,0
*Step  = 14
*Time  = 1.4
*Data  = RCx;RCy;RCz;RCthx;RCthy;RCthz
1,-0.204609265877,0,0,-0.186517616815,0,0
2,0.0773825202725,0,0,-0.00992075569702,0,0
3,-1.3415184031,-0,-0,0.0964114373574,0,0
*Step  = 15
*Time  = 1.45
*Data  = RCx;RCy;RCz;RCthx;RCthy;RCthz
1,-0.0649830723282,0,0,-0.212893770423,0,0
2,0.354138312953,0,0,-0.00828154385774,0,0
3,-1.58929086453,-0,-0,0.0849047773544,0,0
*Step  = 16
*Time  = 1.5
*Data  = RCx;RCy;RCz;RCthx;RCthy;RCthz
1,0.0379867046765,0,0,-0.23928709936,0,0
2,0.555071998576,0,0,-0.00711453014528,0,0
3,-1.83734798093,-0,-0,0.0781302074121,0,0
*Step  = 17
*Time  = 1.55
*Data  = RCx;RCy;RCz;RCthx;RCthy;RCthz
1,0.114583611474,0,0,-0.265693997584,0,0
2,0.703823660837,0,0,-0.00675741465647,0,0
3,-2.08698558362,-0,-0,0.0741573526594,0,0
*Step  = 18
*Time  = 1.6
*Data  = RCx;RCy;RCz;RCthx;RCthy;RCthz
1,0.197421203341,0,0,-0.292125329818,0,0
2,0.841170299233,0,0,-0.00632187188491,0,0
3,-2.33613570175,-0,-0,0.0711526877823,0,0
*Step  = 19
*Time  = 1.65
*Data  = RCx;RCy;RCz;RCthx;RCthy;RCthz
1,0.287291606422,0,0,-0.31856201935,0,0
2,0.97595826187,0,0,-0.00581846592335,0,0
3,-2.58488164472,-0,-0,0.0669286303413,0,0
*Step  = 20
*Time  = 1.7
*Data  = RCx;RCy;RCz;RCthx;RCthy;RCthz
1,0.353055871488,0,0,-0.345007788401,0,0
2,1.10868492348,0,0,-0.00522805116448,0,0
3,-2.83764173104,-0,-0,0.0624649221929,0,0
*Step  = 21
*Time  = 1.75
*Data  = RCx;RCy;RCz;RCthx;RCthy;RCthz
1,0.432459708831,0,0,-0.371472203844,0,0
2,1.25218782134,0,0,-0.00456159622911,0,0
3,-3.0913906621,-0,-0,0.0577565571428,0,0
*Step  = 22
*Time  = 1.8
*Data  = RCx;RCy;RCz;RCthx;RCthy;RCthz
1,0.49318891096,0,0,-0.397944334994,0,0
2,1.40501382261,0,0,-0.00365966942339,0,0
3,-3.34800956688,-0,-0,0.0513316959848,0,0
*Step  = 23
*Time  = 1.85
*Data  = RCx;RCy;RCz;RCthx;RCthy;RCthz
1,0.534201898061,0,0,-0.424444381702,0,0
2,1.56626666797,0,0,-0.00275955537902,0,0
3,-3.61051813165,-0,-0,0.0457668205158,0,0
*Step  = 24
*Time  = 1.9
*Data  = RCx;RCy;RCz;RCthx;RCthy;RCthz
1,0.602718472472,0,0,-0.450963024217,0,0
2,1.73415112663,0,0,-0.00134311148594,0,0
3,-3.87289464546,-0,-0,0.0403795962534,0,0
*Step  = 25
*Time  = 1.95
*Data  = RCx;RCy;RCz;RCthx;RCthy;RCthz
1,0.63063778534,0,0,-0.477525209647,0,0
2,1.91476889615,0,0,-0.00205126883698,0,0
3,-4.14759247304,-0,-0,0.0425264941194,0,0
*Step  = 26
*Time  = 2
*Data  = RCx;RCy;RCz;RCthx;RCthy;RCthz
1,0.695281856418,0,0,-0.504058135353,0,0
2,2.10163668023,0,0,-0.00036754907054,0,0
3,-4.4105547515,-0,-0,0.0375542997423,0,0
*Step  = 27
*Time  = 2.05
*Data  = RCx;RCy;RCz;RCthx;RCthy;RCthz
1,0.705113388387,0,0,-0.503932538402,0,0
2,2.18693068224,0,0,0.00239176622987,0,0
3,-4.40451129058,-0,-0,0.0166685776181,0,0
*Step  = 28
*Time  = 2.1
*Data  = RCx;RCy;RCz;RCthx;RCthy;RCthz
1,0.857680922169,0,0,-0.504744832129,0,0
2,1.85807391909,0,0,-0.00199360416577,0,0
3,-4.46014155907,-0,-0,0.071162873448,0,0
*Step  = 29
*Time  = 2.15
*Data  = RCx;RCy;RCz;RCthx;RCthy;RCthz
1,0.881349102019,0,0,-0.505205630941,0,0
2,1.61254503457,0,0,0.00284531544457,0,0
3,-4.48038413284,-0,-0,0.0891401166807,0,0
*Step  = 30
*Time  = 2.2
*Data  = RCx;RCy;RCz;RCthx;RCthy;RCthz
1,0.662611520142,0,0,-0.506649691798,0,0
2,0.905503508327,0,0,-0.00782526423923,0,0
3,-4.42720895644,-0,-0,0.136877442988,0,0
*Step  = 31
*Time  = 2.25
*Data  = RCx;RCy;RCz;RCthx;RCthy;RCthz
1,0.464820506349,0,0,-0.507747403046,0,0
2,0.413921846439,0,0,-0.0107743916826,0,0
3,-4.4127000974,-0,-0,0.166858515906,0,0
*Step  = 32
*Time  = 2.3
*Data  = RCx;RCy;RCz;RCthx;RCthy;RCthz
1,0.372043386506,0,0,-0.509056652027,0,0
2,-0.109166914186,0,0,-0.0126784891267,0,0
3,-4.37481870662,-0,-0,0.196622988857,0,0
*Step  = 33
*Time  = 2.35
*Data  = RCx;RCy;RCz;RCthx;RCthy;RCthz
1,0.327067326266,0,0,-0.510180600622,0,0
2,-0.483071372527,0,0,-0.0134718743784,0,0
3,-4.35666185432,-0,-0,0.216718119669,0,0
*Step  = 34
*Time  = 2.4
*Data  = RCx;RCy;RCz;RCthx;RCthy;RCthz
1,0.178697369788,0,0,-0.500447769575,0,0
2,-1.00597107192,0,0,-0.014785371831,0,0
3,-4.59001156209,-0,-0,0.220714649611,0,0
*Step  = 35
*Time  = 2.45
*Data  = RCx;RCy;RCz;RCthx;RCthy;RCthz
1,0.265211482679,0,0,-0.501599923141,0,0
2,-1.36179882446,0,0,-0.0138792926852,0,0
3,-4.49236948982,-0,-0,0.239921814168,0,0
*Step  = 36
*Time  = 2.5
*Data  = RCx;RCy;RCz;RCthx;RCthy;RCthz
1,0.275940209309,0,0,-0.502654890876,0,0
2,-1.63305850571,0,0,-0.0134753338131,0,0
3,-4.4476550781,-0,-0,0.25349292792,0,0
*Step  = 37
*Time  = 2.54998
*Data  = RCx;RCy;RCz;RCthx;RCthy;RCthz
1,0.281591524399,0,0,-0.503661719482,0,0
2,-1.88708970525,0,0,-0.0130117379705,0,0
3,-4.40771838402,-0,-0,0.265735793665,0,0
