*Step  = 1
*Time  = 1e-05
*Data  = RCx;RCy;RCz;RCthx;RCthy;RCthz
1,-0.554296130721,0,0,0.000101144380508,0,0
2,0.102492759963,0,0,-0.00247090139981,0,0
3,-0.051715978288,-0,-0,0.00409419906507,0,0
*Step  = 2
*Time  = 6e-05
*Data  = RCx;RCy;RCz;RCthx;RCthy;RCthz
1,-0.612049458158,0,0,0.000139846141472,0,0
2,0.0919602957454,0,0,-0.00273821297902,0,0
3,-0.0808055992541,-0,-0,0.00613919745028,0,0
*Step  = 3
*Time  = 0.00031
*Data  = RCx;RCy;RCz;RCthx;RCthy;RCthz
1,-0.636585492015,0,0,0.00016331765448,0,0
2,0.0824843346781,0,0,-0.00285151175604,0,0
3,-0.0980299639862,-0,-0,0.00755351722132,0,0
*Step  = 4
*Time  = 0.00156
*Data  = RCx;RCy;RCz;RCthx;RCthy;RCthz
1,-0.650468991394,0,0,0.000175475882828,0,0
2,0.0764181129361,0,0,-0.00293165722924,0,0
3,-0.106778347404,-0,-0,0.00816794260957,0,0
*Step  = 5
*Time  = 0.00781
*Data  = RCx;RCy;RCz;RCthx;RCthy;RCthz
1,-0.663197767131,0,0,0.000173591269235,0,0
2,0.0747677636209,0,0,-0.00298335874908,0,0
3,-0.107945582252,-0,-0,0.00844727506405,0,0
*Step  = 6
*Time  = 0.03906
*Data  = RCx;RCy;RCz;RCthx;RCthy;RCthz
1,-0.679851468024,0,0,0.000120287420215,0,0
2,0.0600389918083,0,0,-0.00287414144641,0,0
3,-0.0872664768291,-0,-0,0.0100778524792,0,0
*Step  = 7
*Time  = 0.05
*Data  = RCx;RCy;RCz;RCthx;RCthy;RCthz
1,-0.661476834892,0,0,0.000105570463796,0,0
2,-0.0149742778752,0,0,-0.00282034259022,0,0
3,-0.0766235837739,-0,-0,0.0137155824417,0,0
*Step  = 8
*Time  = 0.1
*Data  = RCx;RCy;RCz;RCthx;RCthy;RCthz
1,-0.58845661796,0,0,9.90859404828e-06,0,0
2,-0.349775770322,0,0,-0.00290854445741,0,0
3,0.0271299966457,0,0,0.0342804280876,0,0
*Step  = 9
*Time  = 0.15
*Data  = RCx;RCy;RCz;RCthx;RCthy;RCthz
1,-0.544785712634,0,0,-4.9911046227e-05,0,0
2,-0.542310755765,0,0,-0.00331053078152,0,0
3,0.0755293280619,0,0,0.0470319428748,0,0
*Step  = 10
*Time  = 0.2
*Data  = RCx;RCy;RCz;RCthx;RCthy;RCthz
1,-0.536497608994,0,0,-0.000105611726056,0,0
2,-0.642926552661,0,0,-0.0037123983156,0,0
3,0.10003866083,0,0,0.0545027013995,0,0
*Step  = 11
*Time  = 0.25
*Data  = RCx;RCy;RCz;RCthx;RCthy;RCthz
1,-0.511919724495,0,0,-0.000160103012584,0,0
2,-0.717531862879,0,0,-0.00399015866506,0,0
3,0.121640477069,0,0,0.0607989402777,0,0
*Step  = 12
*Time  = 0.3
*Data  = RCx;RCy;RCz;RCthx;RCthy;RCthz
1,-0.515648502796,0,0,-0.000212916390208,0,0
2,-0.766353507207,0,0,-0.00418244393864,0,0
3,0.133975947225,0,0,0.0649899365545,0,0
*Step  = 13
*Time  = 0.35
*Data  = RCx;RCy;RCz;RCthx;RCthy;RCthz
1,-0.51255606652,0,0,-0.00026708139682,0,0
2,-0.812569366336,0,0,-0.00438754152258,0,0
3,0.14736965265,0,0,0.0692703995294,0,0
*Step  = 14
*Time  = 0.4
*Data  = RCx;RCy;RCz;RCthx;RCthy;RCthz
1,-0.481449178093,0,0,-0.000327278159043,0,0
2,-0.85117774948,0,0,-0.00460317741022,0,0
3,0.16557041377,0,0,0.0740239586015,0,0
*Step  = 15
*Time  = 0.45
*Data  = RCx;RCy;RCz;RCthx;RCthy;RCthz
1,-0.499166382984,0,0,-0.000379351885458,0,0
2,-0.882743122747,0,0,-0.00469920794347,0,0
3,0.172867261816,0,0,0.0767502270041,0,0
*Step  = 16
*Time  = 0.5
*Data  = RCx;RCy;RCz;RCthx;RCthy;RCthz
1,-0.500675969245,0,0,-0.000434858690121,0,0
2,-0.914583294895,0,0,-0.00483894154203,0,0
3,0.182445975534,0,0,0.0798682299809,0,0
*Step  = 17
*Time  = 0.55
*Data  = RCx;RCy;RCz;RCthx;RCthy;RCthz
1,-0.495582725015,0,0,-0.000490502902059,0,0
2,-0.945205045481,0,0,-0.00496113200132,0,0
3,0.192380886986,0,0,0.083002173111,0,0
*Step  = 18
*Time  = 0.6
*Data  = RCx;RCy;RCz;RCthx;RCthy;RCthz
1,-0.492987088595,0,0,-0.000545510014682,0,0
2,-0.974351103095,0,0,-0.00508176831485,0,0
3,0.202116336744,0,0,0.0860366670217,0,0
*Step  = 19
*Time  = 0.65
*Data  = RCx;RCy;RCz;RCthx;RCthy;RCthz
1,-0.492062820391,0,0,-0.000600531810656,0,0
2,-0.999652304874,0,0,-0.00519660122908,0,0
3,0.210536164172,0,0,0.0887504595895,0,0
*Step  = 20
*Time  = 0.7
*Data  = RCx;RCy;RCz;RCthx;RCthy;RCthz
1,-0.497544210604,0,0,-0.000657191501207,0,0
2,-1.02325847277,0,0,-0.00533321450322,0,0
3,0.218734971521,0,0,0.0913156296328,0,0
*Step  = 21
*Time  = 0.75
*Data  = RCx;RCy;RCz;RCthx;RCthy;RCthz
1,-0.489768796357,0,0,-0.000714375043652,0,0
2,-1.04734484112,0,0,-0.00541764723699,0,0
3,0.227160159357,0,0,0.0939575922199,0,0
*Step  = 22
*Time  = 0.8
*Data  = RCx;RCy;RCz;RCthx;RCthy;RCthz
1,-0.486624110201,0,0,-0.000771293775988,0,0
2,-1.07033205629,0,0,-0.00548247185843,0,0
3,0.234687406143,0,0,0.0962981260629,0,0
*Step  = 23
*Time  = 0.85
*Data  = RCx;RCy;RCz;RCthx;RCthy;RCthz
1,-0.483972640541,0,0,-0.000827740317455,0,0
2,-1.09285021984,0,0,-0.00555030014037,0,0
3,0.242268587744,0,0,0.0986078535854,0,0
*Step  = 24
*Time  = 0.9
*Data  = RCx;RCy;RCz;RCthx;RCthy;RCthz
1,-0.448187021947,0,0,-0.00088850411581,0,0
2,-1.10819542023,0,0,-0.00569519569703,0,0
3,0.256798889246,0,0,0.101734930975,0,0
*Step  = 25
*Time  = 0.95
*Data  = RCx;RCy;RCz;RCthx;RCthy;RCthz
1,-0.465562016757,0,0,-0.000941350550436,0,0
2,-1.12416188081,0,0,-0.00566033796831,0,0
3,0.258725609182,0,0,0.103018135712,0,0
*Step  = 26
*Time  = 0.99999
*Data  = RCx;RCy;RCz;RCthx;RCthy;RCthz
1,-0.464420379925,0,0,-0.000994362544434,0,0
2,-1.14593078691,0,0,-0.00570744820385,0,0
3,0.265510654741,0,0,0.1051988808,0,0
*Step  = 1
*Time  = 1
*Data  = RCx;RCy;RCz;RCthx;RCthy;RCthz
1,-0.483981974195,0,0,-0.00099613626264,0,0
2,-1.12489287971,0,0,-0.00570882508091,0,0
3,0.251847610583,0,0,0.103223689207,0,0
*Step  = 2
*Time  = 1.00005
*Data  = RCx;RCy;RCz;RCthx;RCthy;RCthz
1,-0.488458961075,0,0,-0.000997691725517,0,0
2,-1.12535005237,0,0,-0.00570271410941,0,0
3,0.250849770853,0,0,0.103067314817,0,0
*Step  = 3
*Time  = 1.0003
*Data  = RCx;RCy;RCz;RCthx;RCthy;RCthz
1,-0.490136206267,0,0,-0.000998150356339,0,0
2,-1.12609060403,0,0,-0.00570085441466,0,0
3,0.250464569731,0,0,0.103030108439,0,0
*Step  = 4
*Time  = 1.00155
*Data  = RCx;RCy;RCz;RCthx;RCthy;RCthz
1,-0.491308400338,0,0,-0.00098727120768,0,0
2,-1.12698137232,0,0,-0.00570981755063,0,0
3,0.250622109075,0,0,0.103079378599,0,0
*Step  = 5
*Time  = 1.0078
*Data  = RCx;RCy;RCz;RCthx;RCthy;RCthz
1,-0.490155555349,0,0,-0.000729873731014,0,0
2,-1.13051043918,0,0,-0.00569906468572,0,0
3,0.253882851872,0,0,0.103334737806,0,0
*Step  = 6
*Time  = 1.03905
*Data  = RCx;RCy;RCz;RCthx;RCthy;RCthz
1,-0.484865021942,0,0,0.000764125069921,0,0
2,-1.14255105234,0,0,-0.00556818347349,0,0
3,0.268761037293,0,0,0.103941510819,0,0
*Step  = 7
*Time  = 1.05
*Data  = RCx;RCy;RCz;RCthx;RCthy;RCthz
1,-0.491867161406,0,0,-0.00101260743755,0,0
2,-1.1361119569,0,0,-0.00575429511482,0,0
3,0.254401930715,0,0,0.104363831102,0,0
*Step  = 8
*Time  = 1.1
*Data  = RCx;RCy;RCz;RCthx;RCthy;RCthz
1,-0.502928667314,0,0,-0.0276541662637,0,0
2,-1.09244905549,0,0,-0.00838516650278,0,0
3,0.0746844289823,0,0,0.111521119695,0,0
*Step  = 9
*Time  = 1.15
*Data  = RCx;RCy;RCz;RCthx;RCthy;RCthz
1,-0.479561562587,0,0,-0.0542319961312,0,0
2,-0.963038934006,0,0,-0.00982039533127,0,0
3,-0.145195103303,-0,-0,0.113151125128,0,0
*Step  = 10
*Time  = 1.2
*Data  = RCx;RCy;RCz;RCthx;RCthy;RCthz
1,-0.450818597512,0,0,-0.0807429357174,0,0
2,-0.795860105375,0,0,-0.0105109414698,0,0
3,-0.378880065278,-0,-0,0.114328616316,0,0
*Step  = 11
*Time  = 1.25
*Data  = RCx;RCy;RCz;RCthx;RCthy;RCthz
1,-0.403633096906,0,0,-0.107243366831,0,0
2,-0.619163838773,0,0,-0.011016476816,0,0
3,-0.612076625902,-0,-0,0.113070164227,0,0
*Step  = 12
*Time  = 1.3
*Data  = RCx;RCy;RCz;RCthx;RCthy;RCthz
1,-0.366252939691,0,0,-0.133700290899,0,0
2,-0.418952909811,0,0,-0.0111008533848,0,0
3,-0.855780680815,-0,-0,0.109729643285,0,0
*Step  = 13
*Time  = 1.35
*Data  = RCx;RCy;RCz;RCthx;RCthy;RCthz
1,-0.304367367607,0,0,-0.160120937072,0,0
2,-0.203840487687,0,0,-0.0107873030595,0,0
3,-1.10189212383,-0,-0,0.104530847529,0,0
*Step  = 14
*Time  = 1.4
*Data  = RCx;RCy;RCz;RCthx;RCthy;RCthz
1,-0.209251215223,0,0,-0.186519355122,0,0
2,0.0273731272873,0,0,-0.0100360270497,0,0
3,-1.34585546407,-0,-0,0.0975331051469,0,0
*Step  = 15
*Time  = 1.45
*Data  = RCx;RCy;RCz;RCthx;RCthy;RCthz
1,-0.075555390535,0,0,-0.212893648238,0,0
2,0.307995411443,0,0,-0.00848574138817,0,0
3,-1.5938723685,-0,-0,0.0861389847914,0,0
*Step  = 16
*Time  = 1.5
*Data  = RCx;RCy;RCz;RCthx;RCthy;RCthz
1,0.0347537535011,0,0,-0.239282869192,0,0
2,0.517248688046,0,0,-0.00729967688097,0,0
3,-1.84213794067,-0,-0,0.0787670559942,0,0
*Step  = 17
*Time  = 1.55
*Data  = RCx;RCy;RCz;RCthx;RCthy;RCthz
1,0.115797728802,0,0,-0.265684456667,0,0
2,0.675567092276,0,0,-0.00674493539286,0,0
3,-2.09270021399,-0,-0,0.0739731894559,0,0
*Step  = 18
*Time  = 1.6
*Data  = RCx;RCy;RCz;RCthx;RCthy;RCthz
1,0.202578900699,0,0,-0.292111891867,0,0
2,0.8121494968,0,0,-0.00631356172775,0,0
3,-2.34208208493,-0,-0,0.0707718862785,0,0
*Step  = 19
*Time  = 1.65
*Data  = RCx;RCy;RCz;RCthx;RCthy;RCthz
1,0.29732828724,0,0,-0.318542567581,0,0
2,0.945968563738,0,0,-0.00573338136901,0,0
3,-2.5919154012,-0,-0,0.0662109536476,0,0
*Step  = 20
*Time  = 1.7
*Data  = RCx;RCy;RCz;RCthx;RCthy;RCthz
1,0.364703136717,0,0,-0.344981838606,0,0
2,1.07652773567,0,0,-0.00512524505826,0,0
3,-2.84593910072,-0,-0,0.0614883058423,0,0
*Step  = 21
*Time  = 1.75
*Data  = RCx;RCy;RCz;RCthx;RCthy;RCthz
1,0.446463918742,0,0,-0.371438577771,0,0
2,1.2179318789,0,0,-0.00444731584558,0,0
3,-3.10078590861,-0,-0,0.0563038565791,0,0
*Step  = 22
*Time  = 1.8
*Data  = RCx;RCy;RCz;RCthx;RCthy;RCthz
1,0.489109496988,0,0,-0.397919072004,0,0
2,1.36591080228,0,0,-0.00517858893306,0,0
3,-3.36441165845,-0,-0,0.0554139129168,0,0
*Step  = 23
*Time  = 1.85
*Data  = RCx;RCy;RCz;RCthx;RCthy;RCthz
1,0.551139215025,0,0,-0.424406700825,0,0
2,1.52451580626,0,0,-0.00374452395035,0,0
3,-3.62255877159,-0,-0,0.0470454087274,0,0
*Step  = 24
*Time  = 1.9
*Data  = RCx;RCy;RCz;RCthx;RCthy;RCthz
1,0.618731264686,0,0,-0.450913385344,0,0
2,1.69013067505,0,0,-0.00284639866882,0,0
3,-3.88801216127,-0,-0,0.0421018816742,0,0
*Step  = 25
*Time  = 1.95
*Data  = RCx;RCy;RCz;RCthx;RCthy;RCthz
1,0.672925821569,0,0,-0.477435408876,0,0
2,1.86741716638,0,0,-0.0015045138096,0,0
3,-4.15703797127,-0,-0,0.0373693977046,0,0
*Step  = 26
*Time  = 2
*Data  = RCx;RCy;RCz;RCthx;RCthy;RCthz
1,0.713507806077,0,0,-0.503965630629,0,0
2,2.05419256259,0,0,-0.000519337829761,0,0
3,-4.43020652945,-0,-0,0.0360610496469,0,0
*Step  = 27
*Time  = 2.05
*Data  = RCx;RCy;RCz;RCthx;RCthy;RCthz
1,0.751302462023,0,0,-0.503985140273,0,0
2,2.07266900768,0,0,0.00172069038046,0,0
3,-4.4389360085,-0,-0,0.0274366203354,0,0
*Step  = 28
*Time  = 2.1
*Data  = RCx;RCy;RCz;RCthx;RCthy;RCthz
1,0.875860263377,0,0,-0.503449974583,0,0
2,2.31425161024,0,0,0.00731618701393,0,0
3,-4.31598331304,-0,-0,-0.0457328948756,0,0
*Step  = 29
*Time  = 2.15
*Data  = RCx;RCy;RCz;RCthx;RCthy;RCthz
1,1.16615697593,0,0,-0.502838195098,0,0
2,2.56616133049,0,0,0.0168539334164,0,0
3,-4.17903372322,-0,-0,-0.12106105297,-0,-0
*Step  = 30
*Time  = 2.2
*Data  = RCx;RCy;RCz;RCthx;RCthy;RCthz
1,1.37011549663,0,0,-0.502349146976,0,0
2,2.74843068793,0,0,0.02462930959,0,0
3,-4.10938513579,-0,-0,-0.173215804677,-0,-0
*Step  = 31
*Time  = 2.25
*Data  = RCx;RCy;RCz;RCthx;RCthy;RCthz
1,1.51072866317,0,0,-0.501914987518,0,0
2,2.88225204467,0,0,0.0254810473099,0,0
3,-4.07195317442,-0,-0,-0.209107825589,-0,-0
*Step  = 32
*Time  = 2.3
*Data  = RCx;RCy;RCz;RCthx;RCthy;RCthz
1,2.13657415496,0,0,-0.500957063732,0,0
2,2.99616091259,0,0,0.051477892469,0,0
3,-3.93954921224,-0,-0,-0.323399720834,-0,-0
*Step  = 33
*Time  = 2.35
*Data  = RCx;RCy;RCz;RCthx;RCthy;RCthz
1,2.04154346216,0,0,-0.500446072502,0,0
2,3.1074112964,0,0,0.0516802118325,0,0
3,-4.0050966708,-0,-0,-0.329307545106,-0,-0
*Step  = 34
*Time  = 2.4
*Data  = RCx;RCy;RCz;RCthx;RCthy;RCthz
1,2.1866527319,0,0,-0.499680670437,0,0
2,3.19701319711,0,0,0.0568167965648,0,0
3,-3.99175713853,-0,-0,-0.356916791608,-0,-0
*Step  = 35
*Time  = 2.45
*Data  = RCx;RCy;RCz;RCthx;RCthy;RCthz
1,2.278316717,0,0,-0.498856735126,0,0
2,3.29304618465,0,0,0.0609409025927,0,0
3,-3.98415194406,-0,-0,-0.376902405708,-0,-0
*Step  = 36
*Time  = 2.5
*Data  = RCx;RCy;RCz;RCthx;RCthy;RCthz
1,2.35790990662,0,0,-0.497994404678,0,0
2,3.38591330272,0,0,0.0645753528222,0,0
3,-3.97777266054,-0,-0,-0.39369339652,-0,-0
*Step  = 37
*Time  = 2.54998
*Data  = RCx;RCy;RCz;RCthx;RCthy;RCthz
1,2.43854672102,0,0,-0.497133669511,0,0
2,3.46968871231,0,0,0.067921356451,0,0
3,-3.97119985944,-0,-0,-0.408333149823,-0,-0
