*Step  = 1
*Time  = 1e-05
*Data  = RCx;RCy;RCz;RCthx;RCthy;RCthz
1,-0.55481401747,0,0,0.000100286966848,0,0
2,0.109446190212,0,0,-0.00251985717077,0,0
3,-0.0486901881215,-0,-0,0.00453613757864,0,0
*Step  = 2
*Time  = 6e-05
*Data  = RCx;RCy;RCz;RCthx;RCthy;RCthz
1,-0.609807212073,0,0,0.000140460316253,0,0
2,0.102074776738,0,0,-0.0027804389742,0,0
3,-0.0768741359284,-0,-0,0.00696908831787,0,0
*Step  = 3
*Time  = 0.00031
*Data  = RCx;RCy;RCz;RCthx;RCthy;RCthz
1,-0.63563481956,0,0,0.000164172593193,0,0
2,0.0949817224924,0,0,-0.00291249650087,0,0
3,-0.0931728392373,-0,-0,0.00854038320633,0,0
*Step  = 4
*Time  = 0.00156
*Data  = RCx;RCy;RCz;RCthx;RCthy;RCthz
1,-0.649813091287,0,0,0.000177026819228,0,0
2,0.0899820359912,0,0,-0.00303573971601,0,0
3,-0.101059124293,-0,-0,0.00904356917032,0,0
*Step  = 5
*Time  = 0.00781
*Data  = RCx;RCy;RCz;RCthx;RCthy;RCthz
1,-0.66279063672,0,0,0.000176003716757,0,0
2,0.0886442912297,0,0,-0.00309397281077,0,0
3,-0.102445914635,-0,-0,0.00932372899959,0,0
*Step  = 6
*Time  = 0.03906
*Data  = RCx;RCy;RCz;RCthx;RCthy;RCthz
1,-0.680765553526,0,0,0.000123698041956,0,0
2,0.0819655462194,0,0,-0.00298450039725,0,0
3,-0.0848683519827,-0,-0,0.0103853188155,0,0
*Step  = 7
*Time  = 0.05
*Data  = RCx;RCy;RCz;RCthx;RCthy;RCthz
1,-0.666174283624,0,0,0.000110058962544,0,0
2,0.0319665325033,0,0,-0.00297377661283,0,0
3,-0.0786504399749,-0,-0,0.0129078179714,0,0
*Step  = 8
*Time  = 0.1
*Data  = RCx;RCy;RCz;RCthx;RCthy;RCthz
1,-0.600052323293,0,0,1.01407325081e-05,0,0
2,-0.297469361482,0,0,-0.00294937872056,0,0
3,0.0229111914538,0,0,0.0324631677742,0,0
*Step  = 9
*Time  = 0.15
*Data  = RCx;RCy;RCz;RCthx;RCthy;RCthz
1,-0.564381240067,0,0,-5.25624540801e-05,0,0
2,-0.476623685895,0,0,-0.00342239086069,0,0
3,0.0728316389983,0,0,0.0449674551011,0,0
*Step  = 10
*Time  = 0.2
*Data  = RCx;RCy;RCz;RCthx;RCthy;RCthz
1,-0.545347677549,0,0,-0.000107211405171,0,0
2,-0.582985553962,0,0,-0.0038767724906,0,0
3,0.10185356906,0,0,0.0534040858917,0,0
*Step  = 11
*Time  = 0.25
*Data  = RCx;RCy;RCz;RCthx;RCthy;RCthz
1,-0.540001665865,0,0,-0.000157306699126,0,0
2,-0.653213892018,0,0,-0.00417362496418,0,0
3,0.120843361354,0,0,0.0593552547685,0,0
*Step  = 12
*Time  = 0.3
*Data  = RCx;RCy;RCz;RCthx;RCthy;RCthz
1,-0.530064490848,0,0,-0.000211331915884,0,0
2,-0.70330081969,0,0,-0.00438974277047,0,0
3,0.136176974298,0,0,0.0640755552071,0,0
*Step  = 13
*Time  = 0.35
*Data  = RCx;RCy;RCz;RCthx;RCthy;RCthz
1,-0.504799962589,0,0,-0.000266429798664,0,0
2,-0.753799172261,0,0,-0.0046585400574,0,0
3,0.156325068922,0,0,0.0695076646665,0,0
*Step  = 14
*Time  = 0.4
*Data  = RCx;RCy;RCz;RCthx;RCthy;RCthz
1,-0.49178134763,0,0,-0.000326282650302,0,0
2,-0.786677301272,0,0,-0.00481882629107,0,0
3,0.17006130423,0,0,0.0733368251382,0,0
*Step  = 15
*Time  = 0.45
*Data  = RCx;RCy;RCz;RCthx;RCthy;RCthz
1,-0.507856557155,0,0,-0.000381053760145,0,0
2,-0.817867015972,0,0,-0.00490591527509,0,0
3,0.177495316348,0,0,0.076021062641,0,0
*Step  = 16
*Time  = 0.5
*Data  = RCx;RCy;RCz;RCthx;RCthy;RCthz
1,-0.509949451288,0,0,-0.000437606227945,0,0
2,-0.848342664457,0,0,-0.00502201766469,0,0
3,0.186621384803,0,0,0.0789830001693,0,0
*Step  = 17
*Time  = 0.55
*Data  = RCx;RCy;RCz;RCthx;RCthy;RCthz
1,-0.50570484585,0,0,-0.000494511284187,0,0
2,-0.877767001426,0,0,-0.00514719693305,0,0
3,0.196570452238,0,0,0.0820342304606,0,0
*Step  = 18
*Time  = 0.6
*Data  = RCx;RCy;RCz;RCthx;RCthy;RCthz
1,-0.504469639468,0,0,-0.000551370166575,0,0
2,-0.905538960949,0,0,-0.00526775950326,0,0
3,0.206113043838,0,0,0.0849233063593,0,0
*Step  = 19
*Time  = 0.65
*Data  = RCx;RCy;RCz;RCthx;RCthy;RCthz
1,-0.504167491931,0,0,-0.0006077220199,0,0
2,-0.931309221174,0,0,-0.00538767665147,0,0
3,0.215005138988,0,0,0.0876756269528,0,0
*Step  = 20
*Time  = 0.7
*Data  = RCx;RCy;RCz;RCthx;RCthy;RCthz
1,-0.503855343396,0,0,-0.000664818635975,0,0
2,-0.955180217929,0,0,-0.00549132661442,0,0
3,0.223409279269,0,0,0.0902458695659,0,0
*Step  = 21
*Time  = 0.75
*Data  = RCx;RCy;RCz;RCthx;RCthy;RCthz
1,-0.505298745314,0,0,-0.000723852847461,0,0
2,-0.977331505065,0,0,-0.00559130246753,0,0
3,0.230993104084,0,0,0.0926068215149,0,0
*Step  = 22
*Time  = 0.8
*Data  = RCx;RCy;RCz;RCthx;RCthy;RCthz
1,-0.497651103175,0,0,-0.000781665625937,0,0
2,-0.999697360549,0,0,-0.00565739659774,0,0
3,0.238995188751,0,0,0.0950209545963,0,0
*Step  = 23
*Time  = 0.85
*Data  = RCx;RCy;RCz;RCthx;RCthy;RCthz
1,-0.493631548115,0,0,-0.000838163100799,0,0
2,-1.02132767735,0,0,-0.00571798150983,0,0
3,0.246615088735,0,0,0.097325201319,0,0
*Step  = 24
*Time  = 0.9
*Data  = RCx;RCy;RCz;RCthx;RCthy;RCthz
1,-0.492296963621,0,0,-0.000892369517076,0,0
2,-1.04155038152,0,0,-0.0058108874852,0,0
3,0.25429861999,0,0,0.0996317735495,0,0
*Step  = 25
*Time  = 0.95
*Data  = RCx;RCy;RCz;RCthx;RCthy;RCthz
1,-0.488940183935,0,0,-0.000945028572037,0,0
2,-1.06087089157,0,0,-0.00589712313054,0,0
3,0.26199098068,0,0,0.101904703267,0,0
*Step  = 26
*Time  = 0.99999
*Data  = RCx;RCy;RCz;RCthx;RCthy;RCthz
1,-0.453108123231,0,0,-0.00100126120703,0,0
2,-1.07421830328,0,0,-0.00605439928569,0,0
3,0.276284040128,0,0,0.104977954016,0,0
*Step  = 1
*Time  = 1
*Data  = RCx;RCy;RCz;RCthx;RCthy;RCthz
1,-0.489984124977,0,0,-0.00100127463997,0,0
2,-1.04870857112,0,0,-0.00596566539111,0,0
3,0.258918068024,0,0,0.102267362632,0,0
*Step  = 2
*Time  = 1.00005
*Data  = RCx;RCy;RCz;RCthx;RCthy;RCthz
1,-0.498492261513,0,0,-0.00100329657816,0,0
2,-1.04795960208,0,0,-0.00593057128007,0,0
3,0.256642229156,0,0,0.101873499801,0,0
*Step  = 3
*Time  = 1.0003
*Data  = RCx;RCy;RCz;RCthx;RCthy;RCthz
1,-0.495170384371,0,0,-0.00100345995319,0,0
2,-1.05290475635,0,0,-0.00589872523528,0,0
3,0.257568330714,0,0,0.102117680515,0,0
*Step  = 4
*Time  = 1.00049764
*Data  = RCx;RCy;RCz;RCthx;RCthy;RCthz
1,-0.50323381627,0,0,-0.00100321110782,0,0
2,-1.05095165922,0,0,-0.00590688473805,0,0
3,0.255557030707,0,0,0.101783703129,0,0
*Step  = 5
*Time  = 1.00148587
*Data  = RCx;RCy;RCz;RCthx;RCthy;RCthz
1,-0.504886428284,0,0,-0.000993955826675,0,0
2,-1.05107684453,0,0,-0.00591537815219,0,0
3,0.255309380251,0,0,0.101752240551,0,0
*Step  = 6
*Time  = 1.00642698
*Data  = RCx;RCy;RCz;RCthx;RCthy;RCthz
1,-0.504286970183,0,0,-0.00081569719692,0,0
2,-1.05333333893,0,0,-0.00591536456837,0,0
3,0.257536548364,0,0,0.101923445988,0,0
*Step  = 7
*Time  = 1.03113253
*Data  = RCx;RCy;RCz;RCthx;RCthy;RCthz
1,-0.50071401581,0,0,0.000931703383126,0,0
2,-1.06283201426,0,0,-0.00575657652219,0,0
3,0.272706616521,0,0,0.102119899104,0,0
*Step  = 8
*Time  = 1.05
*Data  = RCx;RCy;RCz;RCthx;RCthy;RCthz
1,-0.504289981558,0,0,-0.00101807040445,0,0
2,-1.06368484388,0,0,-0.0059795491154,0,0
3,0.261125217441,0,0,0.10336185955,0,0
*Step  = 9
*Time  = 1.1
*Data  = RCx;RCy;RCz;RCthx;RCthy;RCthz
1,-0.512672467767,0,0,-0.0276547481939,0,0
2,-1.01526970407,0,0,-0.00852405974388,0,0
3,0.0780582300489,0,0,0.110212553562,0,0
*Step  = 10
*Time  = 1.15
*Data  = RCx;RCy;RCz;RCthx;RCthy;RCthz
1,-0.481902592605,0,0,-0.0542241040274,0,0
2,-0.880447499286,0,0,-0.00988331719274,0,0
3,-0.141778547879,-0,-0,0.112137682248,0,0
*Step  = 11
*Time  = 1.2
*Data  = RCx;RCy;RCz;RCthx;RCthy;RCthz
1,-0.474209091815,0,0,-0.0807332000006,0,0
2,-0.716927864467,0,0,-0.0105697759603,0,0
3,-0.376236459292,-0,-0,0.11301197045,0,0
*Step  = 12
*Time  = 1.25
*Data  = RCx;RCy;RCz;RCthx;RCthy;RCthz
1,-0.391998607847,0,0,-0.107239761343,0,0
2,-0.532060953979,0,0,-0.0109961625023,0,0
3,-0.604971582138,-0,-0,0.112131356638,0,0
*Step  = 13
*Time  = 1.3
*Data  = RCx;RCy;RCz;RCthx;RCthy;RCthz
1,-0.359060265263,0,0,-0.133696759471,0,0
2,-0.325661471581,0,0,-0.0110026207052,0,0
3,-0.849071094698,-0,-0,0.108112370636,0,0
*Step  = 14
*Time  = 1.35
*Data  = RCx;RCy;RCz;RCthx;RCthy;RCthz
1,-0.29395700895,0,0,-0.160115246057,0,0
2,-0.105829004519,0,0,-0.0105776437827,0,0
3,-1.09440223887,-0,-0,0.102299979601,0,0
*Step  = 15
*Time  = 1.4
*Data  = RCx;RCy;RCz;RCthx;RCthy;RCthz
1,-0.195353035214,0,0,-0.186513211922,0,0
2,0.129537701962,0,0,-0.00975154512701,0,0
3,-1.33765335858,-0,-0,0.0949932128812,0,0
*Step  = 16
*Time  = 1.45
*Data  = RCx;RCy;RCz;RCthx;RCthy;RCthz
1,-0.059819759465,0,0,-0.21289407206,0,0
2,0.398154199737,0,0,-0.00817915246957,0,0
3,-1.5841177186,-0,-0,0.0840837325822,0,0
*Step  = 17
*Time  = 1.5
*Data  = RCx;RCy;RCz;RCthx;RCthy;RCthz
1,0.0415357166408,0,0,-0.239290723962,0,0
2,0.596001201832,0,0,-0.0071622382875,0,0
3,-1.83154662666,-0,-0,0.07760967094,0,0
*Step  = 18
*Time  = 1.55
*Data  = RCx;RCy;RCz;RCthx;RCthy;RCthz
1,0.113424320932,0,0,-0.265702791624,0,0
2,0.738211086902,0,0,-0.00673122359284,0,0
3,-2.08113890895,-0,-0,0.0741897250267,0,0
*Step  = 19
*Time  = 1.6
*Data  = RCx;RCy;RCz;RCthx;RCthy;RCthz
1,0.190989955581,0,0,-0.292133916222,0,0
2,0.879068995516,0,0,-0.00629295135147,0,0
3,-2.33109249749,-0,-0,0.07095221505,0,0
*Step  = 20
*Time  = 1.65
*Data  = RCx;RCy;RCz;RCthx;RCthy;RCthz
1,0.265984924417,0,0,-0.318576505262,0,0
2,1.01569096671,0,0,-0.00594159857188,0,0
3,-2.57947599222,-0,-0,0.0674616607267,0,0
*Step  = 21
*Time  = 1.7
*Data  = RCx;RCy;RCz;RCthx;RCthy;RCthz
1,0.341040701523,0,0,-0.34503093377,0,0
2,1.15290872173,0,0,-0.00529001734668,0,0
3,-2.82941958712,-0,-0,0.0632659743329,0,0
*Step  = 22
*Time  = 1.75
*Data  = RCx;RCy;RCz;RCthx;RCthy;RCthz
1,0.400347353032,0,0,-0.371495774899,0,0
2,1.30058277156,0,0,-0.0046996577876,0,0
3,-3.084710621,-0,-0,0.0589134444681,0,0
*Step  = 23
*Time  = 1.8
*Data  = RCx;RCy;RCz;RCthx;RCthy;RCthz
1,0.461910930837,0,0,-0.39797856769,0,0
2,1.45723131829,0,0,-0.00384664295583,0,0
3,-3.33941915717,-0,-0,0.0535121206084,0,0
*Step  = 24
*Time  = 1.85
*Data  = RCx;RCy;RCz;RCthx;RCthy;RCthz
1,0.502394422534,0,0,-0.424510534924,0,0
2,1.62119342319,0,0,-0.00448257786002,0,0
3,-3.60203949238,-0,-0,0.0527054259817,0,0
*Step  = 25
*Time  = 1.9
*Data  = RCx;RCy;RCz;RCthx;RCthy;RCthz
1,0.618001006317,0,0,-0.451025034535,0,0
2,1.79318992616,0,0,-0.00111654948795,0,0
3,-3.84933596097,-0,-0,0.0393952020517,0,0
*Step  = 26
*Time  = 1.95
*Data  = RCx;RCy;RCz;RCthx;RCthy;RCthz
1,0.612203348651,0,0,-0.477603225292,0,0
2,1.98192112801,0,0,-0.00202888393566,0,0
3,-4.12969120189,-0,-0,0.0437472919059,0,0
*Step  = 27
*Time  = 2
*Data  = RCx;RCy;RCz;RCthx;RCthy;RCthz
1,0.709771909992,0,0,-0.504113694824,0,0
2,2.16863297021,0,0,0.00174335941581,0,0
3,-4.3820772741,-0,-0,0.0310568424401,0,0
*Step  = 28
*Time  = 2.05
*Data  = RCx;RCy;RCz;RCthx;RCthy;RCthz
1,0.661812817162,0,0,-0.504033731611,0,0
2,2.25098017309,0,0,0.00193247408927,0,0
3,-4.39865230862,-0,-0,0.0233628161475,0,0
*Step  = 29
*Time  = 2.1
*Data  = RCx;RCy;RCz;RCthx;RCthy;RCthz
1,0.821521196419,0,0,-0.504634029389,0,0
2,1.98609275498,0,0,0.00406249991785,0,0
3,-4.43703935757,-0,-0,0.0588681096858,0,0
*Step  = 30
*Time  = 2.15
*Data  = RCx;RCy;RCz;RCthx;RCthy;RCthz
1,0.857168996515,0,0,-0.505667065611,0,0
2,1.61776707203,0,0,-0.00418166496482,0,0
3,-4.43174625625,-0,-0,0.0982256186887,0,0
*Step  = 31
*Time  = 2.2
*Data  = RCx;RCy;RCz;RCthx;RCthy;RCthz
1,0.69619795728,0,0,-0.506670786686,0,0
2,1.16771088712,0,0,-0.00728504316435,0,0
3,-4.41341117515,-0,-0,0.128341257949,0,0
*Step  = 32
*Time  = 2.25
*Data  = RCx;RCy;RCz;RCthx;RCthy;RCthz
1,0.442152502032,0,0,-0.507805910396,0,0
2,0.670793445379,0,0,-0.0120357934282,0,0
3,-4.38332053923,-0,-0,0.159657557262,0,0
*Step  = 33
*Time  = 2.3
*Data  = RCx;RCy;RCz;RCthx;RCthy;RCthz
1,0.380880147384,0,0,-0.509095383622,0,0
2,0.18968268307,0,0,-0.0123840163298,0,0
3,-4.34232326501,-0,-0,0.188819625802,0,0
*Step  = 34
*Time  = 2.35
*Data  = RCx;RCy;RCz;RCthx;RCthy;RCthz
1,0.299659232646,0,0,-0.510248658973,0,0
2,-0.168144950333,0,0,-0.0137582665032,0,0
3,-4.32622515197,-0,-0,0.20937647212,0,0
*Step  = 35
*Time  = 2.4
*Data  = RCx;RCy;RCz;RCthx;RCthy;RCthz
1,0.158481679593,0,0,-0.50046455843,0,0
2,-0.672178199468,0,0,-0.0148359655206,0,0
3,-4.56836543808,-0,-0,0.212788082859,0,0
*Step  = 36
*Time  = 2.45
*Data  = RCx;RCy;RCz;RCthx;RCthy;RCthz
1,0.220409223901,0,0,-0.501619578579,0,0
2,-1.02030777841,0,0,-0.01440615971,0,0
3,-4.47148492264,-0,-0,0.232296222532,0,0
*Step  = 37
*Time  = 2.5
*Data  = RCx;RCy;RCz;RCthx;RCthy;RCthz
1,0.218070742684,0,0,-0.502700813615,0,0
2,-1.27361171639,0,0,-0.0144133851837,0,0
3,-4.43017662886,-0,-0,0.245883096422,0,0
*Step  = 38
*Time  = 2.54998
*Data  = RCx;RCy;RCz;RCthx;RCthy;RCthz
1,0.219709596073,0,0,-0.503743716288,0,0
2,-1.51377879988,0,0,-0.0142120067653,0,0
3,-4.39109253673,-0,-0,0.258436401445,0,0
