*Step  = 1
*Time  = 1e-05
*Data  = x;y;z
1,-3.5778961804,3.52794821109,-11.2147754971
2,-5.486325235,-5.36454379,-37.858426675
15,-3.97456374338,3.54514129711,-11.1880718573
16,-5.47803146312,-5.35858343091,-37.7810641972
*Step  = 2
*Time  = 6e-05
*Data  = x;y;z
1,-3.50534224991,3.51121339605,-11.1788555355
2,-5.486325235,-5.36454379,-37.858426675
15,-3.97107465845,3.53139512444,-11.1475231127
16,-5.47388733144,-5.35561544095,-37.742404094
*Step  = 3
*Time  = 0.00011
*Data  = x;y;z
1,-3.48075312173,3.51133255788,-11.1621045475
2,-5.486325235,-5.36454379,-37.858426675
15,-3.96909828457,3.53249116784,-11.1293309319
16,-5.47194482729,-5.35422729161,-37.7242813406
*Step  = 4
*Time  = 0.00036
*Data  = x;y;z
1,-3.46702319486,3.51885526289,-11.154742529
2,-5.486325235,-5.36454379,-37.858426675
15,-3.96795273119,3.54055448665,-11.1211184289
16,-5.47102120967,-5.35356812378,-37.7156639939
*Step  = 5
*Time  = 0.00161
*Data  = x;y;z
1,-3.46140221664,3.52335619977,-11.1449774375
2,-5.486325235,-5.36454379,-37.858426675
15,-3.96692929569,3.54523717303,-11.1110428636
16,-5.46991529323,-5.35277599426,-37.705347091
*Step  = 6
*Time  = 0.00786
*Data  = x;y;z
1,-3.4675028327,3.51395197714,-11.1137818222
2,-5.486325235,-5.36454379,-37.858426675
15,-3.96525551709,3.53541452889,-11.0804089018
16,-5.46670252827,-5.35046489587,-37.6753802272
*Step  = 7
*Time  = 0.03911
*Data  = x;y;z
1,-3.50866877893,3.44047340425,-10.9748601256
2,-5.486325235,-5.36454379,-37.858426675
15,-3.95990098514,3.45956106766,-10.9447185311
16,-5.45274405234,-5.3403816927,-37.5452021068
*Step  = 8
*Time  = 0.05
*Data  = x;y;z
1,-3.54648234253,3.42511716249,-10.9351315255
2,-5.486325235,-5.36454379,-37.858426675
15,-3.95853656854,3.44243226999,-10.9076817403
16,-5.4488366542,-5.33752507787,-37.5087760514
*Step  = 9
*Time  = 0.1
*Data  = x;y;z
1,-3.66255430846,3.30689176478,-10.7354804873
2,-5.486325235,-5.36454379,-37.858426675
15,-3.95200062803,3.31868003999,-10.7164746198
16,-5.42919677914,-5.32318476961,-37.3256761482
*Step  = 10
*Time  = 0.15
*Data  = x;y;z
1,-3.85939516996,3.17461303709,-10.5321230663
2,-5.486325235,-5.36454379,-37.858426675
15,-3.94565524202,3.17801665011,-10.5265644739
16,-5.40978363135,-5.30885589401,-37.1447491707
*Step  = 11
*Time  = 0.2
*Data  = x;y;z
1,-4.03982072977,3.08753648857,-10.4242819268
2,-5.486325235,-5.36454379,-37.858426675
15,-3.9429858902,3.08377512756,-10.4304496702
16,-5.40007772904,-5.30155420267,-37.0543452154
*Step  = 12
*Time  = 0.25
*Data  = x;y;z
1,-4.18005583268,2.93001679363,-10.2362360877
2,-5.486325235,-5.36454379,-37.858426675
15,-3.93803147885,2.92091342222,-10.251427467
16,-5.38208073021,-5.28799145955,-36.8867142189
*Step  = 13
*Time  = 0.3
*Data  = x;y;z
1,-4.26471666857,2.78619888599,-10.0587660907
2,-5.486325235,-5.36454379,-37.858426675
15,-3.93274421362,2.77411310986,-10.079389773
16,-5.36472169743,-5.27467854598,-36.7251009494
*Step  = 14
*Time  = 0.35
*Data  = x;y;z
1,-4.30625354637,2.62490757404,-9.89859169875
2,-5.486325235,-5.36454379,-37.858426675
15,-3.92942532117,2.61163971902,-9.92193648291
16,-5.34915852256,-5.26250152001,-36.5802778255
*Step  = 15
*Time  = 0.4
*Data  = x;y;z
1,-4.34223742908,2.4727193394,-9.73582140153
2,-5.486325235,-5.36454379,-37.858426675
15,-3.92499375152,2.45852410709,-9.76161053381
16,-5.33321297097,-5.24979523341,-36.4319587069
*Step  = 16
*Time  = 0.446774194
*Data  = x;y;z
1,-4.3862413478,2.34737431593,-9.56968101882
2,-5.486325235,-5.36454379,-37.858426675
15,-3.91842664921,2.3319737082,-9.59852405608
16,-5.31673802588,-5.23644772336,-36.2787710958
*Step  = 17
*Time  = 0.45
*Data  = x;y;z
1,-4.37306694488,2.39560983606,-9.54727229075
2,-5.486325235,-5.36454379,-37.858426675
15,-3.91491162363,2.38054337097,-9.57600226922
16,-5.31385227858,-5.23349543394,-36.2521555584
*Step  = 18
*Time  = 0.5
*Data  = x;y;z
1,-4.37579240724,2.33711442112,-9.45642718734
2,-5.486325235,-5.36454379,-37.858426675
15,-3.91067196803,2.32208721706,-9.48574269142
16,-5.30461884052,-5.22551691381,-36.1664554841
*Step  = 19
*Time  = 0.55
*Data  = x;y;z
1,-4.41647417196,2.18348539028,-9.27418272937
2,-5.486325235,-5.36454379,-37.858426675
15,-3.90332247985,2.1675190759,-9.3062700234
16,-5.2866529111,-5.21044110706,-35.9995109275
*Step  = 20
*Time  = 0.6
*Data  = x;y;z
1,-4.45180561355,2.04408377278,-9.09005524421
2,-5.486325235,-5.36454379,-37.858426675
15,-3.89473953889,2.02740748748,-9.12463482712
16,-5.26834682462,-5.19472626252,-35.8294780677
*Step  = 21
*Time  = 0.65
*Data  = x;y;z
1,-4.48749263331,1.9107393302,-8.90221034383
2,-5.486325235,-5.36454379,-37.858426675
15,-3.88521123417,1.89341109036,-8.93940474892
16,-5.24965279027,-5.1783022679,-35.6559089843
*Step  = 22
*Time  = 0.7
*Data  = x;y;z
1,-4.52693160736,1.77742268606,-8.70894858413
2,-5.486325235,-5.36454379,-37.858426675
15,-3.87475764865,1.75941073595,-8.74901065986
16,-5.23044569641,-5.16103011061,-35.4776397319
*Step  = 23
*Time  = 0.75
*Data  = x;y;z
1,-4.56796928146,1.6462960884,-8.51581486644
2,-5.486325235,-5.36454379,-37.858426675
15,-3.86383460327,1.6276524401,-8.55877949312
16,-5.21126508734,-5.14330243963,-35.2996896982
*Step  = 24
*Time  = 0.8
*Data  = x;y;z
1,-4.59797168866,1.61532338195,-8.42174571772
2,-5.486325235,-5.36454379,-37.858426675
15,-3.85776505786,1.59611989982,-8.46742054869
16,-5.20180605285,-5.13334577017,-35.2122452544
*Step  = 25
*Time  = 0.85
*Data  = x;y;z
1,-4.6447102412,1.46264664653,-8.22509039818
2,-5.486325235,-5.36454379,-37.858426675
15,-3.84644853098,1.44284369023,-8.27375249674
16,-5.1825296876,-5.11476702475,-35.0335013834
*Step  = 26
*Time  = 0.9
*Data  = x;y;z
1,-4.67412507458,1.32058402569,-8.02984061218
2,-5.486325235,-5.36454379,-37.858426675
15,-3.83453970566,1.30069620578,-8.08053205822
16,-5.16328304674,-5.09566783763,-34.8550897463
*Step  = 27
*Time  = 0.95
*Data  = x;y;z
1,-4.70929223854,1.1708880123,-7.83500705139
2,-5.486325235,-5.36454379,-37.858426675
15,-3.82218497757,1.15084990931,-7.88794179715
16,-5.14424093434,-5.07618079248,-34.6786641594
*Step  = 28
*Time  = 1
*Data  = x;y;z
1,-4.69895365366,1.24064668531,-7.84410255578
2,-5.486325235,-5.36454379,-37.858426675
15,-3.82184132968,1.22076356052,-7.89799937051
16,-5.14475719967,-5.0737209188,-34.6841713177
*Step  = 29
*Time  = 1.03
*Data  = x;y;z
1,-4.4663705512,1.59924540869,-7.96731143955
2,-5.486325235,-5.36454379,-37.858426675
15,-3.81901307908,1.58448797317,-8.01100359979
16,-5.15318606031,-5.07782604897,-34.7638295648
*Step  = 30
*Time  = 1.06
*Data  = x;y;z
1,-4.35731793927,1.97234550703,-8.16243300527
2,-5.486325235,-5.36454379,-37.858426675
15,-3.83765541833,1.96046442369,-8.19951591429
16,-5.16973390219,-5.08920625436,-34.9174526969
*Step  = 31
*Time  = 1.09
*Data  = x;y;z
1,-4.27225732177,2.15920954167,-8.23732103481
2,-5.486325235,-5.36454379,-37.858426675
15,-3.83934286778,2.14926845005,-8.2683493494
16,-5.17462041093,-5.09079324764,-34.9635675623
*Step  = 32
*Time  = 1.12
*Data  = x;y;z
1,-4.2415293918,2.37277279258,-8.31753847972
2,-5.486325235,-5.36454379,-37.858426675
15,-3.84149251317,2.36354553462,-8.34647721295
16,-5.18017619496,-5.09300623579,-35.0158755594
*Step  = 33
*Time  = 1.15
*Data  = x;y;z
1,-4.19987629853,2.53931324853,-8.36755077958
2,-5.486325235,-5.36454379,-37.858426675
15,-3.8413873675,2.5310072164,-8.39359707902
16,-5.18286915879,-5.0927554656,-35.0416038734
*Step  = 34
*Time  = 1.18
*Data  = x;y;z
1,-4.16477895208,2.61198854372,-8.3808359853
2,-5.486325235,-5.36454379,-37.858426675
15,-3.84000197304,2.60443144431,-8.4045557265
16,-5.18287084012,-5.09024606729,-35.0423133734
*Step  = 35
*Time  = 1.21
*Data  = x;y;z
1,-4.18457985979,2.41274853142,-8.06992273632
2,-5.486325235,-5.36454379,-37.858426675
15,-3.82888716522,2.40520129214,-8.09591322934
16,-5.15976277996,-5.12532754867,-34.8135054496
*Step  = 36
*Time  = 1.24
*Data  = x;y;z
1,-4.17131639324,2.53134508601,-8.11960259436
2,-5.486325235,-5.36454379,-37.858426675
15,-3.8304884662,2.52407476354,-8.14463482627
16,-5.16348969573,-5.12502514298,-34.8489501616
*Step  = 37
*Time  = 1.27
*Data  = x;y;z
1,-4.15423533077,2.61115500628,-8.1474061781
2,-5.486325235,-5.36454379,-37.858426675
15,-3.83053408681,2.60421472207,-8.17121067189
16,-5.16513131321,-5.12331734671,-34.8649326335
*Step  = 38
*Time  = 1.3
*Data  = x;y;z
1,-4.13582598936,2.68476978643,-8.1726562916
2,-5.486325235,-5.36454379,-37.858426675
15,-3.83046513785,2.67818967991,-8.19515449574
16,-5.16653746077,-5.12148764852,-34.8787154679
*Step  = 39
*Time  = 1.33
*Data  = x;y;z
1,-4.1194349023,2.79567579462,-8.21380036131
2,-5.486325235,-5.36454379,-37.858426675
15,-3.8309864609,2.78942803378,-8.23501827787
16,-5.16920181448,-5.12057446375,-34.9042425966
*Step  = 40
*Time  = 1.36
*Data  = x;y;z
1,-4.09475464133,2.86868877108,-8.23548023296
2,-5.486325235,-5.36454379,-37.858426675
15,-3.83046978823,2.86293559562,-8.25496627395
16,-5.17013650358,-5.11842583185,-34.9136393694
*Step  = 41
*Time  = 1.39
*Data  = x;y;z
1,-4.0779068951,2.91801841944,-8.24965543526
2,-5.486325235,-5.36454379,-37.858426675
15,-3.82985521449,2.91259226591,-8.26800321422
16,-5.17057575641,-5.11598351765,-34.9184061146
*Step  = 42
*Time  = 1.42
*Data  = x;y;z
1,-4.06034127352,2.97425663151,-8.27059977492
2,-5.486325235,-5.36454379,-37.858426675
15,-3.82970689751,2.96918708896,-8.28768816833
16,-5.17162428329,-5.11405558383,-34.928846319
*Step  = 43
*Time  = 1.45
*Data  = x;y;z
1,-4.04245584656,3.02770021419,-8.29146751311
2,-5.486325235,-5.36454379,-37.858426675
15,-3.82957451524,3.02299847621,-8.30725769798
16,-5.17266883271,-5.11215959668,-34.9392493042
*Step  = 44
*Time  = 1.48
*Data  = x;y;z
1,-4.030131547,3.07945589381,-8.3125997727
2,-5.486325235,-5.36454379,-37.858426675
15,-3.82951883512,3.07500406842,-8.32748703558
16,-5.17378279071,-5.11035196764,-34.9502986975
*Step  = 45
*Time  = 1.51
*Data  = x;y;z
1,-4.01700055735,3.12888681373,-8.3334367063
2,-5.486325235,-5.36454379,-37.858426675
15,-3.82947276228,3.12470574787,-8.34735959164
16,-5.17487243846,-5.10855621352,-34.9611214136
*Step  = 46
*Time  = 1.54
*Data  = x;y;z
1,-4.00306838561,3.17735245789,-8.35367423553
2,-5.486325235,-5.36454379,-37.858426675
15,-3.82935372419,3.17346130388,-8.36657869483
16,-5.1758942995,-5.10674236096,-34.971312413
*Step  = 47
*Time  = 1.57
*Data  = x;y;z
1,-3.9948548041,3.24622874931,-8.38392354392
2,-5.486325235,-5.36454379,-37.858426675
15,-3.82965448532,3.24251077557,-8.39616200974
16,-5.17772660685,-5.10556864455,-34.9890629832
*Step  = 48
*Time  = 1.6
*Data  = x;y;z
1,-3.97796155382,3.31357446436,-8.41087773214
2,-5.486325235,-5.36454379,-37.858426675
15,-3.82964090325,3.3102207173,-8.42185727495
16,-5.17916776552,-5.10410547048,-35.0031707293
*Step  = 49
*Time  = 1.63
*Data  = x;y;z
1,-3.96697131662,3.34455791063,-8.42061650419
2,-5.486325235,-5.36454379,-37.858426675
15,-3.82898698765,3.34142381124,-8.43085567474
16,-5.17929512952,-5.10163562516,-35.005035746
*Step  = 50
*Time  = 1.66
*Data  = x;y;z
1,-3.95505507545,3.38654786371,-8.43963552228
2,-5.486325235,-5.36454379,-37.858426675
15,-3.82889633163,3.38366946657,-8.44900103141
16,-5.18023410293,-5.09986993814,-35.0144537266
*Step  = 51
*Time  = 1.69
*Data  = x;y;z
1,-3.94402348254,3.42767615799,-8.45861849342
2,-5.486325235,-5.36454379,-37.858426675
15,-3.82881076466,3.42503578371,-8.46717275135
16,-5.18117633879,-5.09813832374,-35.0239014575
*Step  = 52
*Time  = 1.72
*Data  = x;y;z
1,-3.9342611875,3.46806791985,-8.47745238125
2,-5.486325235,-5.36454379,-37.858426675
15,-3.82872774908,3.46563869947,-8.48528840168
16,-5.18211456824,-5.09643569416,-35.0333104505
*Step  = 53
*Time  = 1.75
*Data  = x;y;z
1,-3.93282058913,3.50933834745,-8.4973079897
2,-5.486325235,-5.36454379,-37.858426675
15,-3.82874862227,3.50693230534,-8.50502995955
16,-5.1832008907,-5.09489607639,-35.0440956788
*Step  = 54
*Time  = 1.78
*Data  = x;y;z
1,-3.92060259985,3.54702340052,-8.51535314676
2,-5.486325235,-5.36454379,-37.858426675
15,-3.82861767769,3.54488761099,-8.52217828263
16,-5.18405684904,-5.09318335882,-35.0527374756
*Step  = 55
*Time  = 1.81
*Data  = x;y;z
1,-3.93378103672,3.35079779784,-8.21856305368
2,-5.486325235,-5.36454379,-37.858426675
15,-3.82142436858,3.34841784898,-8.22695143654
16,-5.16597410207,-5.13052753162,-34.8712685314
*Step  = 56
*Time  = 1.84
*Data  = x;y;z
1,-3.97200431399,3.44112644868,-8.26951572887
2,-5.486325235,-5.36454379,-37.858426675
15,-3.82336415674,3.43795910457,-8.28050281758
16,-5.16999312542,-5.13015713714,-34.909501284
*Step  = 57
*Time  = 1.87
*Data  = x;y;z
1,-3.95731128884,3.47983911834,-8.28486510404
2,-5.486325235,-5.36454379,-37.858426675
15,-3.82294874222,3.47696059365,-8.29481059245
16,-5.1704799917,-5.12750915323,-34.9147360746
*Step  = 58
*Time  = 1.9
*Data  = x;y;z
1,-3.96731229116,3.51764071786,-8.30328692733
2,-5.486325235,-5.36454379,-37.858426675
15,-3.82300333706,3.51453291433,-8.31396644271
16,-5.17148350521,-5.12533390142,-34.9247763608
*Step  = 59
*Time  = 1.93
*Data  = x;y;z
1,-3.94716558942,3.55456522484,-8.3218946152
2,-5.486325235,-5.36454379,-37.858426675
15,-3.82289704158,3.55187549532,-8.33109335522
16,-5.172293204,-5.12312007411,-34.9329933369
*Step  = 60
*Time  = 1.96
*Data  = x;y;z
1,-3.93488910421,3.57609657813,-8.33335075121
2,-5.486325235,-5.36454379,-37.858426675
15,-3.82260644432,3.5736544795,-8.34168181722
16,-5.17260185804,-5.12063029465,-34.9365223019
*Step  = 61
*Time  = 1.99
*Data  = x;y;z
1,-3.92245313348,3.57256608791,-8.33522173336
2,-5.486325235,-5.36454379,-37.858426675
15,-3.8221056853,3.57037363557,-8.34270482973
16,-5.17221403211,-5.11776399764,-34.9335277519
*Step  = 62
*Time  = 1.99999
*Data  = x;y;z
1,-3.9159969331,3.5813035473,-8.34776972947
2,-5.486325235,-5.36454379,-37.858426675
15,-3.8222970122,3.57924703784,-8.3547660533
16,-5.17283798978,-5.11570145643,-34.9399630105
*Step  = 1
*Time  = 2
*Data  = x;y;z
1,-3.90970241771,3.58844896605,-8.3595286531
2,-5.486325235,-5.36454379,-37.858426675
15,-3.82246259192,3.58652564541,-8.36605267838
16,-5.17340777795,-5.11362771146,-34.9458921559
*Step  = 2
*Time  = 2.00005
*Data  = x;y;z
1,-3.90396355313,3.5958027422,-8.37175893392
2,-5.486325235,-5.36454379,-37.858426675
15,-3.8226664243,3.5940023365,-8.37784725464
16,-5.17403529969,-5.11162537084,-34.9523591629
*Step  = 3
*Time  = 2.0003
*Data  = x;y;z
1,-3.89749096088,3.60340578739,-8.3846695686
2,-5.486325235,-5.36454379,-37.858426675
15,-3.82289846701,3.60174601084,-8.39026430188
16,-5.17473420516,-5.10970677362,-34.959491645
*Step  = 4
*Time  = 2.00155
*Data  = x;y;z
1,-3.88994994919,3.6130889055,-8.40140643899
2,-5.486325235,-5.36454379,-37.858426675
15,-3.82327855594,3.61159639508,-8.40641507586
16,-5.17581464337,-5.10813654779,-34.9701802377
*Step  = 5
*Time  = 2.0078
*Data  = x;y;z
1,-3.87456026946,3.63342694697,-8.43704897043
2,-5.486325235,-5.36454379,-37.858426675
15,-3.82437927799,3.63228937326,-8.44082882987
16,-5.17874170509,-5.10820320891,-34.9980717578
*Step  = 6
*Time  = 2.03905
*Data  = x;y;z
1,-3.85050076383,3.70925075973,-8.56876870264
2,-5.486325235,-5.36454379,-37.858426675
15,-3.8290782733,3.70874302321,-8.57038839999
16,-5.19118715445,-5.11661445133,-35.1146359586
*Step  = 7
*Time  = 2.05
*Data  = x;y;z
1,-3.83070718521,3.73825245831,-8.62494552072
2,-5.486325235,-5.36454379,-37.858426675
15,-3.83104661979,3.73826064364,-8.62491983724
16,-5.19618000729,-5.11892354374,-35.1616848064
*Step  = 8
*Time  = 2.1
*Data  = x;y;z
1,-3.77083308538,3.84806599641,-8.8265522974
2,-5.486325235,-5.36454379,-37.858426675
15,-3.83799392505,3.84979235868,-8.821430415
16,-5.21545060012,-5.13393011959,-35.3416618309
*Step  = 9
*Time  = 2.15
*Data  = x;y;z
1,-3.72503544984,3.95574958524,-9.03198059286
2,-5.486325235,-5.36454379,-37.858426675
15,-3.84486377012,3.95902011059,-9.02282044725
16,-5.23522387384,-5.14974920417,-35.5261772255
*Step  = 10
*Time  = 2.2
*Data  = x;y;z
1,-3.66546599023,4.0051923489,-9.14130213331
2,-5.486325235,-5.36454379,-37.858426675
15,-3.84844498474,4.01033726692,-9.12727728695
16,-5.24539222623,-5.15742771188,-35.6211826412
*Step  = 11
*Time  = 2.2483871
*Data  = x;y;z
1,-3.63387181968,4.10383341416,-9.33783150427
2,-5.486325235,-5.36454379,-37.858426675
15,-3.85454055122,4.11037678416,-9.32090382009
16,-5.26446341036,-5.17311703146,-35.798954219
*Step  = 12
*Time  = 2.25
*Data  = x;y;z
1,-3.6240337167,4.10782537335,-9.35728467188
2,-5.486325235,-5.36454379,-37.858426675
15,-3.85524384809,4.11470671687,-9.33959584874
16,-5.26598425994,-5.17338569669,-35.8134443402
*Step  = 13
*Time  = 2.3
*Data  = x;y;z
1,-3.55870996825,4.20524425353,-9.55472945611
2,-5.486325235,-5.36454379,-37.858426675
15,-3.86086659228,4.21471503048,-9.53143907591
16,-5.2849682031,-5.18930430933,-35.9902563757
*Step  = 14
*Time  = 2.35
*Data  = x;y;z
1,-3.52269822853,4.30116904928,-9.75536623448
2,-5.486325235,-5.36454379,-37.858426675
15,-3.86645158834,4.31248562828,-9.7288490856
16,-5.30454341046,-5.20601140924,-36.1724050354
*Step  = 15
*Time  = 2.4
*Data  = x;y;z
1,-3.47356327348,4.39285278743,-9.9555676126
2,-5.486325235,-5.36454379,-37.858426675
15,-3.87177435811,4.40658882224,-9.92479332192
16,-5.32405223163,-5.2227970265,-36.3538067853
*Step  = 16
*Time  = 2.45
*Data  = x;y;z
1,-3.43424515523,4.47987569429,-10.1549242209
2,-5.486325235,-5.36454379,-37.858426675
15,-3.87697629655,4.49584159209,-10.1206645995
16,-5.34366071634,-5.23981821602,-36.5359932179
*Step  = 17
*Time  = 2.5
*Data  = x;y;z
1,-3.41679039277,4.52064702941,-10.2582966009
2,-5.486325235,-5.36454379,-37.858426675
15,-3.87973650674,4.53771105065,-10.2225026994
16,-5.35380253451,-5.24850000877,-36.6302356104
*Step  = 18
*Time  = 2.55
*Data  = x;y;z
1,-3.39597746442,4.60423603291,-10.4538355944
2,-5.486325235,-5.36454379,-37.858426675
15,-3.88443725602,4.62300035279,-10.4160592571
16,-5.37328354699,-5.26557965834,-36.8110406793
*Step  = 19
*Time  = 2.6
*Data  = x;y;z
1,-3.36017361653,4.68066310579,-10.6469496274
2,-5.486325235,-5.36454379,-37.858426675
15,-3.88871605938,4.70178228031,-10.6061720636
16,-5.39253578623,-5.28254359269,-36.989599853
*Step  = 20
*Time  = 2.65
*Data  = x;y;z
1,-3.3252876937,4.72844161843,-10.8190765594
2,-5.486325235,-5.36454379,-37.858426675
15,-3.8919101234,4.75191911868,-10.775863101
16,-5.41024355033,-5.29843762597,-37.1536398593
*Step  = 21
*Time  = 2.7
*Data  = x;y;z
1,-3.30387899139,4.75586858099,-10.9759475236
2,-5.486325235,-5.36454379,-37.858426675
15,-3.89465515675,4.78118066938,-10.9317102565
16,-5.42698698492,-5.31351070554,-37.3086434468
*Step  = 22
*Time  = 2.75
*Data  = x;y;z
1,-3.28690949831,4.77137428736,-11.121290796
2,-5.486325235,-5.36454379,-37.858426675
15,-3.89672076103,4.79832759376,-11.0768877702
16,-5.44283448247,-5.32761335473,-37.4553490646
*Step  = 23
*Time  = 2.8
*Data  = x;y;z
1,-3.29124299243,4.76845125373,-11.1847256859
2,-5.486325235,-5.36454379,-37.858426675
15,-3.89743032887,4.79563595569,-11.1414362916
16,-5.45009543627,-5.33402129273,-37.5225668021
*Step  = 24
*Time  = 2.85
*Data  = x;y;z
1,-3.29590961713,4.78516108503,-11.3210437958
2,-5.486325235,-5.36454379,-37.858426675
15,-3.89822823093,4.81296213069,-11.2797996315
16,-5.464842225,-5.34662529149,-37.6592275823
*Step  = 25
*Time  = 2.9
*Data  = x;y;z
1,-3.28556308229,4.79120266895,-11.4470946103
2,-5.486325235,-5.36454379,-37.858426675
15,-3.89886737037,4.82027571254,-11.4069157612
16,-5.47859149414,-5.35816396216,-37.7866943432
*Step  = 26
*Time  = 2.95
*Data  = x;y;z
1,-3.28869381045,4.78548366601,-11.5621688662
2,-5.486325235,-5.36454379,-37.858426675
15,-3.9004742248,4.81518999109,-11.5236042207
16,-5.49187457097,-5.36904881483,-37.9099275432
*Step  = 27
*Time  = 3
*Data  = x;y;z
1,-3.25717274169,4.76481374494,-11.5450110944
2,-5.486325235,-5.36454379,-37.858426675
15,-3.89994200002,4.79600308784,-11.5045013299
16,-5.49036485252,-5.36781033963,-37.8959232656
*Step  = 28
*Time  = 3.05
*Data  = x;y;z
1,-3.18746970051,4.73227246279,-11.3405284086
2,-5.486325235,-5.36454379,-37.858426675
15,-3.89741600573,4.76541689799,-11.29266866
16,-5.4678273155,-5.34936089635,-37.6867987462
*Step  = 29
*Time  = 3.1
*Data  = x;y;z
1,-3.23275685317,4.70764382837,-11.1425917583
2,-5.486325235,-5.36454379,-37.858426675
15,-3.89796202403,4.7373698406,-11.094433059
16,-5.44710227592,-5.33196607718,-37.4945888494
*Step  = 30
*Time  = 3.15
*Data  = x;y;z
1,-3.28374625621,4.69172158114,-11.011685924
2,-5.486325235,-5.36454379,-37.858426675
15,-3.89803411968,4.71832796845,-10.9657818077
16,-5.43327954651,-5.32001823269,-37.3664849003
*Step  = 31
*Time  = 3.2
*Data  = x;y;z
1,-3.32735596716,4.6509196772,-10.7971291907
2,-5.486325235,-5.36454379,-37.858426675
15,-3.89582878192,4.67435296893,-10.7533346111
16,-5.41020715821,-5.29943647946,-37.1528265161
*Step  = 32
*Time  = 3.25
*Data  = x;y;z
1,-3.39223328571,4.60608339778,-10.5738345699
2,-5.486325235,-5.36454379,-37.858426675
15,-3.8917798835,4.62563017646,-10.534842569
16,-5.38605896272,-5.27683168016,-36.9294808962
*Step  = 33
*Time  = 3.3
*Data  = x;y;z
1,-3.42346354595,4.52209103622,-10.3218100579
2,-5.486325235,-5.36454379,-37.858426675
15,-3.88538511864,4.53917328006,-10.285793959
16,-5.35930819502,-5.25137488324,-36.6820281606
*Step  = 34
*Time  = 3.35
*Data  = x;y;z
1,-3.43731954915,4.43523003325,-10.127424482
2,-5.486325235,-5.36454379,-37.858426675
15,-3.87899795456,4.45092167842,-10.0932823576
16,-5.33917721444,-5.23218157186,-36.4957140678
*Step  = 35
*Time  = 3.4
*Data  = x;y;z
1,-3.5518845712,4.16622509569,-9.55310770429
2,-5.486325235,-5.36454379,-37.858426675
15,-3.868662737,4.1760563363,-9.52874817428
16,-5.29732185021,-5.22659398663,-36.0961725986
*Step  = 36
*Time  = 3.45
*Data  = x;y;z
1,-3.59979395976,4.02693271668,-9.27010364791
2,-5.486325235,-5.36454379,-37.858426675
15,-3.85948515976,4.0344207293,-9.2501784339
16,-5.26816197144,-5.20329100169,-35.8248471819
*Step  = 37
*Time  = 3.5
*Data  = x;y;z
1,-3.67923715998,3.88509669862,-8.98890148644
2,-5.486325235,-5.36454379,-37.858426675
15,-3.84989917808,3.88964466633,-8.97587149149
16,-5.23946418262,-5.17963733459,-35.5579280323
*Step  = 38
*Time  = 3.55
*Data  = x;y;z
1,-3.72250672714,3.7908960753,-8.79873449036
2,-5.486325235,-5.36454379,-37.858426675
15,-3.84251771715,3.79392404061,-8.78957683375
16,-5.21981476919,-5.16241914849,-35.3753741184
*Step  = 39
*Time  = 3.6
*Data  = x;y;z
1,-3.78392313556,3.64201741399,-8.51894143126
2,-5.486325235,-5.36454379,-37.858426675
15,-3.8313074359,3.64310850866,-8.51533645349
16,-5.19121385523,-5.13727786627,-35.1095291166
*Step  = 40
*Time  = 3.65
*Data  = x;y;z
1,-3.83979680641,3.48925219857,-8.23355922145
2,-5.486325235,-5.36454379,-37.858426675
15,-3.81987401932,3.4888355572,-8.23507203164
16,-5.16223690282,-5.11158145356,-34.840036174
*Step  = 41
*Time  = 3.7
*Data  = x;y;z
1,-3.89850493613,3.33129308308,-7.94863125965
2,-5.486325235,-5.36454379,-37.858426675
15,-3.80697374493,3.32957322438,-7.95555006574
16,-5.13326599482,-5.08431693301,-34.5707538597
*Step  = 42
*Time  = 3.75
*Data  = x;y;z
1,-3.93464129598,3.22628555679,-7.75644798036
2,-5.486325235,-5.36454379,-37.858426675
15,-3.79716303173,3.22388781472,-7.76681529261
16,-5.11347904827,-5.06348985989,-34.387151508
*Step  = 43
*Time  = 3.8
*Data  = x;y;z
1,-3.98233057338,3.05648881505,-7.47081142151
2,-5.486325235,-5.36454379,-37.858426675
15,-3.78256832967,3.05342090095,-7.48571239807
16,-5.08454320707,-5.03413410237,-34.1181448513
*Step  = 44
*Time  = 3.85
*Data  = x;y;z
1,-4.04078124958,2.88451397968,-7.18165491883
2,-5.486325235,-5.36454379,-37.858426675
15,-3.76650367531,2.88086176337,-7.20183668327
16,-5.05541394347,-5.00321906739,-33.8472790758
*Step  = 45
*Time  = 3.9
*Data  = x;y;z
1,-4.09137993571,2.70278261179,-6.88844560241
2,-5.486325235,-5.36454379,-37.858426675
15,-3.74888068109,2.69890641525,-6.91319669448
16,-5.02598269137,-4.97062779585,-33.5734961229
*Step  = 46
*Time  = 3.95
*Data  = x;y;z
1,-4.10582566215,2.57908118257,-6.68825126844
2,-5.486325235,-5.36454379,-37.858426675
15,-3.73560196823,2.57535610188,-6.71474243539
16,-5.00572916239,-4.94540779439,-33.385313175
*Step  = 47
*Time  = 4
*Data  = x;y;z
1,-4.09844115955,2.59569627428,-6.69201127679
2,-5.486325235,-5.36454379,-37.858426675
15,-3.73475111998,2.59197289726,-6.7182891882
16,-5.00553328657,-4.93796599829,-33.3845645062
*Step  = 48
*Time  = 4.05
*Data  = x;y;z
1,-4.00279753958,2.42992613138,-6.67064624327
2,-5.486325235,-5.36454379,-37.858426675
15,-3.73407117764,2.42716243465,-6.69023267187
16,-5.00454706497,-4.93516881028,-33.3756385065
*Step  = 49
*Time  = 4.1
*Data  = x;y;z
1,-3.95028442243,2.2724004081,-6.66438782041
2,-5.486325235,-5.36454379,-37.858426675
15,-3.73507836479,2.27017725508,-6.68016509938
16,-5.00537261336,-4.93403309464,-33.3835802157
*Step  = 50
*Time  = 4.15
*Data  = x;y;z
1,-3.90980744954,2.11303961031,-6.66589134942
2,-5.486325235,-5.36454379,-37.858426675
15,-3.73688029052,2.11124522283,-6.67860049738
16,-5.0071094943,-4.9337238766,-33.4000209513
*Step  = 51
*Time  = 4.2
*Data  = x;y;z
1,-3.87184830534,1.94906993222,-6.67318687988
2,-5.486325235,-5.36454379,-37.858426675
15,-3.73929343206,1.94768796058,-6.68293695402
16,-5.00953424723,-4.93393826321,-33.4228899394
*Step  = 52
*Time  = 4.25
*Data  = x;y;z
1,-3.93852960405,1.62663217924,-6.40557728422
2,-5.486325235,-5.36454379,-37.858426675
15,-3.72821553615,1.62486066459,-6.42059021815
16,-4.98826533107,-4.99986289074,-33.2137142481
*Step  = 53
*Time  = 4.3
*Data  = x;y;z
1,-3.8736215717,1.45299110865,-6.40549689465
2,-5.486325235,-5.36454379,-37.858426675
15,-3.72920607893,1.45176330394,-6.41582806061
16,-4.9891098958,-4.99709792323,-33.2219553181
*Step  = 54
*Time  = 4.35
*Data  = x;y;z
1,-3.8483953742,1.27687492341,-6.42122706458
2,-5.486325235,-5.36454379,-37.858426675
15,-3.73217308844,1.27587858661,-6.42953115331
16,-4.99197345755,-4.99617841807,-33.2489930836
*Step  = 55
*Time  = 4.4
*Data  = x;y;z
1,-3.82745046753,1.09223227816,-6.44563295305
2,-5.486325235,-5.36454379,-37.858426675
15,-3.73612318129,1.09144250735,-6.45213199518
16,-4.99587405421,-4.99588771409,-33.2857255059
*Step  = 56
*Time  = 4.45
*Data  = x;y;z
1,-3.82561412988,0.891778138912,-6.48238784589
2,-5.486325235,-5.36454379,-37.858426675
15,-3.74159681013,0.891044647965,-6.48831623066
16,-5.00136507638,-4.99651942701,-33.3373303171
*Step  = 57
*Time  = 4.5
*Data  = x;y;z
1,-3.82992753782,0.674264452584,-6.52973718365
2,-5.486325235,-5.36454379,-37.858426675
15,-3.74836871094,0.673544788327,-6.53542902494
16,-5.00821720766,-4.99777244265,-33.401688151
*Step  = 58
*Time  = 4.55
*Data  = x;y;z
1,-3.84837417448,0.444147884756,-6.58552554817
2,-5.486325235,-5.36454379,-37.858426675
15,-3.7562446783,0.443325271522,-6.59187083442
16,-5.01625150674,-4.99953406819,-33.4771342497
*Step  = 59
*Time  = 4.6
*Data  = x;y;z
1,-3.86517650174,0.210819622438,-6.64441678365
2,-5.486325235,-5.36454379,-37.858426675
15,-3.7645213252,0.209909529166,-6.65125513799
16,-5.02474187067,-5.00142270196,-33.5568812226
*Step  = 60
*Time  = 4.65
*Data  = x;y;z
1,-3.88550741226,-0.014441715993,-6.70075392593
2,-5.486325235,-5.36454379,-37.858426675
15,-3.7726737475,-0.0154745109932,-6.70832447882
16,-5.03304492092,-5.00323487799,-33.6348817995
*Step  = 61
*Time  = 4.7
*Data  = x;y;z
1,-3.89583217577,-0.22810248207,-6.75464796573
2,-5.486325235,-5.36454379,-37.858426675
15,-3.78027642852,-0.229174358521,-6.76231672436
16,-5.04105270938,-5.00466150457,-33.7101952648
*Step  = 62
*Time  = 4.75
*Data  = x;y;z
1,-3.90616559114,-0.429639142742,-6.8052330128
2,-5.486325235,-5.36454379,-37.858426675
15,-3.78761378194,-0.430752360626,-6.81302640944
16,-5.04871060488,-5.0061742455,-33.7822064409
*Step  = 63
*Time  = 4.8
*Data  = x;y;z
1,-3.91465483399,-0.623259429133,-6.85584145014
2,-5.486325235,-5.36454379,-37.858426675
15,-3.79494194525,-0.624397132713,-6.86363722397
16,-5.05638457038,-5.00785873659,-33.854363706
*Step  = 64
*Time  = 4.85
*Data  = x;y;z
1,-3.92525069359,-0.809721252,-6.90585981432
2,-5.486325235,-5.36454379,-37.858426675
15,-3.8022072842,-0.810904314644,-6.91379510012
16,-5.06403131649,-5.00972595738,-33.9262600667
*Step  = 65
*Time  = 4.9
*Data  = x;y;z
1,-3.93414187773,-0.986819136349,-6.95336633577
2,-5.486325235,-5.36454379,-37.858426675
15,-3.8091722573,-0.988034145372,-6.96135647644
16,-5.07139731557,-5.01163890465,-33.9955189549
*Step  = 66
*Time  = 4.95
*Data  = x;y;z
1,-3.94312893149,-1.15762304446,-7.00035308916
2,-5.486325235,-5.36454379,-37.858426675
15,-3.81609413274,-1.15887151458,-7.00840424167
16,-5.07872511017,-5.01371529538,-34.0644055842
*Step  = 67
*Time  = 4.99999
*Data  = x;y;z
1,-3.98522423881,-1.06239401263,-6.9768348664
2,-5.486325235,-5.36454379,-37.858426675
15,-3.81256023433,-1.06411427731,-6.98803614254
16,-5.07637545016,-5.00633582961,-34.0432907589
