*Step  = 1
*Time  = 1e-05
*Data  = x;y;z
1,-3.4643981471,3.3383577027,-11.2136120474
2,-5.486325235,-5.36454379,-37.858426675
15,-3.98198468146,3.36079536869,-11.1788439356
16,-5.4785642603,-5.358961631,-37.786036107
*Step  = 2
*Time  = 1.8453091e-05
*Data  = x;y;z
1,-3.40373851055,3.30368697087,-11.179898835
2,-5.486325235,-5.36454379,-37.858426675
15,-3.97975327515,3.32865302649,-11.1410941409
16,-5.4749056153,-5.35633786828,-37.7519065935
*Step  = 3
*Time  = 6.0718546e-05
*Data  = x;y;z
1,-3.38188832946,3.28864029831,-11.1629727043
2,-5.486325235,-5.36454379,-37.858426675
15,-3.97858959649,3.31449955492,-11.1227439674
16,-5.47311228141,-5.35505459571,-37.7351763199
*Step  = 4
*Time  = 0.000272045821
*Data  = x;y;z
1,-3.36819678928,3.27996345811,-11.1522597061
2,-5.486325235,-5.36454379,-37.858426675
15,-3.97785136081,3.30637890547,-11.1111319976
16,-5.47197123477,-5.35423864193,-37.7245310795
*Step  = 5
*Time  = 0.0013286822
*Data  = x;y;z
1,-3.36219941825,3.27381444285,-11.1414270093
2,-5.486325235,-5.36454379,-37.858426675
15,-3.97717627506,3.30044190233,-11.0999309783
16,-5.47084375405,-5.35343135177,-37.7140128739
*Step  = 6
*Time  = 0.00661186407
*Data  = x;y;z
1,-3.36487321441,3.2664269174,-11.1143297571
2,-5.486325235,-5.36454379,-37.858426675
15,-3.97565349447,3.29278539503,-11.0731465741
16,-5.46805278269,-5.35142731064,-37.6879786274
*Step  = 7
*Time  = 0.0330277735
*Data  = x;y;z
1,-3.3942448999,3.24378996736,-10.9982771678
2,-5.486325235,-5.36454379,-37.858426675
15,-3.96945774111,3.26820587111,-10.9596141401
16,-5.45612836344,-5.34284975261,-37.5767543854
*Step  = 8
*Time  = 0.05
*Data  = x;y;z
1,-3.41910714337,3.23739035968,-10.9359014386
2,-5.486325235,-5.36454379,-37.858426675
15,-3.96639671307,3.26037286158,-10.899171141
16,-5.44973078125,-5.33823686053,-37.5170862561
*Step  = 9
*Time  = 0.1
*Data  = x;y;z
1,-3.50813514486,3.19576116042,-10.7450637179
2,-5.486325235,-5.36454379,-37.858426675
15,-3.95748837722,3.21403227506,-10.7152162173
16,-5.430415457,-5.32429911495,-37.3369430084
*Step  = 10
*Time  = 0.15
*Data  = x;y;z
1,-3.63766828442,3.13952880536,-10.5687367662
2,-5.486325235,-5.36454379,-37.858426675
15,-3.95072169346,3.15184515256,-10.5481874889
16,-5.41302951828,-5.3117228764,-37.1748063352
*Step  = 11
*Time  = 0.2
*Data  = x;y;z
1,-3.74491463511,3.11500542696,-10.4979216386
2,-5.486325235,-5.36454379,-37.858426675
15,-3.94910156029,3.12290543156,-10.4846385103
16,-5.40640955953,-5.30691878041,-37.1130762957
*Step  = 12
*Time  = 0.25
*Data  = x;y;z
1,-3.90194935611,3.02651585078,-10.3300084707
2,-5.486325235,-5.36454379,-37.858426675
15,-3.94397700066,3.02808767177,-10.3273263935
16,-5.39028516163,-5.29525111587,-36.9627043706
*Step  = 13
*Time  = 0.3
*Data  = x;y;z
1,-4.02806275325,2.91722496293,-10.1635485085
2,-5.486325235,-5.36454379,-37.858426675
15,-3.93933604435,2.91401930117,-10.1691259128
16,-5.37428518241,-5.28366737979,-36.8134940006
*Step  = 14
*Time  = 0.35
*Data  = x;y;z
1,-4.11884592763,2.79600989361,-9.97603464983
2,-5.486325235,-5.36454379,-37.858426675
15,-3.93210580456,2.78949636395,-9.98755979476
16,-5.35584736022,-5.27030821799,-36.6415518872
*Step  = 15
*Time  = 0.4
*Data  = x;y;z
1,-4.2029916277,2.66940987597,-9.77900981845
2,-5.486325235,-5.36454379,-37.858426675
15,-3.92351008279,2.66000350398,-9.79591932317
16,-5.33636192191,-5.25617491333,-36.4598441475
*Step  = 16
*Time  = 0.45
*Data  = x;y;z
1,-4.28066640577,2.54132854122,-9.57869803796
2,-5.486325235,-5.36454379,-37.858426675
15,-3.914021552,2.52942782228,-9.60041589351
16,-5.31645911832,-5.24171705434,-36.2742501109
*Step  = 17
*Time  = 0.498387097
*Data  = x;y;z
1,-4.31711386858,2.47803848488,-9.47821405563
2,-5.486325235,-5.36454379,-37.858426675
15,-3.9095500548,2.46501932068,-9.50213025445
16,-5.30645231903,-5.23439386694,-36.1809543079
*Step  = 18
*Time  = 0.5
*Data  = x;y;z
1,-4.30141447992,2.47709833997,-9.47022795068
2,-5.486325235,-5.36454379,-37.858426675
15,-3.9081624741,2.46456410988,-9.49333239429
16,-5.3055095015,-5.23367180233,-36.1721750003
*Step  = 19
*Time  = 0.55
*Data  = x;y;z
1,-4.39755452821,2.34546094816,-9.27091856627
2,-5.486325235,-5.36454379,-37.858426675
15,-3.89840427071,2.3301323344,-9.29966411177
16,-5.28584965713,-5.21933942798,-35.9888589425
*Step  = 20
*Time  = 0.6
*Data  = x;y;z
1,-4.46382430895,2.21209765742,-9.06443462169
2,-5.486325235,-5.36454379,-37.858426675
15,-3.88735816658,2.19505242629,-9.0970280848
16,-5.26525458914,-5.20428785823,-35.7968313886
*Step  = 21
*Time  = 0.65
*Data  = x;y;z
1,-4.53423692859,2.07224706228,-8.85554320239
2,-5.486325235,-5.36454379,-37.858426675
15,-3.87588703156,2.05351743254,-8.89212595704
16,-5.244482269,-5.18905817646,-35.6031621727
*Step  = 22
*Time  = 0.7
*Data  = x;y;z
1,-4.61896401448,1.92982891982,-8.64444854294
2,-5.486325235,-5.36454379,-37.858426675
15,-3.86378177793,1.90917341074,-8.68554316096
16,-5.22352027722,-5.17364344868,-35.4077338112
*Step  = 23
*Time  = 0.75
*Data  = x;y;z
1,-4.69773994496,1.78902442525,-8.43238316344
2,-5.486325235,-5.36454379,-37.858426675
15,-3.85109597339,1.76677749407,-8.47752971744
16,-5.20239826775,-5.15806018372,-35.2108227449
*Step  = 24
*Time  = 0.8
*Data  = x;y;z
1,-4.73637568449,1.71702287117,-8.32310869838
2,-5.486325235,-5.36454379,-37.858426675
15,-3.84426391362,1.69405097339,-8.3702599167
16,-5.19150490717,-5.14992147295,-35.1092960256
*Step  = 25
*Time  = 0.85
*Data  = x;y;z
1,-4.81931348274,1.56949283088,-8.11409051903
2,-5.486325235,-5.36454379,-37.858426675
15,-3.8315007642,1.54508760762,-8.16516842574
16,-5.17074458822,-5.13452460695,-34.9157680919
*Step  = 26
*Time  = 0.9
*Data  = x;y;z
1,-4.94011259936,1.40886104228,-7.90107944296
2,-5.486325235,-5.36454379,-37.858426675
15,-3.818107584,1.38228031582,-7.9576308547
16,-5.14981134533,-5.11894315642,-34.7206383706
*Step  = 27
*Time  = 0.95
*Data  = x;y;z
1,-5.0022468845,1.25380432776,-7.68731167832
2,-5.486325235,-5.36454379,-37.858426675
15,-3.80406593876,1.22660780691,-7.74640530986
16,-5.12846843664,-5.10298321819,-34.5216992002
*Step  = 28
*Time  = 1
*Data  = x;y;z
1,-4.99920868856,1.25883229617,-7.68302619211
2,-5.486325235,-5.36454379,-37.858426675
15,-3.80360433304,1.23168915162,-7.74229477439
16,-5.1280160152,-5.10241897545,-34.5175404799
*Step  = 29
*Time  = 1.03
*Data  = x;y;z
1,-4.49811561027,2.32341084604,-8.1235361111
2,-5.486325235,-5.36454379,-37.858426675
15,-3.81567318423,2.30789349416,-8.16648186777
16,-5.16617646387,-5.12874010396,-34.8737466622
*Step  = 30
*Time  = 1.06
*Data  = x;y;z
1,-4.28992664043,2.65097781221,-8.19510867212
2,-5.486325235,-5.36454379,-37.858426675
15,-3.82575088585,2.64040788438,-8.22693732884
16,-5.17041712519,-5.13105415944,-34.9134270963
*Step  = 31
*Time  = 1.09
*Data  = x;y;z
1,-4.22196858451,2.86119577545,-8.23975008542
2,-5.486325235,-5.36454379,-37.858426675
15,-3.82472854772,2.85213668484,-8.26734062692
16,-5.17282368,-5.131888831,-34.9360916542
*Step  = 32
*Time  = 1.12
*Data  = x;y;z
1,-4.16231125815,3.01882071394,-8.26689813273
2,-5.486325235,-5.36454379,-37.858426675
15,-3.82306506056,3.01107377513,-8.29061768136
16,-5.17379472255,-5.13176365955,-34.9453509265
*Step  = 33
*Time  = 1.15
*Data  = x;y;z
1,-4.12450242447,3.15299942822,-8.29226742063
2,-5.486325235,-5.36454379,-37.858426675
15,-3.82180769107,3.14607828318,-8.31348055815
16,-5.17487349265,-5.13176570831,-34.9556048342
*Step  = 34
*Time  = 1.18
*Data  = x;y;z
1,-4.09342236534,3.27315186519,-8.31498054111
2,-5.486325235,-5.36454379,-37.858426675
15,-3.82064048588,3.26690694769,-8.33411152193
16,-5.1758147699,-5.13169897158,-34.9645697596
*Step  = 35
*Time  = 1.21
*Data  = x;y;z
1,-4.07195336593,3.38128707838,-8.33651621883
2,-5.486325235,-5.36454379,-37.858426675
15,-3.81964445135,3.37550391588,-8.35420278251
16,-5.17678666306,-5.13168391803,-34.9738145613
*Step  = 36
*Time  = 1.24
*Data  = x;y;z
1,-4.06782860292,3.48187761542,-8.35769251124
2,-5.486325235,-5.36454379,-37.858426675
15,-3.81891930978,3.47616568433,-8.37511572704
16,-5.17789998673,-5.13179726,-34.9843727033
*Step  = 37
*Time  = 1.27
*Data  = x;y;z
1,-4.05248808001,3.57042967237,-8.37634405641
2,-5.486325235,-5.36454379,-37.858426675
15,-3.81814314243,3.56504599717,-8.39272228943
16,-5.17876725275,-5.13176663995,-34.9926282891
*Step  = 38
*Time  = 1.3
*Data  = x;y;z
1,-4.02624828226,3.65311328862,-8.39329829535
2,-5.486325235,-5.36454379,-37.858426675
15,-3.81729098584,3.64830779646,-8.40788737597
16,-5.17943328663,-5.1316198821,-34.9989997829
*Step  = 39
*Time  = 1.33
*Data  = x;y;z
1,-4.0117832689,3.73193363065,-8.41059119732
2,-5.486325235,-5.36454379,-37.858426675
15,-3.81662850178,3.72744095311,-8.42419170095
16,-5.18024519031,-5.13160224508,-35.0067268276
*Step  = 40
*Time  = 1.36
*Data  = x;y;z
1,-3.99758415303,3.80600582816,-8.42684623815
2,-5.486325235,-5.36454379,-37.858426675
15,-3.8159900658,3.80182117725,-8.43948084401
16,-5.18099368942,-5.13155826015,-35.0138579984
*Step  = 41
*Time  = 1.39
*Data  = x;y;z
1,-3.99666838536,3.87849779169,-8.4435430108
2,-5.486325235,-5.36454379,-37.858426675
15,-3.81549068791,3.87431864952,-8.45611515169
16,-5.18188604466,-5.1316353359,-35.0223278368
*Step  = 42
*Time  = 1.42
*Data  = x;y;z
1,-3.9777290795,3.94579038042,-8.45952458392
2,-5.486325235,-5.36454379,-37.858426675
15,-3.81496187533,3.94203232283,-8.4708016304
16,-5.18262763451,-5.13161326205,-35.0293886626
*Step  = 43
*Time  = 1.45
*Data  = x;y;z
1,-3.96786245569,4.01223770079,-8.4753986542
2,-5.486325235,-5.36454379,-37.858426675
15,-3.81447090705,4.00869281303,-8.48600075752
16,-5.18342108063,-5.13164660054,-35.0369297864
*Step  = 44
*Time  = 1.48
*Data  = x;y;z
1,-3.95692098774,4.07197286598,-8.48834449927
2,-5.486325235,-5.36454379,-37.858426675
15,-3.81389681966,4.06866464487,-8.49821689269
16,-5.18397646604,-5.13152649811,-35.0422453529
*Step  = 45
*Time  = 1.51
*Data  = x;y;z
1,-3.94955210825,4.13158169509,-8.50291337974
2,-5.486325235,-5.36454379,-37.858426675
15,-3.81347605569,4.12843146664,-8.51228416803
16,-5.18471690415,-5.13156298704,-35.0492822525
*Step  = 46
*Time  = 1.54
*Data  = x;y;z
1,-3.9402279158,4.1874299462,-8.51648515302
2,-5.486325235,-5.36454379,-37.858426675
15,-3.81306411526,4.184483542,-8.52522689433
16,-5.18537874096,-5.1315491764,-35.055584198
*Step  = 47
*Time  = 1.57
*Data  = x;y;z
1,-3.93288722285,4.24266388924,-8.53032051589
2,-5.486325235,-5.36454379,-37.858426675
15,-3.8127035637,4.23987685002,-8.53856765305
16,-5.18608407354,-5.13156952008,-35.0622915671
*Step  = 48
*Time  = 1.6
*Data  = x;y;z
1,-3.92445154727,4.29505133324,-8.54342211219
2,-5.486325235,-5.36454379,-37.858426675
15,-3.81232445656,4.29244910806,-8.55110015423
16,-5.18673604857,-5.13159578279,-35.068490551
*Step  = 49
*Time  = 1.63
*Data  = x;y;z
1,-3.92001674741,4.34623056063,-8.55604144999
2,-5.486325235,-5.36454379,-37.858426675
15,-3.81193485684,4.34372022388,-8.56342432336
16,-5.18736663201,-5.13159457577,-35.0744938
*Step  = 50
*Time  = 1.66
*Data  = x;y;z
1,-3.90882998939,4.39566106885,-8.56862716765
2,-5.486325235,-5.36454379,-37.858426675
15,-3.8115969874,4.39340096185,-8.57526116057
16,-5.18797655306,-5.13158952729,-35.0803005328
*Step  = 51
*Time  = 1.69
*Data  = x;y;z
1,-3.90096830358,4.44292008497,-8.58038764604
2,-5.486325235,-5.36454379,-37.858426675
15,-3.81125785736,4.44083338443,-8.58649770475
16,-5.18854958803,-5.13160610097,-35.0857511693
*Step  = 52
*Time  = 1.72
*Data  = x;y;z
1,-3.90121004284,4.49057725918,-8.59260249516
2,-5.486325235,-5.36454379,-37.858426675
15,-3.81093301631,4.4884757617,-8.59873480493
16,-5.18919725179,-5.1316354564,-35.0919103687
*Step  = 53
*Time  = 1.75
*Data  = x;y;z
1,-3.89957906787,4.53771473272,-8.60501664389
2,-5.486325235,-5.36454379,-37.858426675
15,-3.81065749667,4.53564319211,-8.61104473133
16,-5.18986162077,-5.13167794617,-35.0982247265
*Step  = 54
*Time  = 1.78
*Data  = x;y;z
1,-3.89164431528,4.5822444514,-8.61715211982
2,-5.486325235,-5.36454379,-37.858426675
15,-3.81036748343,4.58034966667,-8.62264860873
16,-5.19047958372,-5.13172487268,-35.1040969964
*Step  = 55
*Time  = 1.81
*Data  = x;y;z
1,-3.88310209501,4.62510922465,-8.62819273218
2,-5.486325235,-5.36454379,-37.858426675
15,-3.81005459606,4.62340508421,-8.63312574257
16,-5.19100332288,-5.13169751964,-35.1090911074
*Step  = 56
*Time  = 1.84
*Data  = x;y;z
1,-3.88724169426,4.66932052766,-8.64030721781
2,-5.486325235,-5.36454379,-37.858426675
15,-3.80984687397,4.66751360191,-8.64552180018
16,-5.19169646893,-5.13177415027,-35.1156716999
*Step  = 57
*Time  = 1.87
*Data  = x;y;z
1,-3.87588686075,4.7098908,-8.65127184111
2,-5.486325235,-5.36454379,-37.858426675
15,-3.80953884776,4.70834074137,-8.65573335887
16,-5.19220844111,-5.13176067131,-35.1205514049
*Step  = 58
*Time  = 1.9
*Data  = x;y;z
1,-3.8664984728,4.74977536803,-8.66188617891
2,-5.486325235,-5.36454379,-37.858426675
15,-3.80924891796,4.74843698373,-8.66573001098
16,-5.19270905081,-5.13174305875,-35.1253237844
*Step  = 59
*Time  = 1.93
*Data  = x;y;z
1,-3.85859831487,4.78961596095,-8.67279103304
2,-5.486325235,-5.36454379,-37.858426675
15,-3.80900858808,4.78845592615,-8.67611591499
16,-5.19325957131,-5.13179158959,-35.1305539742
*Step  = 60
*Time  = 1.96
*Data  = x;y;z
1,-3.85629139992,4.80605922485,-8.67044997039
2,-5.486325235,-5.36454379,-37.858426675
15,-3.80824484136,4.80493483695,-8.67367436329
16,-5.19275663348,-5.13114014166,-35.1259388269
*Step  = 61
*Time  = 1.99
*Data  = x;y;z
1,-3.8636327789,4.78946599554,-8.65267050197
2,-5.486325235,-5.36454379,-37.858426675
15,-3.80711647175,4.78814343937,-8.65647946542
16,-5.19115392919,-5.12988325385,-35.1110110056
*Step  = 62
*Time  = 1.99999
*Data  = x;y;z
1,-3.8659347317,4.78981925852,-8.65225911191
2,-5.486325235,-5.36454379,-37.858426675
15,-3.80705370402,4.78844121666,-8.65622730214
16,-5.191100578,-5.12977347854,-35.1105323826
*Step  = 1
*Time  = 2
*Data  = x;y;z
1,-3.86509353947,4.79535185461,-8.65544790954
2,-5.486325235,-5.36454379,-37.858426675
15,-3.80713056753,4.79399497256,-8.65935176927
16,-5.19131765691,-5.12979589539,-35.1125939942
*Step  = 2
*Time  = 2.00005
*Data  = x;y;z
1,-3.86437939587,4.79870412111,-8.65686029069
2,-5.486325235,-5.36454379,-37.858426675
15,-3.80709736576,4.79736275656,-8.66071818562
16,-5.1913731679,-5.12967878767,-35.1131542479
*Step  = 3
*Time  = 2.0003
*Data  = x;y;z
1,-3.86388870894,4.80192285782,-8.65888962746
2,-5.486325235,-5.36454379,-37.858426675
15,-3.80709329407,4.80059215043,-8.66271490704
16,-5.19149577135,-5.12961014352,-35.1143414013
*Step  = 4
*Time  = 2.00155
*Data  = x;y;z
1,-3.86292240012,4.80722401251,-8.66514657941
2,-5.486325235,-5.36454379,-37.858426675
15,-3.8072496177,4.80591731686,-8.6688966
16,-5.19203099634,-5.12984215069,-35.1193824254
*Step  = 5
*Time  = 2.0078
*Data  = x;y;z
1,-3.86015078499,4.82466261014,-8.69280108488
2,-5.486325235,-5.36454379,-37.858426675
15,-3.80817882878,4.82343333203,-8.69630220859
16,-5.194642814,-5.13159859304,-35.1438159577
*Step  = 6
*Time  = 2.03905
*Data  = x;y;z
1,-3.84563110081,4.90163044048,-8.82715098338
2,-5.486325235,-5.36454379,-37.858426675
15,-3.81291178377,4.90082764995,-8.8293566199
16,-5.20761583258,-5.1410579352,-35.2649814691
*Step  = 7
*Time  = 2.05
*Data  = x;y;z
1,-3.83696705838,4.92624274215,-8.87423077918
2,-5.486325235,-5.36454379,-37.858426675
15,-3.81466096639,4.92568884306,-8.87573266231
16,-5.21226319926,-5.14480359671,-35.3082861704
*Step  = 8
*Time  = 2.1
*Data  = x;y;z
1,-3.82750389834,5.04038935742,-9.08444673388
2,-5.486325235,-5.36454379,-37.858426675
15,-3.82194203122,5.0402435472,-9.08482081311
16,-5.23291486334,-5.16066454644,-35.5009271933
*Step  = 9
*Time  = 2.15
*Data  = x;y;z
1,-3.79298392591,5.14502647812,-9.29363240253
2,-5.486325235,-5.36454379,-37.858426675
15,-3.82915848064,5.14602403381,-9.29120163376
16,-5.2535824647,-5.17713204075,-35.6935069083
*Step  = 10
*Time  = 2.2
*Data  = x;y;z
1,-3.76891456695,5.18967655095,-9.39637290783
2,-5.486325235,-5.36454379,-37.858426675
15,-3.83281252873,5.19148063988,-9.39208953937
16,-5.26393774563,-5.1858230842,-35.7898436551
*Step  = 11
*Time  = 2.25
*Data  = x;y;z
1,-3.74449816682,5.28590969999,-9.60238331017
2,-5.486325235,-5.36454379,-37.858426675
15,-3.83955336363,5.28872195053,-9.59602919582
16,-5.28443660307,-5.202201229,-35.9807719545
*Step  = 12
*Time  = 2.3
*Data  = x;y;z
1,-3.72460497994,5.37622036707,-9.80668718953
2,-5.486325235,-5.36454379,-37.858426675
15,-3.84615841104,5.37997916199,-9.79859442837
16,-5.30494859429,-5.21878616393,-36.1717132444
*Step  = 13
*Time  = 2.35
*Data  = x;y;z
1,-3.68920868524,5.45674568973,-10.0074105687
2,-5.486325235,-5.36454379,-37.858426675
15,-3.85247303151,5.46201060654,-9.99657922192
16,-5.32515064917,-5.23519990531,-36.3596963629
*Step  = 14
*Time  = 2.4
*Data  = x;y;z
1,-3.65614841053,5.53176056478,-10.2064104795
2,-5.486325235,-5.36454379,-37.858426675
15,-3.85856985423,5.53855547639,-10.19304478
16,-5.34523422912,-5.25146672584,-36.5465480354
*Step  = 15
*Time  = 2.45
*Data  = x;y;z
1,-3.61383798085,5.59715393136,-10.3998596284
2,-5.486325235,-5.36454379,-37.858426675
15,-3.86429058323,5.60588814508,-10.3834053451
16,-5.36485851329,-5.26741559989,-36.7290626091
*Step  = 16
*Time  = 2.5
*Data  = x;y;z
1,-3.5784518729,5.61674571797,-10.4902400644
2,-5.486325235,-5.36454379,-37.858426675
15,-3.8671785268,5.62699316104,-10.4713510728
16,-5.37436996249,-5.27544871786,-36.8173908567
*Step  = 17
*Time  = 2.55
*Data  = x;y;z
1,-3.55414306141,5.66185412866,-10.6677213698
2,-5.486325235,-5.36454379,-37.858426675
15,-3.87220019064,5.67354275017,-10.647131765
16,-5.39297309563,-5.29069892441,-36.9902915622
*Step  = 18
*Time  = 2.6
*Data  = x;y;z
1,-3.51062380902,5.68956796114,-10.833989597
2,-5.486325235,-5.36454379,-37.858426675
15,-3.8771163066,5.70347670851,-10.810562302
16,-5.41092275264,-5.3055588161,-37.1570150116
*Step  = 19
*Time  = 2.65
*Data  = x;y;z
1,-3.482296671,5.70690408453,-10.9903103047
2,-5.486325235,-5.36454379,-37.858426675
15,-3.88198342301,5.72253223421,-10.9651601204
16,-5.42843351521,-5.31995004203,-37.3196599087
*Step  = 20
*Time  = 2.7
*Data  = x;y;z
1,-3.46122228382,5.71552234256,-11.1384956563
2,-5.486325235,-5.36454379,-37.858426675
15,-3.88685313754,5.73263428818,-11.1122173712
16,-5.44555962607,-5.33373907247,-37.4788133179
*Step  = 21
*Time  = 2.75
*Data  = x;y;z
1,-3.43899568716,5.71473720693,-11.2778805239
2,-5.486325235,-5.36454379,-37.858426675
15,-3.89172278917,5.73341772174,-11.2504871641
16,-5.46214409397,-5.34667982365,-37.6330814102
*Step  = 22
*Time  = 2.8
*Data  = x;y;z
1,-3.42996630768,5.70248791697,-11.335613069
2,-5.486325235,-5.36454379,-37.858426675
15,-3.89438993405,5.7218662147,-11.3078374846
16,-5.47003585109,-5.35274170259,-37.7065250227
*Step  = 23
*Time  = 2.85
*Data  = x;y;z
1,-3.42607409744,5.69526883025,-11.4691627404
2,-5.486325235,-5.36454379,-37.858426675
15,-3.89895339076,5.71549078782,-11.4416584569
16,-5.4859397274,-5.36427033185,-37.8548291382
*Step  = 24
*Time  = 2.9
*Data  = x;y;z
1,-3.4121215575,5.67550542141,-11.5924497404
2,-5.486325235,-5.36454379,-37.858426675
15,-3.90329133483,5.69700081252,-11.5647778423
16,-5.50088279118,-5.3746377187,-37.9943851051
*Step  = 25
*Time  = 2.95
*Data  = x;y;z
1,-3.4165558545,5.64754625421,-11.7072544239
2,-5.486325235,-5.36454379,-37.858426675
15,-3.90745517676,5.66950279492,-11.6806895234
16,-5.51507444126,-5.38401520059,-38.1271505581
*Step  = 26
*Time  = 3
*Data  = x;y;z
1,-3.376739489,5.63276624693,-11.6899414162
2,-5.486325235,-5.36454379,-37.858426675
15,-3.90745895963,5.65646026496,-11.6612289499
16,-5.51432268179,-5.38324902422,-38.1202416497
*Step  = 27
*Time  = 3.05
*Data  = x;y;z
1,-3.33735806473,5.65938832991,-11.4888896548
2,-5.486325235,-5.36454379,-37.858426675
15,-3.90211078709,5.68366108024,-11.4564804278
16,-5.49285183285,-5.36891497868,-37.9194481162
*Step  = 28
*Time  = 3.1
*Data  = x;y;z
1,-3.37341159333,5.68282221063,-11.2857231108
2,-5.486325235,-5.36454379,-37.858426675
15,-3.89683272922,5.70443337166,-11.2541799837
16,-5.47067988948,-5.35393096287,-37.7122203597
*Step  = 29
*Time  = 3.15
*Data  = x;y;z
1,-3.43570536794,5.68676075265,-11.1455856935
2,-5.486325235,-5.36454379,-37.858426675
15,-3.89236061956,5.70511841627,-11.1175269316
16,-5.45463368957,-5.34261868859,-37.5624613191
*Step  = 30
*Time  = 3.2
*Data  = x;y;z
1,-3.48508391504,5.67344935174,-10.9263341751
2,-5.486325235,-5.36454379,-37.858426675
15,-3.88565634218,5.6888772269,-10.9010787565
16,-5.42968053648,-5.32429579634,-37.3298782508
*Step  = 31
*Time  = 3.25
*Data  = x;y;z
1,-3.54827804097,5.65163854138,-10.7011717473
2,-5.486325235,-5.36454379,-37.858426675
15,-3.87846300357,5.66379597079,-10.6799180116
16,-5.4039133253,-5.30420552566,-37.0901460603
*Step  = 32
*Time  = 3.3
*Data  = x;y;z
1,-3.60539427614,5.61117540214,-10.4639020789
2,-5.486325235,-5.36454379,-37.858426675
15,-3.87091663649,5.62049046543,-10.4465104855
16,-5.37717203946,-5.28237780034,-36.8416596668
*Step  = 33
*Time  = 3.35
*Data  = x;y;z
1,-3.63362815881,5.56373906308,-10.2927706712
2,-5.486325235,-5.36454379,-37.858426675
15,-3.86485487002,5.5715834466,-10.2775090321
16,-5.35791882973,-5.2659232092,-36.662971927
*Step  = 34
*Time  = 3.4
*Data  = x;y;z
1,-3.65556080474,5.45411335674,-10.0092747201
2,-5.486325235,-5.36454379,-37.858426675
15,-3.8559281272,5.4605278229,-9.99597901744
16,-5.32828381424,-5.24192556651,-36.387352654
*Step  = 35
*Time  = 3.45
*Data  = x;y;z
1,-3.68005478446,5.32534012945,-9.71017367906
2,-5.486325235,-5.36454379,-37.858426675
15,-3.84601593508,5.33032846697,-9.69911908776
16,-5.29761939218,-5.21727412066,-36.1020004737
*Step  = 36
*Time  = 3.5
*Data  = x;y;z
1,-3.71453211335,5.18158623794,-9.40199300607
2,-5.486325235,-5.36454379,-37.858426675
15,-3.8354511204,5.18498013149,-9.39391984358
16,-5.26651545188,-5.19254912199,-35.8123739385
*Step  = 37
*Time  = 3.55
*Data  = x;y;z
1,-3.74969506228,5.08076684391,-9.19173109918
2,-5.486325235,-5.36454379,-37.858426675
15,-3.82763131419,5.08285202593,-9.18651531657
16,-5.2452610869,-5.17521752793,-35.6145446224
*Step  = 38
*Time  = 3.6
*Data  = x;y;z
1,-3.78845562176,4.92282579614,-8.88216984645
2,-5.486325235,-5.36454379,-37.858426675
15,-3.81640036648,4.92351725348,-8.88029770963
16,-5.21433384349,-5.15069858187,-35.3263851507
*Step  = 39
*Time  = 3.65
*Data  = x;y;z
1,-3.83877179827,4.75865664244,-8.57250311831
2,-5.486325235,-5.36454379,-37.858426675
15,-3.80440454901,4.75787475217,-8.57480583401
16,-5.18336307439,-5.12555660405,-35.0378881038
*Step  = 40
*Time  = 3.7
*Data  = x;y;z
1,-3.88990146924,4.58232577925,-8.26025557599
2,-5.486325235,-5.36454379,-37.858426675
15,-3.79145004426,4.58028066949,-8.26684446282
16,-5.15213784344,-5.09963640974,-34.7470553932
*Step  = 41
*Time  = 3.75
*Data  = x;y;z
1,-3.93249114984,4.46433319436,-8.0513928754
2,-5.486325235,-5.36454379,-37.858426675
15,-3.78202945127,4.46140003499,-8.06147218806
16,-5.13102569487,-5.08068259656,-34.5506732695
*Step  = 42
*Time  = 3.8
*Data  = x;y;z
1,-3.98393642496,4.27301104473,-7.74129395225
2,-5.486325235,-5.36454379,-37.858426675
15,-3.76783631455,4.2692206824,-7.75567804918
16,-5.10005833369,-5.05380590078,-34.2622571714
*Step  = 43
*Time  = 3.85
*Data  = x;y;z
1,-4.03015444305,4.07176300146,-7.42931571053
2,-5.486325235,-5.36454379,-37.858426675
15,-3.75243599296,4.06742663644,-7.44764404315
16,-5.06888375805,-5.02586831095,-33.9719292954
*Step  = 44
*Time  = 3.9
*Data  = x;y;z
1,-4.07775154081,3.85644679566,-7.11224210385
2,-5.486325235,-5.36454379,-37.858426675
15,-3.73551135383,3.85175272195,-7.13455114178
16,-5.03729754046,-4.99682358386,-33.6777306564
*Step  = 45
*Time  = 3.95
*Data  = x;y;z
1,-4.10322562917,3.70910567893,-6.89910295794
2,-5.486325235,-5.36454379,-37.858426675
15,-3.72313167983,3.70435348376,-6.92370808774
16,-5.01587165941,-4.9751196474,-33.4783993353
*Step  = 46
*Time  = 4
*Data  = x;y;z
1,-4.10330797433,3.71480187448,-6.8988318178
2,-5.486325235,-5.36454379,-37.858426675
15,-3.72213368432,3.70999820351,-6.92361543821
16,-5.01522545032,-4.97013540249,-33.4731449002
*Step  = 47
*Time  = 4.05
*Data  = x;y;z
1,-4.02404976073,3.58184553877,-6.85503356875
2,-5.486325235,-5.36454379,-37.858426675
15,-3.72012658553,3.57803398362,-6.87493750914
16,-5.01194599831,-4.97011895447,-33.4421194263
*Step  = 48
*Time  = 4.1
*Data  = x;y;z
1,-3.97789371114,3.47053660304,-6.82891792947
2,-5.486325235,-5.36454379,-37.858426675
15,-3.71978154528,3.46731943515,-6.84586397241
16,-5.01052643236,-4.97237662753,-33.4283044158
*Step  = 49
*Time  = 4.15
*Data  = x;y;z
1,-3.94077885451,3.36104750684,-6.805037994
2,-5.486325235,-5.36454379,-37.858426675
15,-3.71970306543,3.35831106274,-6.81957052576
16,-5.00938952057,-4.97530285502,-33.4170611706
*Step  = 50
*Time  = 4.2
*Data  = x;y;z
1,-3.90402297304,3.25203357459,-6.78238982672
2,-5.486325235,-5.36454379,-37.858426675
15,-3.71976445373,3.24976936955,-6.79452402381
16,-5.00837018693,-4.97848466541,-33.4068964017
*Step  = 51
*Time  = 4.25
*Data  = x;y;z
1,-3.86377056921,3.13893742214,-6.76026416658
2,-5.486325235,-5.36454379,-37.858426675
15,-3.71991893319,3.13718340659,-6.7697490905
16,-5.00740619364,-4.98196318358,-33.3972188038
*Step  = 52
*Time  = 4.3
*Data  = x;y;z
1,-3.82591906386,3.02286225841,-6.73776469689
2,-5.486325235,-5.36454379,-37.858426675
15,-3.72010563151,3.02158221425,-6.74475629029
16,-5.00642571224,-4.98548736641,-33.3873895372
*Step  = 53
*Time  = 4.35
*Data  = x;y;z
1,-3.78221940257,2.90306870657,-6.71449995424
2,-5.486325235,-5.36454379,-37.858426675
15,-3.72021051892,2.90232471925,-6.71860691748
16,-5.0053345532,-4.98907153194,-33.376520044
*Step  = 54
*Time  = 4.4
*Data  = x;y;z
1,-3.74055293153,2.77911550517,-6.69125662612
2,-5.486325235,-5.36454379,-37.858426675
15,-3.72034277678,2.77887506974,-6.69259693804
16,-5.00425270186,-4.99277773562,-33.3657352038
*Step  = 55
*Time  = 4.45
*Data  = x;y;z
1,-3.69939617998,2.65134237099,-6.66843240415
2,-5.486325235,-5.36454379,-37.858426675
15,-3.72054063562,2.65159177568,-6.66702773186
16,-5.00321290872,-4.99653705399,-33.3553538716
*Step  = 56
*Time  = 4.5
*Data  = x;y;z
1,-3.66564883996,2.51885231091,-6.64623484163
2,-5.486325235,-5.36454379,-37.858426675
15,-3.7208557763,2.51949785578,-6.64256531763
16,-5.00227632803,-5.00042005722,-33.345943479
*Step  = 57
*Time  = 4.55
*Data  = x;y;z
1,-3.61279552368,2.37978792351,-6.62281866806
2,-5.486325235,-5.36454379,-37.858426675
15,-3.7210109746,2.38104220918,-6.61561133755
16,-5.00110077113,-5.00415765449,-33.3343139704
*Step  = 58
*Time  = 4.6
*Data  = x;y;z
1,-3.56445804548,2.23599883988,-6.60111928854
2,-5.486325235,-5.36454379,-37.858426675
15,-3.72136141158,2.23780140914,-6.5906571913
16,-5.00011547214,-5.0080386345,-33.324473791
*Step  = 59
*Time  = 4.65
*Data  = x;y;z
1,-3.53328299476,2.08662990683,-6.58173446012
2,-5.486325235,-5.36454379,-37.858426675
15,-3.72204645648,2.08877923639,-6.56916875258
16,-4.99946044672,-5.01216995489,-33.3177272834
*Step  = 60
*Time  = 4.7
*Data  = x;y;z
1,-3.47758369903,1.92664630748,-6.5618434097
2,-5.486325235,-5.36454379,-37.858426675
15,-3.72260619628,1.92941150502,-6.54552406349
16,-4.99862587452,-5.01614455273,-33.309323511
*Step  = 61
*Time  = 4.75
*Data  = x;y;z
1,-3.42995278161,1.75798413875,-6.54362841897
2,-5.486325235,-5.36454379,-37.858426675
15,-3.72346707684,1.76126748837,-6.52408789144
16,-4.99802012315,-5.02021428853,-33.3030768426
*Step  = 62
*Time  = 4.8
*Data  = x;y;z
1,-3.3825901271,1.57893043996,-6.52737156444
2,-5.486325235,-5.36454379,-37.858426675
15,-3.7246084033,1.58272311278,-6.504618158
16,-4.99763328996,-5.02436513731,-33.2988949287
*Step  = 63
*Time  = 4.85
*Data  = x;y;z
1,-3.34264601346,1.38616031847,-6.51396104035
2,-5.486325235,-5.36454379,-37.858426675
15,-3.72617132463,1.39037699118,-6.48852241587
16,-4.99761122329,-5.02866317911,-33.2981406674
*Step  = 64
*Time  = 4.9
*Data  = x;y;z
1,-3.31185422425,1.17580542851,-6.50572811756
2,-5.486325235,-5.36454379,-37.858426675
15,-3.72846248773,1.18034796187,-6.47824941197
16,-4.99823236126,-5.03325024059,-33.3034159706
*Step  = 65
*Time  = 4.95
*Data  = x;y;z
1,-3.28170529016,0.936325941329,-6.5032606466
2,-5.486325235,-5.36454379,-37.858426675
15,-3.73164713928,0.941194295661,-6.47378850262
16,-4.99957999115,-5.03800827179,-33.3155179928
*Step  = 66
*Time  = 4.99999
*Data  = x;y;z
1,-3.4019644696,1.06923853727,-6.5247510725
2,-5.486325235,-5.36454379,-37.858426675
15,-3.73284567323,1.07282918551,-6.50295953783
16,-5.00174417744,-5.03800319855,-33.3358975832
