*Step  = 1
*Time  = 1e-05
*Data  = x;y;z
1,-3.45673440169,3.32990254671,-11.2128762179
2,-5.486325235,-5.36454379,-37.858426675
15,-3.98224208986,3.35268355297,-11.1775640357
16,-5.47850261588,-5.3589173526,-37.7854610915
*Step  = 2
*Time  = 6e-05
*Data  = x;y;z
1,-3.39634023443,3.29587115557,-11.179753064
2,-5.486325235,-5.36454379,-37.858426675
15,-3.98005754493,3.32117055996,-11.1404047902
16,-5.47490248904,-5.3563353287,-37.7518775727
*Step  = 3
*Time  = 0.00031
*Data  = x;y;z
1,-3.37296585782,3.28159529141,-11.1626745081
2,-5.486325235,-5.36454379,-37.858426675
15,-3.97887660675,3.30784990813,-11.1217830045
16,-5.47307609538,-5.35502791063,-37.734839092
*Step  = 4
*Time  = 0.00156
*Data  = x;y;z
1,-3.36232283698,3.27270986829,-11.1472625434
2,-5.486325235,-5.36454379,-37.858426675
15,-3.97786827649,3.29935966769,-11.1056974152
16,-5.47145941561,-5.35386979199,-37.7197574185
*Step  = 5
*Time  = 0.00781
*Data  = x;y;z
1,-3.36401785022,3.26317341798,-11.1140421068
2,-5.486325235,-5.36454379,-37.858426675
15,-3.97598908619,3.28956464263,-11.0727376789
16,-5.46803617162,-5.35141175054,-37.6878253112
*Step  = 6
*Time  = 0.03906
*Data  = x;y;z
1,-3.39947831325,3.23768077782,-10.977088732
2,-5.486325235,-5.36454379,-37.858426675
15,-3.96866272874,3.26174866208,-10.9387994921
16,-5.45397054806,-5.34129279428,-37.5566296462
*Step  = 7
*Time  = 0.05
*Data  = x;y;z
1,-3.41799551996,3.23791501317,-10.9414165576
2,-5.486325235,-5.36454379,-37.858426675
15,-3.96697694168,3.26096816401,-10.9045254004
16,-5.4503053435,-5.33864674429,-37.5224469466
*Step  = 8
*Time  = 0.1
*Data  = x;y;z
1,-3.50897643469,3.19910538119,-10.7487057842
2,-5.486325235,-5.36454379,-37.858426675
15,-3.95780393816,3.21735322713,-10.7188514766
16,-5.43079430976,-5.32457416719,-37.3404756763
*Step  = 9
*Time  = 0.15
*Data  = x;y;z
1,-3.63555472686,3.14375842632,-10.5723866089
2,-5.486325235,-5.36454379,-37.858426675
15,-3.95102443302,3.15616740508,-10.5516400764
16,-5.4133948842,-5.31199861934,-37.1782089842
*Step  = 10
*Time  = 0.2
*Data  = x;y;z
1,-3.74024635555,3.11807347371,-10.5003294665
2,-5.486325235,-5.36454379,-37.858426675
15,-3.94934459833,3.12616137598,-10.4867039706
16,-5.40664181557,-5.3071075887,-37.11523377
*Step  = 11
*Time  = 0.25
*Data  = x;y;z
1,-3.90274102501,3.02940845042,-10.3307780839
2,-5.486325235,-5.36454379,-37.858426675
15,-3.94414600002,3.03095638935,-10.3281304947
16,-5.390396881,-5.29536924171,-36.9637316615
*Step  = 12
*Time  = 0.3
*Data  = x;y;z
1,-4.03787924434,2.9150749896,-10.1628611071
2,-5.486325235,-5.36454379,-37.858426675
15,-3.93946361543,2.91152076469,-10.1690370233
16,-5.37431376727,-5.28374798872,-36.8137378699
*Step  = 13
*Time  = 0.35
*Data  = x;y;z
1,-4.13352092729,2.78915400957,-9.97463301521
2,-5.486325235,-5.36454379,-37.858426675
15,-3.93228055118,2.78213716275,-9.98700342717
16,-5.35585048804,-5.27040014854,-36.6415481122
*Step  = 14
*Time  = 0.4
*Data  = x;y;z
1,-4.22221960746,2.65797082616,-9.77710666144
2,-5.486325235,-5.36454379,-37.858426675
15,-3.92376291074,2.64792834157,-9.7950601961
16,-5.33636237217,-5.25630239816,-36.4598030459
*Step  = 15
*Time  = 0.45
*Data  = x;y;z
1,-4.31066888687,2.52522359528,-9.5765228977
2,-5.486325235,-5.36454379,-37.858426675
15,-3.9144068154,2.51236276055,-9.59982311636
16,-5.31652252673,-5.24193688941,-36.2747813593
*Step  = 16
*Time  = 0.5
*Data  = x;y;z
1,-4.34818981361,2.45788962794,-9.47274452616
2,-5.486325235,-5.36454379,-37.858426675
15,-3.90918138289,2.44389825221,-9.49827668658
16,-5.30618871394,-5.23443007932,-36.1784185119
*Step  = 17
*Time  = 0.55
*Data  = x;y;z
1,-4.43108184421,2.3260138239,-9.2680716238
2,-5.486325235,-5.36454379,-37.858426675
15,-3.89870283687,2.30966098591,-9.29842297306
16,-5.28587448536,-5.21968863657,-35.9889813426
*Step  = 18
*Time  = 0.6
*Data  = x;y;z
1,-4.50167787159,2.19277997678,-9.0603922805
2,-5.486325235,-5.36454379,-37.858426675
15,-3.8874950759,2.1746091589,-9.09476741285
16,-5.2651752346,-5.20463730363,-35.7959615205
*Step  = 19
*Time  = 0.65
*Data  = x;y;z
1,-4.57311690325,2.05304671572,-8.85042872079
2,-5.486325235,-5.36454379,-37.858426675
15,-3.87581205802,2.03319009885,-8.88875832643
16,-5.24428131152,-5.18940735996,-35.6011353833
*Step  = 20
*Time  = 0.7
*Data  = x;y;z
1,-4.6712547372,1.90819388828,-8.63937307149
2,-5.486325235,-5.36454379,-37.858426675
15,-3.86384103288,1.88607993023,-8.68282472745
16,-5.22341453336,-5.17416534966,-35.4065687967
*Step  = 21
*Time  = 0.75
*Data  = x;y;z
1,-4.74856582636,1.76630808166,-8.42661860694
2,-5.486325235,-5.36454379,-37.858426675
15,-3.85105271498,1.74268227754,-8.47395924024
16,-5.20221485865,-5.15863749015,-35.2089069971
*Step  = 22
*Time  = 0.8
*Data  = x;y;z
1,-4.7962477223,1.69471797692,-8.31719875312
2,-5.486325235,-5.36454379,-37.858426675
15,-3.84423121577,1.67015543067,-8.36690389364
16,-5.19133495932,-5.15060120305,-35.107482593
*Step  = 23
*Time  = 0.85
*Data  = x;y;z
1,-4.87935782588,1.54504264129,-8.10629169946
2,-5.486325235,-5.36454379,-37.858426675
15,-3.83122615328,1.51908202396,-8.15980017675
16,-5.17037317536,-5.13519173963,-34.9120471189
*Step  = 24
*Time  = 0.9
*Data  = x;y;z
1,-5.01400936322,1.38186721711,-7.89152971722
2,-5.486325235,-5.36454379,-37.858426675
15,-3.81785812854,1.35344321735,-7.95099918312
16,-5.14932226273,-5.11967543225,-34.7157874383
*Step  = 25
*Time  = 0.95
*Data  = x;y;z
1,-5.10039497929,1.22469300699,-7.67800374375
2,-5.486325235,-5.36454379,-37.858426675
15,-3.80387438646,1.19515423198,-7.74103955134
16,-5.12812641973,-5.103987111,-34.5181876947
*Step  = 26
*Time  = 1
*Data  = x;y;z
1,-5.08317730298,1.22897428362,-7.67197708675
2,-5.486325235,-5.36454379,-37.858426675
15,-3.80317552325,1.19980884256,-7.73458586846
16,-5.12744050721,-5.10332832199,-34.5118325888
*Step  = 27
*Time  = 1.03
*Data  = x;y;z
1,-4.67854675377,1.91727199818,-7.94685405157
2,-5.486325235,-5.36454379,-37.858426675
15,-3.81599881276,1.89760277441,-7.99730220592
16,-5.15105417934,-5.11972897323,-34.7322127788
*Step  = 28
*Time  = 1.06
*Data  = x;y;z
1,-4.47757654599,2.34300595346,-8.09853067548
2,-5.486325235,-5.36454379,-37.858426675
15,-3.82355477164,2.32807827999,-8.14167667352
16,-5.16395457136,-5.1284343768,-34.8526601103
*Step  = 29
*Time  = 1.09
*Data  = x;y;z
1,-4.38592925332,2.53405103189,-8.14281895122
2,-5.486325235,-5.36454379,-37.858426675
15,-3.82354593144,2.52120486793,-8.18106541908
16,-5.16674824222,-5.12994923168,-34.8788339385
*Step  = 30
*Time  = 1.12
*Data  = x;y;z
1,-4.32510335097,2.67174114513,-8.17079443023
2,-5.486325235,-5.36454379,-37.858426675
15,-3.8227629001,2.66025782464,-8.20537747737
16,-5.16818451042,-5.1305064474,-34.8923455989
*Step  = 31
*Time  = 1.15
*Data  = x;y;z
1,-4.27112112754,2.78613630631,-8.19215018454
2,-5.486325235,-5.36454379,-37.858426675
15,-3.82176769067,2.77585671294,-8.22331922495
16,-5.16908585124,-5.13069431974,-34.9008649591
*Step  = 32
*Time  = 1.18
*Data  = x;y;z
1,-4.23080704532,2.88101987167,-8.20942000931
2,-5.486325235,-5.36454379,-37.858426675
15,-3.8208964416,2.87163595472,-8.23800680869
16,-5.16978605225,-5.13075664517,-34.9075038084
*Step  = 33
*Time  = 1.21
*Data  = x;y;z
1,-4.20294878803,2.97267687153,-8.22725095258
2,-5.486325235,-5.36454379,-37.858426675
15,-3.82019314289,2.96390834167,-8.25403692093
16,-5.17063014389,-5.13092537203,-34.9154845488
*Step  = 34
*Time  = 1.24
*Data  = x;y;z
1,-4.16356696106,3.05326527654,-8.24333279197
2,-5.486325235,-5.36454379,-37.858426675
15,-3.81950278974,3.0453776186,-8.26749585446
16,-5.17129351414,-5.13097332986,-34.921777383
*Step  = 35
*Time  = 1.27
*Data  = x;y;z
1,-4.14952511324,3.1245156833,-8.25704934877
2,-5.486325235,-5.36454379,-37.858426675
15,-3.81885858548,3.11693001123,-8.28027614841
16,-5.17192890425,-5.13101687119,-34.9278067631
*Step  = 36
*Time  = 1.3
*Data  = x;y;z
1,-4.13088455263,3.19322043794,-8.27045531669
2,-5.486325235,-5.36454379,-37.858426675
15,-3.81824763475,3.18604362408,-8.29243416993
16,-5.17252614387,-5.13104410088,-34.9334773436
*Step  = 37
*Time  = 1.33
*Data  = x;y;z
1,-4.11412862076,3.25960236437,-8.28491376425
2,-5.486325235,-5.36454379,-37.858426675
15,-3.81778019027,3.25279494209,-8.30574833917
16,-5.17325323157,-5.13116858984,-34.9403586251
*Step  = 38
*Time  = 1.36
*Data  = x;y;z
1,-4.09871582068,3.32013908418,-8.2972262806
2,-5.486325235,-5.36454379,-37.858426675
15,-3.81724899228,3.31366933911,-8.31701414707
16,-5.17381317811,-5.13118245623,-34.9456787265
*Step  = 39
*Time  = 1.39
*Data  = x;y;z
1,-4.08773430045,3.37717379557,-8.3087875269
2,-5.486325235,-5.36454379,-37.858426675
15,-3.81675234257,3.37094120309,-8.32783241684
16,-5.17435473907,-5.13120047309,-34.9508233301
*Step  = 40
*Time  = 1.42
*Data  = x;y;z
1,-4.07956035594,3.43343594544,-8.32130718338
2,-5.486325235,-5.36454379,-37.858426675
15,-3.81638212647,3.4273791062,-8.33979026039
16,-5.17501712772,-5.1313111648,-34.957093805
*Step  = 41
*Time  = 1.45
*Data  = x;y;z
1,-4.06562832346,3.48495252519,-8.33274358496
2,-5.486325235,-5.36454379,-37.858426675
15,-3.81597666972,3.47920344441,-8.35026647131
16,-5.17556214967,-5.13133453097,-34.9622704313
*Step  = 42
*Time  = 1.48
*Data  = x;y;z
1,-4.06805797631,3.53490258724,-8.3440819798
2,-5.486325235,-5.36454379,-37.858426675
15,-3.81569829462,3.52908757594,-8.36177209456
16,-5.17622314025,-5.13144802058,-34.9685276062
*Step  = 43
*Time  = 1.51
*Data  = x;y;z
1,-4.06852160797,3.5833452402,-8.35526067981
2,-5.486325235,-5.36454379,-37.858426675
15,-3.81541334543,3.57750941956,-8.37297661821
16,-5.17686043576,-5.13154699106,-34.9745634825
*Step  = 44
*Time  = 1.54
*Data  = x;y;z
1,-4.04664927905,3.62921743452,-8.36535936539
2,-5.486325235,-5.36454379,-37.858426675
15,-3.81496637173,3.62387249111,-8.38157174567
16,-5.1772560052,-5.13148070531,-34.9783419648
*Step  = 45
*Time  = 1.57
*Data  = x;y;z
1,-4.0537782747,3.67519762224,-8.37593519296
2,-5.486325235,-5.36454379,-37.858426675
15,-3.8147270864,3.66967940336,-8.39263583741
16,-5.17789765321,-5.13159352468,-34.9844161947
*Step  = 46
*Time  = 1.6
*Data  = x;y;z
1,-4.03520160793,3.7150767599,-8.38476224129
2,-5.486325235,-5.36454379,-37.858426675
15,-3.81431868124,3.70997515652,-8.40018586043
16,-5.17823589832,-5.13150946333,-34.9876545723
*Step  = 47
*Time  = 1.63
*Data  = x;y;z
1,-4.02435813114,3.75755883231,-8.39489370779
2,-5.486325235,-5.36454379,-37.858426675
15,-3.8140171601,3.75269798048,-8.40956747174
16,-5.17873649814,-5.13153820596,-34.9924086935
*Step  = 48
*Time  = 1.66
*Data  = x;y;z
1,-4.01632616656,3.79784621328,-8.40411538337
2,-5.486325235,-5.36454379,-37.858426675
15,-3.81369789616,3.79316106172,-8.41823683077
16,-5.17918239589,-5.13153885726,-34.9966499511
*Step  = 49
*Time  = 1.69
*Data  = x;y;z
1,-4.00872479597,3.83592922952,-8.41247944433
2,-5.486325235,-5.36454379,-37.858426675
15,-3.81336255138,3.83140970449,-8.4260839735
16,-5.17956477149,-5.13150106965,-35.0002968485
*Step  = 50
*Time  = 1.72
*Data  = x;y;z
1,-4.00180501483,3.87423567148,-8.42191237294
2,-5.486325235,-5.36454379,-37.858426675
15,-3.81311725446,3.86986823385,-8.43503681675
16,-5.18005529177,-5.13154281831,-35.0049524329
*Step  = 51
*Time  = 1.75
*Data  = x;y;z
1,-3.99691994216,3.91186155447,-8.43138155609
2,-5.486325235,-5.36454379,-37.858426675
15,-3.81289307687,3.90759978918,-8.44416238648
16,-5.18056675726,-5.13160905996,-35.0098014013
*Step  = 52
*Time  = 1.78
*Data  = x;y;z
1,-4.00078189194,3.94748022473,-8.43946742834
2,-5.486325235,-5.36454379,-37.858426675
15,-3.81265952828,3.94312129637,-8.4525179141
16,-5.18101769189,-5.13162129289,-35.0140883083
*Step  = 53
*Time  = 1.81
*Data  = x;y;z
1,-3.98802201896,3.98112079728,-8.44766230631
2,-5.486325235,-5.36454379,-37.858426675
15,-3.81237807893,3.97704898286,-8.45983658441
16,-5.18138091821,-5.131589159,-35.0175522567
*Step  = 54
*Time  = 1.84
*Data  = x;y;z
1,-3.98190288939,4.01648442041,-8.45669917633
2,-5.486325235,-5.36454379,-37.858426675
15,-3.81216302402,4.01254750907,-8.46844795321
16,-5.18185829018,-5.13164276854,-35.0220805336
*Step  = 55
*Time  = 1.87
*Data  = x;y;z
1,-3.97450132739,4.04897638099,-8.46411160228
2,-5.486325235,-5.36454379,-37.858426675
15,-3.81187832514,4.04520268549,-8.47536071305
16,-5.18219095764,-5.13159124009,-35.0252589163
*Step  = 56
*Time  = 1.9
*Data  = x;y;z
1,-3.96792305199,4.0810643163,-8.47179953862
2,-5.486325235,-5.36454379,-37.858426675
15,-3.81163148992,4.07743578415,-8.48260151132
16,-5.18255936586,-5.1315711752,-35.0287694419
*Step  = 57
*Time  = 1.93
*Data  = x;y;z
1,-3.96426786826,4.11476377261,-8.48089948624
2,-5.486325235,-5.36454379,-37.858426675
15,-3.81146912456,4.11121460327,-8.49144279052
16,-5.18307176238,-5.1316610212,-35.0336222478
*Step  = 58
*Time  = 1.96
*Data  = x;y;z
1,-3.95768579871,4.12844956578,-8.47946239029
2,-5.486325235,-5.36454379,-37.858426675
15,-3.81091074528,4.12503914326,-8.48960820051
16,-5.18270472518,-5.13116386209,-35.0302574381
*Step  = 59
*Time  = 1.99
*Data  = x;y;z
1,-3.96351928623,4.11456399483,-8.46591273406
2,-5.486325235,-5.36454379,-37.858426675
15,-3.81002305207,4.1109972056,-8.47655274652
16,-5.18147261907,-5.13018119833,-35.0187874732
*Step  = 60
*Time  = 1.99999
*Data  = x;y;z
1,-3.96518411669,4.11507949621,-8.46587265037
2,-5.486325235,-5.36454379,-37.858426675
15,-3.80998386852,4.11147261519,-8.47663039346
16,-5.18145116381,-5.13007874418,-35.0186098516
*Step  = 1
*Time  = 2
*Data  = x;y;z
1,-3.9642118812,4.11748894954,-8.4672367162
2,-5.486325235,-5.36454379,-37.858426675
15,-3.81001157663,4.11390474628,-8.47792385996
16,-5.1815360309,-5.13004612863,-35.0194257718
*Step  = 2
*Time  = 2.00005
*Data  = x;y;z
1,-3.96390676068,4.11902480271,-8.46799299384
2,-5.486325235,-5.36454379,-37.858426675
15,-3.8099977643,4.11544656566,-8.47866034054
16,-5.18157038273,-5.12996933483,-35.0197726464
*Step  = 3
*Time  = 2.0003
*Data  = x;y;z
1,-3.96360026223,4.12089714565,-8.46956483047
2,-5.486325235,-5.36454379,-37.858426675
15,-3.81002041505,4.11732488755,-8.48020975969
16,-5.18168695578,-5.12995343497,-35.0208868011
*Step  = 4
*Time  = 2.00155
*Data  = x;y;z
1,-3.96256301109,4.1251961166,-8.47531891121
2,-5.486325235,-5.36454379,-37.858426675
15,-3.81020871589,4.12164637958,-8.48587969167
16,-5.1822133962,-5.13023976325,-35.0258261731
*Step  = 5
*Time  = 2.0078
*Data  = x;y;z
1,-3.96553457017,4.14246599365,-8.50202761835
2,-5.486325235,-5.36454379,-37.858426675
15,-3.81122851437,4.13884285155,-8.51271830234
16,-5.18483489048,-5.13207973596,-35.0503162733
*Step  = 6
*Time  = 2.03905
*Data  = x;y;z
1,-3.93316445538,4.22008606237,-8.63269691944
2,-5.486325235,-5.36454379,-37.858426675
15,-3.81621288043,4.2172358996,-8.64082291733
16,-5.19755193352,-5.14142315724,-35.1690087239
*Step  = 7
*Time  = 2.05
*Data  = x;y;z
1,-3.92906503679,4.24670578115,-8.679365094
2,-5.486325235,-5.36454379,-37.858426675
15,-3.81804005806,4.2439663476,-8.68706463911
16,-5.20218956988,-5.14506266013,-35.2122300429
*Step  = 8
*Time  = 2.1
*Data  = x;y;z
1,-3.89456482899,4.36576946472,-8.88655203418
2,-5.486325235,-5.36454379,-37.858426675
15,-3.8257326391,4.36397406391,-8.89133370182
16,-5.22259270478,-5.16051502177,-35.4025185541
*Step  = 9
*Time  = 2.15
*Data  = x;y;z
1,-3.85212890506,4.47591918529,-9.0932902662
2,-5.486325235,-5.36454379,-37.858426675
15,-3.83322930625,4.47539982827,-9.09460154117
16,-5.24302082994,-5.17627257171,-35.5929358601
*Step  = 10
*Time  = 2.2
*Data  = x;y;z
1,-3.83397200949,4.52834511247,-9.19796010889
2,-5.486325235,-5.36454379,-37.858426675
15,-3.83706516783,4.52843224709,-9.19774588165
16,-5.25349694726,-5.18457130045,-35.6905094036
*Step  = 11
*Time  = 2.25
*Data  = x;y;z
1,-3.79363622477,4.63178302759,-9.40356822561
2,-5.486325235,-5.36454379,-37.858426675
15,-3.84428111824,4.6332803239,-9.40005799303
16,-5.27390691268,-5.20029551225,-35.8807171536
*Step  = 12
*Time  = 2.3
*Data  = x;y;z
1,-3.76102763753,4.72946188994,-9.60824646101
2,-5.486325235,-5.36454379,-37.858426675
15,-3.8510648964,4.73224903234,-9.6020260405
16,-5.29434022675,-5.21615316567,-36.0710806009
*Step  = 13
*Time  = 2.35
*Data  = x;y;z
1,-3.71315206753,4.81970490412,-9.81120778222
2,-5.486325235,-5.36454379,-37.858426675
15,-3.85770016422,4.82437984258,-9.80123198994
16,-5.31456972553,-5.23183235772,-36.2595206549
*Step  = 14
*Time  = 2.4
*Data  = x;y;z
1,-3.67587125209,4.90448194339,-10.0119156963
2,-5.486325235,-5.36454379,-37.858426675
15,-3.86406573062,4.91082852507,-9.99895825019
16,-5.33470341794,-5.24745850976,-36.4470320818
*Step  = 15
*Time  = 2.45
*Data  = x;y;z
1,-3.63091736275,4.98511231246,-10.2117971927
2,-5.486325235,-5.36454379,-37.858426675
15,-3.87025767278,4.99351351834,-10.195335698
16,-5.35475880247,-5.26301837449,-36.6337857456
*Step  = 16
*Time  = 2.4983871
*Data  = x;y;z
1,-3.60364012397,5.01561781183,-10.3051051331
2,-5.486325235,-5.36454379,-37.858426675
15,-3.87319378164,5.02525606743,-10.2865878061
16,-5.36424415327,-5.27049155723,-36.7220595099
*Step  = 17
*Time  = 2.5
*Data  = x;y;z
1,-3.58985488645,5.00959565072,-10.3061315959
2,-5.486325235,-5.36454379,-37.858426675
15,-3.873442684,5.0197375326,-10.2866450521
16,-5.3644610623,-5.2708291943,-36.7240147065
*Step  = 18
*Time  = 2.55
*Data  = x;y;z
1,-3.56463753395,5.09002489081,-10.5043896397
2,-5.486325235,-5.36454379,-37.858426675
15,-3.87912995625,5.1017079764,-10.4828121219
16,-5.3843927445,-5.28611395447,-36.909639443
*Step  = 19
*Time  = 2.6
*Data  = x;y;z
1,-3.53205947247,5.15003820111,-10.6928689589
2,-5.486325235,-5.36454379,-37.858426675
15,-3.8844690138,5.163608318,-10.6688150924
16,-5.40363135125,-5.30105702083,-37.0887108312
*Step  = 20
*Time  = 2.65
*Data  = x;y;z
1,-3.49042004952,5.1813833254,-10.863088098
2,-5.486325235,-5.36454379,-37.858426675
15,-3.88924379091,5.19726025538,-10.8361550354
16,-5.42154777665,-5.31517714045,-37.2553661347
*Step  = 21
*Time  = 2.7
*Data  = x;y;z
1,-3.45806583989,5.19203170579,-11.0188982102
2,-5.486325235,-5.36454379,-37.858426675
15,-3.8938647222,5.20992380466,-10.9899058897
16,-5.43858985632,-5.32860323813,-37.4138612141
*Step  = 22
*Time  = 2.75
*Data  = x;y;z
1,-3.44204813601,5.19005464771,-11.1654509299
2,-5.486325235,-5.36454379,-37.858426675
15,-3.89842907579,5.20934093578,-11.1356979358
16,-5.45509316028,-5.34137796388,-37.5674176614
*Step  = 23
*Time  = 2.8
*Data  = x;y;z
1,-3.42711937521,5.17499613234,-11.2285553718
2,-5.486325235,-5.36454379,-37.858426675
15,-3.90084412284,5.19527541987,-11.1980317144
16,-5.46280060653,-5.34732014289,-37.6391353716
*Step  = 24
*Time  = 2.85
*Data  = x;y;z
1,-3.43235835613,5.16089220102,-11.3643781559
2,-5.486325235,-5.36454379,-37.858426675
15,-3.90483703847,5.18167123757,-11.3348891712
16,-5.47821670477,-5.35868839112,-37.7828047792
*Step  = 25
*Time  = 2.9
*Data  = x;y;z
1,-3.45155464429,5.13245451575,-11.4897386713
2,-5.486325235,-5.36454379,-37.858426675
15,-3.9085549014,5.15307222724,-11.4623386559
16,-5.49259334286,-5.36901189185,-37.916911672
*Step  = 26
*Time  = 2.95
*Data  = x;y;z
1,-3.45258697137,5.09128742523,-11.6071204548
2,-5.486325235,-5.36454379,-37.858426675
15,-3.91250466849,5.11253684923,-11.5806464302
16,-5.50614961836,-5.37848283937,-38.043494026
*Step  = 27
*Time  = 3
*Data  = x;y;z
1,-3.42178267172,5.07587939554,-11.5948051514
2,-5.486325235,-5.36454379,-37.858426675
15,-3.9124691597,5.09852734324,-11.5665459689
16,-5.50535009529,-5.37782693696,-38.0360750041
*Step  = 28
*Time  = 3.05
*Data  = x;y;z
1,-3.38693829216,5.11563958226,-11.4011434696
2,-5.486325235,-5.36454379,-37.858426675
15,-3.90728462348,5.13873770389,-11.3693308929
16,-5.4845089732,-5.36327109055,-37.8414699232
*Step  = 29
*Time  = 3.1
*Data  = x;y;z
1,-3.41165621585,5.14636829166,-11.2002539108
2,-5.486325235,-5.36454379,-37.858426675
15,-3.90273050309,5.16726288594,-11.1685740864
16,-5.46302394462,-5.34809238209,-37.6409482209
*Step  = 30
*Time  = 3.14354839
*Data  = x;y;z
1,-3.45543670147,5.15564647444,-11.0779776038
2,-5.486325235,-5.36454379,-37.858426675
15,-3.89938942948,5.17406776697,-11.0487413339
16,-5.44957621823,-5.33830229833,-37.5155690955
*Step  = 31
*Time  = 3.15
*Data  = x;y;z
1,-3.47465859431,5.1588348612,-11.0607278571
2,-5.486325235,-5.36454379,-37.858426675
15,-3.89834091423,5.17636937771,-11.0327621487
16,-5.44720347467,-5.3363807745,-37.4935296167
*Step  = 32
*Time  = 3.2
*Data  = x;y;z
1,-3.49329429865,5.14157866605,-10.8340773421
2,-5.486325235,-5.36454379,-37.858426675
15,-3.89220241161,5.15733381439,-10.8070810125
16,-5.42243705205,-5.31782115413,-37.2628278199
*Step  = 33
*Time  = 3.25
*Data  = x;y;z
1,-3.55841421185,5.11229984459,-10.5973449336
2,-5.486325235,-5.36454379,-37.858426675
15,-3.88521897083,5.12458879163,-10.5748965486
16,-5.39663135459,-5.29763455871,-37.0227489241
*Step  = 34
*Time  = 3.3
*Data  = x;y;z
1,-3.60153725913,5.0342784226,-10.3304727341
2,-5.486325235,-5.36454379,-37.858426675
15,-3.87694206137,5.04409609073,-10.3114245262
16,-5.3683037349,-5.27520877008,-36.7592442726
*Step  = 35
*Time  = 3.35
*Data  = x;y;z
1,-3.63261455008,4.94451761613,-10.1253054484
2,-5.486325235,-5.36454379,-37.858426675
15,-3.86980175229,4.95265575068,-10.1089590335
16,-5.34715324624,-5.25856812443,-36.5624236019
*Step  = 36
*Time  = 3.4
*Data  = x;y;z
1,-3.66791914814,4.80771645222,-9.82188727945
2,-5.486325235,-5.36454379,-37.858426675
15,-3.85998913862,4.81390948154,-9.80865840289
16,-5.31652137563,-5.23507198481,-36.2770907541
*Step  = 37
*Time  = 3.45
*Data  = x;y;z
1,-3.71085654486,4.66335910959,-9.51626800654
2,-5.486325235,-5.36454379,-37.858426675
15,-3.84975589821,4.66754998159,-9.50668639436
16,-5.28584513975,-5.21153749639,-35.9912879277
*Step  = 38
*Time  = 3.5
*Data  = x;y;z
1,-3.77278540421,4.51452016695,-9.20974612599
2,-5.486325235,-5.36454379,-37.858426675
15,-3.83905480315,4.51638208686,-9.2051680917
16,-5.25527347891,-5.1880599498,-35.7064084062
*Step  = 39
*Time  = 3.55
*Data  = x;y;z
1,-3.82487959673,4.41000272825,-9.00154625519
2,-5.486325235,-5.36454379,-37.858426675
15,-3.83125858716,4.41017318597,-9.00110510003
16,-5.23453013265,-5.17187122727,-35.5131580413
*Step  = 40
*Time  = 3.6
*Data  = x;y;z
1,-3.87869115827,4.24010572489,-8.69178474758
2,-5.486325235,-5.36454379,-37.858426675
15,-3.81952040639,4.23864772903,-8.69587876899
16,-5.20376473823,-5.14819275775,-35.2263863963
*Step  = 41
*Time  = 3.65
*Data  = x;y;z
1,-3.93756773411,4.06774031872,-8.38437106134
2,-5.486325235,-5.36454379,-37.858426675
15,-3.80715831397,4.06479667664,-8.3933892795
16,-5.17319634678,-5.1242569434,-34.9414931563
*Step  = 42
*Time  = 3.7
*Data  = x;y;z
1,-3.9956479191,3.88126089346,-8.07373592228
2,-5.486325235,-5.36454379,-37.858426675
15,-3.79372721271,3.87711680753,-8.08767908874
16,-5.14229905172,-5.09946618795,-34.6536022678
*Step  = 43
*Time  = 3.75
*Data  = x;y;z
1,-4.04910704922,3.75245100392,-7.86370215583
2,-5.486325235,-5.36454379,-37.858426675
15,-3.78384875353,3.74736205361,-7.88196085325
16,-5.12136134061,-5.08177162087,-34.4586596646
*Step  = 44
*Time  = 3.8
*Data  = x;y;z
1,-4.10937083229,3.54422094239,-7.54991160742
2,-5.486325235,-5.36454379,-37.858426675
15,-3.76861975596,3.53837281871,-7.57316070882
16,-5.09024614727,-5.05606160634,-34.1687211652
*Step  = 45
*Time  = 3.85
*Data  = x;y;z
1,-4.166098699,3.3227574315,-7.23217857468
2,-5.486325235,-5.36454379,-37.858426675
15,-3.75186880378,3.31647346841,-7.26009180658
16,-5.05875100064,-5.02947136727,-33.8752397867
*Step  = 46
*Time  = 3.9
*Data  = x;y;z
1,-4.22308988532,3.08681186574,-6.9094529335
2,-5.486325235,-5.36454379,-37.858426675
15,-3.73350237247,3.08034402606,-6.94188311054
16,-5.02682971643,-5.00208419427,-33.5777404381
*Step  = 47
*Time  = 3.95
*Data  = x;y;z
1,-4.26487274309,2.91266878435,-6.68470432035
2,-5.486325235,-5.36454379,-37.858426675
15,-3.71959745707,2.90615730352,-6.72029145103
16,-5.00462703422,-4.98218059234,-33.3708914886
*Step  = 48
*Time  = 4
*Data  = x;y;z
1,-4.26177976619,2.90842516172,-6.67695704833
2,-5.486325235,-5.36454379,-37.858426675
15,-3.71852511683,2.90190940453,-6.71257513615
16,-5.00365067905,-4.97903089356,-33.3621660368
*Step  = 49
*Time  = 4.05
*Data  = x;y;z
1,-4.1545724136,2.69780765818,-6.60811771418
2,-5.486325235,-5.36454379,-37.858426675
15,-3.71505084629,2.69257956646,-6.63720049306
16,-4.99827998875,-4.9792589447,-33.3114011157
*Step  = 50
*Time  = 4.1
*Data  = x;y;z
1,-4.09379783582,2.51996245071,-6.57007310838
2,-5.486325235,-5.36454379,-37.858426675
15,-3.7143484289,2.51548956456,-6.59523452096
16,-4.99601993918,-4.982368641,-33.28958127
*Step  = 51
*Time  = 4.15
*Data  = x;y;z
1,-4.05200242933,2.33913198499,-6.53455493059
2,-5.486325235,-5.36454379,-37.858426675
15,-3.71398464999,2.33518457101,-6.55698507248
16,-4.99410611166,-4.98590593979,-33.2709832503
*Step  = 52
*Time  = 4.2
*Data  = x;y;z
1,-4.00070687649,2.14559974666,-6.50114611101
2,-5.486325235,-5.36454379,-37.858426675
15,-3.7139257116,2.14228305969,-6.520190754
16,-4.99239980432,-4.98978528274,-33.2543094038
*Step  = 53
*Time  = 4.25
*Data  = x;y;z
1,-3.95466140695,1.93613272835,-6.46750309869
2,-5.486325235,-5.36454379,-37.858426675
15,-3.71397427314,1.93337660499,-6.48346072752
16,-4.99073643101,-4.99379595996,-33.2380413379
*Step  = 54
*Time  = 4.3
*Data  = x;y;z
1,-3.89996168259,1.70470262432,-6.43412300849
2,-5.486325235,-5.36454379,-37.858426675
15,-3.71420342532,1.70259675128,-6.44640135757
16,-4.98912187459,-4.99790598315,-33.2222373152
*Step  = 55
*Time  = 4.35
*Data  = x;y;z
1,-3.83247073271,1.44372967995,-6.4017736568
2,-5.486325235,-5.36454379,-37.858426675
15,-3.71478275498,1.44240873383,-6.40951812763
16,-4.98765295229,-5.00208274732,-33.207813689
*Step  = 56
*Time  = 4.4
*Data  = x;y;z
1,-3.77485616059,1.13797517942,-6.3728085745
2,-5.486325235,-5.36454379,-37.858426675
15,-3.71630081311,1.1373242538,-6.37662046781
16,-4.98678120209,-5.00654975054,-33.19899594
*Step  = 57
*Time  = 4.45
*Data  = x;y;z
1,-3.72187412961,0.758923606982,-6.35026938172
2,-5.486325235,-5.36454379,-37.858426675
15,-3.71887993499,0.758890622747,-6.35046050525
16,-4.9869750247,-5.01151419673,-33.200156749
*Step  = 58
*Time  = 4.5
*Data  = x;y;z
1,-3.68421263185,0.222389841569,-6.35683925388
2,-5.486325235,-5.36454379,-37.858426675
15,-3.72667730028,0.22285415281,-6.35422272719
16,-4.99125976172,-5.01856726601,-33.2395864816
*Step  = 59
*Time  = 4.55
*Data  = x;y;z
1,-3.7648716978,-0.584590473187,-6.43715879508
2,-5.486325235,-5.36454379,-37.858426675
15,-3.74626567735,-0.584793143296,-6.43823068723
16,-5.00573027017,-5.03077901385,-33.3742845843
*Step  = 60
*Time  = 4.6
*Data  = x;y;z
1,-3.84320429752,-1.33434534586,-6.50104167619
2,-5.486325235,-5.36454379,-37.858426675
15,-3.76374364264,-1.33520807615,-6.50536132083
16,-5.01796051449,-5.04112504023,-33.4881259138
*Step  = 61
*Time  = 4.65
*Data  = x;y;z
1,-3.89877836652,-2.02853480314,-6.55629619576
2,-5.486325235,-5.36454379,-37.858426675
15,-3.77950748652,-2.0298254835,-6.56242107615
16,-5.02859099191,-5.05044263207,-33.5870193828
*Step  = 62
*Time  = 4.7
*Data  = x;y;z
1,-3.95647464515,-2.69160071489,-6.61790866479
2,-5.486325235,-5.36454379,-37.858426675
15,-3.79573117951,-2.69333484251,-6.62570685395
16,-5.03956086659,-5.05984122608,-33.6891034259
*Step  = 63
*Time  = 4.75
*Data  = x;y;z
1,-3.99462557889,-3.33656516252,-6.68208775808
2,-5.486325235,-5.36454379,-37.858426675
15,-3.81195004152,-3.3385305091,-6.69048451263
16,-5.05050197369,-5.0690423933,-33.7909686172
*Step  = 64
*Time  = 4.8
*Data  = x;y;z
1,-4.03423489721,-3.96358412728,-6.7541085867
2,-5.486325235,-5.36454379,-37.858426675
15,-3.82901275581,-3.96578661333,-6.76305152153
16,-5.06208587981,-5.07844410751,-33.898815337
*Step  = 65
*Time  = 4.85
*Data  = x;y;z
1,-4.0715570419,-4.5611145961,-6.82842037402
2,-5.486325235,-5.36454379,-37.858426675
15,-3.84568833638,-4.56353261811,-6.83780571557
16,-5.07362507406,-5.08785284007,-34.0062918617
*Step  = 66
*Time  = 4.9
*Data  = x;y;z
1,-4.10535411969,-5.14539248508,-6.91075528379
2,-5.486325235,-5.36454379,-37.858426675
15,-3.86342690362,-5.14797671233,-6.92030862417
16,-5.08582224124,-5.09748002967,-34.1198985046
*Step  = 67
*Time  = 4.95
*Data  = x;y;z
1,-4.11434760254,-5.70899154157,-6.99499172979
2,-5.486325235,-5.36454379,-37.858426675
15,-3.88086840583,-5.71148065265,-7.00381205146
16,-5.09797794954,-5.10690237792,-34.2331638255
*Step  = 68
*Time  = 4.99999
*Data  = x;y;z
1,-4.15414221426,-5.5848657232,-6.95311069962
2,-5.486325235,-5.36454379,-37.858426675
15,-3.87489485507,-5.58784657476,-6.96372995226
16,-5.09316369785,-5.10284492238,-34.1883358387
