*Step  = 1
*Time  = 1e-05
*Data  = x;y;z
1,-3.44113367072,3.41744787348,-11.2269025559
2,-5.486325235,-5.36454379,-37.858426675
15,-3.98006023376,3.44080846593,-11.190193107
16,-5.47927909851,-5.3594781175,-37.7927027209
*Step  = 2
*Time  = 6e-05
*Data  = x;y;z
1,-3.39066614301,3.4233229962,-11.1976802237
2,-5.486325235,-5.36454379,-37.858426675
15,-3.97640529552,3.44870807699,-11.157790357
16,-5.47580337446,-5.35698568109,-37.7602795426
*Step  = 3
*Time  = 0.000105644418
*Data  = x;y;z
1,-3.36344144088,3.42312623049,-11.1789792838
2,-5.486325235,-5.36454379,-37.858426675
15,-3.97429913794,3.44959633781,-11.1373844191
16,-5.47365273163,-5.35544613635,-37.7402161394
*Step  = 4
*Time  = 0.000333866506
*Data  = x;y;z
1,-3.34896298067,3.42703476944,-11.1680518985
2,-5.486325235,-5.36454379,-37.858426675
15,-3.97294690308,3.45406839958,-11.1255473991
16,-5.4723776133,-5.35453420752,-37.7283201439
*Step  = 5
*Time  = 0.00147497695
*Data  = x;y;z
1,-3.33892896774,3.42634755339,-11.1582961829
2,-5.486325235,-5.36454379,-37.858426675
15,-3.97210146584,3.45376055439,-11.1151486456
16,-5.4712887626,-5.35375466731,-37.7181622798
*Step  = 6
*Time  = 0.00718052917
*Data  = x;y;z
1,-3.33561964134,3.41782818236,-11.1339962623
2,-5.486325235,-5.36454379,-37.858426675
15,-3.97089972345,3.44524350421,-11.0906935819
16,-5.46876289745,-5.35194104992,-37.6946009362
*Step  = 7
*Time  = 0.0357082903
*Data  = x;y;z
1,-3.34786062254,3.37154353716,-11.025154584
2,-5.486325235,-5.36454379,-37.858426675
15,-3.96646674687,3.39780830506,-10.9830210916
16,-5.45768359356,-5.34397256013,-37.5912589985
*Step  = 8
*Time  = 0.05
*Data  = x;y;z
1,-3.37739111605,3.35277164915,-10.9743040937
2,-5.486325235,-5.36454379,-37.858426675
15,-3.96457277737,3.37749794005,-10.9343519257
16,-5.45265218176,-5.34034598527,-37.5443321424
*Step  = 9
*Time  = 0.1
*Data  = x;y;z
1,-3.4470663305,3.26822174427,-10.7840312515
2,-5.486325235,-5.36454379,-37.858426675
15,-3.95736131443,3.28905458812,-10.749585104
16,-5.43364172726,-5.32663926937,-37.3670276331
*Step  = 10
*Time  = 0.15
*Data  = x;y;z
1,-3.55081179798,3.20233272747,-10.625899987
2,-5.486325235,-5.36454379,-37.858426675
15,-3.95217282088,3.21823372903,-10.5990531606
16,-5.41811500071,-5.31541433986,-37.222227097
*Step  = 11
*Time  = 0.2
*Data  = x;y;z
1,-3.71710188514,3.12402020962,-10.4717563658
2,-5.486325235,-5.36454379,-37.858426675
15,-3.94797713659,3.13289028546,-10.4565676253
16,-5.4035125643,-5.30486265111,-37.0860430779
*Step  = 12
*Time  = 0.25
*Data  = x;y;z
1,-3.8965477803,3.02697469611,-10.3146335437
2,-5.486325235,-5.36454379,-37.858426675
15,-3.9439704102,3.0287379483,-10.3115846346
16,-5.3887407308,-5.29419413062,-36.948277753
*Step  = 13
*Time  = 0.3
*Data  = x;y;z
1,-4.01957464781,2.92791180221,-10.1638516868
2,-5.486325235,-5.36454379,-37.858426675
15,-3.93964311179,2.92503178378,-10.1688985251
16,-5.37426992917,-5.28373806711,-36.8133207522
*Step  = 14
*Time  = 0.35
*Data  = x;y;z
1,-4.12091916498,2.80976011637,-9.9888634301
2,-5.486325235,-5.36454379,-37.858426675
15,-3.93326379452,2.80322224792,-10.00047094
16,-5.35718967143,-5.27139574618,-36.6540272549
*Step  = 15
*Time  = 0.4
*Data  = x;y;z
1,-4.20562353786,2.69029614141,-9.81050094509
2,-5.486325235,-5.36454379,-37.858426675
15,-3.92568482204,2.68085275248,-9.82747774143
16,-5.33963502717,-5.25870616474,-36.4903105649
*Step  = 16
*Time  = 0.45
*Data  = x;y;z
1,-4.27464573793,2.57203302482,-9.62911032881
2,-5.486325235,-5.36454379,-37.858426675
15,-3.91720574399,2.56036271955,-9.65036001742
16,-5.32162388538,-5.24567944274,-36.3223383425
*Step  = 17
*Time  = 0.498387097
*Data  = x;y;z
1,-4.35737410178,2.45078252324,-9.44272522399
2,-5.486325235,-5.36454379,-37.858426675
15,-3.90816523184,2.43660363865,-9.46889305007
16,-5.30317343652,-5.2323215667,-36.1502728202
*Step  = 18
*Time  = 0.5
*Data  = x;y;z
1,-4.35568650297,2.44468877945,-9.43234901901
2,-5.486325235,-5.36454379,-37.858426675
15,-3.90741625401,2.43055465388,-9.45844342114
16,-5.30209675844,-5.23151459995,-36.1402412155
*Step  = 19
*Time  = 0.55
*Data  = x;y;z
1,-4.43016554292,2.32460616773,-9.24913932429
2,-5.486325235,-5.36454379,-37.858426675
15,-3.8980778416,2.30838302208,-9.27955071907
16,-5.28392658019,-5.2183414638,-35.9707940761
*Step  = 20
*Time  = 0.6
*Data  = x;y;z
1,-4.49148760676,2.2061685547,-9.06197880806
2,-5.486325235,-5.36454379,-37.858426675
15,-3.88797354521,2.18838445043,-9.09593850509
16,-5.26526097462,-5.20478503386,-35.796733091
*Step  = 21
*Time  = 0.65
*Data  = x;y;z
1,-4.56024849318,2.07522089146,-8.86377050398
2,-5.486325235,-5.36454379,-37.858426675
15,-3.87703188442,2.05581361596,-8.90159034182
16,-5.24555003794,-5.19044039809,-35.6129311959
*Step  = 22
*Time  = 0.7
*Data  = x;y;z
1,-4.64940005208,1.94847750988,-8.67474032092
2,-5.486325235,-5.36454379,-37.858426675
15,-3.86629791305,1.92700618725,-8.71728707684
16,-5.2268526085,-5.17680723307,-35.4385857776
*Step  = 23
*Time  = 0.75
*Data  = x;y;z
1,-4.72428826077,1.81640853158,-8.47338371789
2,-5.486325235,-5.36454379,-37.858426675
15,-3.85426620367,1.7934438211,-8.51976859738
16,-5.20678792121,-5.16214747705,-35.2514970937
*Step  = 24
*Time  = 0.8
*Data  = x;y;z
1,-4.81767197223,1.68625795108,-8.28170884954
2,-5.486325235,-5.36454379,-37.858426675
15,-3.84261848304,1.66144670914,-8.33267716789
16,-5.18781239573,-5.14824938267,-35.0745707196
*Step  = 25
*Time  = 0.85
*Data  = x;y;z
1,-4.88833130812,1.5551023419,-8.09101492241
2,-5.486325235,-5.36454379,-37.858426675
15,-3.83065882119,1.52917358799,-8.14526499363
16,-5.16881547547,-5.13430581522,-34.8974495023
*Step  = 26
*Time  = 0.9
*Data  = x;y;z
1,-5.02117677193,1.39999756285,-7.88607555745
2,-5.486325235,-5.36454379,-37.858426675
15,-3.81789954273,1.37165672372,-7.94631641593
16,-5.14876147448,-5.11956648014,-34.7104741222
*Step  = 27
*Time  = 0.95
*Data  = x;y;z
1,-5.0898445196,1.26237852576,-7.69360202072
2,-5.486325235,-5.36454379,-37.858426675
15,-3.80525392791,1.23326738271,-7.75671657909
16,-5.12959182544,-5.10542089545,-34.531753828
*Step  = 28
*Time  = 1
*Data  = x;y;z
1,-5.08774892173,1.26666316835,-7.68742356418
2,-5.486325235,-5.36454379,-37.858426675
15,-3.80461455836,1.23758191387,-7.75081076392
16,-5.12896497799,-5.10484392821,-34.5259393064
*Step  = 29
*Time  = 1.03
*Data  = x;y;z
1,-4.72314969904,1.91478906807,-7.94008185838
2,-5.486325235,-5.36454379,-37.858426675
15,-3.81565253667,1.89420709334,-7.99234118834
16,-5.15045342205,-5.1197764113,-34.7264875562
*Step  = 30
*Time  = 1.06
*Data  = x;y;z
1,-4.49387863953,2.3665691493,-8.09979023498
2,-5.486325235,-5.36454379,-37.858426675
15,-3.82398425593,2.35136388852,-8.14379895771
16,-5.16402188937,-5.1290166061,-34.8531465365
*Step  = 31
*Time  = 1.09
*Data  = x;y;z
1,-4.39764802833,2.57021146347,-8.14492596017
2,-5.486325235,-5.36454379,-37.858426675
15,-3.82360103206,2.55717234002,-8.1838684728
16,-5.16680771461,-5.13057178031,-34.8792417376
*Step  = 32
*Time  = 1.12
*Data  = x;y;z
1,-4.32789910851,2.71601329145,-8.17231653093
2,-5.486325235,-5.36454379,-37.858426675
15,-3.82256489044,2.70452726881,-8.20707731394
16,-5.16808927764,-5.13107155279,-34.8912965654
*Step  = 33
*Time  = 1.15
*Data  = x;y;z
1,-4.26693551011,2.83562765017,-8.19226411154
2,-5.486325235,-5.36454379,-37.858426675
15,-3.82132375536,2.82549255221,-8.22317694437
16,-5.16877396292,-5.13115651686,-34.8977812148
*Step  = 34
*Time  = 1.18
*Data  = x;y;z
1,-4.22229890139,2.94129963074,-8.20927018912
2,-5.486325235,-5.36454379,-37.858426675
15,-3.82015407667,2.93214738195,-8.23733092995
16,-5.16934043069,-5.1311694897,-34.9031605414
*Step  = 35
*Time  = 1.21
*Data  = x;y;z
1,-4.18646901216,3.03702311049,-8.22635834956
2,-5.486325235,-5.36454379,-37.858426675
15,-3.81928997348,3.02866128971,-8.25209737733
16,-5.17004000512,-5.13127887022,-34.9097812792
*Step  = 36
*Time  = 1.24
*Data  = x;y;z
1,-4.15599002274,3.12358906458,-8.24106916967
2,-5.486325235,-5.36454379,-37.858426675
15,-3.81833727675,3.11589480437,-8.26478636392
16,-5.17056378258,-5.13126820051,-34.9147615963
*Step  = 37
*Time  = 1.27
*Data  = x;y;z
1,-4.13255821884,3.20404038284,-8.25482129094
2,-5.486325235,-5.36454379,-37.858426675
15,-3.81746630863,3.19685578877,-8.27698415913
16,-5.17107950108,-5.13126119139,-34.9196647286
*Step  = 38
*Time  = 1.3
*Data  = x;y;z
1,-4.11095174779,3.27783756144,-8.26786866432
2,-5.486325235,-5.36454379,-37.858426675
15,-3.81669883243,3.27112413024,-8.28858968038
16,-5.17158768869,-5.13126407883,-34.9244940083
*Step  = 39
*Time  = 1.33
*Data  = x;y;z
1,-4.09031580316,3.35005429407,-8.28085229721
2,-5.486325235,-5.36454379,-37.858426675
15,-3.81594309389,3.34379069902,-8.30018251304
16,-5.17209622617,-5.13126850735,-34.9293265717
*Step  = 40
*Time  = 1.36
*Data  = x;y;z
1,-4.07401647314,3.41668632091,-8.29287075107
2,-5.486325235,-5.36454379,-37.858426675
15,-3.8152405977,3.4107754138,-8.31110050949
16,-5.1725765546,-5.1312696762,-34.933892165
*Step  = 41
*Time  = 1.39
*Data  = x;y;z
1,-4.06193408233,3.47984238739,-8.30472073363
2,-5.486325235,-5.36454379,-37.858426675
15,-3.81463514467,3.47419040694,-8.32213771203
16,-5.17309607638,-5.13130027324,-34.9388231982
*Step  = 42
*Time  = 1.42
*Data  = x;y;z
1,-4.05734359286,3.54001340306,-8.31607234599
2,-5.486325235,-5.36454379,-37.858426675
15,-3.81408780468,3.53445070315,-8.33319118178
16,-5.17363700855,-5.13135360704,-34.9439525011
*Step  = 43
*Time  = 1.45
*Data  = x;y;z
1,-4.05312565674,3.5971759368,-8.32690744409
2,-5.486325235,-5.36454379,-37.858426675
15,-3.81355686699,3.59169447812,-8.34375038482
16,-5.17414721107,-5.1313858183,-34.9487951641
*Step  = 44
*Time  = 1.48
*Data  = x;y;z
1,-4.04660287355,3.65302713572,-8.33842943234
2,-5.486325235,-5.36454379,-37.858426675
15,-3.81309022296,3.6476812614,-8.35482438777
16,-5.17471612599,-5.13146385004,-34.9541849477
*Step  = 45
*Time  = 1.51
*Data  = x;y;z
1,-4.02271557514,3.70387546799,-8.34727727607
2,-5.486325235,-5.36454379,-37.858426675
15,-3.81244931831,3.69905930321,-8.36204179286
16,-5.17493916618,-5.1313099998,-34.9563433349
*Step  = 46
*Time  = 1.54
*Data  = x;y;z
1,-4.00724076026,3.75367041663,-8.35621553435
2,-5.486325235,-5.36454379,-37.858426675
15,-3.81181264301,3.74919183589,-8.36993373618
16,-5.17523735945,-5.13121648125,-34.9592024611
*Step  = 47
*Time  = 1.57
*Data  = x;y;z
1,-3.99593027901,3.80361034031,-8.36602573674
2,-5.486325235,-5.36454379,-37.858426675
15,-3.81130925603,3.79937726886,-8.37897394211
16,-5.17564860399,-5.13120866001,-34.9631148607
*Step  = 48
*Time  = 1.6
*Data  = x;y;z
1,-3.98517792227,3.85084016611,-8.37537128945
2,-5.486325235,-5.36454379,-37.858426675
15,-3.81083002035,3.84684066943,-8.38758855227
16,-5.17603995121,-5.13119623453,-34.9668394082
*Step  = 49
*Time  = 1.63
*Data  = x;y;z
1,-3.97593662358,3.89565258062,-8.38377671448
2,-5.486325235,-5.36454379,-37.858426675
15,-3.81032749983,3.89185173628,-8.39537091771
16,-5.17636480146,-5.13114409643,-34.9699418098
*Step  = 50
*Time  = 1.66
*Data  = x;y;z
1,-3.96679576583,3.940321884,-8.39260959791
2,-5.486325235,-5.36454379,-37.858426675
15,-3.80986980203,3.93671861516,-8.40358494925
16,-5.17673447674,-5.1311276907,-34.9734615922
*Step  = 51
*Time  = 1.69
*Data  = x;y;z
1,-3.97005672664,3.98579519651,-8.4023527293
2,-5.486325235,-5.36454379,-37.858426675
15,-3.80963920016,3.98210997579,-8.41355294786
16,-5.17727368314,-5.13123196414,-34.9785621711
*Step  = 52
*Time  = 1.72
*Data  = x;y;z
1,-3.95502665536,4.02754289055,-8.41057089188
2,-5.486325235,-5.36454379,-37.858426675
15,-3.80905176593,4.02418794223,-8.4207521531
16,-5.17756017808,-5.13116997846,-34.9813041676
*Step  = 53
*Time  = 1.75
*Data  = x;y;z
1,-3.94403486539,4.06795872436,-8.418360088
2,-5.486325235,-5.36454379,-37.858426675
15,-3.80859686326,4.0648445248,-8.42780054907
16,-5.1778465549,-5.13110234445,-34.9840449247
*Step  = 54
*Time  = 1.78
*Data  = x;y;z
1,-3.93513130595,4.10706529562,-8.42583323235
2,-5.486325235,-5.36454379,-37.858426675
15,-3.80815284419,4.10414433067,-8.43467702415
16,-5.17812654914,-5.13104142003,-34.9867235189
*Step  = 55
*Time  = 1.81
*Data  = x;y;z
1,-3.92768482374,4.14689271311,-8.4340786163
2,-5.486325235,-5.36454379,-37.858426675
15,-3.80776090617,4.14413279979,-8.44242142512
16,-5.17848514094,-5.13103615945,-34.9901358083
*Step  = 56
*Time  = 1.84
*Data  = x;y;z
1,-3.91895433749,4.18562029539,-8.44186977248
2,-5.486325235,-5.36454379,-37.858426675
15,-3.80735470156,4.18305083696,-8.44962675434
16,-5.178799963,-5.1310037663,-34.9931386443
*Step  = 57
*Time  = 1.87
*Data  = x;y;z
1,-3.91128893545,4.22260123212,-8.44925078557
2,-5.486325235,-5.36454379,-37.858426675
15,-3.80696079175,4.22019817753,-8.45649581438
16,-5.179095964,-5.1309656776,-34.9959640376
*Step  = 58
*Time  = 1.9
*Data  = x;y;z
1,-3.90400412343,4.25853611026,-8.45680895902
2,-5.486325235,-5.36454379,-37.858426675
15,-3.80660474059,4.25629173327,-8.46356535109
16,-5.17942161632,-5.13095888669,-34.999063754
*Step  = 59
*Time  = 1.93
*Data  = x;y;z
1,-3.89853613197,4.29535810871,-8.46480558107
2,-5.486325235,-5.36454379,-37.858426675
15,-3.80627694201,4.29323125104,-8.47119797769
16,-5.17979210979,-5.13096955411,-35.0025856044
*Step  = 60
*Time  = 1.96
*Data  = x;y;z
1,-3.891199361,4.31162909516,-8.46301166117
2,-5.486325235,-5.36454379,-37.858426675
15,-3.80563354696,4.30965606885,-8.46895069392
16,-5.17937521871,-5.13050173007,-34.998738658
*Step  = 61
*Time  = 1.99
*Data  = x;y;z
1,-3.9011886838,4.29745591585,-8.44964916406
2,-5.486325235,-5.36454379,-37.858426675
15,-3.80479747838,4.29523318688,-8.45635698164
16,-5.17819432289,-5.12957636051,-34.9877413759
*Step  = 62
*Time  = 1.99999
*Data  = x;y;z
1,-3.90449274166,4.2977221703,-8.44969571866
2,-5.486325235,-5.36454379,-37.858426675
15,-3.80479173435,4.29542295031,-8.4566318547
16,-5.17820440625,-5.1295382568,-34.9878471721
*Step  = 1
*Time  = 2
*Data  = x;y;z
1,-3.90194251067,4.29946024258,-8.45056790968
2,-5.486325235,-5.36454379,-37.858426675
15,-3.80478987598,4.29721949759,-8.45732758574
16,-5.17823856149,-5.12948236809,-34.9881862142
*Step  = 2
*Time  = 2.00005
*Data  = x;y;z
1,-3.90209913483,4.30060001365,-8.4511022655
2,-5.486325235,-5.36454379,-37.858426675
15,-3.80477528122,4.2983549205,-8.45787371112
16,-5.17826250223,-5.12942361556,-34.988429111
*Step  = 3
*Time  = 2.0003
*Data  = x;y;z
1,-3.90212410228,4.30209267241,-8.45244039172
2,-5.486325235,-5.36454379,-37.858426675
15,-3.80479908856,4.29984665111,-8.45921196623
16,-5.17836646984,-5.12942259714,-34.9894190176
*Step  = 4
*Time  = 2.00155
*Data  = x;y;z
1,-3.90252648398,4.3059868312,-8.45762590468
2,-5.486325235,-5.36454379,-37.858426675
15,-3.80496884104,4.30373201276,-8.46441307784
16,-5.17885048805,-5.12969306727,-34.9939576432
*Step  = 5
*Time  = 2.0078
*Data  = x;y;z
1,-3.89784204758,4.32111686564,-8.48175712737
2,-5.486325235,-5.36454379,-37.858426675
15,-3.80585203041,4.31897571122,-8.4881580003
16,-5.18117794439,-5.13131370789,-35.0157007754
*Step  = 6
*Time  = 2.03905
*Data  = x;y;z
1,-3.87629057694,4.39245439617,-8.60052958328
2,-5.486325235,-5.36454379,-37.858426675
15,-3.81026809467,4.39086449346,-8.60512931025
16,-5.19276682717,-5.13971831854,-35.123878361
*Step  = 7
*Time  = 2.05
*Data  = x;y;z
1,-3.86703364643,4.41599840249,-8.64245967496
2,-5.486325235,-5.36454379,-37.858426675
15,-3.8118534772,4.41465445729,-8.64630021455
16,-5.19690537146,-5.14292783476,-35.1624545592
*Step  = 8
*Time  = 2.1
*Data  = x;y;z
1,-3.83571743332,4.53239918556,-8.84148656866
2,-5.486325235,-5.36454379,-37.858426675
15,-3.81898530386,4.53196909463,-8.84265177145
16,-5.21644885513,-5.15745230172,-35.3447836294
*Step  = 9
*Time  = 2.15
*Data  = x;y;z
1,-3.79953152034,4.63570683514,-9.02911042283
2,-5.486325235,-5.36454379,-37.858426675
15,-3.82556701165,4.63640894727,-9.02729998973
16,-5.23496763615,-5.17157651814,-35.5174374774
*Step  = 10
*Time  = 2.2
*Data  = x;y;z
1,-3.76284144396,4.73586611116,-9.21788201687
2,-5.486325235,-5.36454379,-37.858426675
15,-3.83209240928,4.73782096806,-9.21307079451
16,-5.2536485609,-5.18585848865,-35.6915721342
*Step  = 11
*Time  = 2.25
*Data  = x;y;z
1,-3.72099082323,4.83524967226,-9.41372629719
2,-5.486325235,-5.36454379,-37.858426675
15,-3.83843698208,4.83872098666,-9.40558174922
16,-5.27304807485,-5.20073559358,-35.872372557
*Step  = 12
*Time  = 2.3
*Data  = x;y;z
1,-3.65718882139,4.92332221139,-9.59814874123
2,-5.486325235,-5.36454379,-37.858426675
15,-3.84421736676,4.92908490404,-9.58517002416
16,-5.29123038272,-5.21472001948,-36.0417940701
*Step  = 13
*Time  = 2.35
*Data  = x;y;z
1,-3.63132545568,5.01502627922,-9.79218789072
2,-5.486325235,-5.36454379,-37.858426675
15,-3.85012216591,5.02205701944,-9.77707748439
16,-5.31062513302,-5.22963330032,-36.2224919016
*Step  = 14
*Time  = 2.4
*Data  = x;y;z
1,-3.58703023889,5.09528727309,-9.97397611942
2,-5.486325235,-5.36454379,-37.858426675
15,-3.85552772273,5.10425001237,-9.95545620478
16,-5.32874246493,-5.24357440125,-36.3912621035
*Step  = 15
*Time  = 2.45
*Data  = x;y;z
1,-3.54949788527,5.17373664857,-10.1552554309
2,-5.486325235,-5.36454379,-37.858426675
15,-3.86072399287,5.18451374014,-10.1338331324
16,-5.34685414497,-5.25748801789,-36.5599668577
*Step  = 16
*Time  = 2.5
*Data  = x;y;z
1,-3.5101514692,5.2551375818,-10.3450818118
2,-5.486325235,-5.36454379,-37.858426675
15,-3.86586145445,5.26792167412,-10.3206666713
16,-5.36582875965,-5.27206880913,-36.7366858659
*Step  = 17
*Time  = 2.55
*Data  = x;y;z
1,-3.46721743708,5.32573150296,-10.522169842
2,-5.486325235,-5.36454379,-37.858426675
15,-3.87050269511,5.34072424627,-10.4945513991
16,-5.38357470046,-5.28573244051,-36.901930286
*Step  = 18
*Time  = 2.6
*Data  = x;y;z
1,-3.42474925598,5.37847245021,-10.6875597603
2,-5.486325235,-5.36454379,-37.858426675
15,-3.87461724686,5.39573970725,-10.6569499726
16,-5.40048133793,-5.29892590424,-37.0592707551
*Step  = 19
*Time  = 2.65
*Data  = x;y;z
1,-3.38614640701,5.41024151553,-10.8458716192
2,-5.486325235,-5.36454379,-37.858426675
15,-3.87850063529,5.42974344786,-10.8127561604
16,-5.417225746,-5.31213396733,-37.2150203835
*Step  = 20
*Time  = 2.7
*Data  = x;y;z
1,-3.35876952132,5.42504855175,-10.9858084187
2,-5.486325235,-5.36454379,-37.858426675
15,-3.88219100481,5.4463650381,-10.9511078716
16,-5.43257151011,-5.32422839414,-37.3577397792
*Step  = 21
*Time  = 2.75
*Data  = x;y;z
1,-3.3379682984,5.42862644319,-11.1244006905
2,-5.486325235,-5.36454379,-37.858426675
15,-3.88592810059,5.45156898271,-11.0887407698
16,-5.44812802575,-5.33628785861,-37.5024828418
*Step  = 22
*Time  = 2.8
*Data  = x;y;z
1,-3.30561356342,5.4196660792,-11.2474565483
2,-5.486325235,-5.36454379,-37.858426675
15,-3.88922782006,5.44471573129,-11.2102860184
16,-5.46210506768,-5.3468840439,-37.6326195171
*Step  = 23
*Time  = 2.85
*Data  = x;y;z
1,-3.30462151591,5.40548048086,-11.363813271
2,-5.486325235,-5.36454379,-37.858426675
15,-3.891987609,5.43130109569,-11.3275887016
16,-5.47541309321,-5.35668874327,-37.7566463012
*Step  = 24
*Time  = 2.9
*Data  = x;y;z
1,-3.29185724452,5.38208019997,-11.4796976381
2,-5.486325235,-5.36454379,-37.858426675
15,-3.8945212104,5.40922234901,-11.4438898145
16,-5.48847608253,-5.36607491205,-37.878496265
*Step  = 25
*Time  = 2.95
*Data  = x;y;z
1,-3.29341966894,5.35261980805,-11.5830381181
2,-5.486325235,-5.36454379,-37.858426675
15,-3.89735064413,5.38040533505,-11.5484087046
16,-5.50048793943,-5.3745001234,-37.9906407655
*Step  = 26
*Time  = 3
*Data  = x;y;z
1,-3.25971805986,5.33360816654,-11.5712430072
2,-5.486325235,-5.36454379,-37.858426675
15,-3.89736444788,5.36292015771,-11.5347139049
16,-5.49967290376,-5.37387255573,-37.9830581268
*Step  = 27
*Time  = 3.05
*Data  = x;y;z
1,-3.24448835547,5.35323499804,-11.3933915205
2,-5.486325235,-5.36454379,-37.858426675
15,-3.89348054497,5.38202478836,-11.3542688345
16,-5.48045016028,-5.36041447729,-37.8035824198
*Step  = 28
*Time  = 3.1
*Data  = x;y;z
1,-3.30008980679,5.37061594378,-11.2163361444
2,-5.486325235,-5.36454379,-37.858426675
15,-3.89145080051,5.39586483749,-11.1787144406
16,-5.46210741663,-5.34746053816,-37.6323864622
*Step  = 29
*Time  = 3.15
*Data  = x;y;z
1,-3.37113301355,5.36625017262,-11.0188095866
2,-5.486325235,-5.36454379,-37.858426675
15,-3.88800363613,5.38741836128,-10.9847209562
16,-5.44111768297,-5.3323026459,-37.4366380164
*Step  = 30
*Time  = 3.2
*Data  = x;y;z
1,-3.43596310053,5.34988195868,-10.8171891265
2,-5.486325235,-5.36454379,-37.858426675
15,-3.88300563733,5.36744466056,-10.7870872318
16,-5.41904960413,-5.31570318674,-37.2311006207
*Step  = 31
*Time  = 3.25
*Data  = x;y;z
1,-3.4881988288,5.31730429387,-10.5962114008
2,-5.486325235,-5.36454379,-37.858426675
15,-3.87688288301,5.33189411654,-10.5696207057
16,-5.39478780461,-5.29677056365,-37.0053717635
*Step  = 32
*Time  = 3.3
*Data  = x;y;z
1,-3.53051960842,5.25116720632,-10.3597750879
2,-5.486325235,-5.36454379,-37.858426675
15,-3.86993066847,5.26331766562,-10.336350304
16,-5.36946984684,-5.27670503596,-36.7698817686
*Step  = 33
*Time  = 3.35
*Data  = x;y;z
1,-3.56366996793,5.13170939276,-10.0814183293
2,-5.486325235,-5.36454379,-37.858426675
15,-3.86138320522,5.14180383899,-10.060874564
16,-5.34087887026,-5.25455592898,-36.5036983394
*Step  = 34
*Time  = 3.4
*Data  = x;y;z
1,-3.59163344933,4.99727451558,-9.80023776049
2,-5.486325235,-5.36454379,-37.858426675
15,-3.85241285624,5.00563094799,-9.78225118801
16,-5.31250486562,-5.23293245385,-36.2393590704
*Step  = 35
*Time  = 3.45
*Data  = x;y;z
1,-3.6365166251,4.85693368226,-9.51181081997
2,-5.486325235,-5.36454379,-37.858426675
15,-3.84323067797,4.86315630544,-9.49751915336
16,-5.28365850967,-5.21103467373,-35.9705439061
*Step  = 36
*Time  = 3.5
*Data  = x;y;z
1,-3.7030963892,4.71275764914,-9.22338271524
2,-5.486325235,-5.36454379,-37.858426675
15,-3.83375689749,4.71643615746,-9.21433380036
16,-5.25504458941,-5.18938029977,-35.7038317819
*Step  = 37
*Time  = 3.55
*Data  = x;y;z
1,-3.76590798165,4.56724070429,-8.94328994803
2,-5.486325235,-5.36454379,-37.858426675
15,-3.82391674424,4.56876499031,-8.93926645595
16,-5.22723557295,-5.16819344041,-35.444626676
*Step  = 38
*Time  = 3.6
*Data  = x;y;z
1,-3.82034995107,4.40519994033,-8.65046407501
2,-5.486325235,-5.36454379,-37.858426675
15,-3.8130513309,4.40502239148,-8.65097107268
16,-5.19818678907,-5.14608208098,-35.1738176081
*Step  = 39
*Time  = 3.65
*Data  = x;y;z
1,-3.87727023369,4.24912299899,-8.37163069501
2,-5.486325235,-5.36454379,-37.858426675
15,-3.80210458975,4.24743515863,-8.37684923301
16,-5.17047405572,-5.12467467179,-34.9154995312
*Step  = 40
*Time  = 3.7
*Data  = x;y;z
1,-3.93338692214,4.07428452574,-8.07899278219
2,-5.486325235,-5.36454379,-37.858426675
15,-3.78978797505,4.0713365594,-8.08895272816
16,-5.14136990502,-5.10172827025,-34.6442675876
*Step  = 41
*Time  = 3.75
*Data  = x;y;z
1,-3.98642257169,3.89645506446,-7.79429661787
2,-5.486325235,-5.36454379,-37.858426675
15,-3.77694456808,3.8925410971,-7.80878808317
16,-5.11304970546,-5.07896948881,-34.3803685329
*Step  = 42
*Time  = 3.8
*Data  = x;y;z
1,-4.04946045805,3.70068449319,-7.49595194524
2,-5.486325235,-5.36454379,-37.858426675
15,-3.76247876898,3.69586743353,-7.51564328354
16,-5.08344177008,-5.05484329134,-34.1044576754
*Step  = 43
*Time  = 3.85
*Data  = x;y;z
1,-4.09897070332,3.50383969646,-7.20657029478
2,-5.486325235,-5.36454379,-37.858426675
15,-3.74734787663,3.49857317998,-7.23044586399
16,-5.05466070241,-5.03096660211,-33.8362451739
*Step  = 44
*Time  = 3.9
*Data  = x;y;z
1,-4.14358583266,3.28473896312,-6.90075234854
2,-5.486325235,-5.36454379,-37.858426675
15,-3.73017540015,3.27931370002,-6.92841342147
16,-5.024301233,-5.00568943601,-33.5532445497
*Step  = 45
*Time  = 3.95
*Data  = x;y;z
1,-4.18543886357,3.04150746734,-6.58421587556
2,-5.486325235,-5.36454379,-37.858426675
15,-3.71101262706,3.03615033362,-6.61532063688
16,-4.99301719561,-4.97984728182,-33.2615090663
*Step  = 46
*Time  = 4
*Data  = x;y;z
1,-4.18559330497,3.03424398239,-6.57484833525
2,-5.486325235,-5.36454379,-37.858426675
15,-3.70986811163,3.02884696639,-6.6062041635
16,-4.99190910042,-4.97654890298,-33.2515393169
*Step  = 47
*Time  = 4.05
*Data  = x;y;z
1,-4.1021331635,2.78038782783,-6.49701838374
2,-5.486325235,-5.36454379,-37.858426675
15,-3.70613393658,2.77593568134,-6.52337062832
16,-4.98614464832,-4.97677680415,-33.1971035041
*Step  = 48
*Time  = 4.1
*Data  = x;y;z
1,-4.05000416934,2.55806695642,-6.45485111904
2,-5.486325235,-5.36454379,-37.858426675
15,-3.70560096891,2.55423295005,-6.47782496027
16,-4.98390466765,-4.98018878653,-33.1754764779
*Step  = 49
*Time  = 4.15
*Data  = x;y;z
1,-4.02494437752,2.32158400908,-6.41573985441
2,-5.486325235,-5.36454379,-37.858426675
15,-3.70560087144,2.31806582891,-6.43701058836
16,-4.98217744063,-4.98426666552,-33.1586122667
*Step  = 50
*Time  = 4.2
*Data  = x;y;z
1,-3.97978640611,2.06272160112,-6.37546553562
2,-5.486325235,-5.36454379,-37.858426675
15,-3.7055797787,2.05973279164,-6.39370159659
16,-4.98028049728,-4.98834335606,-33.1401664252
*Step  = 51
*Time  = 4.25
*Data  = x;y;z
1,-3.94028294124,1.77257949626,-6.33645912831
2,-5.486325235,-5.36454379,-37.858426675
15,-3.70597292855,1.77005328372,-6.35195880932
16,-4.97866129865,-4.99274902587,-33.1243135015
*Step  = 52
*Time  = 4.3
*Data  = x;y;z
1,-3.8994450939,1.43645609816,-6.29783636808
2,-5.486325235,-5.36454379,-37.858426675
15,-3.70683879615,1.43440226546,-6.3104595555
16,-4.97727125438,-4.99739019924,-33.1106057917
*Step  = 53
*Time  = 4.35
*Data  = x;y;z
1,-3.86096010853,1.01861362797,-6.25997275044
2,-5.486325235,-5.36454379,-37.858426675
15,-3.70853125283,1.01700554522,-6.2697626691
16,-4.97633784467,-5.00226156591,-33.1011821566
*Step  = 54
*Time  = 4.4
*Data  = x;y;z
1,-3.80395858578,0.442673299205,-6.22982879576
2,-5.486325235,-5.36454379,-37.858426675
15,-3.71401685954,0.441733951584,-6.23543117119
16,-4.97698295183,-5.00802754744,-33.1065834254
*Step  = 55
*Time  = 4.45
*Data  = x;y;z
1,-3.89519010198,-0.677453296967,-6.3102208936
2,-5.486325235,-5.36454379,-37.858426675
15,-3.73589577464,-0.679106789405,-6.319144446
16,-4.99345813611,-5.02286219058,-33.2597573595
*Step  = 56
*Time  = 4.5
*Data  = x;y;z
1,-4.06369147362,-1.92380051786,-6.42961836901
2,-5.486325235,-5.36454379,-37.858426675
15,-3.7657538534,-1.92688274045,-6.44448791743
16,-5.01511584774,-5.03989074403,-33.4615142387
*Step  = 57
*Time  = 4.55
*Data  = x;y;z
1,-4.19560406925,-3.01949761058,-6.53439224826
2,-5.486325235,-5.36454379,-37.858426675
15,-3.79249286919,-3.02365673145,-6.55251883712
16,-5.03379236964,-5.05456524112,-33.6354922093
*Step  = 58
*Time  = 4.6
*Data  = x;y;z
1,-4.31738323147,-4.02847008972,-6.65325889597
2,-5.486325235,-5.36454379,-37.858426675
15,-3.82008540305,-4.03359051268,-6.67363699788
16,-5.0533046864,-5.06918304408,-33.8173617344
*Step  = 59
*Time  = 4.65
*Data  = x;y;z
1,-4.40830375629,-4.94345107974,-6.77510830181
2,-5.486325235,-5.36454379,-37.858426675
15,-3.84613765808,-4.94922861669,-6.79640378052
16,-5.0722990166,-5.08342192899,-33.9944418897
*Step  = 60
*Time  = 4.7
*Data  = x;y;z
1,-4.49347386172,-5.8127200274,-6.91794579657
2,-5.486325235,-5.36454379,-37.858426675
15,-3.87530316994,-5.8190670591,-6.93955657257
16,-5.09322691745,-5.09831461031,-34.1896024774
*Step  = 61
*Time  = 4.75
*Data  = x;y;z
1,-4.55090734848,-6.59988431397,-7.05044505543
2,-5.486325235,-5.36454379,-37.858426675
15,-3.90154411108,-6.60654306892,-7.07169701682
16,-5.1123188157,-5.11217236801,-34.367634993
*Step  = 62
*Time  = 4.8
*Data  = x;y;z
1,-4.59607504212,-7.33337324598,-7.18480407514
2,-5.486325235,-5.36454379,-37.858426675
15,-3.92721657559,-7.34022224823,-7.20533237558
16,-5.13106175545,-5.12584349759,-34.5424067879
*Step  = 63
*Time  = 4.85
*Data  = x;y;z
1,-4.63217576319,-8.02708298587,-7.32212500584
2,-5.486325235,-5.36454379,-37.858426675
15,-3.95194285083,-8.03403854801,-7.34172045082
16,-5.14971397125,-5.13939530636,-34.7163636952
*Step  = 64
*Time  = 4.9
*Data  = x;y;z
1,-4.66148315314,-8.70372837497,-7.46543640826
2,-5.486325235,-5.36454379,-37.858426675
15,-3.97839750308,-8.71070561262,-7.48394725891
16,-5.16891451552,-5.15303940728,-34.8954414897
*Step  = 65
*Time  = 4.95
*Data  = x;y;z
1,-4.67391552216,-9.37451421169,-7.621881907
2,-5.486325235,-5.36454379,-37.858426675
15,-4.00562756992,-9.38133414529,-7.63896914059
16,-5.18945416384,-5.16738349141,-35.0870666781
*Step  = 66
*Time  = 4.99999
*Data  = x;y;z
1,-4.67988004163,-9.28122597959,-7.57445930689
2,-5.486325235,-5.36454379,-37.858426675
15,-3.99949574744,-9.28817367172,-7.59147398384
16,-5.18396169967,-5.16327830377,-35.0358499637
