*Step  = 1
*Time  = 1e-05
*Data  = x;y;z
1,-3.53462158084,3.50126118005,-11.2211047285
2,-5.486325235,-5.36454379,-37.858426675
15,-3.97621745444,3.5204021455,-11.1912356492
16,-5.47863040318,-5.35901298391,-37.7866513741
*Step  = 2
*Time  = 1.76719802e-05
*Data  = x;y;z
1,-3.46370986951,3.47395454491,-11.1861168774
2,-5.486325235,-5.36454379,-37.858426675
15,-3.97331033652,3.49603802995,-11.1516797776
16,-5.47468463212,-5.35618718998,-37.749841698
*Step  = 3
*Time  = 5.60318814e-05
*Data  = x;y;z
1,-3.43556051746,3.46307941545,-11.1693256961
2,-5.486325235,-5.36454379,-37.858426675
15,-3.97183577799,3.48631568528,-11.133139526
16,-5.47281007656,-5.35484750165,-37.7323529234
*Step  = 4
*Time  = 0.000247831387
*Data  = x;y;z
1,-3.42015829266,3.45970883097,-11.1600749509
2,-5.486325235,-5.36454379,-37.858426675
15,-3.97096800053,3.48357068788,-11.1229034054
16,-5.47176533631,-5.35410173816,-37.7226055727
*Step  = 5
*Time  = 0.00120682892
*Data  = x;y;z
1,-3.41215104135,3.45694775845,-11.1515834105
2,-5.486325235,-5.36454379,-37.858426675
15,-3.97034516307,3.48111556078,-11.1138904482
16,-5.47084613289,-5.35344467062,-37.714029892
*Step  = 6
*Time  = 0.00600181657
*Data  = x;y;z
1,-3.41012564403,3.44659401362,-11.1297658879
2,-5.486325235,-5.36454379,-37.858426675
15,-3.96931703508,3.47074017842,-11.0920152486
16,-5.468599593,-5.35183177364,-37.6930740312
*Step  = 7
*Time  = 0.0299767548
*Data  = x;y;z
1,-3.42947043107,3.39673454646,-11.0350979751
2,-5.486325235,-5.36454379,-37.858426675
15,-3.96572429353,3.41958236338,-10.9989585868
16,-5.45906073265,-5.3449635318,-37.6041039095
*Step  = 8
*Time  = 0.05
*Data  = x;y;z
1,-3.46266135632,3.38788451116,-10.9973029748
2,-5.486325235,-5.36454379,-37.858426675
15,-3.96552238453,3.40907310892,-10.9634548118
16,-5.45525851306,-5.34218266838,-37.5686590991
*Step  = 9
*Time  = 0.1
*Data  = x;y;z
1,-3.53478208152,3.27167145758,-10.7955779632
2,-5.486325235,-5.36454379,-37.858426675
15,-3.95821129609,3.28898002771,-10.7674208674
16,-5.43520864917,-5.32766348199,-37.3816864304
*Step  = 10
*Time  = 0.15
*Data  = x;y;z
1,-3.63485870368,3.16276030767,-10.618984971
2,-5.486325235,-5.36454379,-37.858426675
15,-3.95258815004,3.17537461733,-10.5980910431
16,-5.41794659171,-5.31507670653,-37.2207453861
*Step  = 11
*Time  = 0.2
*Data  = x;y;z
1,-3.79926564139,3.02122257619,-10.4682461054
2,-5.486325235,-5.36454379,-37.858426675
15,-3.9508227279,3.02706418074,-10.4584669481
16,-5.40406582733,-5.30487281029,-37.0913599343
*Step  = 12
*Time  = 0.248387097
*Data  = x;y;z
1,-3.97891177636,2.78160168518,-10.3378794628
2,-5.486325235,-5.36454379,-37.858426675
15,-3.95474063993,2.78069802139,-10.3394043726
16,-5.39320521875,-5.29680622189,-36.9901544517
*Step  = 13
*Time  = 0.25
*Data  = x;y;z
1,-3.97483950999,2.80007869975,-10.3384570774
2,-5.486325235,-5.36454379,-37.858426675
15,-3.95432863987,2.79931242712,-10.339758325
16,-5.39307132611,-5.29659795807,-36.9889490646
*Step  = 14
*Time  = 0.281631638
*Data  = x;y;z
1,-4.10140268908,2.60730489016,-10.2962015272
2,-5.486325235,-5.36454379,-37.858426675
15,-3.96226456157,2.60220440436,-10.3049291051
16,-5.39088906299,-5.29482683905,-36.9686673343
*Step  = 15
*Time  = 0.3
*Data  = x;y;z
1,-4.07965907413,2.64534552745,-10.2002584514
2,-5.486325235,-5.36454379,-37.858426675
15,-3.95306526304,2.64075570847,-10.2082231313
16,-5.38020465305,-5.28684921908,-36.8691171563
*Step  = 16
*Time  = 0.35
*Data  = x;y;z
1,-4.14161180532,2.50931736813,-10.0188152011
2,-5.486325235,-5.36454379,-37.858426675
15,-3.94617232457,2.50245995566,-10.0309562709
16,-5.36232285226,-5.27345924223,-36.7025092951
*Step  = 17
*Time  = 0.4
*Data  = x;y;z
1,-4.19030453347,2.39672009008,-9.84382627595
2,-5.486325235,-5.36454379,-37.858426675
15,-3.93825275133,2.38815134426,-9.8593097629
16,-5.34484114398,-5.26024809772,-36.5396633239
*Step  = 18
*Time  = 0.45
*Data  = x;y;z
1,-4.23974309525,2.28872020477,-9.6689500299
2,-5.486325235,-5.36454379,-37.858426675
15,-3.92985264581,2.27851893153,-9.6877738939
16,-5.32732942606,-5.24688393562,-36.3765716543
*Step  = 19
*Time  = 0.5
*Data  = x;y;z
1,-4.29385103007,2.16939724896,-9.48648570694
2,-5.486325235,-5.36454379,-37.858426675
15,-3.92101681679,2.15754188189,-9.50885682476
16,-5.30912531033,-5.23285208317,-36.2070635876
*Step  = 20
*Time  = 0.55
*Data  = x;y;z
1,-4.32761244859,2.06111783883,-9.30728758541
2,-5.486325235,-5.36454379,-37.858426675
15,-3.91133729961,2.04831684604,-9.33199066396
16,-5.29105204347,-5.21876800926,-36.0388094121
*Step  = 21
*Time  = 0.6
*Data  = x;y;z
1,-4.3622504067,1.95276823621,-9.12472666059
2,-5.486325235,-5.36454379,-37.858426675
15,-3.9009847897,1.93905999092,-9.15180839995
16,-5.27263540392,-5.20424831477,-35.8673943098
*Step  = 22
*Time  = 0.65
*Data  = x;y;z
1,-4.40595521789,1.82857394785,-8.93333671891
2,-5.486325235,-5.36454379,-37.858426675
15,-3.89024795609,1.81380308992,-8.96325288201
16,-5.25347087342,-5.18895480873,-35.6890508608
*Step  = 23
*Time  = 0.7
*Data  = x;y;z
1,-4.43760287227,1.71752447187,-8.74603032849
2,-5.486325235,-5.36454379,-37.858426675
15,-3.87882716002,1.70208080441,-8.77809070397
16,-5.23456581139,-5.1736514831,-35.5131649949
*Step  = 24
*Time  = 0.75
*Data  = x;y;z
1,-4.47717667872,1.59356789492,-8.54826859074
2,-5.486325235,-5.36454379,-37.858426675
15,-3.86660334794,1.57733104306,-8.58279853079
16,-5.21468585126,-5.15736395401,-35.3282367919
*Step  = 25
*Time  = 0.8
*Data  = x;y;z
1,-4.51319184856,1.47428415931,-8.36137966665
2,-5.486325235,-5.36454379,-37.858426675
15,-3.85480896865,1.45741743052,-8.39813116716
16,-5.19592896879,-5.14171710174,-35.1538040364
*Step  = 26
*Time  = 0.85
*Data  = x;y;z
1,-4.54479098088,1.3534035507,-8.17350900456
2,-5.486325235,-5.36454379,-37.858426675
15,-3.84259129326,1.33608743865,-8.21217919718
16,-5.17706795541,-5.12574846642,-34.9784355312
*Step  = 27
*Time  = 0.9
*Data  = x;y;z
1,-4.5771177499,1.21730369622,-7.97538316172
2,-5.486325235,-5.36454379,-37.858426675
15,-3.82958367959,1.19961500396,-8.01592049594
16,-5.15726739683,-5.10878358844,-34.7943459937
*Step  = 28
*Time  = 0.95
*Data  = x;y;z
1,-4.60837925672,1.08089788763,-7.78728521803
2,-5.486325235,-5.36454379,-37.858426675
15,-3.81712014036,1.06290812116,-7.82951063605
16,-5.13854654278,-5.09240427048,-34.6203427351
*Step  = 29
*Time  = 1
*Data  = x;y;z
1,-4.57534236697,1.10939303058,-7.7855080254
2,-5.486325235,-5.36454379,-37.858426675
15,-3.81593155601,1.09210182402,-7.82649490336
16,-5.1379842029,-5.09063085984,-34.6154605899
*Step  = 30
*Time  = 1.03
*Data  = x;y;z
1,-4.42587048191,1.49889757909,-7.9050387454
2,-5.486325235,-5.36454379,-37.858426675
15,-3.81883318903,1.48504956153,-7.94036111091
16,-5.14685135604,-5.09595619429,-34.6983711116
*Step  = 31
*Time  = 1.06
*Data  = x;y;z
1,-4.37158934413,1.901768971,-8.06373788062
2,-5.486325235,-5.36454379,-37.858426675
15,-3.82762868087,1.88933279242,-8.09904248804
16,-5.16074308653,-5.10526794398,-34.8279924932
*Step  = 32
*Time  = 1.09
*Data  = x;y;z
1,-4.34418655402,2.08473026984,-8.12465234487
2,-5.486325235,-5.36454379,-37.858426675
15,-3.82969580807,2.07294375873,-8.15924833172
16,-5.1655481972,-5.10768536698,-34.873051194
*Step  = 33
*Time  = 1.12
*Data  = x;y;z
1,-4.32361134777,2.2606301751,-8.1836642465
2,-5.486325235,-5.36454379,-37.858426675
15,-3.8318688558,2.24934123341,-8.21744810076
16,-5.17003260186,-5.10990431811,-34.9151000826
*Step  = 34
*Time  = 1.15
*Data  = x;y;z
1,-4.29502067133,2.42503826737,-8.2341513813
2,-5.486325235,-5.36454379,-37.858426675
15,-3.83297158991,2.41440797524,-8.26647661449
16,-5.17357857954,-5.11137595515,-34.9484335178
*Step  = 35
*Time  = 1.18
*Data  = x;y;z
1,-4.26706035234,2.53803029921,-8.26128817332
2,-5.486325235,-5.36454379,-37.858426675
15,-3.83253449871,2.52801157244,-8.29190183814
16,-5.17498585734,-5.11116092113,-34.961874017
*Step  = 36
*Time  = 1.21
*Data  = x;y;z
1,-4.22655926662,2.62085715759,-8.27642695067
2,-5.486325235,-5.36454379,-37.858426675
15,-3.83147211404,2.61172851066,-8.30443500224
16,-5.17531350192,-5.11011528712,-34.9652612029
*Step  = 37
*Time  = 1.24
*Data  = x;y;z
1,-4.20328896333,2.67519565124,-8.28528882633
2,-5.486325235,-5.36454379,-37.858426675
15,-3.83067365439,2.66656852684,-8.31185465554
16,-5.17539437361,-5.10890896053,-34.9663408204
*Step  = 38
*Time  = 1.27
*Data  = x;y;z
1,-4.1779831887,2.75476921241,-8.30876092737
2,-5.486325235,-5.36454379,-37.858426675
15,-3.83046570604,2.74670611862,-8.33356379261
16,-5.17664728515,-5.10863863937,-34.9783417463
*Step  = 39
*Time  = 1.3
*Data  = x;y;z
1,-4.15595383003,2.837487346,-8.33128534874
2,-5.486325235,-5.36454379,-37.858426675
15,-3.83012333739,2.82991106972,-8.35458397777
16,-5.17778517394,-5.10825472034,-34.9892776087
*Step  = 40
*Time  = 1.33
*Data  = x;y;z
1,-4.13620835407,2.91163491245,-8.34974207083
2,-5.486325235,-5.36454379,-37.858426675
15,-3.829580506,2.904489744,-8.37170395923
16,-5.17858593455,-5.10760202129,-34.9970775603
*Step  = 41
*Time  = 1.36
*Data  = x;y;z
1,-4.11856276523,2.96833344018,-8.3625548548
2,-5.486325235,-5.36454379,-37.858426675
15,-3.82894676821,2.96157045419,-8.3833382866
16,-5.17899381476,-5.10665657326,-35.001215455
*Step  = 42
*Time  = 1.39
*Data  = x;y;z
1,-4.10505433434,3.00560744885,-8.36910479636
2,-5.486325235,-5.36454379,-37.858426675
15,-3.82823553517,2.99913027863,-8.38901655365
16,-5.17899365469,-5.10542849385,-35.0015441402
*Step  = 43
*Time  = 1.42
*Data  = x;y;z
1,-4.10173857694,3.07209773367,-8.39198653622
2,-5.486325235,-5.36454379,-37.858426675
15,-3.8283328366,3.0656869164,-8.41162585516
16,-5.18040235975,-5.10533583407,-35.014994682
*Step  = 44
*Time  = 1.45
*Data  = x;y;z
1,-4.08104800384,3.13441082566,-8.41018855945
2,-5.486325235,-5.36454379,-37.858426675
15,-3.82800298496,3.12846503885,-8.42837717435
16,-5.18124780668,-5.10478558229,-35.0232011016
*Step  = 45
*Time  = 1.48
*Data  = x;y;z
1,-4.0678055769,3.18910729845,-8.42479683508
2,-5.486325235,-5.36454379,-37.858426675
15,-3.82752937966,3.18344971722,-8.44207073199
16,-5.18183979228,-5.10402007346,-35.0290547474
*Step  = 46
*Time  = 1.51
*Data  = x;y;z
1,-4.05600416496,3.23371799984,-8.43575208118
2,-5.486325235,-5.36454379,-37.858426675
15,-3.82699129815,3.22831453978,-8.45223096493
16,-5.18217795216,-5.10306230906,-35.0325424801
*Step  = 47
*Time  = 1.54
*Data  = x;y;z
1,-4.04552541717,3.26350992503,-8.44195360092
2,-5.486325235,-5.36454379,-37.858426675
15,-3.82641458909,3.25832993645,-8.45774494962
16,-5.18220832188,-5.10189497119,-35.0331544165
*Step  = 48
*Time  = 1.57
*Data  = x;y;z
1,-4.03816926429,3.3159429903,-8.46072589782
2,-5.486325235,-5.36454379,-37.858426675
15,-3.82639085755,3.31092610682,-8.4759677068
16,-5.18327188817,-5.10157640751,-35.0433878625
*Step  = 49
*Time  = 1.6
*Data  = x;y;z
1,-4.0287106649,3.36702203685,-8.47703725679
2,-5.486325235,-5.36454379,-37.858426675
15,-3.82614994488,3.36221359861,-8.49160521108
16,-5.1840729012,-5.10102113623,-35.05118477
*Step  = 50
*Time  = 1.63
*Data  = x;y;z
1,-4.01756693766,3.413374139,-8.49064000721
2,-5.486325235,-5.36454379,-37.858426675
15,-3.82577053068,3.40881185628,-8.50443353437
16,-5.18463257192,-5.10026254013,-35.0567376255
*Step  = 51
*Time  = 1.66
*Data  = x;y;z
1,-4.00999161755,3.45882069385,-8.504452396
2,-5.486325235,-5.36454379,-37.858426675
15,-3.82543053837,3.45442154997,-8.51771790662
16,-5.18523933981,-5.09955729186,-35.0627282083
*Step  = 52
*Time  = 1.69
*Data  = x;y;z
1,-4.00172051624,3.50250354477,-8.5176150769
2,-5.486325235,-5.36454379,-37.858426675
15,-3.82507773999,3.49828457792,-8.53030785093
16,-5.18579098078,-5.09881113978,-35.068205293
*Step  = 53
*Time  = 1.72
*Data  = x;y;z
1,-3.9937501156,3.53144153375,-8.52463237464
2,-5.486325235,-5.36454379,-37.858426675
15,-3.82456246549,3.52739278291,-8.53679969005
16,-5.18589442116,-5.09772467387,-35.069502668
*Step  = 54
*Time  = 1.75
*Data  = x;y;z
1,-3.98542544405,3.55764785274,-8.53263109516
2,-5.486325235,-5.36454379,-37.858426675
15,-3.82421677204,3.55378271568,-8.54423200116
16,-5.18613033393,-5.09678150415,-35.0720244202
*Step  = 55
*Time  = 1.78
*Data  = x;y;z
1,-3.99043234265,3.60741428308,-8.55310274277
2,-5.486325235,-5.36454379,-37.858426675
15,-3.82439296877,3.60342534302,-8.56501370622
16,-5.18742901468,-5.09672812349,-35.0844441015
*Step  = 56
*Time  = 1.81
*Data  = x;y;z
1,-3.9776428573,3.64552690799,-8.56507810953
2,-5.486325235,-5.36454379,-37.858426675
15,-3.82401358434,3.64182879804,-8.57609587837
16,-5.18786917739,-5.09592068559,-35.0888823967
*Step  = 57
*Time  = 1.84
*Data  = x;y;z
1,-3.98807860123,3.68474882871,-8.57885378899
2,-5.486325235,-5.36454379,-37.858426675
15,-3.82390756647,3.68078909776,-8.5906100365
16,-5.18864399956,-5.09541154134,-35.0964333031
*Step  = 58
*Time  = 1.87
*Data  = x;y;z
1,-4.01305636508,3.47192262856,-8.26078296965
2,-5.486325235,-5.36454379,-37.858426675
15,-3.81689588658,3.46760310877,-8.27490627946
16,-5.16988155098,-5.13488508814,-34.9073819433
*Step  = 59
*Time  = 1.9
*Data  = x;y;z
1,-4.01975192814,3.51777310084,-8.28366503857
2,-5.486325235,-5.36454379,-37.858426675
15,-3.81743972161,3.51330570261,-8.29817768042
16,-5.17152467212,-5.13446250012,-34.9230870759
*Step  = 60
*Time  = 1.93
*Data  = x;y;z
1,-4.01963077203,3.56716607799,-8.30360334661
2,-5.486325235,-5.36454379,-37.858426675
15,-3.81763383039,3.56269379649,-8.31805890782
16,-5.17279237455,-5.13381510927,-34.9352828183
*Step  = 61
*Time  = 1.96
*Data  = x;y;z
1,-4.0122739893,3.58893645126,-8.30876999
2,-5.486325235,-5.36454379,-37.858426675
15,-3.81714419099,3.58460588598,-8.32275706681
16,-5.1727675047,-5.13237460416,-34.9353911344
*Step  = 62
*Time  = 1.99
*Data  = x;y;z
1,-4.00613196792,3.58023179385,-8.30293694658
2,-5.486325235,-5.36454379,-37.858426675
15,-3.8164368798,3.57601326168,-8.31658726436
16,-5.17193668304,-5.13054302649,-34.9279375131
*Step  = 63
*Time  = 1.99999
*Data  = x;y;z
1,-4.00375658989,3.58457915668,-8.30855759049
2,-5.486325235,-5.36454379,-37.858426675
15,-3.81649535137,3.58040638285,-8.32204023487
16,-5.1721912823,-5.12953630116,-34.9305998448
*Step  = 1
*Time  = 2
*Data  = x;y;z
1,-4.00189956309,3.58829516134,-8.31411472026
2,-5.486325235,-5.36454379,-37.858426675
15,-3.81657262199,3.58415734949,-8.32746563655
16,-5.17245478687,-5.12855934342,-34.933340993
*Step  = 2
*Time  = 2.00005
*Data  = x;y;z
1,-3.99983284049,3.5919967028,-8.31991068284
2,-5.486325235,-5.36454379,-37.858426675
15,-3.81667011242,3.58789901932,-8.3331129269
16,-5.17274595972,-5.12761956446,-34.9363374883
*Step  = 3
*Time  = 2.0003
*Data  = x;y;z
1,-3.99738968955,3.59604316163,-8.32649033894
2,-5.486325235,-5.36454379,-37.858426675
15,-3.81680476961,3.59199421857,-8.33951319185
16,-5.17311711068,-5.12675679538,-34.9400772074
*Step  = 4
*Time  = 2.00155
*Data  = x;y;z
1,-3.99439051946,3.60204607964,-8.33657665784
2,-5.486325235,-5.36454379,-37.858426675
15,-3.81708851489,3.59805745317,-8.34936982604
16,-5.17384164643,-5.12618326412,-34.9471091618
*Step  = 5
*Time  = 2.0078
*Data  = x;y;z
1,-3.98993829265,3.61819216821,-8.36415345486
2,-5.486325235,-5.36454379,-37.858426675
15,-3.81809531934,3.61429133628,-8.37656188636
16,-5.17632214833,-5.12701139603,-34.9705049693
*Step  = 6
*Time  = 2.03905
*Data  = x;y;z
1,-3.97175057251,3.68384599475,-8.47903547985
2,-5.486325235,-5.36454379,-37.858426675
15,-3.82264047285,3.68033443421,-8.48983058023
16,-5.1875262444,-5.13478345406,-35.0751949856
*Step  = 7
*Time  = 2.05
*Data  = x;y;z
1,-3.96285703193,3.70800699571,-8.52586618283
2,-5.486325235,-5.36454379,-37.858426675
15,-3.82456996355,3.7047062435,-8.53587371541
16,-5.19196232268,-5.13740453657,-35.1167627499
*Step  = 8
*Time  = 2.1
*Data  = x;y;z
1,-3.92551146454,3.81104737089,-8.71527076211
2,-5.486325235,-5.36454379,-37.858426675
15,-3.83182961083,3.80867996867,-8.72207219577
16,-5.21061683645,-5.15138815496,-35.290807453
*Step  = 9
*Time  = 2.15
*Data  = x;y;z
1,-3.87693006559,3.90377242183,-8.8972389779
2,-5.486325235,-5.36454379,-37.858426675
15,-3.83874601942,3.90275676417,-8.90001951933
16,-5.22852939453,-5.16499827053,-35.4578619347
*Step  = 10
*Time  = 2.2
*Data  = x;y;z
1,-3.8363539178,3.9949025716,-9.07909595592
2,-5.486325235,-5.36454379,-37.858426675
15,-3.84536032481,3.99515408883,-9.07843979079
16,-5.2464865901,-5.17872497366,-35.6252926162
*Step  = 11
*Time  = 2.25
*Data  = x;y;z
1,-3.76217395177,4.08495253703,-9.26831285498
2,-5.486325235,-5.36454379,-37.858426675
15,-3.85192796223,4.0875847218,-9.26174148721
16,-5.2650494961,-5.19303989789,-35.7983111395
*Step  = 12
*Time  = 2.3
*Data  = x;y;z
1,-3.72922711183,4.17037382051,-9.44837325327
2,-5.486325235,-5.36454379,-37.858426675
15,-3.85800871383,4.17432096248,-9.43895451789
16,-5.28296548195,-5.20691693697,-35.9652582769
*Step  = 13
*Time  = 2.35
*Data  = x;y;z
1,-3.66979229901,4.25822924073,-9.63701890392
2,-5.486325235,-5.36454379,-37.858426675
15,-3.8640982398,4.26445657225,-9.62276628403
16,-5.30160457431,-5.22136721588,-36.1389117874
*Step  = 14
*Time  = 2.4
*Data  = x;y;z
1,-3.63052250599,4.3401493146,-9.81662261058
2,-5.486325235,-5.36454379,-37.858426675
15,-3.86966899822,4.34813080583,-9.79908933333
16,-5.31948712053,-5.23526566058,-36.3054805314
*Step  = 15
*Time  = 2.44354839
*Data  = x;y;z
1,-3.68672357239,4.42162572846,-9.98376520411
2,-5.486325235,-5.36454379,-37.858426675
15,-3.8756560836,4.4281496854,-9.96997349815
16,-5.33676955662,-5.2486613129,-36.4664395871
*Step  = 16
*Time  = 2.45
*Data  = x;y;z
1,-3.60829284934,4.42075464631,-10.0049251151
2,-5.486325235,-5.36454379,-37.858426675
15,-3.87582505924,4.43004158765,-9.98537140416
16,-5.33829707933,-5.24969476305,-36.480725199
*Step  = 17
*Time  = 2.47124944
*Data  = x;y;z
1,-3.57362567508,4.45372710914,-10.0827764409
2,-5.486325235,-5.36454379,-37.858426675
15,-3.87788878085,4.46447276964,-10.0604784747
16,-5.34587737611,-5.25546757854,-36.5513596517
*Step  = 18
*Time  = 2.5
*Data  = x;y;z
1,-3.54624527172,4.49992939143,-10.1892645993
2,-5.486325235,-5.36454379,-37.858426675
15,-3.88083112013,4.5120172361,-10.1646976469
16,-5.35643941956,-5.26361813552,-36.6497309629
*Step  = 19
*Time  = 2.55
*Data  = x;y;z
1,-3.51459161031,4.5757016361,-10.3637695005
2,-5.486325235,-5.36454379,-37.858426675
15,-3.88559109293,4.58959587886,-10.3364773722
16,-5.3739588533,-5.27729334258,-36.8128213076
*Step  = 20
*Time  = 2.6
*Data  = x;y;z
1,-3.49116652505,4.64890280725,-10.5397285205
2,-5.486325235,-5.36454379,-37.858426675
15,-3.89030745199,4.66437943181,-10.5103750859
16,-5.39172981579,-5.29116883827,-36.9782240941
*Step  = 21
*Time  = 2.65
*Data  = x;y;z
1,-3.45944328904,4.72036387335,-10.7217618071
2,-5.486325235,-5.36454379,-37.858426675
15,-3.89492267467,4.73785356637,-10.6897975606
16,-5.41014718081,-5.30556672213,-37.1496072318
*Step  = 22
*Time  = 2.7
*Data  = x;y;z
1,-3.42239270636,4.76295220271,-10.877599838
2,-5.486325235,-5.36454379,-37.858426675
15,-3.89834936587,4.78267167622,-10.8430658047
16,-5.42624940702,-5.31829770658,-37.299364027
*Step  = 23
*Time  = 2.7483871
*Data  = x;y;z
1,-3.40726677338,4.78794317146,-11.0216996059
2,-5.486325235,-5.36454379,-37.858426675
15,-3.90129505984,4.80902674212,-10.9865662583
16,-5.44166172999,-5.33047303724,-37.4426827643
*Step  = 24
*Time  = 2.75
*Data  = x;y;z
1,-3.4086049779,4.77421022802,-11.0188703619
2,-5.486325235,-5.36454379,-37.858426675
15,-3.90154776414,4.79525271573,-10.9839022804
16,-5.44177373476,-5.33068386461,-37.44367046
*Step  = 25
*Time  = 2.8
*Data  = x;y;z
1,-3.40992119391,4.79623128301,-11.1518856399
2,-5.486325235,-5.36454379,-37.858426675
15,-3.90355497278,4.81789425869,-11.1178560354
16,-5.45601565487,-5.34169000232,-37.5761903176
*Step  = 26
*Time  = 2.85
*Data  = x;y;z
1,-3.41989591544,4.80917133436,-11.2756454619
2,-5.486325235,-5.36454379,-37.858426675
15,-3.90508935741,4.83102433545,-11.2433953306
16,-5.46941197936,-5.35189838243,-37.7008914471
*Step  = 27
*Time  = 2.9
*Data  = x;y;z
1,-3.37467981617,4.81109595467,-11.40040168
2,-5.486325235,-5.36454379,-37.858426675
15,-3.90695369926,4.83569238577,-11.3661227412
16,-5.48277943795,-5.36191903272,-37.8253886771
*Step  = 28
*Time  = 2.95
*Data  = x;y;z
1,-3.41478941681,4.80877715498,-11.5026512412
2,-5.486325235,-5.36454379,-37.858426675
15,-3.90775618894,4.83207987634,-11.4723678978
16,-5.49433009211,-5.37040863271,-37.9330398901
*Step  = 29
*Time  = 3
*Data  = x;y;z
1,-3.39157734027,4.79341861936,-11.4898171188
2,-5.486325235,-5.36454379,-37.858426675
15,-3.90729453537,4.81778572177,-11.4581412773
16,-5.49316869837,-5.36954339536,-37.9222216154
*Step  = 30
*Time  = 3.05
*Data  = x;y;z
1,-3.34490711676,4.76792203841,-11.3003968971
2,-5.486325235,-5.36454379,-37.858426675
15,-3.90476378743,4.79341700321,-11.2637366427
16,-5.47275565045,-5.35453096133,-37.7319748216
*Step  = 31
*Time  = 3.1
*Data  = x;y;z
1,-3.38752568256,4.75004054481,-11.1243548875
2,-5.486325235,-5.36454379,-37.858426675
15,-3.90435856556,4.77266426793,-11.0884497032
16,-5.45446820249,-5.34083994664,-37.5616358138
*Step  = 32
*Time  = 3.15
*Data  = x;y;z
1,-3.42310492935,4.7207174339,-10.9305604489
2,-5.486325235,-5.36454379,-37.858426675
15,-3.90258652106,4.74080036326,-10.895878222
16,-5.43393632454,-5.32508115683,-37.3705357091
*Step  = 33
*Time  = 3.2
*Data  = x;y;z
1,-3.46874138409,4.68302510811,-10.7279170502
2,-5.486325235,-5.36454379,-37.858426675
15,-3.89855264838,4.70024196442,-10.6962550666
16,-5.41209372902,-5.30767370763,-37.1674660734
*Step  = 34
*Time  = 3.25
*Data  = x;y;z
1,-3.53301985745,4.6188672901,-10.496803119
2,-5.486325235,-5.36454379,-37.858426675
15,-3.8927120752,4.63258283511,-10.4701890505
16,-5.38758427999,-5.28764705756,-36.9397344729
*Step  = 35
*Time  = 3.3
*Data  = x;y;z
1,-3.55343384455,4.50417397167,-10.2356516963
2,-5.486325235,-5.36454379,-37.858426675
15,-3.88448876977,4.51616186367,-10.2113792114
16,-5.36053508067,-5.26574692615,-36.6882485817
*Step  = 36
*Time  = 3.35
*Data  = x;y;z
1,-3.59215129517,4.38026498428,-9.96292059524
2,-5.486325235,-5.36454379,-37.858426675
15,-3.87596941303,4.38997568592,-9.94218655837
16,-5.33271632669,-5.24306770775,-36.4295667331
*Step  = 37
*Time  = 3.4
*Data  = x;y;z
1,-3.63236327445,4.25781585045,-9.69978047222
2,-5.486325235,-5.36454379,-37.858426675
15,-3.86746491584,4.26540797694,-9.6826097097
16,-5.30599757434,-5.22099507777,-36.1811142821
*Step  = 38
*Time  = 3.45
*Data  = x;y;z
1,-3.68909160979,4.12969796534,-9.42987645394
2,-5.486325235,-5.36454379,-37.858426675
15,-3.85849618235,4.13483130552,-9.41751517338
16,-5.27876350651,-5.19817376904,-35.9278618874
*Step  = 39
*Time  = 3.5
*Data  = x;y;z
1,-3.77517798627,3.99875860639,-9.16108336299
2,-5.486325235,-5.36454379,-37.858426675
15,-3.84916007338,4.00085377542,-9.15570685862
16,-5.25189010475,-5.17527516041,-35.677959491
*Step  = 40
*Time  = 3.55
*Data  = x;y;z
1,-3.83244360973,3.86906831672,-8.9003504083
2,-5.486325235,-5.36454379,-37.858426675
15,-3.83932652716,3.86925014705,-8.89985133567
16,-5.22568451225,-5.15259193733,-35.4342451338
*Step  = 41
*Time  = 3.6
*Data  = x;y;z
1,-3.89869622303,3.73261471762,-8.6309334866
2,-5.486325235,-5.36454379,-37.858426675
15,-3.82873051708,3.7309039055,-8.63599914804
16,-5.19872329373,-5.12882576572,-35.183471353
*Step  = 42
*Time  = 3.65
*Data  = x;y;z
1,-3.93958492764,3.5930811664,-8.36675382764
2,-5.486325235,-5.36454379,-37.858426675
15,-3.81747102711,3.5903254462,-8.37559531868
16,-5.17218885324,-5.10491300573,-34.9366528071
*Step  = 43
*Time  = 3.7
*Data  = x;y;z
1,-3.9937059758,3.44569908031,-8.09327308578
2,-5.486325235,-5.36454379,-37.858426675
15,-3.80509851428,3.44180920944,-8.1068824028
16,-5.14481223897,-5.07957309601,-34.6819863331
*Step  = 44
*Time  = 3.75
*Data  = x;y;z
1,-4.03804757316,3.29706412783,-7.82709584745
2,-5.486325235,-5.36454379,-37.858426675
15,-3.7922204885,3.29244931124,-7.84477318232
16,-5.11815602497,-5.05401470202,-34.4340332606
*Step  = 45
*Time  = 3.8
*Data  = x;y;z
1,-4.08967929299,3.13674975177,-7.55002004975
2,-5.486325235,-5.36454379,-37.858426675
15,-3.77786749754,3.13148942493,-7.572237327
16,-5.09049954956,-5.02680857456,-34.1767134551
*Step  = 46
*Time  = 3.85
*Data  = x;y;z
1,-4.14325443166,2.97775074062,-7.28005073385
2,-5.486325235,-5.36454379,-37.858426675
15,-3.76286068428,2.97202015051,-7.30681394585
16,-5.06361197158,-4.99951561654,-33.9265017564
*Step  = 47
*Time  = 3.9
*Data  = x;y;z
1,-4.18313809194,2.80122540425,-6.99651379036
2,-5.486325235,-5.36454379,-37.858426675
15,-3.7460011719,2.79544495531,-7.02677738893
16,-5.03541684245,-4.97020022325,-33.6640183636
*Step  = 48
*Time  = 3.95
*Data  = x;y;z
1,-4.21706018286,2.61592699001,-6.70674154552
2,-5.486325235,-5.36454379,-37.858426675
15,-3.72759143418,2.61034028825,-6.73999192879
16,-5.00670227219,-4.93979238916,-33.3965527549
*Step  = 49
*Time  = 4
*Data  = x;y;z
1,-4.22131972931,2.62443511387,-6.69759522579
2,-5.486325235,-5.36454379,-37.858426675
15,-3.72609044269,2.61873674914,-6.73149933367
16,-5.00551322458,-4.93471998817,-33.3861469073
*Step  = 50
*Time  = 4.05
*Data  = x;y;z
1,-4.1273604789,2.44469212968,-6.66397215033
2,-5.486325235,-5.36454379,-37.858426675
15,-3.7250874493,2.4400752052,-6.69164310267
16,-5.00360637751,-4.93428259472,-33.3681617334
*Step  = 51
*Time  = 4.1
*Data  = x;y;z
1,-4.07933394424,2.27343991341,-6.64734534275
2,-5.486325235,-5.36454379,-37.858426675
15,-3.72593423771,2.26939524542,-6.67169781116
16,-5.0036658167,-4.93571714929,-33.3684658608
*Step  = 52
*Time  = 4.15
*Data  = x;y;z
1,-4.03294134916,2.10072338105,-6.63730221825
2,-5.486325235,-5.36454379,-37.858426675
15,-3.72742512184,2.09723608046,-6.65836111399
16,-5.00440187298,-4.93768553701,-33.3750834323
*Step  = 53
*Time  = 4.2
*Data  = x;y;z
1,-3.99693179145,1.92383518855,-6.63297721294
2,-5.486325235,-5.36454379,-37.858426675
15,-3.72951199122,1.92079032323,-6.65137121855
16,-5.00580822401,-4.94015288706,-33.3879693491
*Step  = 54
*Time  = 4.25
*Data  = x;y;z
1,-3.96180651547,1.73992659205,-6.633092265
2,-5.486325235,-5.36454379,-37.858426675
15,-3.73212089928,1.73731683013,-6.64884912524
16,-5.00774130849,-4.94288316449,-33.4057928452
*Step  = 55
*Time  = 4.3
*Data  = x;y;z
1,-3.93843523531,1.54957314149,-6.63901156195
2,-5.486325235,-5.36454379,-37.858426675
15,-3.73538746965,1.54726977546,-6.65287428597
16,-5.01039853146,-4.94601774219,-33.4304069662
*Step  = 56
*Time  = 4.35
*Data  = x;y;z
1,-3.91315544086,1.34927107586,-6.65030169566
2,-5.486325235,-5.36454379,-37.858426675
15,-3.73929245757,1.34730089185,-6.66209891398
16,-5.01369299643,-4.94944113011,-33.4609990819
*Step  = 57
*Time  = 4.4
*Data  = x;y;z
1,-3.90130359889,1.13582164672,-6.67112304669
2,-5.486325235,-5.36454379,-37.858426675
15,-3.74439880303,1.13404421106,-6.68167927153
16,-5.01820759238,-4.95357272448,-33.5030123904
*Step  = 58
*Time  = 4.45
*Data  = x;y;z
1,-3.90280510408,0.909204624122,-6.70194943916
2,-5.486325235,-5.36454379,-37.858426675
15,-3.75070715282,0.907480605468,-6.71206752088
16,-5.02399667724,-4.95837874345,-33.556975445
*Step  = 59
*Time  = 4.5
*Data  = x;y;z
1,-3.91560727812,0.667321748248,-6.74337594498
2,-5.486325235,-5.36454379,-37.858426675
15,-3.7583194238,0.665535973775,-6.75369944978
16,-5.03115630133,-4.96389767316,-33.6237903239
*Step  = 60
*Time  = 4.55
*Data  = x;y;z
1,-3.92733538793,0.422699982099,-6.78824426973
2,-5.486325235,-5.36454379,-37.858426675
15,-3.76639990939,0.420868374789,-6.79866834224
16,-5.03874342598,-4.96942930859,-33.6946333766
*Step  = 61
*Time  = 4.6
*Data  = x;y;z
1,-3.94703381875,0.188898855259,-6.83136104352
2,-5.486325235,-5.36454379,-37.858426675
15,-3.77421403414,0.186926673736,-6.84241258315
16,-5.04611449999,-4.97465623089,-33.7634901498
*Step  = 62
*Time  = 4.65
*Data  = x;y;z
1,-3.95589640757,-0.0291217340921,-6.86936444648
2,-5.486325235,-5.36454379,-37.858426675
15,-3.78127887259,-0.0311199812068,-6.88041557021
16,-5.05274816859,-4.97921135897,-33.8254814701
*Step  = 63
*Time  = 4.7
*Data  = x;y;z
1,-3.9641839124,-0.235870669945,-6.90555999141
2,-5.486325235,-5.36454379,-37.858426675
15,-3.78803136236,-0.237891959933,-6.9165925742
16,-5.05908149754,-4.98355404765,-33.8846691926
*Step  = 64
*Time  = 4.75
*Data  = x;y;z
1,-3.97087670173,-0.432131656503,-6.9405036279
2,-5.486325235,-5.36454379,-37.858426675
15,-3.79453529946,-0.434160369341,-6.95143670318
16,-5.06517505043,-4.98776069243,-33.9416121656
*Step  = 65
*Time  = 4.8
*Data  = x;y;z
1,-3.98107490261,-0.620196697011,-6.97494396556
2,-5.486325235,-5.36454379,-37.858426675
15,-3.80092183147,-0.622274478497,-6.98600268196
16,-5.07116620851,-4.99193474743,-33.9975944704
*Step  = 66
*Time  = 4.85
*Data  = x;y;z
1,-3.99382622725,-0.800839266094,-7.00785755402
2,-5.486325235,-5.36454379,-37.858426675
15,-3.80710260887,-0.802997840339,-7.01920593838
16,-5.07693953971,-4.99602132054,-34.0515292753
*Step  = 67
*Time  = 4.9
*Data  = x;y;z
1,-3.99531651965,-0.973913078942,-7.03912994201
2,-5.486325235,-5.36454379,-37.858426675
15,-3.81301089482,-0.976025086038,-7.05011747269
16,-5.08240743601,-4.99993482546,-34.102590087
*Step  = 68
*Time  = 4.95
*Data  = x;y;z
1,-3.99956151362,-1.14281837219,-7.07109563304
2,-5.486325235,-5.36454379,-37.858426675
15,-3.81890569031,-1.14491572316,-7.08188302951
16,-5.08792290494,-5.00392129667,-34.1541115612
*Step  = 69
*Time  = 4.99999
*Data  = x;y;z
1,-4.01409721422,-1.08060331474,-6.65710440454
2,-5.486325235,-5.36454379,-37.858426675
15,-3.78031872728,-1.08289021579,-6.6710029051
16,-5.03537189897,-5.0416882781,-33.6521939334
