*Step  = 1
*Time  = 1e-05
*Data  = x;y;z
1,-3.49509069478,3.35214933512,-11.2110249038
2,-5.486325235,-5.36454379,-37.858426675
15,-3.98125550017,3.37322439478,-11.1784694252
16,-5.47838626304,-5.35883434925,-37.784375501
*Step  = 2
*Time  = 1.8453091e-05
*Data  = x;y;z
1,-3.42816704587,3.31938429775,-11.1777864871
2,-5.486325235,-5.36454379,-37.858426675
15,-3.97894292803,3.34325581117,-11.1407888979
16,-5.47472084571,-5.35620641611,-37.7501825127
*Step  = 3
*Time  = 6.0718546e-05
*Data  = x;y;z
1,-3.40372161145,3.30543487475,-11.1615336239
2,-5.486325235,-5.36454379,-37.858426675
15,-3.9777720939,3.33031187227,-11.1229481602
16,-5.47297081268,-5.35495467827,-37.7338559444
*Step  = 4
*Time  = 0.000272045821
*Data  = x;y;z
1,-3.39049896694,3.29709569368,-11.1508060792
2,-5.486325235,-5.36454379,-37.858426675
15,-3.97701582443,3.32250813198,-11.111363784
16,-5.471830323,-5.35413970666,-37.7232156382
*Step  = 5
*Time  = 0.0013286822
*Data  = x;y;z
1,-3.38437397806,3.29151546689,-11.1404679749
2,-5.486325235,-5.36454379,-37.858426675
15,-3.97634560165,3.31714803924,-11.1006514056
16,-5.47075002315,-5.35336660583,-37.7131373978
*Step  = 6
*Time  = 0.00661186407
*Data  = x;y;z
1,-3.3854751479,3.2843839546,-11.1159392815
2,-5.486325235,-5.36454379,-37.858426675
15,-3.97496843713,3.30983366562,-11.076317041
16,-5.46821660144,-5.35154785903,-37.6895054196
*Step  = 7
*Time  = 0.0330277735
*Data  = x;y;z
1,-3.41143051776,3.26182825602,-11.0107322264
2,-5.486325235,-5.36454379,-37.858426675
15,-3.96939015151,3.28556266305,-10.9733396853
16,-5.45740889167,-5.34377315383,-37.5886973925
*Step  = 8
*Time  = 0.05
*Data  = x;y;z
1,-3.43521465309,3.25450660036,-10.9538259003
2,-5.486325235,-5.36454379,-37.858426675
15,-3.96661909327,3.27689545093,-10.9182756004
16,-5.45158387483,-5.33957220896,-37.5343697759
*Step  = 9
*Time  = 0.1
*Data  = x;y;z
1,-3.51707349574,3.20804170371,-10.7711210788
2,-5.486325235,-5.36454379,-37.858426675
15,-3.95826931528,3.22607386647,-10.7419203288
16,-5.43309900414,-5.32622882915,-37.3619736031
*Step  = 10
*Time  = 0.15
*Data  = x;y;z
1,-3.62996515665,3.15447211702,-10.6098972601
2,-5.486325235,-5.36454379,-37.858426675
15,-3.95195520438,3.16725253766,-10.5888233863
16,-5.41715650397,-5.31468254667,-37.2133041478
*Step  = 11
*Time  = 0.2
*Data  = x;y;z
1,-3.77927913379,3.091534004,-10.4638842056
2,-5.486325235,-5.36454379,-37.858426675
15,-3.94751018037,3.09801514391,-10.4530455534
16,-5.40311467722,-5.304496078,-37.0823646608
*Step  = 12
*Time  = 0.25
*Data  = x;y;z
1,-3.91460433663,3.01174688623,-10.3116542793
2,-5.486325235,-5.36454379,-37.858426675
15,-3.94315015188,3.01281192454,-10.3098418113
16,-5.38844806519,-5.29384720166,-36.9456010508
*Step  = 13
*Time  = 0.3
*Data  = x;y;z
1,-4.01859547838,2.92220385495,-10.1647022915
2,-5.486325235,-5.36454379,-37.858426675
15,-3.93884675174,2.91931903593,-10.1697141204
16,-5.37422673708,-5.28350563066,-36.812994339
*Step  = 14
*Time  = 0.35
*Data  = x;y;z
1,-4.09289166456,2.8171918949,-9.98769634479
2,-5.486325235,-5.36454379,-37.858426675
15,-3.93176582863,2.81155438564,-9.99768980119
16,-5.3567017948,-5.2707529135,-36.6495842837
*Step  = 15
*Time  = 0.4
*Data  = x;y;z
1,-4.15282047304,2.71261901403,-9.81112784226
2,-5.486325235,-5.36454379,-37.858426675
15,-3.92387646868,2.70486225712,-9.82513106264
16,-5.33909979257,-5.25791991602,-36.4854620863
*Step  = 16
*Time  = 0.45
*Data  = x;y;z
1,-4.21356490038,2.60332875031,-9.63176080619
2,-5.486325235,-5.36454379,-37.858426675
15,-3.91537463359,2.59355097306,-9.64969933242
16,-5.32120176308,-5.24484286924,-36.3185868752
*Step  = 17
*Time  = 0.498387097
*Data  = x;y;z
1,-4.27688475775,2.49051136895,-9.44640850826
2,-5.486325235,-5.36454379,-37.858426675
15,-3.90620770201,2.4787626511,-9.46834892086
16,-5.30270752931,-5.2312949356,-36.1461613467
*Step  = 18
*Time  = 0.5
*Data  = x;y;z
1,-4.26779354982,2.4902918404,-9.43583856398
2,-5.486325235,-5.36454379,-37.858426675
15,-3.9052559575,2.4788126502,-9.45734296758
16,-5.30153199041,-5.23035386642,-36.135228705
*Step  = 19
*Time  = 0.55
*Data  = x;y;z
1,-4.33523474826,2.37491801738,-9.25463248539
2,-5.486325235,-5.36454379,-37.858426675
15,-3.89613847919,2.36147851105,-9.28025815226
16,-5.28351511607,-5.21710726839,-35.9672646409
*Step  = 20
*Time  = 0.6
*Data  = x;y;z
1,-4.39540554373,2.25399667406,-9.07049487312
2,-5.486325235,-5.36454379,-37.858426675
15,-3.88651388825,2.23894934299,-9.09972409903
16,-5.26517776678,-5.20357519569,-35.796324211
*Step  = 21
*Time  = 0.65
*Data  = x;y;z
1,-4.46066167159,2.12378422524,-8.87247260477
2,-5.486325235,-5.36454379,-37.858426675
15,-3.87567078158,2.1071171318,-8.90550991309
16,-5.24545541187,-5.18897229787,-35.6124820235
*Step  = 22
*Time  = 0.7
*Data  = x;y;z
1,-4.51795820529,1.99874542287,-8.68132888292
2,-5.486325235,-5.36454379,-37.858426675
15,-3.86461674473,1.98078582259,-8.71762442302
16,-5.22636353042,-5.17477140038,-35.4345302906
*Step  = 23
*Time  = 0.75
*Data  = x;y;z
1,-4.58988133459,1.86253626876,-8.48030232741
2,-5.486325235,-5.36454379,-37.858426675
15,-3.85283638234,1.84304223871,-8.52046387544
16,-5.20636005372,-5.15983792077,-35.2480895526
*Step  = 24
*Time  = 0.8
*Data  = x;y;z
1,-4.64979634698,1.73056606766,-8.28813156484
2,-5.486325235,-5.36454379,-37.858426675
15,-3.84119653285,1.70996092105,-8.33143140599
16,-5.18720388157,-5.14545853677,-35.0695600964
*Step  = 25
*Time  = 0.85
*Data  = x;y;z
1,-4.70693590616,1.5981529268,-8.0980751129
2,-5.486325235,-5.36454379,-37.858426675
15,-3.82935974133,1.57662201172,-8.14424386344
16,-5.1682493316,-5.13116412174,-34.8929190776
*Step  = 26
*Time  = 0.9
*Data  = x;y;z
1,-4.77195602933,1.4520297971,-7.89443631909
2,-5.486325235,-5.36454379,-37.858426675
15,-3.81635252168,1.42952273759,-7.94368418704
16,-5.14797168865,-5.11581727988,-34.7039524364
*Step  = 27
*Time  = 0.95
*Data  = x;y;z
1,-4.84192036057,1.306921663,-7.70161268827
2,-5.486325235,-5.36454379,-37.858426675
15,-3.80374321756,1.28341282962,-7.75392277582
16,-5.128825082,-5.10124266341,-34.5255388385
*Step  = 28
*Time  = 1
*Data  = x;y;z
1,-4.82361428076,1.31293925566,-7.69754117372
2,-5.486325235,-5.36454379,-37.858426675
15,-3.80324846609,1.28982705758,-7.7492632957
16,-5.12830539594,-5.10053913422,-34.5207747307
*Step  = 29
*Time  = 1.03
*Data  = x;y;z
1,-4.64875317701,1.60833815598,-7.81951065951
2,-5.486325235,-5.36454379,-37.858426675
15,-3.80793882037,1.58928031306,-7.86528839518
16,-5.13861213626,-5.10753612333,-34.6170333602
*Step  = 30
*Time  = 1.06
*Data  = x;y;z
1,-4.53691155019,1.93956049596,-7.95112789205
2,-5.486325235,-5.36454379,-37.858426675
15,-3.81537306703,1.9231936329,-7.99509310409
16,-5.15058014328,-5.11566937346,-34.728755269
*Step  = 31
*Time  = 1.09
*Data  = x;y;z
1,-4.44077775152,2.17135804857,-8.0405876606
2,-5.486325235,-5.36454379,-37.858426675
15,-3.82126374777,2.15729441356,-8.08091545398
16,-5.15833173917,-5.12081306846,-34.8011026755
*Step  = 32
*Time  = 1.12
*Data  = x;y;z
1,-4.36792230845,2.33832062424,-8.09688292746
2,-5.486325235,-5.36454379,-37.858426675
15,-3.82359776363,2.3259538922,-8.13353138638
16,-5.16275078896,-5.12352898625,-34.8424194405
*Step  = 33
*Time  = 1.15
*Data  = x;y;z
1,-4.33210383033,2.47443700579,-8.13887375319
2,-5.486325235,-5.36454379,-37.858426675
15,-3.82473801866,2.462899882,-8.17372333854
16,-5.16595393979,-5.12533410829,-34.8724130377
*Step  = 34
*Time  = 1.18
*Data  = x;y;z
1,-4.282736181,2.54055142763,-8.14695851238
2,-5.486325235,-5.36454379,-37.858426675
15,-3.82372505403,2.53010602278,-8.17877147135
16,-5.16591644289,-5.12481634501,-34.8721812414
*Step  = 35
*Time  = 1.21
*Data  = x;y;z
1,-4.25910786551,2.61352136621,-8.165408282
2,-5.486325235,-5.36454379,-37.858426675
15,-3.82375082134,2.60360673666,-8.1958062203
16,-5.16707547632,-5.12519548031,-34.8831014947
*Step  = 36
*Time  = 1.24
*Data  = x;y;z
1,-4.22490992942,2.67441992398,-8.17867688751
2,-5.486325235,-5.36454379,-37.858426675
15,-3.82334411722,2.66526799606,-8.20685417458
16,-5.16767032135,-5.1251638457,-34.8887621514
*Step  = 37
*Time  = 1.27
*Data  = x;y;z
1,-4.20084369338,2.73389817647,-8.19178183271
2,-5.486325235,-5.36454379,-37.858426675
15,-3.82299958549,2.72528050201,-8.21839009036
16,-5.16831296289,-5.12517708472,-34.894866495
*Step  = 38
*Time  = 1.3
*Data  = x;y;z
1,-4.17853769663,2.78849949952,-8.20375084163
2,-5.486325235,-5.36454379,-37.858426675
15,-3.82265902902,2.78037688846,-8.22888478319
16,-5.16887898769,-5.12514346779,-34.9002544114
*Step  = 39
*Time  = 1.33
*Data  = x;y;z
1,-4.16368867117,2.84069910812,-8.21634099623
2,-5.486325235,-5.36454379,-37.858426675
15,-3.82242675926,2.83290450876,-8.24048014731
16,-5.1695665127,-5.12521065455,-34.9067735809
*Step  = 40
*Time  = 1.36
*Data  = x;y;z
1,-4.14573034878,2.8961457452,-8.23024344596
2,-5.486325235,-5.36454379,-37.858426675
15,-3.822250284,2.88875180349,-8.25315916747
16,-5.17033259568,-5.12532453201,-34.9140274798
*Step  = 41
*Time  = 1.39
*Data  = x;y;z
1,-4.12609730932,2.96107840449,-8.24818251681
2,-5.486325235,-5.36454379,-37.858426675
15,-3.82221746358,2.95412687115,-8.26974869797
16,-5.17141917272,-5.12564466729,-34.9242771651
*Step  = 42
*Time  = 1.42
*Data  = x;y;z
1,-4.11769658796,3.00280182594,-8.25431617302
2,-5.486325235,-5.36454379,-37.858426675
15,-3.82159985994,2.9960234574,-8.27534139795
16,-5.17154314206,-5.12529064746,-34.9255446283
*Step  = 43
*Time  = 1.45
*Data  = x;y;z
1,-4.10514722933,3.04291550403,-8.26223907437
2,-5.486325235,-5.36454379,-37.858426675
15,-3.82121618619,3.03641112164,-8.28242741546
16,-5.17185131528,-5.12509299127,-34.9285237751
*Step  = 44
*Time  = 1.48
*Data  = x;y;z
1,-4.09875054786,3.08228739237,-8.27166755918
2,-5.486325235,-5.36454379,-37.858426675
15,-3.82099613314,3.07592017415,-8.29141564635
16,-5.1723519342,-5.12505248621,-34.9332945129
*Step  = 45
*Time  = 1.51
*Data  = x;y;z
1,-4.08921531822,3.120066787,-8.28032930767
2,-5.486325235,-5.36454379,-37.858426675
15,-3.82073268924,3.11390794452,-8.29942521178
16,-5.17276618987,-5.12494888038,-34.9372597145
*Step  = 46
*Time  = 1.54
*Data  = x;y;z
1,-4.0792481602,3.1579103094,-8.28927511479
2,-5.486325235,-5.36454379,-37.858426675
15,-3.82050646176,3.15197100127,-8.30768965064
16,-5.17321024642,-5.12487990217,-34.9414995044
*Step  = 47
*Time  = 1.57
*Data  = x;y;z
1,-4.07128534716,3.19459944431,-8.29768249913
2,-5.486325235,-5.36454379,-37.858426675
15,-3.82023200094,3.18883280452,-8.31554777231
16,-5.17361040283,-5.12477742464,-34.9453311592
*Step  = 48
*Time  = 1.6
*Data  = x;y;z
1,-4.06485507066,3.22973020298,-8.30620588603
2,-5.486325235,-5.36454379,-37.858426675
15,-3.82002142514,3.22410272368,-8.32362619635
16,-5.17404726333,-5.12470587442,-34.9495041932
*Step  = 49
*Time  = 1.63
*Data  = x;y;z
1,-4.05721185895,3.26313926649,-8.31426553381
2,-5.486325235,-5.36454379,-37.858426675
15,-3.81980716446,3.25767899923,-8.33115776644
16,-5.17444347227,-5.12460981738,-34.9532968159
*Step  = 50
*Time  = 1.66
*Data  = x;y;z
1,-4.05094087745,3.30009979142,-8.32437001921
2,-5.486325235,-5.36454379,-37.858426675
15,-3.81968599421,3.29477744773,-8.34081317341
16,-5.17501911953,-5.12464505848,-34.9587635168
*Step  = 51
*Time  = 1.69
*Data  = x;y;z
1,-4.03991936509,3.34206997548,-8.33613968643
2,-5.486325235,-5.36454379,-37.858426675
15,-3.81956649335,3.33699493841,-8.35179877596
16,-5.17568013547,-5.12471724198,-34.9650328018
*Step  = 52
*Time  = 1.72
*Data  = x;y;z
1,-4.03598661795,3.37254076965,-8.34173523318
2,-5.486325235,-5.36454379,-37.858426675
15,-3.81919430949,3.36754451562,-8.35714197509
16,-5.17586674067,-5.12446391616,-34.9668725813
*Step  = 53
*Time  = 1.75
*Data  = x;y;z
1,-4.03490798675,3.40171299316,-8.34799863744
2,-5.486325235,-5.36454379,-37.858426675
15,-3.8189451617,3.39673276079,-8.3633444343
16,-5.17615742376,-5.12430598323,-34.9696782124
*Step  = 54
*Time  = 1.78
*Data  = x;y;z
1,-4.0261568464,3.4304622391,-8.35492457766
2,-5.486325235,-5.36454379,-37.858426675
15,-3.81871557908,3.42567555395,-8.36966331195
16,-5.17646192064,-5.12416040331,-34.9726121903
*Step  = 55
*Time  = 1.81
*Data  = x;y;z
1,-4.02225260903,3.45906951665,-8.36248307349
2,-5.486325235,-5.36454379,-37.858426675
15,-3.81856396183,3.454366502,-8.37694518185
16,-5.17686207087,-5.12408887465,-34.9764378756
*Step  = 56
*Time  = 1.84
*Data  = x;y;z
1,-4.01658173441,3.48621464073,-8.36937567698
2,-5.486325235,-5.36454379,-37.858426675
15,-3.81838866818,3.48163569791,-8.38344457014
16,-5.17719812365,-5.1239714561,-34.979665283
*Step  = 57
*Time  = 1.87
*Data  = x;y;z
1,-4.01144956833,3.51297180507,-8.37638304295
2,-5.486325235,-5.36454379,-37.858426675
15,-3.81825031547,3.50850548836,-8.39009223362
16,-5.17755047063,-5.12386695859,-34.9830441844
*Step  = 58
*Time  = 1.9
*Data  = x;y;z
1,-4.02151039959,3.54167437442,-8.38457169467
2,-5.486325235,-5.36454379,-37.858426675
15,-3.81822138691,3.53697179466,-8.3989790403
16,-5.17810913328,-5.12390943624,-34.9883500941
*Step  = 59
*Time  = 1.93
*Data  = x;y;z
1,-4.02619690528,3.57798613924,-8.3968870573
2,-5.486325235,-5.36454379,-37.858426675
15,-3.81833374438,3.5731743333,-8.41158385815
16,-5.17896160707,-5.12414001759,-34.9964035702
*Step  = 60
*Time  = 1.96
*Data  = x;y;z
1,-4.01054597218,3.59069157364,-8.3958780345
2,-5.486325235,-5.36454379,-37.858426675
15,-3.81771988568,3.5862254929,-8.4095324259
16,-5.17855532786,-5.12349480187,-34.9927038583
*Step  = 61
*Time  = 1.99
*Data  = x;y;z
1,-4.00888391927,3.57782820616,-8.38397971577
2,-5.486325235,-5.36454379,-37.858426675
15,-3.8168951799,3.57338016846,-8.39762259085
16,-5.17741369654,-5.12241146315,-34.9821188342
*Step  = 62
*Time  = 1.99999
*Data  = x;y;z
1,-4.00796030797,3.57874334525,-8.38445804587
2,-5.486325235,-5.36454379,-37.858426675
15,-3.81685432243,3.57431431407,-8.39804158193
16,-5.17740446626,-5.12220302845,-34.982084809
*Step  = 1
*Time  = 2
*Data  = x;y;z
1,-4.00661896093,3.58438142318,-8.38759310047
2,-5.486325235,-5.36454379,-37.858426675
15,-3.81692414598,3.57998346078,-8.40107154829
16,-5.17761191464,-5.12213679074,-34.9840763127
*Step  = 2
*Time  = 2.00005
*Data  = x;y;z
1,-4.00505116439,3.58824392348,-8.3893525354
2,-5.486325235,-5.36454379,-37.858426675
15,-3.81690549024,3.58387998227,-8.40272226368
16,-5.17769464636,-5.12196838495,-34.9849074867
*Step  = 3
*Time  = 2.0003
*Data  = x;y;z
1,-4.00390720428,3.59195088262,-8.39160014256
2,-5.486325235,-5.36454379,-37.858426675
15,-3.81691226179,3.58761078479,-8.40488967946
16,-5.1778337645,-5.12184424823,-34.986264707
*Step  = 4
*Time  = 2.00155
*Data  = x;y;z
1,-4.0026406081,3.5974643416,-8.39740225061
2,-5.486325235,-5.36454379,-37.858426675
15,-3.81707261776,3.59314975641,-8.41059207443
16,-5.17832926975,-5.12200027899,-34.9909452499
*Step  = 5
*Time  = 2.0078
*Data  = x;y;z
1,-3.99995733924,3.61346183905,-8.42127131982
2,-5.486325235,-5.36454379,-37.858426675
15,-3.81798165329,3.60919983683,-8.43420804289
16,-5.18061608661,-5.12356025454,-35.012330656
*Step  = 6
*Time  = 2.03905
*Data  = x;y;z
1,-3.98610647385,3.682265287,-8.53561823552
2,-5.486325235,-5.36454379,-37.858426675
15,-3.82258861291,3.67830254225,-8.54725677663
16,-5.19186039132,-5.13219284978,-35.1172289856
*Step  = 7
*Time  = 2.05
*Data  = x;y;z
1,-3.97275656266,3.70557254972,-8.57752467005
2,-5.486325235,-5.36454379,-37.858426675
15,-3.82429263693,3.70193224932,-8.5880874853
16,-5.19592744474,-5.13533168781,-35.1551631261
*Step  = 8
*Time  = 2.1
*Data  = x;y;z
1,-3.94542780784,3.81376028973,-8.76776878577
2,-5.486325235,-5.36454379,-37.858426675
15,-3.83168359968,3.81081632747,-8.7758727364
16,-5.21472893403,-5.15010181474,-35.3304474052
*Step  = 9
*Time  = 2.15
*Data  = x;y;z
1,-3.90122457218,3.91102294735,-8.95039242622
2,-5.486325235,-5.36454379,-37.858426675
15,-3.83879205143,3.90932665997,-8.95484966308
16,-5.23276511597,-5.1644475192,-35.4985095356
*Step  = 10
*Time  = 2.2
*Data  = x;y;z
1,-3.86190154834,4.00406141524,-9.13234684893
2,-5.486325235,-5.36454379,-37.858426675
15,-3.84556932335,4.00359665869,-9.13351238625
16,-5.25078973073,-5.17879844415,-35.6664301362
*Step  = 11
*Time  = 2.25
*Data  = x;y;z
1,-3.80417584194,4.0961022167,-9.32314498534
2,-5.486325235,-5.36454379,-37.858426675
15,-3.85250246543,4.09754289122,-9.31969035112
16,-5.26967154462,-5.19387720542,-35.8422849958
*Step  = 12
*Time  = 2.3
*Data  = x;y;z
1,-3.77076427985,4.18033761777,-9.50264150184
2,-5.486325235,-5.36454379,-37.858426675
15,-3.85878745374,4.18307465708,-9.49635873152
16,-5.28759146026,-5.20816523324,-36.009155962
*Step  = 13
*Time  = 2.35
*Data  = x;y;z
1,-3.72290682527,4.26637854288,-9.69240235535
2,-5.486325235,-5.36454379,-37.858426675
15,-3.86529763103,4.27099925839,-9.6822272673
16,-5.30649031372,-5.22317024291,-36.1851256017
*Step  = 14
*Time  = 2.4
*Data  = x;y;z
1,-3.68448654906,4.3439798097,-9.87120435317
2,-5.486325235,-5.36454379,-37.858426675
15,-3.87125145135,4.35028027073,-9.85786374225
16,-5.32438424922,-5.23737564013,-36.351706543
*Step  = 15
*Time  = 2.45
*Data  = x;y;z
1,-3.63872187373,4.41932228374,-10.049516045
2,-5.486325235,-5.36454379,-37.858426675
15,-3.87700674397,4.42766707391,-10.0324771552
16,-5.34220168662,-5.25147632117,-36.5175586759
*Step  = 16
*Time  = 2.5
*Data  = x;y;z
1,-3.6049751697,4.49842342526,-10.2380605481
2,-5.486325235,-5.36454379,-37.858426675
15,-3.88292339363,4.50853425662,-10.2181919898
16,-5.36115692333,-5.26645535627,-36.693975978
*Step  = 17
*Time  = 2.54193548
*Data  = x;y;z
1,-3.57378517282,4.55829596056,-10.3878408139
2,-5.486325235,-5.36454379,-37.858426675
15,-3.88764028492,4.5700500276,-10.3653822065
16,-5.37626202859,-5.27840850566,-36.8345272407
*Step  = 18
*Time  = 2.55
*Data  = x;y;z
1,-3.56425535765,4.56396335982,-10.4154810561
2,-5.486325235,-5.36454379,-37.858426675
15,-3.88857223702,4.57617429408,-10.3923158312
16,-5.37910076399,-5.28070459152,-36.8609201047
*Step  = 19
*Time  = 2.59354839
*Data  = x;y;z
1,-3.55279042952,4.62312669774,-10.566004352
2,-5.486325235,-5.36454379,-37.858426675
15,-3.89300492343,4.63631707231,-10.541685524
16,-5.39440807979,-5.29273289093,-37.003361418
*Step  = 20
*Time  = 2.6
*Data  = x;y;z
1,-3.53953802601,4.62844635637,-10.5894807116
2,-5.486325235,-5.36454379,-37.858426675
15,-3.89381028808,4.64223872328,-10.5641816786
16,-5.39677425,-5.29462837656,-37.025362761
*Step  = 21
*Time  = 2.65
*Data  = x;y;z
1,-3.51639263844,4.69335680206,-10.7695599343
2,-5.486325235,-5.36454379,-37.858426675
15,-3.89890486254,4.70876628048,-10.7422403838
16,-5.41509221816,-5.30900338766,-37.1957951844
*Step  = 22
*Time  = 2.7
*Data  = x;y;z
1,-3.48646662603,4.72125446241,-10.9220259451
2,-5.486325235,-5.36454379,-37.858426675
15,-3.90299821579,4.73855105719,-10.8925875176
16,-5.43099474241,-5.32162062922,-37.3436733675
*Step  = 23
*Time  = 2.75
*Data  = x;y;z
1,-3.47526124621,4.73048957838,-11.0689993239
2,-5.486325235,-5.36454379,-37.858426675
15,-3.90691500588,4.74895767873,-11.0391170344
16,-5.44684788157,-5.33418504261,-37.4910704256
*Step  = 24
*Time  = 2.8
*Data  = x;y;z
1,-3.48180057481,4.72449881811,-11.1970301099
2,-5.486325235,-5.36454379,-37.858426675
15,-3.91019268242,4.74332262831,-11.1682129195
16,-5.46095362036,-5.345212324,-37.6222651599
*Step  = 25
*Time  = 2.85
*Data  = x;y;z
1,-3.5042442355,4.70993239691,-11.3174372564
2,-5.486325235,-5.36454379,-37.858426675
15,-3.91314103922,4.72836018283,-11.2909160955
16,-5.47431780081,-5.35547185534,-37.746630664
*Step  = 26
*Time  = 2.9
*Data  = x;y;z
1,-3.51208908731,4.68362827889,-11.4390191869
2,-5.486325235,-5.36454379,-37.858426675
15,-3.91641610174,4.70231426633,-11.4138309646
16,-5.48777635675,-5.36563085946,-37.8719412444
*Step  = 27
*Time  = 2.95
*Data  = x;y;z
1,-3.51264434358,4.64834042257,-11.5440224448
2,-5.486325235,-5.36454379,-37.858426675
15,-3.91954501938,4.66756721133,-11.519609713
16,-5.49959571348,-5.3743928941,-37.9820581146
*Step  = 28
*Time  = 3
*Data  = x;y;z
1,-3.47224123373,4.63847652983,-11.5346475501
2,-5.486325235,-5.36454379,-37.858426675
15,-3.91915424513,4.6595816047,-11.5078065318
16,-5.49871061152,-5.37370173618,-37.9738292784
*Step  = 29
*Time  = 3.05
*Data  = x;y;z
1,-3.43389128128,4.68320975057,-11.355802467
2,-5.486325235,-5.36454379,-37.858426675
15,-3.91391407031,4.70506118424,-11.3252688192
16,-5.47921283823,-5.35925734653,-37.7921662024
*Step  = 30
*Time  = 3.1
*Data  = x;y;z
1,-3.45953629459,4.72140673489,-11.1805765655
2,-5.486325235,-5.36454379,-37.858426675
15,-3.91025928281,4.74114328796,-11.1503141677
16,-5.46058915589,-5.34531201291,-37.6186993566
*Step  = 31
*Time  = 3.15
*Data  = x;y;z
1,-3.48008118975,4.72883668513,-10.9836009781
2,-5.486325235,-5.36454379,-37.858426675
15,-3.9060412075,4.74670100171,-10.9538337625
16,-5.43949215307,-5.3292150021,-37.4223026378
*Step  = 32
*Time  = 3.2
*Data  = x;y;z
1,-3.51907469309,4.71108944109,-10.7770697584
2,-5.486325235,-5.36454379,-37.858426675
15,-3.90055311476,4.72640500418,-10.7498676028
16,-5.41721176839,-5.31165798462,-37.2150886641
*Step  = 33
*Time  = 3.25
*Data  = x;y;z
1,-3.5840474829,4.65594046749,-10.5393149598
2,-5.486325235,-5.36454379,-37.858426675
15,-3.89364015178,4.66778399451,-10.5170914585
16,-5.39214172085,-5.29149684765,-36.9820348086
*Step  = 34
*Time  = 3.3
*Data  = x;y;z
1,-3.60986545223,4.53342179013,-10.2694903142
2,-5.486325235,-5.36454379,-37.858426675
15,-3.88500815772,4.54342684017,-10.24985879
16,-5.36451904112,-5.26953740025,-36.7250835371
*Step  = 35
*Time  = 3.35
*Data  = x;y;z
1,-3.62904438841,4.39851582877,-9.98633646447
2,-5.486325235,-5.36454379,-37.858426675
15,-3.87580463006,4.40700040531,-9.96876492492
16,-5.33581153571,-5.2467771003,-36.4579364026
*Step  = 36
*Time  = 3.4
*Data  = x;y;z
1,-3.67177545562,4.27320465394,-9.71721688056
2,-5.486325235,-5.36454379,-37.858426675
15,-3.86688630064,4.27954126761,-9.70332257766
16,-5.3087381403,-5.22519449207,-36.2059580426
*Step  = 37
*Time  = 3.45
*Data  = x;y;z
1,-3.72832671051,4.14165167715,-9.43862546768
2,-5.486325235,-5.36454379,-37.858426675
15,-3.85727293766,4.14558394194,-9.429446594
16,-5.28085488791,-5.2028748978,-35.9463898659
*Step  = 38
*Time  = 3.5
*Data  = x;y;z
1,-3.83078080884,4.01033190566,-9.16306025835
2,-5.486325235,-5.36454379,-37.858426675
15,-3.84752912413,4.01080958299,-9.16187227156
16,-5.25361045319,-5.18089926592,-35.6927347654
*Step  = 39
*Time  = 3.55
*Data  = x;y;z
1,-3.89057770332,3.87217572589,-8.89302904177
2,-5.486325235,-5.36454379,-37.858426675
15,-3.83723609589,3.8707557227,-8.89680928017
16,-5.22673959761,-5.15911638073,-35.4425081114
*Step  = 40
*Time  = 3.6
*Data  = x;y;z
1,-3.93593464592,3.7218483282,-8.61238132697
2,-5.486325235,-5.36454379,-37.858426675
15,-3.82593956444,3.71913629097,-8.62017995663
16,-5.19876929351,-5.13624828919,-35.1820027424
*Step  = 41
*Time  = 3.65
*Data  = x;y;z
1,-3.9832376033,3.56920214112,-8.33930859547
2,-5.486325235,-5.36454379,-37.858426675
15,-3.81428159389,3.56535575612,-8.35128739157
16,-5.17161546923,-5.11371985798,-34.9290921838
*Step  = 42
*Time  = 3.7
*Data  = x;y;z
1,-4.03816286857,3.404590317,-8.05570802063
2,-5.486325235,-5.36454379,-37.858426675
15,-3.80150432068,3.39966470464,-8.07245015945
16,-5.14349009677,-5.09004931131,-34.6671033687
*Step  = 43
*Time  = 3.75
*Data  = x;y;z
1,-4.09144374625,3.23388673243,-7.77848534214
2,-5.486325235,-5.36454379,-37.858426675
15,-3.78813607305,3.22813883069,-7.79983213423
16,-5.11601320452,-5.06630583866,-34.4111837377
*Step  = 44
*Time  = 3.8
*Data  = x;y;z
1,-4.14817507452,3.04802909264,-7.489070147
2,-5.486325235,-5.36454379,-37.858426675
15,-3.77323212365,3.04164191545,-7.51519943394
16,-5.08738112223,-5.04119605117,-34.1444497558
*Step  = 45
*Time  = 3.85
*Data  = x;y;z
1,-4.20162741701,2.85677806574,-7.20543784023
2,-5.486325235,-5.36454379,-37.858426675
15,-3.75734671786,2.8500186515,-7.23598085021
16,-5.05937232876,-5.01626734069,-33.8834790681
*Step  = 46
*Time  = 3.9
*Data  = x;y;z
1,-4.24683284971,2.64043153807,-6.90550686496
2,-5.486325235,-5.36454379,-37.858426675
15,-3.73947113093,2.63365339026,-6.93971195944
16,-5.02978735019,-4.9895493053,-33.6077515262
*Step  = 47
*Time  = 3.95
*Data  = x;y;z
1,-4.28739447785,2.41547953177,-6.60263689328
2,-5.486325235,-5.36454379,-37.858426675
15,-3.72027234012,2.4089349759,-6.6400848795
16,-4.99999713395,-4.9624119557,-33.3300011179
*Step  = 48
*Time  = 4
*Data  = x;y;z
1,-4.2988743798,2.41868557014,-6.59219693492
2,-5.486325235,-5.36454379,-37.858426675
15,-3.71899278026,2.4119662879,-6.63066811747
16,-4.9988619057,-4.95933596245,-33.3197642419
*Step  = 49
*Time  = 4.05
*Data  = x;y;z
1,-4.16216225945,2.18544120387,-6.52299096974
2,-5.486325235,-5.36454379,-37.858426675
15,-3.71531997706,2.18030503529,-6.55284859288
16,-4.9934419211,-4.95906757306,-33.2685929829
*Step  = 50
*Time  = 4.1
*Data  = x;y;z
1,-4.08185941689,1.98802143822,-6.486174655
2,-5.486325235,-5.36454379,-37.858426675
15,-3.71461933095,1.98383528068,-6.51073710961
16,-4.99129953776,-4.96166372945,-33.2479486856
*Step  = 51
*Time  = 4.15
*Data  = x;y;z
1,-4.01910549082,1.79379156947,-6.45784661572
2,-5.486325235,-5.36454379,-37.858426675
15,-3.71472559063,1.790350584,-6.47816394872
16,-4.99003054765,-4.96494218334,-33.2354625852
*Step  = 52
*Time  = 4.2
*Data  = x;y;z
1,-3.9464144001,1.58940039373,-6.43392917719
2,-5.486325235,-5.36454379,-37.858426675
15,-3.71523756032,1.58680797635,-6.44930040337
16,-4.98915931435,-4.96843098437,-33.226713938
*Step  = 53
*Time  = 4.25
*Data  = x;y;z
1,-3.87192836398,1.37764811256,-6.41074717184
2,-5.486325235,-5.36454379,-37.858426675
15,-3.71579932868,1.3759110996,-6.42107174305
16,-4.9883342386,-4.97188581402,-33.2184198126
*Step  = 54
*Time  = 4.3
*Data  = x;y;z
1,-3.79925494805,1.14877135728,-6.39332548474
2,-5.486325235,-5.36454379,-37.858426675
15,-3.71705620521,1.14786366625,-6.39870875847
16,-4.98817149675,-4.97563843377,-33.2163439898
*Step  = 55
*Time  = 4.35
*Data  = x;y;z
1,-3.73019844611,0.910734397243,-6.38030754586
2,-5.486325235,-5.36454379,-37.858426675
15,-3.71881964953,0.910609633891,-6.38104393611
16,-4.98849379683,-4.979591774,-33.2188234382
*Step  = 56
*Time  = 4.4
*Data  = x;y;z
1,-3.66698749477,0.649764888861,-6.37708569001
2,-5.486325235,-5.36454379,-37.858426675
15,-3.72185227158,0.650362621623,-6.37359180815
16,-4.98999668044,-4.98410283748,-33.2323641954
*Step  = 57
*Time  = 4.45
*Data  = x;y;z
1,-3.6348373639,0.368883620846,-6.39077321568
2,-5.486325235,-5.36454379,-37.858426675
15,-3.7270560345,0.36988297749,-6.38500483694
16,-4.99360638942,-4.98967459999,-33.2656250116
*Step  = 58
*Time  = 4.5
*Data  = x;y;z
1,-3.63157024627,0.0639923786162,-6.42260231027
2,-5.486325235,-5.36454379,-37.858426675
15,-3.73460938271,0.0651045130589,-6.41628998303
16,-4.99947076745,-4.99626639392,-33.3200028118
*Step  = 59
*Time  = 4.55
*Data  = x;y;z
1,-3.65268729103,-0.232364761106,-6.46166816308
2,-5.486325235,-5.36454379,-37.858426675
15,-3.7429185273,-0.231393924256,-6.45624645565
16,-5.00616019385,-5.0030074623,-33.3821392123
*Step  = 60
*Time  = 4.6
*Data  = x;y;z
1,-3.66927966994,-0.503277388711,-6.4948342354
2,-5.486325235,-5.36454379,-37.858426675
15,-3.75034016979,-0.502407838972,-6.49004331381
16,-5.01195903302,-5.00897175012,-33.4359807849
*Step  = 61
*Time  = 4.65
*Data  = x;y;z
1,-3.68916893542,-0.750968125362,-6.52509298345
2,-5.486325235,-5.36454379,-37.858426675
15,-3.75714543137,-0.750241125748,-6.52113738208
16,-5.01723455656,-5.01453586113,-33.484944277
*Step  = 62
*Time  = 4.7
*Data  = x;y;z
1,-3.71232047856,-0.982645151518,-6.55491109113
2,-5.486325235,-5.36454379,-37.858426675
15,-3.76372858398,-0.982097059422,-6.55196261029
16,-5.02231274313,-5.01998721867,-33.5320612523
*Step  = 63
*Time  = 4.75
*Data  = x;y;z
1,-3.72098444982,-1.20567763913,-6.58345584543
2,-5.486325235,-5.36454379,-37.858426675
15,-3.76996906704,-1.20515699877,-6.58068452109
16,-5.0270635051,-5.02516742036,-33.5761289218
*Step  = 64
*Time  = 4.8
*Data  = x;y;z
1,-3.72860091702,-1.41755357051,-6.60973156324
2,-5.486325235,-5.36454379,-37.858426675
15,-3.77581262125,-1.41705336257,-6.60709519593
16,-5.03143948014,-5.03009540911,-33.6166981402
*Step  = 65
*Time  = 4.85
*Data  = x;y;z
1,-3.74577315795,-1.62393120298,-6.63763843707
2,-5.486325235,-5.36454379,-37.858426675
15,-3.78181294776,-1.62355058407,-6.63565264504
16,-5.03595965458,-5.03512991876,-33.6586116395
*Step  = 66
*Time  = 4.9
*Data  = x;y;z
1,-3.74915902217,-1.82492850617,-6.66344805246
2,-5.486325235,-5.36454379,-37.858426675
15,-3.78742788399,-1.82452564945,-6.6613666618
16,-5.0400978893,-5.03988314118,-33.6969640279
*Step  = 67
*Time  = 4.95
*Data  = x;y;z
1,-3.75311297774,-2.01825167701,-6.68850851249
2,-5.486325235,-5.36454379,-37.858426675
15,-3.79286039698,-2.01783463119,-6.68637254603
16,-5.04406752236,-5.04453245233,-33.7337417256
*Step  = 68
*Time  = 4.99999
*Data  = x;y;z
1,-3.82036044623,-1.72187564867,-6.63954696525
2,-5.486325235,-5.36454379,-37.858426675
15,-3.78414690438,-1.72225585609,-6.64157626285
16,-5.03726091055,-5.03925014841,-33.6703074749
