*Step  = 1
*Time  = 1e-05
*Data  = x;y;z
1,-3.4643981471,3.3383577027,-11.2136120474
2,-5.486325235,-5.36454379,-37.858426675
15,-3.98198468146,3.36079536869,-11.1788439356
16,-5.4785642603,-5.358961631,-37.786036107
*Step  = 2
*Time  = 1.8453091e-05
*Data  = x;y;z
1,-3.40373851055,3.30368697087,-11.179898835
2,-5.486325235,-5.36454379,-37.858426675
15,-3.97975327515,3.32865302649,-11.1410941409
16,-5.4749056153,-5.35633786828,-37.7519065935
*Step  = 3
*Time  = 6.0718546e-05
*Data  = x;y;z
1,-3.38188832946,3.28864029831,-11.1629727043
2,-5.486325235,-5.36454379,-37.858426675
15,-3.97858959649,3.31449955492,-11.1227439674
16,-5.47311228141,-5.35505459571,-37.7351763199
*Step  = 4
*Time  = 0.000272045821
*Data  = x;y;z
1,-3.36819678928,3.27996345811,-11.1522597061
2,-5.486325235,-5.36454379,-37.858426675
15,-3.97785136081,3.30637890547,-11.1111319976
16,-5.47197123477,-5.35423864193,-37.7245310795
*Step  = 5
*Time  = 0.0013286822
*Data  = x;y;z
1,-3.36219941825,3.27381444285,-11.1414270093
2,-5.486325235,-5.36454379,-37.858426675
15,-3.97717627506,3.30044190233,-11.0999309783
16,-5.47084375405,-5.35343135177,-37.7140128739
*Step  = 6
*Time  = 0.00661186407
*Data  = x;y;z
1,-3.36487321441,3.2664269174,-11.1143297571
2,-5.486325235,-5.36454379,-37.858426675
15,-3.97565349447,3.29278539503,-11.0731465741
16,-5.46805278269,-5.35142731064,-37.6879786274
*Step  = 7
*Time  = 0.0330277735
*Data  = x;y;z
1,-3.3942448999,3.24378996736,-10.9982771678
2,-5.486325235,-5.36454379,-37.858426675
15,-3.96945774111,3.26820587111,-10.9596141401
16,-5.45612836344,-5.34284975261,-37.5767543854
*Step  = 8
*Time  = 0.05
*Data  = x;y;z
1,-3.41910714337,3.23739035968,-10.9359014386
2,-5.486325235,-5.36454379,-37.858426675
15,-3.96639671307,3.26037286158,-10.899171141
16,-5.44973078125,-5.33823686053,-37.5170862561
*Step  = 9
*Time  = 0.1
*Data  = x;y;z
1,-3.50813514486,3.19576116042,-10.7450637179
2,-5.486325235,-5.36454379,-37.858426675
15,-3.95748837722,3.21403227506,-10.7152162173
16,-5.430415457,-5.32429911495,-37.3369430084
*Step  = 10
*Time  = 0.15
*Data  = x;y;z
1,-3.63766828442,3.13952880536,-10.5687367662
2,-5.486325235,-5.36454379,-37.858426675
15,-3.95072169346,3.15184515256,-10.5481874889
16,-5.41302951828,-5.3117228764,-37.1748063352
*Step  = 11
*Time  = 0.2
*Data  = x;y;z
1,-3.74491463511,3.11500542696,-10.4979216386
2,-5.486325235,-5.36454379,-37.858426675
15,-3.94910156029,3.12290543156,-10.4846385103
16,-5.40640955953,-5.30691878041,-37.1130762957
*Step  = 12
*Time  = 0.25
*Data  = x;y;z
1,-3.90194935611,3.02651585078,-10.3300084707
2,-5.486325235,-5.36454379,-37.858426675
15,-3.94397700066,3.02808767177,-10.3273263935
16,-5.39028516163,-5.29525111587,-36.9627043706
*Step  = 13
*Time  = 0.3
*Data  = x;y;z
1,-4.02806275325,2.91722496293,-10.1635485085
2,-5.486325235,-5.36454379,-37.858426675
15,-3.93933604435,2.91401930117,-10.1691259128
16,-5.37428518241,-5.28366737979,-36.8134940006
*Step  = 14
*Time  = 0.35
*Data  = x;y;z
1,-4.11675545893,2.79698658332,-9.97601418099
2,-5.486325235,-5.36454379,-37.858426675
15,-3.93207714051,2.79054498307,-9.98741802622
16,-5.35582880565,-5.27029419275,-36.6413790643
*Step  = 15
*Time  = 0.4
*Data  = x;y;z
1,-4.20328686383,2.66960286198,-9.77915040489
2,-5.486325235,-5.36454379,-37.858426675
15,-3.9235002961,2.66018626488,-9.79607867725
16,-5.33637730344,-5.25618591609,-36.4599876477
*Step  = 16
*Time  = 0.448387097
*Data  = x;y;z
1,-4.27770774384,2.54548519851,-9.58504494657
2,-5.486325235,-5.36454379,-37.858426675
15,-3.91433498052,2.53367715036,-9.60658380243
16,-5.3170857253,-5.24217107599,-36.2800936622
*Step  = 17
*Time  = 0.45
*Data  = x;y;z
1,-4.26746158926,2.54196073729,-9.57410120394
2,-5.486325235,-5.36454379,-37.858426675
15,-3.91343426039,2.53046881545,-9.59509203911
16,-5.3158757889,-5.2412432788,-36.2688279325
*Step  = 18
*Time  = 0.5
*Data  = x;y;z
1,-4.30251583008,2.47731470027,-9.47196996775
2,-5.486325235,-5.36454379,-37.858426675
15,-3.90836375949,2.46475262009,-9.49513261189
16,-5.30570343932,-5.23381604498,-36.1739822899
*Step  = 19
*Time  = 0.55
*Data  = x;y;z
1,-4.3988422902,2.3452991972,-9.27128892018
2,-5.486325235,-5.36454379,-37.858426675
15,-3.89845604553,2.32993370322,-9.3000996993
16,-5.28589674315,-5.21937771267,-35.9892966711
*Step  = 20
*Time  = 0.6
*Data  = x;y;z
1,-4.46429233194,2.21208971085,-9.06481867708
2,-5.486325235,-5.36454379,-37.858426675
15,-3.8873987629,2.19503314353,-9.09742871093
16,-5.26529599801,-5.20432202876,-35.7972162219
*Step  = 21
*Time  = 0.65
*Data  = x;y;z
1,-4.54125797578,2.07053302961,-8.85592387003
2,-5.486325235,-5.36454379,-37.858426675
15,-3.87597465923,2.05160632227,-8.89284280371
16,-5.24456280825,-5.1891227605,-35.6039114217
*Step  = 22
*Time  = 0.7
*Data  = x;y;z
1,-4.61632832144,1.92974155232,-8.64421894986
2,-5.486325235,-5.36454379,-37.858426675
15,-3.86370271699,1.90915552621,-8.68518604157
16,-5.22348495856,-5.17362108503,-35.4074035904
*Step  = 23
*Time  = 0.75
*Data  = x;y;z
1,-4.7002620623,1.78799124131,-8.43205450287
2,-5.486325235,-5.36454379,-37.858426675
15,-3.85109485304,1.76567828002,-8.47733333498
16,-5.20238685111,-5.15805701262,-35.2107148463
*Step  = 24
*Time  = 0.8
*Data  = x;y;z
1,-4.73680650492,1.71617200208,-8.3226196663
2,-5.486325235,-5.36454379,-37.858426675
15,-3.84422821253,1.69318846767,-8.36980237904
16,-5.19146530209,-5.14989678265,-35.1089257144
*Step  = 25
*Time  = 0.85
*Data  = x;y;z
1,-4.8197201265,1.56873369506,-8.11358865512
2,-5.486325235,-5.36454379,-37.858426675
15,-3.83148296669,1.54431865253,-8.16470309131
16,-5.17070486939,-5.13450099636,-34.915396215
*Step  = 26
*Time  = 0.9
*Data  = x;y;z
1,-4.91347081749,1.41304395059,-7.90088179554
2,-5.486325235,-5.36454379,-37.858426675
15,-3.81800516744,1.38709302834,-7.95621853344
16,-5.14964125436,-5.11881642164,-34.7190518735
*Step  = 27
*Time  = 0.95
*Data  = x;y;z
1,-5.03205491595,1.25075604057,-7.68827394772
2,-5.486325235,-5.36454379,-37.858426675
15,-3.80459937859,1.2228989042,-7.74863741402
16,-5.12871716833,-5.10317703715,-34.5240135597
*Step  = 28
*Time  = 1
*Data  = x;y;z
1,-5.0005805202,1.25777496206,-7.68228781095
2,-5.486325235,-5.36454379,-37.858426675
15,-3.80358107363,1.23060197397,-7.74165633206
16,-5.12796244546,-5.10238542893,-34.5170394481
*Step  = 29
*Time  = 1.03
*Data  = x;y;z
1,-4.59997011155,1.95381559182,-7.96543424758
2,-5.486325235,-5.36454379,-37.858426675
15,-3.8172303099,1.93602956076,-8.01222839323
16,-5.15237982707,-5.11933059985,-34.7449141941
*Step  = 30
*Time  = 1.06
*Data  = x;y;z
1,-4.41999550148,2.36022878573,-8.10945348491
2,-5.486325235,-5.36454379,-37.858426675
15,-3.82458047177,2.34668429607,-8.14913291166
16,-5.16449241483,-5.12738946977,-34.8580240518
*Step  = 31
*Time  = 1.09
*Data  = x;y;z
1,-4.33970127013,2.55525363323,-8.15621964806
2,-5.486325235,-5.36454379,-37.858426675
15,-3.82450372102,2.543521806,-8.19152774454
16,-5.16749868591,-5.12891918155,-34.8862152082
*Step  = 32
*Time  = 1.12
*Data  = x;y;z
1,-4.27718358782,2.68924626147,-8.18258134606
2,-5.486325235,-5.36454379,-37.858426675
15,-3.8236303293,2.67890816883,-8.21402142458
16,-5.16872646146,-5.12919881031,-34.8978125783
*Step  = 33
*Time  = 1.15
*Data  = x;y;z
1,-4.22910484463,2.80424471946,-8.20442103346
2,-5.486325235,-5.36454379,-37.858426675
15,-3.82266012167,2.794971843,-8.23278027129
16,-5.16966324708,-5.12930266894,-34.9066894196
*Step  = 34
*Time  = 1.18
*Data  = x;y;z
1,-4.19752399073,2.90525739112,-8.22485543708
2,-5.486325235,-5.36454379,-37.858426675
15,-3.82202818023,2.89668280926,-8.25116739969
16,-5.17065507125,-5.1294627046,-34.9160752275
*Step  = 35
*Time  = 1.21
*Data  = x;y;z
1,-4.16311121876,2.99377604718,-8.24085245874
2,-5.486325235,-5.36454379,-37.858426675
15,-3.82106195249,2.98595845928,-8.2649046472
16,-5.17124995168,-5.12936023231,-34.921755276
*Step  = 36
*Time  = 1.24
*Data  = x;y;z
1,-4.13173222623,3.06814103319,-8.25457490765
2,-5.486325235,-5.36454379,-37.858426675
15,-3.82030090298,3.06101733725,-8.27654322219
16,-5.17174521634,-5.12921121508,-34.9264992822
*Step  = 37
*Time  = 1.27
*Data  = x;y;z
1,-4.11510935367,3.14405813428,-8.27135564389
2,-5.486325235,-5.36454379,-37.858426675
15,-3.8198082787,3.13729775181,-8.29218620838
16,-5.17260957469,-5.12933612001,-34.9346854518
*Step  = 38
*Time  = 1.3
*Data  = x;y;z
1,-4.09810452308,3.21778947424,-8.28699786976
2,-5.486325235,-5.36454379,-37.858426675
15,-3.81924933385,3.21140030809,-8.30667041159
16,-5.17336718188,-5.12938916821,-34.9418749447
*Step  = 39
*Time  = 1.33
*Data  = x;y;z
1,-4.0825206619,3.28379359472,-8.30090770619
2,-5.486325235,-5.36454379,-37.858426675
15,-3.81871148409,3.27774428052,-8.31951760126
16,-5.17401657755,-5.12937482653,-34.9480528613
*Step  = 40
*Time  = 1.36
*Data  = x;y;z
1,-4.06880751055,3.34721605659,-8.31434353025
2,-5.486325235,-5.36454379,-37.858426675
15,-3.81818885094,3.34146468896,-8.33201658688
16,-5.1746474627,-5.12936171783,-34.9540549852
*Step  = 41
*Time  = 1.39
*Data  = x;y;z
1,-4.05978390275,3.40786522327,-8.32752540543
2,-5.486325235,-5.36454379,-37.858426675
15,-3.81774250655,3.40230640152,-8.34458448196
16,-5.17530760848,-5.12938095225,-34.9603275307
*Step  = 42
*Time  = 1.42
*Data  = x;y;z
1,-4.04731272394,3.4634212628,-8.33963471576
2,-5.486325235,-5.36454379,-37.858426675
15,-3.81728164463,3.45813429007,-8.35583563168
16,-5.17587005599,-5.12933896432,-34.9656868849
*Step  = 43
*Time  = 1.45
*Data  = x;y;z
1,-4.04791347017,3.51887564712,-8.35293298665
2,-5.486325235,-5.36454379,-37.858426675
15,-3.81701404852,3.51356465381,-8.36917213209
16,-5.17664405529,-5.12945172457,-34.9730195747
*Step  = 44
*Time  = 1.48
*Data  = x;y;z
1,-4.04751304159,3.57055207655,-8.36491096508
2,-5.486325235,-5.36454379,-37.858426675
15,-3.81669303409,3.56523889595,-8.38112094477
16,-5.17730224951,-5.12948371923,-34.9792718197
*Step  = 45
*Time  = 1.51
*Data  = x;y;z
1,-4.04426197837,3.62117527524,-8.37651439273
2,-5.486325235,-5.36454379,-37.858426675
15,-3.81634576647,3.61592506552,-8.39249881263
16,-5.17790942544,-5.12948933143,-34.9850457415
*Step  = 46
*Time  = 1.54
*Data  = x;y;z
1,-4.02415743653,3.66693912786,-8.38663530692
2,-5.486325235,-5.36454379,-37.858426675
15,-3.81587706785,3.66213792912,-8.40123542078
16,-5.17829194707,-5.1293527919,-34.9887189755
*Step  = 47
*Time  = 1.57
*Data  = x;y;z
1,-4.01361463553,3.71225858279,-8.39718651442
2,-5.486325235,-5.36454379,-37.858426675
15,-3.81551973562,3.70768903172,-8.41105983357
16,-5.17878866808,-5.12930600123,-34.9934560094
*Step  = 48
*Time  = 1.6
*Data  = x;y;z
1,-4.00491172217,3.75645972031,-8.40743721609
2,-5.486325235,-5.36454379,-37.858426675
15,-3.81517389191,3.75207997731,-8.42071243024
16,-5.1792762804,-5.12925928033,-34.9981066285
*Step  = 49
*Time  = 1.63
*Data  = x;y;z
1,-3.99815279248,3.79962928387,-8.41774905261
2,-5.486325235,-5.36454379,-37.858426675
15,-3.81486139725,3.79539552872,-8.43055699675
16,-5.17978997323,-5.12924119147,-35.0029985009
*Step  = 50
*Time  = 1.66
*Data  = x;y;z
1,-3.99126597845,3.83987050976,-8.42680717408
2,-5.486325235,-5.36454379,-37.858426675
15,-3.81451212534,3.83578511634,-8.43914704106
16,-5.18020262088,-5.12915681844,-35.0069461346
*Step  = 51
*Time  = 1.69
*Data  = x;y;z
1,-3.98557038923,3.87635979948,-8.4348332863
2,-5.486325235,-5.36454379,-37.858426675
15,-3.81417003893,3.87239569389,-8.4467890588
16,-5.18055350445,-5.12904364546,-35.0103137851
*Step  = 52
*Time  = 1.72
*Data  = x;y;z
1,-3.98159632229,3.91596603844,-8.44561003266
2,-5.486325235,-5.36454379,-37.858426675
15,-3.81399221417,3.91208728013,-8.45727920355
16,-5.18116107066,-5.12912052178,-35.0160754391
*Step  = 53
*Time  = 1.75
*Data  = x;y;z
1,-3.9842420294,3.95535746659,-8.45565962804
2,-5.486325235,-5.36454379,-37.858426675
15,-3.81381063364,3.95141067038,-8.46750810844
16,-5.18174201125,-5.12915952696,-35.0215933307
*Step  = 54
*Time  = 1.78
*Data  = x;y;z
1,-3.97205727517,3.99119534984,-8.46446936465
2,-5.486325235,-5.36454379,-37.858426675
15,-3.81349933543,3.98752123672,-8.47548210551
16,-5.18212494413,-5.12907091225,-35.0252603763
*Step  = 55
*Time  = 1.81
*Data  = x;y;z
1,-3.96664720905,4.02782699412,-8.47372907591
2,-5.486325235,-5.36454379,-37.858426675
15,-3.81325056304,4.02427032957,-8.48436837073
16,-5.18259363903,-5.12905927689,-35.0297239949
*Step  = 56
*Time  = 1.84
*Data  = x;y;z
1,-3.95962849881,4.06304708306,-8.48231068663
2,-5.486325235,-5.36454379,-37.858426675
15,-3.81297953414,4.05964478914,-8.49247352748
16,-5.18299625492,-5.12899188984,-35.0335730036
*Step  = 57
*Time  = 1.87
*Data  = x;y;z
1,-3.95341008515,4.09782219972,-8.49106223971
2,-5.486325235,-5.36454379,-37.858426675
15,-3.8127322965,4.09455647441,-8.50080078076
16,-5.18342371463,-5.12895083693,-35.0376520021
*Step  = 58
*Time  = 1.9
*Data  = x;y;z
1,-3.94979953203,4.13204039127,-8.50014469208
2,-5.486325235,-5.36454379,-37.858426675
15,-3.8125328927,4.12885196337,-8.509632882
16,-5.18390522626,-5.1289579479,-35.0422334314
*Step  = 59
*Time  = 1.93
*Data  = x;y;z
1,-3.94427735519,4.16458669364,-8.50841952174
2,-5.486325235,-5.36454379,-37.858426675
15,-3.81230675073,4.16151946673,-8.51753324522
16,-5.18430888233,-5.12890508995,-35.0460892119
*Step  = 60
*Time  = 1.96
*Data  = x;y;z
1,-3.94265486274,4.17974900402,-8.50767893717
2,-5.486325235,-5.36454379,-37.858426675
15,-3.81175439776,4.17670537915,-8.51672641287
16,-5.18400883834,-5.1284109617,-35.0433623285
*Step  = 61
*Time  = 1.99
*Data  = x;y;z
1,-3.94442412917,4.16559527896,-8.4939582664
2,-5.486325235,-5.36454379,-37.858426675
15,-3.81085454436,4.16248917964,-8.50322480077
16,-5.18273297441,-5.12732956308,-35.0315001079
*Step  = 62
*Time  = 1.99999
*Data  = x;y;z
1,-3.94582764516,4.16655255883,-8.49454628332
2,-5.486325235,-5.36454379,-37.858426675
15,-3.8108534288,4.16341314851,-8.50391021338
16,-5.18275984406,-5.12722225727,-35.0317837747
*Step  = 1
*Time  = 2
*Data  = x;y;z
1,-3.94567600916,4.17058250662,-8.49685790411
2,-5.486325235,-5.36454379,-37.858426675
15,-3.81088649286,4.16744654849,-8.50620269105
16,-5.18290740336,-5.1271704625,-35.0332022735
*Step  = 2
*Time  = 2.00005
*Data  = x;y;z
1,-3.94566649278,4.17335846853,-8.49813863075
2,-5.486325235,-5.36454379,-37.858426675
15,-3.81086861293,4.17022128706,-8.50748390401
16,-5.18296802244,-5.12705099919,-35.0338107072
*Step  = 3
*Time  = 2.0003
*Data  = x;y;z
1,-3.94521244629,4.17611235393,-8.50009762921
2,-5.486325235,-5.36454379,-37.858426675
15,-3.81088260586,4.1729842956,-8.50941095776
16,-5.18309813917,-5.12698699063,-35.0350669471
*Step  = 4
*Time  = 2.00155
*Data  = x;y;z
1,-3.94421791984,4.18107163215,-8.50617453946
2,-5.486325235,-5.36454379,-37.858426675
15,-3.81106189129,4.17796538413,-8.51540739417
16,-5.1836347581,-5.12723074442,-35.040116111
*Step  = 5
*Time  = 2.0078
*Data  = x;y;z
1,-3.94114503107,4.19820738609,-8.53293493599
2,-5.486325235,-5.36454379,-37.858426675
15,-3.81203809013,4.19517193662,-8.541888658
16,-5.18620380677,-5.12900960506,-35.0641302377
*Step  = 6
*Time  = 2.03905
*Data  = x;y;z
1,-3.91792632049,4.27384303857,-8.66271870548
2,-5.486325235,-5.36454379,-37.858426675
15,-3.81698143043,4.27137988772,-8.6697353449
16,-5.19888815957,-5.13853577767,-35.1824983557
*Step  = 7
*Time  = 2.05
*Data  = x;y;z
1,-3.91459509678,4.29932019855,-8.70916610068
2,-5.486325235,-5.36454379,-37.858426675
15,-3.81877022575,4.29695276864,-8.71581191884
16,-5.20349514251,-5.14218303509,-35.225438003
*Step  = 8
*Time  = 2.1
*Data  = x;y;z
1,-3.88540666995,4.41468652402,-8.91482776421
2,-5.486325235,-5.36454379,-37.858426675
15,-3.82632851483,4.41314363025,-8.91893055328
16,-5.22375945213,-5.15779415629,-35.4144114086
*Step  = 9
*Time  = 2.15
*Data  = x;y;z
1,-3.84317010289,4.52051979871,-9.12042803054
2,-5.486325235,-5.36454379,-37.858426675
15,-3.83383310987,4.52026294563,-9.12107635226
16,-5.24410843542,-5.17383348819,-35.6040371009
*Step  = 10
*Time  = 2.2
*Data  = x;y;z
1,-3.82516485149,4.57035064024,-9.22492661756
2,-5.486325235,-5.36454379,-37.858426675
15,-3.83768886012,4.57070381242,-9.22405897064
16,-5.25457582329,-5.1822862003,-35.7015025087
*Step  = 11
*Time  = 2.25
*Data  = x;y;z
1,-3.79149530677,4.66939366302,-9.42882210069
2,-5.486325235,-5.36454379,-37.858426675
15,-3.84481046716,4.67097140553,-9.42512804465
16,-5.27486870984,-5.19822529875,-35.8905654951
*Step  = 12
*Time  = 2.3
*Data  = x;y;z
1,-3.761190546,4.76250454129,-9.63217192658
2,-5.486325235,-5.36454379,-37.858426675
15,-3.85163770853,4.76530661734,-9.6259242011
16,-5.29521770142,-5.21433604116,-36.0800756935
*Step  = 13
*Time  = 2.35
*Data  = x;y;z
1,-3.71307586375,4.84810571712,-9.83358846615
2,-5.486325235,-5.36454379,-37.858426675
15,-3.8582668989,4.85280460202,-9.82356763736
16,-5.31532874649,-5.23023421348,-36.2673388472
*Step  = 14
*Time  = 2.4
*Data  = x;y;z
1,-3.67712541455,4.92871523733,-10.0327983733
2,-5.486325235,-5.36454379,-37.858426675
15,-3.86464202824,4.93504219729,-10.0198837991
16,-5.33536503334,-5.24609156695,-36.4538627047
*Step  = 15
*Time  = 2.45
*Data  = x;y;z
1,-3.63316308701,5.00533402242,-10.2312455705
2,-5.486325235,-5.36454379,-37.858426675
15,-3.87083334413,5.01368049514,-10.2148910143
16,-5.35531641519,-5.26184825712,-36.6395701769
*Step  = 16
*Time  = 2.5
*Data  = x;y;z
1,-3.60805523035,5.03574328331,-10.3279250803
2,-5.486325235,-5.36454379,-37.858426675
15,-3.87392880876,5.04526002792,-10.3096600506
16,-5.36517043131,-5.26973625417,-36.7312379851
*Step  = 17
*Time  = 2.55
*Data  = x;y;z
1,-3.57700464602,5.10805012172,-10.5236911138
2,-5.486325235,-5.36454379,-37.858426675
15,-3.87972104412,5.11930156272,-10.5029322872
16,-5.38496091152,-5.28528613818,-36.915423432
*Step  = 18
*Time  = 2.6
*Data  = x;y;z
1,-3.53691829345,5.1607698565,-10.7091852149
2,-5.486325235,-5.36454379,-37.858426675
15,-3.88510988137,5.17418006879,-10.6854278942
16,-5.40399668086,-5.30039544227,-37.0924924741
*Step  = 19
*Time  = 2.65
*Data  = x;y;z
1,-3.50079891033,5.18856003061,-10.8771594015
2,-5.486325235,-5.36454379,-37.858426675
15,-3.88988544123,5.2040476502,-10.8509336952
16,-5.42182513179,-5.31470772218,-37.2582323548
*Step  = 20
*Time  = 2.7
*Data  = x;y;z
1,-3.47079880312,5.1988190037,-11.0320836708
2,-5.486325235,-5.36454379,-37.858426675
15,-3.89452097614,5.21620926894,-11.0039632564
16,-5.43885421951,-5.32833173336,-37.4165251896
*Step  = 21
*Time  = 2.75
*Data  = x;y;z
1,-3.4601229486,5.19842681893,-11.1783131128
2,-5.486325235,-5.36454379,-37.858426675
15,-3.89905291675,5.21696505349,-11.1498051287
16,-5.45539650118,-5.34131441265,-37.5703712693
*Step  = 22
*Time  = 2.8
*Data  = x;y;z
1,-3.4464289408,5.18591402821,-11.2412192116
2,-5.486325235,-5.36454379,-37.858426675
15,-3.9013361862,5.20537485688,-11.2120452936
16,-5.46308004583,-5.34731215391,-37.6418349926
*Step  = 23
*Time  = 2.85
*Data  = x;y;z
1,-3.46136670546,5.17643410865,-11.37718537
2,-5.486325235,-5.36454379,-37.858426675
15,-3.90520250146,5.19593608095,-11.3496697385
16,-5.47856927974,-5.35887540571,-37.7861239083
*Step  = 24
*Time  = 2.9
*Data  = x;y;z
1,-3.47425775242,5.15245676225,-11.5027887791
2,-5.486325235,-5.36454379,-37.858426675
15,-3.9087524168,5.17203654519,-11.4769261918
16,-5.49293911386,-5.36931301255,-37.9201122379
*Step  = 25
*Time  = 2.95
*Data  = x;y;z
1,-3.47451090075,5.11944747893,-11.6207020841
2,-5.486325235,-5.36454379,-37.858426675
15,-3.91249773592,5.13965308896,-11.5956864442
16,-5.50659582564,-5.37894399912,-38.0475885271
*Step  = 26
*Time  = 3
*Data  = x;y;z
1,-3.44762900594,5.11067608141,-11.608866369
2,-5.486325235,-5.36454379,-37.858426675
15,-3.91224846547,5.13208649767,-11.5823450966
16,-5.50587327186,-5.3783246294,-38.0408966284
*Step  = 27
*Time  = 3.05
*Data  = x;y;z
1,-3.40946186224,5.14845500327,-11.4146768995
2,-5.486325235,-5.36454379,-37.858426675
15,-3.90701015721,5.1705138439,-11.3845052463
16,-5.4849174084,-5.36354709612,-37.8452877952
*Step  = 28
*Time  = 3.1
*Data  = x;y;z
1,-3.42975704644,5.17723419338,-11.2139746088
2,-5.486325235,-5.36454379,-37.858426675
15,-3.90247695363,5.19733139061,-11.1836794151
16,-5.46337178483,-5.34815769754,-37.644273989
*Step  = 29
*Time  = 3.15
*Data  = x;y;z
1,-3.47102851773,5.18275853968,-11.073041984
2,-5.486325235,-5.36454379,-37.858426675
15,-3.89880242925,5.20042842492,-11.0449404928
16,-5.44787198445,-5.33674173178,-37.4998164377
*Step  = 30
*Time  = 3.2
*Data  = x;y;z
1,-3.51543424072,5.16942778068,-10.8488596255
2,-5.486325235,-5.36454379,-37.858426675
15,-3.89248811114,5.18430693093,-10.8234558941
16,-5.42313096435,-5.31791880591,-37.2694647059
*Step  = 31
*Time  = 3.25
*Data  = x;y;z
1,-3.57377331837,5.13931298025,-10.6148849268
2,-5.486325235,-5.36454379,-37.858426675
15,-3.88551145833,5.15103510106,-10.5935327628
16,-5.39732983652,-5.29737491359,-37.0295632787
*Step  = 32
*Time  = 3.3
*Data  = x;y;z
1,-3.61807546954,5.06595501359,-10.3535715848
2,-5.486325235,-5.36454379,-37.858426675
15,-3.87743856481,5.07520819694,-10.3356554894
16,-5.36934023051,-5.27470495741,-36.7693811056
*Step  = 33
*Time  = 3.35
*Data  = x;y;z
1,-3.63423651968,4.97684406223,-10.1509969527
2,-5.486325235,-5.36454379,-37.858426675
15,-3.87033651347,4.98495514789,-10.1347291737
16,-5.3482450689,-5.25770831289,-36.5732054228
*Step  = 34
*Time  = 3.4
*Data  = x;y;z
1,-3.66942469218,4.84316522562,-9.85007071399
2,-5.486325235,-5.36454379,-37.858426675
15,-3.8605829531,4.84933925241,-9.83691900563
16,-5.31778796779,-5.23382839797,-36.2896459551
*Step  = 35
*Time  = 3.45
*Data  = x;y;z
1,-3.70552978496,4.70234664046,-9.54628726363
2,-5.486325235,-5.36454379,-37.858426675
15,-3.85039621224,4.70672673727,-9.53630118348
16,-5.28720515256,-5.20983252989,-36.0048423512
*Step  = 36
*Time  = 3.5
*Data  = x;y;z
1,-3.76057558777,4.55812926467,-9.24177024497
2,-5.486325235,-5.36454379,-37.858426675
15,-3.83972937131,4.56035884137,-9.23630555784
16,-5.2567445307,-5.18588117681,-35.7211131125
*Step  = 37
*Time  = 3.55
*Data  = x;y;z
1,-3.81077792168,4.45913506079,-9.03510166627
2,-5.486325235,-5.36454379,-37.858426675
15,-3.83191033649,4.45970142742,-9.0336410308
16,-5.23607790726,-5.16929982253,-35.5286666263
*Step  = 38
*Time  = 3.6
*Data  = x;y;z
1,-3.85839994594,4.29656752718,-8.7285061946
2,-5.486325235,-5.36454379,-37.858426675
15,-3.82030591518,4.2956254952,-8.73114137096
16,-5.20553111151,-5.14510571206,-35.2440426779
*Step  = 39
*Time  = 3.65
*Data  = x;y;z
1,-3.91472333389,4.13019129134,-8.42255556287
2,-5.486325235,-5.36454379,-37.858426675
15,-3.80797782933,4.12777144503,-8.42993475376
16,-5.17505371261,-5.12054025305,-34.9600883636
*Step  = 40
*Time  = 3.7
*Data  = x;y;z
1,-3.96996224496,3.95324806604,-8.1148944718
2,-5.486325235,-5.36454379,-37.858426675
15,-3.79469299838,3.94963250705,-8.12699259561
16,-5.14438695098,-5.09518784864,-34.674421597
*Step  = 41
*Time  = 3.75
*Data  = x;y;z
1,-4.01853513957,3.83180504925,-7.90751086856
2,-5.486325235,-5.36454379,-37.858426675
15,-3.78497532678,3.8272977005,-7.92359917229
16,-5.1236406685,-5.07701459164,-34.4813314365
*Step  = 42
*Time  = 3.8
*Data  = x;y;z
1,-4.07334164285,3.6339886995,-7.59726362417
2,-5.486325235,-5.36454379,-37.858426675
15,-3.76996551674,3.62874529868,-7.61797940776
16,-5.09280626512,-5.05064812654,-34.1940717628
*Step  = 43
*Time  = 3.85
*Data  = x;y;z
1,-4.12661289278,3.4245442377,-7.28340996169
2,-5.486325235,-5.36454379,-37.858426675
15,-3.75358010693,3.41883692804,-7.30860591658
16,-5.06165141416,-5.02330203791,-33.9038217831
*Step  = 44
*Time  = 3.9
*Data  = x;y;z
1,-4.18005549438,3.20473417234,-6.96693800218
2,-5.486325235,-5.36454379,-37.858426675
15,-3.73573499287,3.19880332123,-6.99644776527
16,-5.03027427888,-4.99518525572,-33.6114499339
*Step  = 45
*Time  = 3.95
*Data  = x;y;z
1,-4.21771108495,3.04652887865,-6.74793970057
2,-5.486325235,-5.36454379,-37.858426675
15,-3.72231224925,3.04054063943,-6.78041794493
16,-5.00855443202,-4.9746217152,-33.409165342
*Step  = 46
*Time  = 4
*Data  = x;y;z
1,-4.21172240875,3.04578176017,-6.73968826006
2,-5.486325235,-5.36454379,-37.858426675
15,-3.7210343452,3.0398211458,-6.77200976673
16,-5.00743207805,-4.97102244279,-33.399147253
*Step  = 47
*Time  = 4.05
*Data  = x;y;z
1,-4.10324993585,2.8673310705,-6.68208135532
2,-5.486325235,-5.36454379,-37.858426675
15,-3.71821467886,2.8626877237,-6.70767051715
16,-5.00296725055,-4.97130459856,-33.3568945026
*Step  = 48
*Time  = 4.1
*Data  = x;y;z
1,-4.04666961003,2.72202977016,-6.65160712649
2,-5.486325235,-5.36454379,-37.858426675
15,-3.71780262241,2.71809468199,-6.67350865973
16,-5.00126103685,-4.97413951253,-33.3403139173
*Step  = 49
*Time  = 4.15
*Data  = x;y;z
1,-3.99432077883,2.57639506291,-6.62507413279
2,-5.486325235,-5.36454379,-37.858426675
15,-3.71779367287,2.57311332187,-6.64351847514
16,-4.99996080904,-4.97750060757,-33.3274982881
*Step  = 50
*Time  = 4.2
*Data  = x;y;z
1,-3.95016203857,2.42967124086,-6.59979724343
2,-5.486325235,-5.36454379,-37.858426675
15,-3.71793883574,2.42693834666,-6.61530224056
16,-4.99880710555,-4.98105961032,-33.3160495782
*Step  = 51
*Time  = 4.25
*Data  = x;y;z
1,-3.90192277266,2.27740058564,-6.5752467411
2,-5.486325235,-5.36454379,-37.858426675
15,-3.71815902562,2.27525661646,-6.5875257352
16,-4.99770364429,-4.98477428812,-33.3050664625
*Step  = 52
*Time  = 4.3
*Data  = x;y;z
1,-3.84612178196,2.11492047301,-6.5511697585
2,-5.486325235,-5.36454379,-37.858426675
15,-3.71848225634,2.11344425345,-6.55970480576
16,-4.99663328797,-4.98853419753,-33.2944028475
*Step  = 53
*Time  = 4.35
*Data  = x;y;z
1,-3.79093504639,1.94642255997,-6.5286367284
2,-5.486325235,-5.36454379,-37.858426675
15,-3.71895019468,1.9455973276,-6.5334450561
16,-4.99570202901,-4.99242848228,-33.2850477777
*Step  = 54
*Time  = 4.4
*Data  = x;y;z
1,-3.73973087459,1.77111394737,-6.50897974376
2,-5.486325235,-5.36454379,-37.858426675
15,-3.71976385146,1.77088702942,-6.51031115945
16,-4.99508804525,-4.99648514859,-33.2786753353
*Step  = 55
*Time  = 4.45
*Data  = x;y;z
1,-3.68901807918,1.58291631143,-6.49000411489
2,-5.486325235,-5.36454379,-37.858426675
15,-3.72077596097,1.58327412303,-6.48789177824
16,-4.99458552746,-5.00057149626,-33.2733623135
*Step  = 56
*Time  = 4.5
*Data  = x;y;z
1,-3.62838689835,1.38094773237,-6.4740336248
2,-5.486325235,-5.36454379,-37.858426675
15,-3.72211347357,1.3819948885,-6.46782503924
16,-4.99435523068,-5.00473126934,-33.2706178529
*Step  = 57
*Time  = 4.55
*Data  = x;y;z
1,-3.58202794215,1.16059893795,-6.46326014735
2,-5.486325235,-5.36454379,-37.858426675
15,-3.72419506307,1.16217477067,-6.45390269216
16,-4.99482414721,-5.00913836205,-33.2744403814
*Step  = 58
*Time  = 4.6
*Data  = x;y;z
1,-3.53670106735,0.915774730882,-6.45948272233
2,-5.486325235,-5.36454379,-37.858426675
15,-3.72725543362,0.917871307958,-6.44704738832
16,-4.9961382425,-5.01388171713,-33.2861899213
*Step  = 59
*Time  = 4.65
*Data  = x;y;z
1,-3.51046411095,0.636623830996,-6.46670439642
2,-5.486325235,-5.36454379,-37.858426675
15,-3.73186662024,0.639044019821,-6.4524435587
16,-4.99889555888,-5.01918891776,-33.3114669892
*Step  = 60
*Time  = 4.7
*Data  = x;y;z
1,-3.52867935205,0.306530299638,-6.49298588835
2,-5.486325235,-5.36454379,-37.858426675
15,-3.73931750125,0.308821182105,-6.47969331134
16,-5.0042230664,-5.02556090405,-33.3608191871
*Step  = 61
*Time  = 4.75
*Data  = x;y;z
1,-3.54515404811,-0.0577508552522,-6.53336914545
2,-5.486325235,-5.36454379,-37.858426675
15,-3.74859210598,-0.0555462205403,-6.52081510616
16,-5.01121074032,-5.03232943714,-33.4257575535
*Step  = 62
*Time  = 4.8
*Data  = x;y;z
1,-3.56739075784,-0.395152252456,-6.5661980279
2,-5.486325235,-5.36454379,-37.858426675
15,-3.75680919629,-0.393106433629,-6.55473882438
16,-5.01719751567,-5.03825639454,-33.4813773093
*Step  = 63
*Time  = 4.85
*Data  = x;y;z
1,-3.57602624527,-0.714657078915,-6.59433312139
2,-5.486325235,-5.36454379,-37.858426675
15,-3.76423524536,-0.712631253232,-6.58315647468
16,-5.02241995438,-5.04366374034,-33.529864763
*Step  = 64
*Time  = 4.9
*Data  = x;y;z
1,-3.59913457434,-1.02243342354,-6.62232612528
2,-5.486325235,-5.36454379,-37.858426675
15,-3.77157208129,-1.0205838476,-6.61228593429
16,-5.02756465376,-5.0490518221,-33.5776214844
*Step  = 65
*Time  = 4.95
*Data  = x;y;z
1,-3.62636535236,-1.32737871431,-6.65164189637
2,-5.486325235,-5.36454379,-37.858426675
15,-3.77903864048,-1.32574682164,-6.64293047722
16,-5.03279391548,-5.0544752492,-33.6261699236
*Step  = 66
*Time  = 4.99999
*Data  = x;y;z
1,-3.68893586277,-1.01247456851,-6.60482666506
2,-5.486325235,-5.36454379,-37.858426675
15,-3.77050640722,-1.01160222742,-6.5999760426
16,-5.02631100847,-5.04975140428,-33.565737003
