*Step  = 1
*Time  = 1e-05
*Data  = x;y;z
1,-3.50123358597,3.48808273561,-11.2256098362
2,-5.486325235,-5.36454379,-37.858426675
15,-3.97710226295,3.50870969976,-11.1933136478
16,-5.47898667021,-5.35926836706,-37.7899748469
*Step  = 2
*Time  = 1.76719802e-05
*Data  = x;y;z
1,-3.44195022596,3.4723118853,-11.1920947458
2,-5.486325235,-5.36454379,-37.858426675
15,-3.9738929808,3.49536438908,-11.1560459575
16,-5.47517827532,-5.35653987419,-37.7544472227
*Step  = 3
*Time  = 5.60318814e-05
*Data  = x;y;z
1,-3.41255928202,3.4590396279,-11.1742873986
2,-5.486325235,-5.36454379,-37.858426675
15,-3.97242202629,3.48329872834,-11.1363927686
16,-5.47320817003,-5.35513107717,-37.7360673815
*Step  = 4
*Time  = 0.000247831387
*Data  = x;y;z
1,-3.39801714262,3.45395660697,-11.1638036094
2,-5.486325235,-5.36454379,-37.858426675
15,-3.97150927383,3.47880167545,-11.1249886661
16,-5.47205109848,-5.35430433621,-37.7252723401
*Step  = 5
*Time  = 0.00120682892
*Data  = x;y;z
1,-3.38939907429,3.45028878525,-11.1544881199
2,-5.486325235,-5.36454379,-37.858426675
15,-3.97084210126,3.47546230669,-11.1151234956
16,-5.47104377191,-5.35358364688,-37.7158747963
*Step  = 6
*Time  = 0.00600181657
*Data  = x;y;z
1,-3.38762415614,3.43959070686,-11.1308087751
2,-5.486325235,-5.36454379,-37.858426675
15,-3.96973283143,3.46471778582,-11.0914049655
16,-5.46860626806,-5.35183340495,-37.6931377202
*Step  = 7
*Time  = 0.0299767548
*Data  = x;y;z
1,-3.40152518192,3.38934249389,-11.0283838646
2,-5.486325235,-5.36454379,-37.858426675
15,-3.96577909649,3.41333683248,-10.9902282013
16,-5.45821991683,-5.3443557246,-37.5962626085
*Step  = 8
*Time  = 0.05
*Data  = x;y;z
1,-3.43640094758,3.34964925879,-10.9479036073
2,-5.486325235,-5.36454379,-37.858426675
15,-3.96299972961,3.37176120659,-10.9123521111
16,-5.45022239186,-5.33857767272,-37.5216773074
*Step  = 9
*Time  = 0.1
*Data  = x;y;z
1,-3.51392910553,3.24850472295,-10.7553188954
2,-5.486325235,-5.36454379,-37.858426675
15,-3.95643898084,3.26649738216,-10.7257810657
16,-5.43105615392,-5.32469087318,-37.3429481453
*Step  = 10
*Time  = 0.15
*Data  = x;y;z
1,-3.63844917061,3.14503929697,-10.5756745698
2,-5.486325235,-5.36454379,-37.858426675
15,-3.95120232778,3.15734565619,-10.5550658521
16,-5.41359481326,-5.31196124474,-37.1801479936
*Step  = 11
*Time  = 0.2
*Data  = x;y;z
1,-3.75209124167,3.0855372601,-10.5056199712
2,-5.486325235,-5.36454379,-37.858426675
15,-3.95105694008,3.09323782598,-10.4926449948
16,-5.40732410824,-5.30732559903,-37.1217077353
*Step  = 12
*Time  = 0.246774194
*Data  = x;y;z
1,-3.88648940138,2.93707756139,-10.350591516
2,-5.486325235,-5.36454379,-37.858426675
15,-3.94885870395,2.93941676545,-10.3466040579
16,-5.39282706075,-5.29667005568,-36.9865742107
*Step  = 13
*Time  = 0.248335068
*Data  = x;y;z
1,-3.94074782526,2.85871529606,-10.3695907853
2,-5.486325235,-5.36454379,-37.858426675
15,-3.95458062844,2.85923367448,-10.3687059179
16,-5.39583813143,-5.29878384397,-37.014679968
*Step  = 14
*Time  = 0.249322255
*Data  = x;y;z
1,-3.9181617473,2.88721934475,-10.3621692086
2,-5.486325235,-5.36454379,-37.858426675
15,-3.95272537263,2.88851404407,-10.3599473148
16,-5.39464973777,-5.29783879162,-37.0036304363
*Step  = 15
*Time  = 0.25
*Data  = x;y;z
1,-3.91098917461,2.89393043122,-10.3618868209
2,-5.486325235,-5.36454379,-37.858426675
15,-3.95250981731,2.89548537854,-10.3592074325
16,-5.39449948971,-5.29765042241,-37.0022602812
*Step  = 16
*Time  = 0.274679678
*Data  = x;y;z
1,-3.98268944571,2.78691878037,-10.2778231797
2,-5.486325235,-5.36454379,-37.858426675
15,-3.95204279077,2.78579019445,-10.2797825376
16,-5.3868477729,-5.29195242329,-36.9309605526
*Step  = 17
*Time  = 0.298210829
*Data  = x;y;z
1,-4.02037304788,2.71890937197,-10.1915458829
2,-5.486325235,-5.36454379,-37.858426675
15,-3.94931936008,2.71633461795,-10.1960627529
16,-5.3784224645,-5.2856590153,-36.8524581828
*Step  = 18
*Time  = 0.3
*Data  = x;y;z
1,-4.00913451979,2.73572680566,-10.1822899408
2,-5.486325235,-5.36454379,-37.858426675
15,-3.94792350621,2.7335108377,-10.1861976788
16,-5.37720542682,-5.28465220912,-36.8411557168
*Step  = 19
*Time  = 0.35
*Data  = x;y;z
1,-4.10251096788,2.56304825606,-10.0033961407
2,-5.486325235,-5.36454379,-37.858426675
15,-3.94340561452,2.5574877387,-10.0133881106
16,-5.36011860913,-5.2719024275,-36.6819355921
*Step  = 20
*Time  = 0.4
*Data  = x;y;z
1,-4.17186797775,2.43238312368,-9.8128824602
2,-5.486325235,-5.36454379,-37.858426675
15,-3.93541087341,2.42441032111,-9.82751761093
16,-5.34127724086,-5.25776004518,-36.5063872395
*Step  = 21
*Time  = 0.45
*Data  = x;y;z
1,-4.22719465353,2.3117309386,-9.61757957315
2,-5.486325235,-5.36454379,-37.858426675
15,-3.92597531593,2.30193927128,-9.63594677758
16,-5.32172987961,-5.24297927542,-36.3242871183
*Step  = 22
*Time  = 0.5
*Data  = x;y;z
1,-4.25521943892,2.27086316554,-9.52054685993
2,-5.486325235,-5.36454379,-37.858426675
15,-3.9205533765,2.26018203308,-9.54088852923
16,-5.31186529077,-5.23532709503,-36.2324502748
*Step  = 23
*Time  = 0.55
*Data  = x;y;z
1,-4.3136065336,2.14147874037,-9.32537378492
2,-5.486325235,-5.36454379,-37.858426675
15,-3.91085460657,2.12910219025,-9.34947709957
16,-5.29241279666,-5.22039703472,-36.051283032
*Step  = 24
*Time  = 0.6
*Data  = x;y;z
1,-4.36499136274,2.01668239591,-9.1218226572
2,-5.486325235,-5.36454379,-37.858426675
15,-3.89960436438,2.00292292617,-9.14928581634
16,-5.27199905244,-5.20458724718,-35.8611923528
*Step  = 25
*Time  = 0.65
*Data  = x;y;z
1,-4.41469497611,1.89731839715,-8.91619453627
2,-5.486325235,-5.36454379,-37.858426675
15,-3.88763963435,1.88234071908,-8.94688172516
16,-5.25131372705,-5.18839451533,-35.6686040201
*Step  = 26
*Time  = 0.7
*Data  = x;y;z
1,-4.46042980605,1.770415668,-8.70850731627
2,-5.486325235,-5.36454379,-37.858426675
15,-3.87527979038,1.75444707744,-8.74208795012
16,-5.23044019955,-5.1718578448,-35.4742975769
*Step  = 27
*Time  = 0.75
*Data  = x;y;z
1,-4.50591789097,1.64111062084,-8.49904746994
2,-5.486325235,-5.36454379,-37.858426675
15,-3.86227824166,1.62425990981,-8.53537292694
16,-5.20937462818,-5.15496978659,-35.2782355365
*Step  = 28
*Time  = 0.8
*Data  = x;y;z
1,-4.52482858919,1.58748368297,-8.39395048315
2,-5.486325235,-5.36454379,-37.858426675
15,-3.85527068501,1.570313568,-8.4315607357
16,-5.19869311386,-5.14595347237,-35.1789380304
*Step  = 29
*Time  = 0.85
*Data  = x;y;z
1,-4.58076432597,1.4471493543,-8.18724421384
2,-5.486325235,-5.36454379,-37.858426675
15,-3.84233909526,1.42901195307,-8.2279909362
16,-5.17809146441,-5.12907295064,-34.9872433544
*Step  = 30
*Time  = 0.9
*Data  = x;y;z
1,-4.63253738443,1.29915107092,-7.97929525753
2,-5.486325235,-5.36454379,-37.858426675
15,-3.82906408828,1.28026884055,-8.02285271751
16,-5.15741989107,-5.11190698088,-34.7949241591
*Step  = 31
*Time  = 0.95
*Data  = x;y;z
1,-4.67812853704,1.14684163629,-7.76776344081
2,-5.486325235,-5.36454379,-37.858426675
15,-3.81503578057,1.12745606057,-7.81367834733
16,-5.13637512587,-5.09419888129,-34.5991584276
*Step  = 32
*Time  = 1
*Data  = x;y;z
1,-4.64987472681,1.17045067275,-7.76448126378
2,-5.486325235,-5.36454379,-37.858426675
15,-3.81395966571,1.15165280996,-7.80946169642
16,-5.13574359097,-5.09258460583,-34.5935675949
*Step  = 33
*Time  = 1.03
*Data  = x;y;z
1,-4.48581423265,1.49997305673,-7.87077598672
2,-5.486325235,-5.36454379,-37.858426675
15,-3.81697330501,1.48490861845,-7.9092656392
16,-5.14371793792,-5.09739452417,-34.6681307352
*Step  = 34
*Time  = 1.06
*Data  = x;y;z
1,-4.43846171823,1.87098098478,-8.00439804896
2,-5.486325235,-5.36454379,-37.858426675
15,-3.81825703495,1.85698389215,-8.04342433276
16,-5.15508108779,-5.10479643347,-34.7744852786
*Step  = 35
*Time  = 1.09
*Data  = x;y;z
1,-4.38638199403,2.2121351159,-8.14148148128
2,-5.486325235,-5.36454379,-37.858426675
15,-3.83104243815,2.19958026604,-8.17916517101
16,-5.16699978318,-5.11282460364,-34.8854572254
*Step  = 36
*Time  = 1.12
*Data  = x;y;z
1,-4.33646610573,2.34596075414,-8.17057102228
2,-5.486325235,-5.36454379,-37.858426675
15,-3.83056928563,2.33450279034,-8.20545970246
16,-5.16849216688,-5.11281695999,-34.8996358153
*Step  = 37
*Time  = 1.15
*Data  = x;y;z
1,-4.31494710517,2.45419755083,-8.19765307046
2,-5.486325235,-5.36454379,-37.858426675
15,-3.83062533428,2.44320847278,-8.23146698267
16,-5.17015743503,-5.11299218786,-34.9154164647
*Step  = 38
*Time  = 1.18
*Data  = x;y;z
1,-4.28604760765,2.54522173573,-8.21901379491
2,-5.486325235,-5.36454379,-37.858426675
15,-3.83024575109,2.53486095012,-8.25106526454
16,-5.17123347526,-5.11270951461,-34.9257172906
*Step  = 39
*Time  = 1.21
*Data  = x;y;z
1,-4.25552246127,2.63881092926,-8.24221521774
2,-5.486325235,-5.36454379,-37.858426675
15,-3.82989868071,2.62911806203,-8.27230892853
16,-5.17241920193,-5.11249972187,-34.9370457792
*Step  = 40
*Time  = 1.24
*Data  = x;y;z
1,-4.20551547045,2.73575485062,-8.26717551408
2,-5.486325235,-5.36454379,-37.858426675
15,-3.82948503528,2.72717485614,-8.29389629336
16,-5.17357628684,-5.11223965826,-34.9481148786
*Step  = 41
*Time  = 1.27
*Data  = x;y;z
1,-4.18566440869,2.79991616199,-8.27734637257
2,-5.486325235,-5.36454379,-37.858426675
15,-3.8284655588,2.79175063075,-8.30279663317
16,-5.17369341228,-5.11118949141,-34.9495009793
*Step  = 42
*Time  = 1.3
*Data  = x;y;z
1,-4.16670994831,2.85769907874,-8.28949084311
2,-5.486325235,-5.36454379,-37.858426675
15,-3.82782758,2.84993811514,-8.31370006976
16,-5.17408645054,-5.11039097442,-34.9534479567
*Step  = 43
*Time  = 1.33
*Data  = x;y;z
1,-4.14786623141,2.91538745466,-8.30435389872
2,-5.486325235,-5.36454379,-37.858426675
15,-3.82748664566,2.90803683964,-8.32728508314
16,-5.17474924081,-5.10981654424,-34.9599034565
*Step  = 44
*Time  = 1.36
*Data  = x;y;z
1,-4.13094490439,2.97111287125,-8.31862488772
2,-5.486325235,-5.36454379,-37.858426675
15,-3.82709282231,2.96412875348,-8.34040352317
16,-5.17536870093,-5.10921395744,-34.9659574195
*Step  = 45
*Time  = 1.39
*Data  = x;y;z
1,-4.12662436938,3.02640652194,-8.33374738289
2,-5.486325235,-5.36454379,-37.858426675
15,-3.82683833196,3.01950325047,-8.35524265592
16,-5.17615666067,-5.10874983536,-34.9735823597
*Step  = 46
*Time  = 1.42
*Data  = x;y;z
1,-4.10763898949,3.09195279523,-8.35336631099
2,-5.486325235,-5.36454379,-37.858426675
15,-3.82664422497,3.08547014956,-8.3735112155
16,-5.17717514109,-5.108457724,-34.9833577425
*Step  = 47
*Time  = 1.45
*Data  = x;y;z
1,-4.09122102927,3.15422818952,-8.37056116678
2,-5.486325235,-5.36454379,-37.858426675
15,-3.82631187644,3.14810512823,-8.38955990749
16,-5.17798839754,-5.10799068407,-34.9912263187
*Step  = 48
*Time  = 1.48
*Data  = x;y;z
1,-4.08018622542,3.19059731464,-8.37628392115
2,-5.486325235,-5.36454379,-37.858426675
15,-3.82556330872,3.18470149775,-8.39457223382
16,-5.17793118846,-5.10686026279,-34.990983215
*Step  = 49
*Time  = 1.51
*Data  = x;y;z
1,-4.06760417485,3.23393224753,-8.38805044442
2,-5.486325235,-5.36454379,-37.858426675
15,-3.82521012446,3.22830960455,-8.40547271844
16,-5.17840857531,-5.10618208207,-34.9957121858
*Step  = 50
*Time  = 1.54
*Data  = x;y;z
1,-4.05691562546,3.27625459996,-8.3998626766
2,-5.486325235,-5.36454379,-37.858426675
15,-3.82489333556,3.2708630006,-8.41654565587
16,-5.17890656433,-5.10552736146,-35.0006324418
*Step  = 51
*Time  = 1.57
*Data  = x;y;z
1,-4.04676635475,3.32908947803,-8.4172802993
2,-5.486325235,-5.36454379,-37.858426675
15,-3.82480128966,3.32392213761,-8.43322440435
16,-5.17985153894,-5.10521822878,-35.0097212289
*Step  = 52
*Time  = 1.6
*Data  = x;y;z
1,-4.03573078596,3.38145211312,-8.43273554756
2,-5.486325235,-5.36454379,-37.858426675
15,-3.82450580356,3.37652567295,-8.4478990629
16,-5.18058174792,-5.10471514363,-35.0168181142
*Step  = 53
*Time  = 1.63
*Data  = x;y;z
1,-4.0220883162,3.41237645872,-8.43857110362
2,-5.486325235,-5.36454379,-37.858426675
15,-3.82391639489,3.40774654378,-8.45282642739
16,-5.18056458947,-5.10366401786,-35.016938692
*Step  = 54
*Time  = 1.66
*Data  = x;y;z
1,-4.01582768827,3.4478176654,-8.44883748928
2,-5.486325235,-5.36454379,-37.858426675
15,-3.82359876266,3.44331877463,-8.46266090891
16,-5.18098101549,-5.10296723366,-35.0211006335
*Step  = 55
*Time  = 1.69
*Data  = x;y;z
1,-4.00959757268,3.48416682445,-8.46026772602
2,-5.486325235,-5.36454379,-37.858426675
15,-3.82336784285,3.47980076471,-8.47365400438
16,-5.18150434228,-5.10236598361,-35.0262564594
*Step  = 56
*Time  = 1.72
*Data  = x;y;z
1,-4.0056000255,3.53108959398,-8.47686578747
2,-5.486325235,-5.36454379,-37.858426675
15,-3.82335648849,3.52680937858,-8.48994901385
16,-5.18244703463,-5.10210260583,-35.0353186993
*Step  = 57
*Time  = 1.75
*Data  = x;y;z
1,-3.9962526535,3.57541387084,-8.49087903323
2,-5.486325235,-5.36454379,-37.858426675
15,-3.82307446354,3.57133925011,-8.50329400145
16,-5.18309308081,-5.1015745887,-35.0416297941
*Step  = 58
*Time  = 1.78
*Data  = x;y;z
1,-3.98714096519,3.6011345015,-8.49590520051
2,-5.486325235,-5.36454379,-37.858426675
15,-3.82252206005,3.59725465804,-8.50772209384
16,-5.18305288663,-5.10050588714,-35.0415431586
*Step  = 59
*Time  = 1.81
*Data  = x;y;z
1,-3.98148935943,3.63270879506,-8.50637340443
2,-5.486325235,-5.36454379,-37.858426675
15,-3.82230554708,3.62895067936,-8.51779420125
16,-5.18351803226,-5.09988413917,-35.0461555425
*Step  = 60
*Time  = 1.84
*Data  = x;y;z
1,-3.97450286524,3.66377600086,-8.5165326443
2,-5.486325235,-5.36454379,-37.858426675
15,-3.8220699282,3.66017117717,-8.5274658525
16,-5.18394578069,-5.09923453917,-35.0504196158
*Step  = 61
*Time  = 1.87
*Data  = x;y;z
1,-4.00675868285,3.7075526847,-8.5340823189
2,-5.486325235,-5.36454379,-37.858426675
15,-3.82235745212,3.70318402655,-8.54725885117
16,-5.18524368451,-5.09929061994,-35.062794265
*Step  = 62
*Time  = 1.9
*Data  = x;y;z
1,-3.97569679185,3.7452438764,-8.54592160997
2,-5.486325235,-5.36454379,-37.858426675
15,-3.8219077207,3.74159413622,-8.55690913387
16,-5.18556706823,-5.09852486518,-35.0660985338
*Step  = 63
*Time  = 1.93
*Data  = x;y;z
1,-3.96450682447,3.76816880272,-8.55087447889
2,-5.486325235,-5.36454379,-37.858426675
15,-3.8213851426,3.76476660282,-8.56111123501
16,-5.1855200878,-5.0974783749,-35.0659473643
*Step  = 64
*Time  = 1.96
*Data  = x;y;z
1,-3.95818218582,3.78220329116,-8.55401081116
2,-5.486325235,-5.36454379,-37.858426675
15,-3.82098131139,3.77893673174,-8.56383639372
16,-5.18543894256,-5.09645487644,-35.0654639906
*Step  = 65
*Time  = 1.99
*Data  = x;y;z
1,-3.95375961333,3.77312275811,-8.54836223176
2,-5.486325235,-5.36454379,-37.858426675
15,-3.8204639945,3.76994478656,-8.55793931592
16,-5.18477886247,-5.09502288764,-35.0595683985
*Step  = 66
*Time  = 1.99999
*Data  = x;y;z
1,-3.95150752058,3.77547373973,-8.55258535996
2,-5.486325235,-5.36454379,-37.858426675
15,-3.82051763597,3.7723463978,-8.56200060864
16,-5.18499972851,-5.09437573911,-35.0618619631
*Step  = 1
*Time  = 2
*Data  = x;y;z
1,-3.94925664916,3.77779175167,-8.55680223526
2,-5.486325235,-5.36454379,-37.858426675
15,-3.82057329261,3.77471521424,-8.56605566173
16,-5.18522138183,-5.09373163383,-35.0641627844
*Step  = 2
*Time  = 2.00005
*Data  = x;y;z
1,-3.94707720112,3.78024673016,-8.56127280859
2,-5.486325235,-5.36454379,-37.858426675
15,-3.82064313389,3.77721960296,-8.570368307
16,-5.18546936854,-5.09311435487,-35.0667085451
*Step  = 3
*Time  = 2.0003
*Data  = x;y;z
1,-3.94477609766,3.78318279668,-8.5665809388
2,-5.486325235,-5.36454379,-37.858426675
15,-3.82074518783,3.78020821553,-8.57550700915
16,-5.18579905913,-5.09257507692,-35.070015245
*Step  = 4
*Time  = 2.00155
*Data  = x;y;z
1,-3.99778248652,3.62049122504,-8.2855959928
2,-5.486325235,-5.36454379,-37.858426675
15,-3.81642090229,3.61651959639,-8.29858547763
16,-5.17114842818,-5.13610418109,-34.9191248492
*Step  = 5
*Time  = 2.0078
*Data  = x;y;z
1,-3.99258185999,3.63780252117,-8.30678547365
2,-5.486325235,-5.36454379,-37.858426675
15,-3.81654400033,3.63390713365,-8.31944166077
16,-5.17293359124,-5.13612639888,-34.9360757343
*Step  = 6
*Time  = 2.03905
*Data  = x;y;z
1,-3.9789174655,3.71428810316,-8.43295847784
2,-5.486325235,-5.36454379,-37.858426675
15,-3.82145857161,3.71065571878,-8.44431207366
16,-5.18530765447,-5.14422494223,-35.0517099498
*Step  = 7
*Time  = 2.05
*Data  = x;y;z
1,-3.96466078398,3.74194153741,-8.48295020077
2,-5.486325235,-5.36454379,-37.858426675
15,-3.82343067334,3.73863437688,-8.49313681264
16,-5.19003549079,-5.14691521534,-35.0959953179
*Step  = 8
*Time  = 2.1
*Data  = x;y;z
1,-3.93163816448,3.85416557597,-8.68363564583
2,-5.486325235,-5.36454379,-37.858426675
15,-3.8311690018,3.85166478498,-8.69090444151
16,-5.20989644832,-5.16096925846,-35.2813609931
*Step  = 9
*Time  = 2.15
*Data  = x;y;z
1,-3.88089119044,3.95911349798,-8.88593763369
2,-5.486325235,-5.36454379,-37.858426675
15,-3.83878469137,3.95800349822,-8.88899114114
16,-5.22990143804,-5.1754228763,-35.4679955909
*Step  = 10
*Time  = 2.2
*Data  = x;y;z
1,-3.85296531344,4.01042738596,-8.99187804277
2,-5.486325235,-5.36454379,-37.858426675
15,-3.84280301739,4.01015195414,-8.99261418397
16,-5.24031955102,-5.18284117266,-35.5652206146
*Step  = 11
*Time  = 2.25
*Data  = x;y;z
1,-3.78364904321,4.10755582763,-9.1904451077
2,-5.486325235,-5.36454379,-37.858426675
15,-3.84971392329,4.10944356661,-9.18563588176
16,-5.25989415183,-5.19712172396,-35.7477998024
*Step  = 12
*Time  = 2.3
*Data  = x;y;z
1,-3.7476517435,4.20489593019,-9.39130140649
2,-5.486325235,-5.36454379,-37.858426675
15,-3.85666958923,4.20817036316,-9.38336915686
16,-5.27996150343,-5.21193592284,-35.9349150871
*Step  = 13
*Time  = 2.35
*Data  = x;y;z
1,-3.68435547434,4.29714232317,-9.59104410224
2,-5.486325235,-5.36454379,-37.858426675
15,-3.86323652701,4.30277735784,-9.57799405263
16,-5.29977627158,-5.22657501971,-36.1196618951
*Step  = 14
*Time  = 2.4
*Data  = x;y;z
1,-3.64157993017,4.38883702701,-9.79074236909
2,-5.486325235,-5.36454379,-37.858426675
15,-3.86944353226,4.39634956295,-9.77412970496
16,-5.31973845629,-5.24136838395,-36.3057582433
*Step  = 15
*Time  = 2.45
*Data  = x;y;z
1,-3.59086023251,4.47726610134,-9.98971732903
2,-5.486325235,-5.36454379,-37.858426675
15,-3.87544646488,4.48706531588,-9.96895817271
16,-5.33960990514,-5.25609927477,-36.4909952175
*Step  = 16
*Time  = 2.5
*Data  = x;y;z
1,-3.56417531814,4.51888833307,-10.0917520814
2,-5.486325235,-5.36454379,-37.858426675
15,-3.87861574507,4.52994696475,-10.0688190264
16,-5.34978805735,-5.26359431128,-36.5858870124
*Step  = 17
*Time  = 2.55
*Data  = x;y;z
1,-3.52149695787,4.60178600889,-10.2878032778
2,-5.486325235,-5.36454379,-37.858426675
15,-3.88425896666,4.6150749958,-10.2612735996
16,-5.36950420516,-5.27822499197,-36.769654038
*Step  = 18
*Time  = 2.6
*Data  = x;y;z
1,-3.4998563515,4.6818053598,-10.4837014729
2,-5.486325235,-5.36454379,-37.858426675
15,-3.88974111392,4.69665622893,-10.4552468201
16,-5.38940785644,-5.29302888802,-36.9551434887
*Step  = 19
*Time  = 2.65
*Data  = x;y;z
1,-3.4676677646,4.75956599663,-10.6779561775
2,-5.486325235,-5.36454379,-37.858426675
15,-3.89487095687,4.77646022732,-10.6467896743
16,-5.4090938293,-5.30763338445,-37.1386066167
*Step  = 20
*Time  = 2.7
*Data  = x;y;z
1,-3.42651958345,4.81043401599,-10.853859693
2,-5.486325235,-5.36454379,-37.858426675
15,-3.89893116098,4.82978279909,-10.819739085
16,-5.42724812465,-5.3212527546,-37.3077222827
*Step  = 21
*Time  = 2.75
*Data  = x;y;z
1,-3.40256824841,4.83633462625,-11.0123536746
2,-5.486325235,-5.36454379,-37.858426675
15,-3.90242304792,4.85748417689,-10.9769651292
16,-5.44417811871,-5.33396137232,-37.4654160354
*Step  = 22
*Time  = 2.79677419
*Data  = x;y;z
1,-3.40225151433,4.83422781993,-11.0771696823
2,-5.486325235,-5.36454379,-37.858426675
15,-3.90397902506,4.85575705506,-11.0421394019
16,-5.45150844177,-5.33946833247,-37.5336876354
*Step  = 23
*Time  = 2.8
*Data  = x;y;z
1,-3.40663099364,4.82256282088,-11.0747034367
2,-5.486325235,-5.36454379,-37.858426675
15,-3.90418537335,4.84392098437,-11.0400352494
16,-5.45163856921,-5.33964981359,-37.5348626841
*Step  = 24
*Time  = 2.83953141
*Data  = x;y;z
1,-3.40758738901,4.83706887026,-11.1890931957
2,-5.486325235,-5.36454379,-37.858426675
15,-3.90592677777,4.8589795073,-11.1553081607
16,-5.4638696432,-5.34852959951,-37.6489096984
*Step  = 25
*Time  = 2.85
*Data  = x;y;z
1,-3.40829687118,4.83131788054,-11.2127294699
2,-5.486325235,-5.36454379,-37.858426675
15,-3.90634204691,4.85334253207,-11.1792489075
16,-5.46664521365,-5.3505623467,-37.6747818502
*Step  = 26
*Time  = 2.9
*Data  = x;y;z
1,-3.41200158166,4.84492434932,-11.3498097485
2,-5.486325235,-5.36454379,-37.858426675
15,-3.90806552003,4.86749133704,-11.3178290243
16,-5.48125055696,-5.36096414907,-37.8110593465
*Step  = 27
*Time  = 2.95
*Data  = x;y;z
1,-3.40180943983,4.84244171621,-11.4738661436
2,-5.486325235,-5.36454379,-37.858426675
15,-3.90980332185,4.86616073724,-11.4424659957
16,-5.49471410603,-5.37040461763,-37.9367579884
*Step  = 28
*Time  = 3
*Data  = x;y;z
1,-3.36675409662,4.8251596976,-11.4606923734
2,-5.486325235,-5.36454379,-37.858426675
15,-3.9093493654,4.85048287967,-11.4271011512
16,-5.49345494099,-5.36951027538,-37.925007497
*Step  = 29
*Time  = 3.05
*Data  = x;y;z
1,-3.34196364285,4.80312872524,-11.2565900301
2,-5.486325235,-5.36454379,-37.858426675
15,-3.90679472066,4.82843053469,-11.2191427766
16,-5.47180560949,-5.35434808072,-37.7228802546
*Step  = 30
*Time  = 3.1
*Data  = x;y;z
1,-3.39724089799,4.78608543377,-11.0568077891
2,-5.486325235,-5.36454379,-37.858426675
15,-3.90556517417,4.80784571944,-11.0211446264
16,-5.45103954024,-5.33954296896,-37.5291334159
*Step  = 31
*Time  = 3.15
*Data  = x;y;z
1,-3.42771503214,4.77036491214,-10.9174291869
2,-5.486325235,-5.36454379,-37.858426675
15,-3.90364054451,4.79010047065,-10.8832253549
16,-5.43606541974,-5.32854733201,-37.3895644751
*Step  = 32
*Time  = 3.2
*Data  = x;y;z
1,-3.49342469858,4.72927090277,-10.6888281786
2,-5.486325235,-5.36454379,-37.858426675
15,-3.89883802437,4.74525885713,-10.6591389086
16,-5.41156724234,-5.31002699011,-37.1614270842
*Step  = 33
*Time  = 3.25
*Data  = x;y;z
1,-3.53437522059,4.65094501116,-10.4318547885
2,-5.486325235,-5.36454379,-37.858426675
15,-3.89184514423,4.66430065327,-10.4055792663
16,-5.3842579195,-5.28893683759,-36.9072443096
*Step  = 34
*Time  = 3.3
*Data  = x;y;z
1,-3.56267295272,4.51824246282,-10.1352868761
2,-5.486325235,-5.36454379,-37.858426675
15,-3.88238364304,4.52950249439,-10.1120238704
16,-5.35367507711,-5.26556783981,-36.6224438215
*Step  = 35
*Time  = 3.35
*Data  = x;y;z
1,-3.58481601372,4.42786482776,-9.93399709452
2,-5.486325235,-5.36454379,-37.858426675
15,-3.87560041456,4.43769457419,-9.91285091002
16,-5.33299412432,-5.24952416937,-36.4299079941
*Step  = 36
*Time  = 3.4
*Data  = x;y;z
1,-3.66151333299,4.29499431833,-9.64510423179
2,-5.486325235,-5.36454379,-37.858426675
15,-3.86664129916,4.30148947762,-9.63022349139
16,-5.30385183755,-5.22687926779,-36.158550005
*Step  = 37
*Time  = 3.45
*Data  = x;y;z
1,-3.7139944693,4.15343351829,-9.35263287121
2,-5.486325235,-5.36454379,-37.858426675
15,-3.856732914,4.15764870349,-9.3422863761
16,-5.27423555139,-5.20355728432,-35.8828075313
*Step  = 38
*Time  = 3.5
*Data  = x;y;z
1,-3.79726913692,4.01013876573,-9.06130420284
2,-5.486325235,-5.36454379,-37.858426675
15,-3.84637183577,4.01148446453,-9.05775721158
16,-5.24497490362,-5.18015827247,-35.6104002047
*Step  = 39
*Time  = 3.55
*Data  = x;y;z
1,-3.84319594673,3.91401077925,-8.86354388424
2,-5.486325235,-5.36454379,-37.858426675
15,-3.83856802507,3.91389042526,-8.86387804244
16,-5.2249675461,-5.16370395648,-35.4242153909
*Step  = 40
*Time  = 3.6
*Data  = x;y;z
1,-3.89656192466,3.76381894133,-8.57167199877
2,-5.486325235,-5.36454379,-37.858426675
15,-3.82697212654,3.76215644645,-8.5766935393
16,-5.19555846339,-5.13958082175,-35.150416501
*Step  = 41
*Time  = 3.65
*Data  = x;y;z
1,-3.94848973198,3.60532254143,-8.27641789261
2,-5.486325235,-5.36454379,-37.858426675
15,-3.81436461092,3.60240035633,-8.28608782867
16,-5.16583044554,-5.11458124818,-34.8736815156
*Step  = 42
*Time  = 3.7
*Data  = x;y;z
1,-4.006761168,3.44129470131,-7.97942266337
2,-5.486325235,-5.36454379,-37.858426675
15,-3.80071905844,3.43723549676,-7.99421672252
16,-5.13596819631,-5.08875836673,-34.5957193342
*Step  = 43
*Time  = 3.75
*Data  = x;y;z
1,-4.04551181505,3.32832658064,-7.776585047
2,-5.486325235,-5.36454379,-37.858426675
15,-3.79044866321,3.32364672707,-7.79486537699
16,-5.11545827292,-5.06979616092,-34.4049862068
*Step  = 44
*Time  = 3.8
*Data  = x;y;z
1,-4.09691910165,3.14997629667,-7.47810501506
2,-5.486325235,-5.36454379,-37.858426675
15,-3.77505241757,3.14473170795,-7.50090332951
16,-5.08547956909,-5.04258964591,-34.1259044962
*Step  = 45
*Time  = 3.85
*Data  = x;y;z
1,-4.15036647414,2.96349869945,-7.17410352349
2,-5.486325235,-5.36454379,-37.858426675
15,-3.75802285967,2.95789648554,-7.20149105705
16,-5.05501440696,-5.01410540815,-33.8422599181
*Step  = 46
*Time  = 3.9
*Data  = x;y;z
1,-4.19393455305,2.76442042067,-6.86279284427
2,-5.486325235,-5.36454379,-37.858426675
15,-3.73912235919,2.75882501461,-6.8939382156
16,-5.02384295819,-4.98424447345,-33.5519582754
*Step  = 47
*Time  = 3.95
*Data  = x;y;z
1,-4.2167726621,2.62763513104,-6.64902892801
2,-5.486325235,-5.36454379,-37.858426675
15,-3.72511092158,2.62221069895,-6.68230168421
16,-5.00238214955,-4.96222859815,-33.3521976311
*Step  = 48
*Time  = 4
*Data  = x;y;z
1,-4.21485848487,2.63359305986,-6.64142035361
2,-5.486325235,-5.36454379,-37.858426675
15,-3.72382426832,2.62813612673,-6.6748956185
16,-5.00133012553,-4.95781865715,-33.3429354644
*Step  = 49
*Time  = 4.05
*Data  = x;y;z
1,-4.11470358418,2.44493051666,-6.603577615
2,-5.486325235,-5.36454379,-37.858426675
15,-3.72243911143,2.44058838629,-6.63044502947
16,-4.99886136278,-4.95766829855,-33.3196299171
*Step  = 50
*Time  = 4.1
*Data  = x;y;z
1,-4.06323871116,2.26898201283,-6.58298962567
2,-5.486325235,-5.36454379,-37.858426675
15,-3.72290563966,2.26523004539,-6.6063518118
16,-4.99836611385,-4.95922849992,-33.3147024555
*Step  = 51
*Time  = 4.15
*Data  = x;y;z
1,-4.02554251038,2.09027227121,-6.57081123205
2,-5.486325235,-5.36454379,-37.858426675
15,-3.72426484347,2.08696413261,-6.59147795939
16,-4.99881286599,-4.96152921807,-33.3185638931
*Step  = 52
*Time  = 4.2
*Data  = x;y;z
1,-3.98009998566,1.90620728048,-6.56231474405
2,-5.486325235,-5.36454379,-37.858426675
15,-3.72591983784,1.9034269041,-6.5797195736
16,-4.99959692882,-4.96401128978,-33.325590358
*Step  = 53
*Time  = 4.25
*Data  = x;y;z
1,-3.9351895119,1.71382455838,-6.55891140528
2,-5.486325235,-5.36454379,-37.858426675
15,-3.72818024894,1.71156782023,-6.57304818107
16,-5.00096062819,-4.96675490613,-33.3380492553
*Step  = 54
*Time  = 4.3
*Data  = x;y;z
1,-3.90690496598,1.51601132587,-6.56056157506
2,-5.486325235,-5.36454379,-37.858426675
15,-3.7310405766,1.51409971052,-6.57251256037
16,-5.00297267099,-4.96980184994,-33.3565893215
*Step  = 55
*Time  = 4.35
*Data  = x;y;z
1,-3.87207907473,1.30479118014,-6.5684891908
2,-5.486325235,-5.36454379,-37.858426675
15,-3.73459925645,1.30330018896,-6.57777026515
16,-5.00568715301,-4.97310569279,-33.3817248079
*Step  = 56
*Time  = 4.4
*Data  = x;y;z
1,-3.85605152948,1.08187121329,-6.5858006108
2,-5.486325235,-5.36454379,-37.858426675
15,-3.73933574003,1.0806073422,-6.59360863147
16,-5.00959563369,-4.97702083082,-33.4180414336
*Step  = 57
*Time  = 4.45
*Data  = x;y;z
1,-3.85106943729,0.843490054901,-6.6135163428
2,-5.486325235,-5.36454379,-37.858426675
15,-3.74534996101,0.842345857846,-6.62050395127
16,-5.01479156427,-4.98150297899,-33.466427684
*Step  = 58
*Time  = 4.5
*Data  = x;y;z
1,-3.85205054858,0.58455599629,-6.65344406706
2,-5.486325235,-5.36454379,-37.858426675
15,-3.7528870572,0.583482092159,-6.65990629835
16,-5.02150903795,-4.98668006849,-33.5290737557
*Step  = 59
*Time  = 4.55
*Data  = x;y;z
1,-3.86812861732,0.320752434208,-6.69984868266
2,-5.486325235,-5.36454379,-37.858426675
15,-3.76123738619,0.31959300092,-6.70670759129
16,-5.02907165762,-4.99209127623,-33.5996648763
*Step  = 60
*Time  = 4.6
*Data  = x;y;z
1,-3.88888956165,0.0691755313165,-6.74414078635
2,-5.486325235,-5.36454379,-37.858426675
15,-3.76947594287,0.0678779340828,-6.75170171755
16,-5.03637029939,-4.99717117632,-33.6677876132
*Step  = 61
*Time  = 4.65
*Data  = x;y;z
1,-3.89871284798,-0.166754444193,-6.78256293556
2,-5.486325235,-5.36454379,-37.858426675
15,-3.77654161534,-0.168084795412,-6.79020409749
16,-5.04284780814,-5.00150401948,-33.7283174483
*Step  = 62
*Time  = 4.7
*Data  = x;y;z
1,-3.90797977518,-0.389985901533,-6.81918490368
2,-5.486325235,-5.36454379,-37.858426675
15,-3.78345748893,-0.391344460183,-6.82688460091
16,-5.0490325537,-5.0056691448,-33.7860856643
*Step  = 63
*Time  = 4.75
*Data  = x;y;z
1,-3.91929149062,-0.601308447517,-6.85368890825
2,-5.486325235,-5.36454379,-37.858426675
15,-3.79009897017,-0.602720307852,-6.86159147445
16,-5.05490443696,-5.00970542462,-33.8409106288
*Step  = 64
*Time  = 4.8
*Data  = x;y;z
1,-3.93204811089,-0.804787843115,-6.8875458539
2,-5.486325235,-5.36454379,-37.858426675
15,-3.79650470677,-0.806271509148,-6.89574242536
16,-5.06064152088,-5.01367466834,-33.8944911495
*Step  = 65
*Time  = 4.85
*Data  = x;y;z
1,-3.93494180962,-0.999684800172,-6.91991899733
2,-5.486325235,-5.36454379,-37.858426675
15,-3.80267101058,-1.00113460871,-6.92784017751
16,-5.06609413607,-5.01753841259,-33.945391884
*Step  = 66
*Time  = 4.9
*Data  = x;y;z
1,-3.93984844233,-1.18832304083,-6.95166855183
2,-5.486325235,-5.36454379,-37.858426675
15,-3.80872941425,-1.18976193122,-6.95943944687
16,-5.07142688054,-5.02139155252,-33.9951609156
*Step  = 67
*Time  = 4.95
*Data  = x;y;z
1,-3.95106316716,-1.37291665971,-6.9838836984
2,-5.486325235,-5.36454379,-37.858426675
15,-3.81483673886,-1.3744131994,-6.991868922
16,-5.07680573193,-5.02534592697,-34.0453510093
*Step  = 68
*Time  = 4.99999
*Data  = x;y;z
1,-4.00197739974,-1.2569948468,-6.94432213392
2,-5.486325235,-5.36454379,-37.858426675
15,-3.8094053957,-1.25911903001,-6.95587164919
16,-5.07220511578,-5.01958301047,-34.0027821347
