*Step  = 1
*Time  = 1e-05
*Data  = x;y;z
1,-3.53462158084,3.50126118005,-11.2211047285
2,-5.486325235,-5.36454379,-37.858426675
15,-3.97621745444,3.5204021455,-11.1912356492
16,-5.47863040318,-5.35901298391,-37.7866513741
*Step  = 2
*Time  = 1.76719802e-05
*Data  = x;y;z
1,-3.46370986951,3.47395454491,-11.1861168774
2,-5.486325235,-5.36454379,-37.858426675
15,-3.97331033652,3.49603802995,-11.1516797776
16,-5.47468463212,-5.35618718998,-37.749841698
*Step  = 3
*Time  = 5.60318814e-05
*Data  = x;y;z
1,-3.43556051746,3.46307941545,-11.1693256961
2,-5.486325235,-5.36454379,-37.858426675
15,-3.97183577799,3.48631568528,-11.133139526
16,-5.47281007656,-5.35484750165,-37.7323529234
*Step  = 4
*Time  = 0.000247831387
*Data  = x;y;z
1,-3.42015829266,3.45970883097,-11.1600749509
2,-5.486325235,-5.36454379,-37.858426675
15,-3.97096800053,3.48357068788,-11.1229034054
16,-5.47176533631,-5.35410173816,-37.7226055727
*Step  = 5
*Time  = 0.00120682892
*Data  = x;y;z
1,-3.41215104135,3.45694775845,-11.1515834105
2,-5.486325235,-5.36454379,-37.858426675
15,-3.97034516307,3.48111556078,-11.1138904482
16,-5.47084613289,-5.35344467062,-37.714029892
*Step  = 6
*Time  = 0.00600181657
*Data  = x;y;z
1,-3.41012564403,3.44659401362,-11.1297658879
2,-5.486325235,-5.36454379,-37.858426675
15,-3.96931703508,3.47074017842,-11.0920152486
16,-5.468599593,-5.35183177364,-37.6930740312
*Step  = 7
*Time  = 0.0299767548
*Data  = x;y;z
1,-3.42947043107,3.39673454646,-11.0350979751
2,-5.486325235,-5.36454379,-37.858426675
15,-3.96572429353,3.41958236338,-10.9989585868
16,-5.45906073265,-5.3449635318,-37.6041039095
*Step  = 8
*Time  = 0.05
*Data  = x;y;z
1,-3.46266135633,3.38788451116,-10.9973029748
2,-5.486325235,-5.36454379,-37.858426675
15,-3.96552238453,3.40907310892,-10.9634548118
16,-5.45525851306,-5.34218266838,-37.5686590991
*Step  = 9
*Time  = 0.1
*Data  = x;y;z
1,-3.53478208152,3.27167145758,-10.7955779632
2,-5.486325235,-5.36454379,-37.858426675
15,-3.95821129609,3.28898002771,-10.7674208674
16,-5.43520864917,-5.32766348199,-37.3816864304
*Step  = 10
*Time  = 0.15
*Data  = x;y;z
1,-3.63485870368,3.16276030767,-10.618984971
2,-5.486325235,-5.36454379,-37.858426675
15,-3.95258815004,3.17537461733,-10.5980910431
16,-5.41794659171,-5.31507670653,-37.2207453861
*Step  = 11
*Time  = 0.2
*Data  = x;y;z
1,-3.79926564139,3.02122257619,-10.4682461054
2,-5.486325235,-5.36454379,-37.858426675
15,-3.9508227279,3.02706418074,-10.4584669481
16,-5.40406582733,-5.30487281029,-37.0913599343
*Step  = 12
*Time  = 0.248387097
*Data  = x;y;z
1,-3.97891177636,2.78160168518,-10.3378794628
2,-5.486325235,-5.36454379,-37.858426675
15,-3.95474063993,2.78069802138,-10.3394043726
16,-5.39320521875,-5.29680622189,-36.9901544517
*Step  = 13
*Time  = 0.25
*Data  = x;y;z
1,-3.97483951004,2.80007869975,-10.3384570774
2,-5.486325235,-5.36454379,-37.858426675
15,-3.95432863986,2.79931242712,-10.339758325
16,-5.39307132611,-5.29659795807,-36.9889490646
*Step  = 14
*Time  = 0.281631638
*Data  = x;y;z
1,-4.10140268885,2.6073048884,-10.2962015265
2,-5.486325235,-5.36454379,-37.858426675
15,-3.96226456157,2.60220440261,-10.3049291043
16,-5.39088906293,-5.29482683901,-36.9686673337
*Step  = 15
*Time  = 0.3
*Data  = x;y;z
1,-4.07965907385,2.64534552752,-10.2002584518
2,-5.486325235,-5.36454379,-37.858426675
15,-3.95306526307,2.64075570855,-10.2082231316
16,-5.38020465309,-5.2868492191,-36.8691171566
*Step  = 16
*Time  = 0.35
*Data  = x;y;z
1,-4.14146988688,2.5094534014,-10.01884987
2,-5.486325235,-5.36454379,-37.858426675
15,-3.94617135458,2.50260095916,-10.0309815957
16,-5.36232373888,-5.27345977699,-36.7025175971
*Step  = 17
*Time  = 0.4
*Data  = x;y;z
1,-4.19049828833,2.39674137239,-9.84375164224
2,-5.486325235,-5.36454379,-37.858426675
15,-3.93824934524,2.38816593267,-9.8592472318
16,-5.34483437221,-5.2602430738,-36.5396002011
*Step  = 18
*Time  = 0.446774194
*Data  = x;y;z
1,-4.23635331706,2.29707343148,-9.6803503023
2,-5.486325235,-5.36454379,-37.858426675
15,-3.93034161518,2.2869782571,-9.69895858528
16,-5.32845740429,-5.2477317478,-36.3870819756
*Step  = 19
*Time  = 0.45
*Data  = x;y;z
1,-4.2042044054,2.33579134607,-9.66388226005
2,-5.486325235,-5.36454379,-37.858426675
15,-3.92747365515,2.32667650549,-9.68085077658
16,-5.32616764744,-5.24572816064,-36.3658470602
*Step  = 20
*Time  = 0.5
*Data  = x;y;z
1,-4.2869794412,2.18501537568,-9.49186783226
2,-5.486325235,-5.36454379,-37.858426675
15,-3.92107995308,2.17337756987,-9.51398079484
16,-5.30952245303,-5.23283123308,-36.2108716161
*Step  = 21
*Time  = 0.55
*Data  = x;y;z
1,-4.31981980629,2.07356923177,-9.31256130271
2,-5.486325235,-5.36454379,-37.858426675
15,-3.91150445127,2.06101262023,-9.33693715266
16,-5.29145077935,-5.21872168427,-36.042638029
*Step  = 22
*Time  = 0.6
*Data  = x;y;z
1,-4.35268895564,1.96428205168,-9.12981275241
2,-5.486325235,-5.36454379,-37.858426675
15,-3.90119767493,1.95086656523,-9.15646576307
16,-5.27301066816,-5.2041551842,-35.8710098934
*Step  = 23
*Time  = 0.65
*Data  = x;y;z
1,-4.39803121608,1.83868652167,-8.9383055022
2,-5.486325235,-5.36454379,-37.858426675
15,-3.89053146231,1.82415613904,-8.96789124621
16,-5.2538573424,-5.18884086563,-35.69277586
*Step  = 24
*Time  = 0.7
*Data  = x;y;z
1,-4.43286740771,1.72667877955,-8.75201268623
2,-5.486325235,-5.36454379,-37.858426675
15,-3.87922817154,1.71138545151,-8.78391869893
16,-5.23508710147,-5.17361040507,-35.5181518101
*Step  = 25
*Time  = 0.75
*Data  = x;y;z
1,-4.47577106644,1.60200970657,-8.55445504896
2,-5.486325235,-5.36454379,-37.858426675
15,-3.86714260861,1.58583689573,-8.58902919213
16,-5.21526410648,-5.15733639484,-35.3337573342
*Step  = 26
*Time  = 0.8
*Data  = x;y;z
1,-4.50941878703,1.48066244348,-8.36618767165
2,-5.486325235,-5.36454379,-37.858426675
15,-3.85526305084,1.46391995167,-8.40282879327
16,-5.19635806294,-5.14154912267,-35.1579379089
*Step  = 27
*Time  = 0.85
*Data  = x;y;z
1,-4.53928028499,1.36018424325,-8.1779292619
2,-5.486325235,-5.36454379,-37.858426675
15,-3.84298859749,1.34303294761,-8.21640328362
16,-5.17744679904,-5.1255135029,-34.9821043949
*Step  = 28
*Time  = 0.9
*Data  = x;y;z
1,-4.56937978924,1.2239130992,-7.97923751377
2,-5.486325235,-5.36454379,-37.858426675
15,-3.82993768581,1.20643943867,-8.01947038886
16,-5.15758146257,-5.10846964726,-34.7974131739
*Step  = 29
*Time  = 0.95
*Data  = x;y;z
1,-4.60322094656,1.08684793264,-7.79137452088
2,-5.486325235,-5.36454379,-37.858426675
15,-3.8174209172,1.0690085032,-7.83343882527
16,-5.13890912188,-5.09209359482,-34.6238721596
*Step  = 30
*Time  = 1
*Data  = x;y;z
1,-4.57413012232,1.11449395735,-7.79001400796
2,-5.486325235,-5.36454379,-37.858426675
15,-3.81644935541,1.09726836113,-7.8310197428
16,-5.13841873577,-5.09038999561,-34.6196482712
*Step  = 31
*Time  = 1.03
*Data  = x;y;z
1,-4.31790267951,2.22936280413,-8.1928662365
2,-5.486325235,-5.36454379,-37.858426675
15,-3.83398117281,2.218326889,-8.22560765805
16,-5.17141851176,-5.11402876197,-34.9272216735
*Step  = 32
*Time  = 1.06
*Data  = x;y;z
1,-4.28138624173,2.66373757362,-8.31437366885
2,-5.486325235,-5.36454379,-37.858426675
15,-3.83566645901,2.65354085084,-8.34537676931
16,-5.1797819488,-5.11871557501,-35.0055439426
*Step  = 33
*Time  = 1.09
*Data  = x;y;z
1,-4.21563581824,2.92556410887,-8.36499139606
2,-5.486325235,-5.36454379,-37.858426675
15,-3.83338794627,2.91679243117,-8.39174749683
16,-5.18174365409,-5.11839968196,-35.0242834574
*Step  = 34
*Time  = 1.12
*Data  = x;y;z
1,-4.16078049285,3.10428004513,-8.39297093344
2,-5.486325235,-5.36454379,-37.858426675
15,-3.83085360638,3.09668664932,-8.41619386264
16,-5.18218748917,-5.11696254272,-35.0288794424
*Step  = 35
*Time  = 1.15
*Data  = x;y;z
1,-4.11863485049,3.25388346144,-8.420217945
2,-5.486325235,-5.36454379,-37.858426675
15,-3.82893865884,3.24719669,-8.44065631891
16,-5.18286821107,-5.11576352736,-35.0356757277
*Step  = 36
*Time  = 1.18
*Data  = x;y;z
1,-4.08347987315,3.41016945987,-8.45589310715
2,-5.486325235,-5.36454379,-37.858426675
15,-3.82755712873,3.40424451233,-8.47392527665
16,-5.18431743519,-5.11514040931,-35.0496454847
*Step  = 37
*Time  = 1.21
*Data  = x;y;z
1,-4.06011152727,3.53839352974,-8.48133462898
2,-5.486325235,-5.36454379,-37.858426675
15,-3.8259725015,3.53295700969,-8.49782454363
16,-5.18505908522,-5.1139822453,-35.0570228341
*Step  = 38
*Time  = 1.24
*Data  = x;y;z
1,-4.05162782149,3.64541550322,-8.50387717265
2,-5.486325235,-5.36454379,-37.858426675
15,-3.82474478024,3.64013266921,-8.51984428386
16,-5.18582091094,-5.1129203486,-35.0645706302
*Step  = 39
*Time  = 1.27
*Data  = x;y;z
1,-4.03352355637,3.74790168167,-8.52743240254
2,-5.486325235,-5.36454379,-37.858426675
15,-3.82359771847,3.74300007528,-8.54217737295
16,-5.18662555765,-5.11191050807,-35.0725177383
*Step  = 40
*Time  = 1.3
*Data  = x;y;z
1,-4.00678579433,3.84237154838,-8.55008442955
2,-5.486325235,-5.36454379,-37.858426675
15,-3.82250498801,3.83805698002,-8.56300949867
16,-5.18734779106,-5.11086432106,-35.0796924418
*Step  = 41
*Time  = 1.33
*Data  = x;y;z
1,-3.98938324436,3.94744166638,-8.57863426664
2,-5.486325235,-5.36454379,-37.858426675
15,-3.82166221283,3.94350372444,-8.59035875224
16,-5.18858228237,-5.1102020182,-35.0916512712
*Step  = 42
*Time  = 1.36
*Data  = x;y;z
1,-3.98202164833,4.03651447612,-8.60061109348
2,-5.486325235,-5.36454379,-37.858426675
15,-3.82072233222,4.03271681535,-8.61186478078
16,-5.18938270779,-5.10920271594,-35.0995661343
*Step  = 43
*Time  = 1.39
*Data  = x;y;z
1,-3.96164305038,4.11309189149,-8.61852154102
2,-5.486325235,-5.36454379,-37.858426675
15,-3.81965367005,4.10974003034,-8.62841957055
16,-5.18981167002,-5.10796214009,-35.1040085943
*Step  = 44
*Time  = 1.42
*Data  = x;y;z
1,-3.94416756532,4.18987378455,-8.6389549407
2,-5.486325235,-5.36454379,-37.858426675
15,-3.81884212672,4.18690762592,-8.64768031959
16,-5.19051172167,-5.10698679919,-35.1109646466
*Step  = 45
*Time  = 1.45
*Data  = x;y;z
1,-3.93280621547,4.26354335085,-8.65946199244
2,-5.486325235,-5.36454379,-37.858426675
15,-3.81808439317,4.26082111358,-8.66743057841
16,-5.19127105419,-5.10606645261,-35.1184773335
*Step  = 46
*Time  = 1.48
*Data  = x;y;z
1,-3.91959678231,4.34644544961,-8.68492835691
2,-5.486325235,-5.36454379,-37.858426675
15,-3.81749362633,4.3440162732,-8.6919976647
16,-5.19239492686,-5.10544701629,-35.1293870414
*Step  = 47
*Time  = 1.51
*Data  = x;y;z
1,-3.91595147904,4.41916798721,-8.70475900594
2,-5.486325235,-5.36454379,-37.858426675
15,-3.81667709538,4.41679989313,-8.71161334894
16,-5.19310344472,-5.10446011837,-35.1364424885
*Step  = 48
*Time  = 1.54
*Data  = x;y;z
1,-3.90141852837,4.48204807691,-8.72157121517
2,-5.486325235,-5.36454379,-37.858426675
15,-3.81584137877,4.48000158498,-8.72747348996
16,-5.19355603997,-5.10331706566,-35.1410991741
*Step  = 49
*Time  = 1.57
*Data  = x;y;z
1,-3.8874618807,4.55408594924,-8.74473162109
2,-5.486325235,-5.36454379,-37.858426675
15,-3.81533922761,4.55235688603,-8.74969515279
16,-5.1945440612,-5.10265971647,-35.150730111
*Step  = 50
*Time  = 1.6
*Data  = x;y;z
1,-3.87853316385,4.62255702307,-8.76510088405
2,-5.486325235,-5.36454379,-37.858426675
15,-3.81459048378,4.62102011434,-8.76948801097
16,-5.19527786456,-5.10173248248,-35.1580209909
*Step  = 51
*Time  = 1.63
*Data  = x;y;z
1,-3.89722013081,4.43102243952,-8.43304720329
2,-5.486325235,-5.36454379,-37.858426675
15,-3.8088192225,4.42907682682,-8.43916716428
16,-5.17888753259,-5.14208065158,-34.9912156864
*Step  = 52
*Time  = 1.66
*Data  = x;y;z
1,-3.92529136307,4.53638923573,-8.48673509524
2,-5.486325235,-5.36454379,-37.858426675
15,-3.81047212436,4.53385201646,-8.49459303067
16,-5.18296982275,-5.14267398303,-35.0298516675
*Step  = 53
*Time  = 1.69
*Data  = x;y;z
1,-3.90997315637,4.59921315075,-8.50685479717
2,-5.486325235,-5.36454379,-37.858426675
15,-3.80992413391,4.59699462071,-8.51369160329
16,-5.18373364485,-5.1411446427,-35.0374775163
*Step  = 54
*Time  = 1.72
*Data  = x;y;z
1,-3.89968244285,4.66627367009,-8.52992501795
2,-5.486325235,-5.36454379,-37.858426675
15,-3.80958167255,4.66426907884,-8.53606590421
16,-5.1848068136,-5.13993541498,-35.04797043
*Step  = 55
*Time  = 1.75
*Data  = x;y;z
1,-3.90126141825,4.7319007486,-8.55211717904
2,-5.486325235,-5.36454379,-37.858426675
15,-3.80928465462,4.72984780458,-8.55836951257
16,-5.18588842841,-5.13879627085,-35.0585312441
*Step  = 56
*Time  = 1.78
*Data  = x;y;z
1,-3.88711025927,4.78386043183,-8.56744916795
2,-5.486325235,-5.36454379,-37.858426675
15,-3.80862076191,4.78210344391,-8.57277832543
16,-5.18632038072,-5.13736836246,-35.0629919879
*Step  = 57
*Time  = 1.81
*Data  = x;y;z
1,-3.87527248948,4.8371110506,-8.5851055832
2,-5.486325235,-5.36454379,-37.858426675
15,-3.80820032702,4.83560543949,-8.5896535554
16,-5.18701069219,-5.13619894839,-35.069847964
*Step  = 58
*Time  = 1.84
*Data  = x;y;z
1,-3.87015773061,4.88992919247,-8.60323255738
2,-5.486325235,-5.36454379,-37.858426675
15,-3.80781443236,4.8885258623,-8.60744867235
16,-5.1877813881,-5.13511196708,-35.0774520783
*Step  = 59
*Time  = 1.87
*Data  = x;y;z
1,-3.86050416606,4.94644098921,-8.62311283301
2,-5.486325235,-5.36454379,-37.858426675
15,-3.807485102,4.94524423161,-8.62669039139
16,-5.18865866532,-5.13410135575,-35.0860536748
*Step  = 60
*Time  = 1.9
*Data  = x;y;z
1,-3.86311117155,5.0033495401,-8.64313658124
2,-5.486325235,-5.36454379,-37.858426675
15,-3.80719772905,5.00208394535,-8.64689823183
16,-5.18961339692,-5.13315263393,-35.0953805345
*Step  = 61
*Time  = 1.93
*Data  = x;y;z
1,-3.84751081146,5.0475804898,-8.65675586712
2,-5.486325235,-5.36454379,-37.858426675
15,-3.80661068496,5.04665237943,-8.65950591677
16,-5.18995042283,-5.13187330418,-35.098917214
*Step  = 62
*Time  = 1.96
*Data  = x;y;z
1,-3.842196062,5.07087817551,-8.66072555447
2,-5.486325235,-5.36454379,-37.858426675
15,-3.80579592729,5.0700503448,-8.66317529282
16,-5.18962480773,-5.13025773459,-35.0962372059
*Step  = 63
*Time  = 1.99
*Data  = x;y;z
1,-3.84197887638,5.05577960304,-8.64912690902
2,-5.486325235,-5.36454379,-37.858426675
15,-3.8047792563,5.05493226926,-8.65164229693
16,-5.18825992349,-5.12821854605,-35.0837753145
*Step  = 64
*Time  = 1.99999
*Data  = x;y;z
1,-3.84342608466,5.0589259854,-8.65430047145
2,-5.486325235,-5.36454379,-37.858426675
15,-3.80479486722,5.05804461642,-8.6569128071
16,-5.18843299125,-5.12736128557,-35.0856462564
*Step  = 1
*Time  = 2
*Data  = x;y;z
1,-3.84329493916,5.06404490072,-8.66064232545
2,-5.486325235,-5.36454379,-37.858426675
15,-3.8048481314,5.06316629273,-8.66324201535
16,-5.18869060856,-5.12655449406,-35.0883100252
*Step  = 2
*Time  = 2.00005
*Data  = x;y;z
1,-3.84255756748,5.06900408487,-8.66680612886
2,-5.486325235,-5.36454379,-37.858426675
15,-3.80487770189,5.06814153166,-8.66935411937
16,-5.1889263562,-5.12572613838,-35.0907725383
*Step  = 3
*Time  = 2.0003
*Data  = x;y;z
1,-3.84116531966,5.07419167717,-8.6736076272
2,-5.486325235,-5.36454379,-37.858426675
15,-3.80492186646,5.07336040618,-8.67605881984
16,-5.18922186668,-5.1249432676,-35.0937942312
*Step  = 4
*Time  = 2.00155
*Data  = x;y;z
1,-3.83912566357,5.08119656436,-8.68403540141
2,-5.486325235,-5.36454379,-37.858426675
15,-3.80509435773,5.0804136904,-8.68633735597
16,-5.18987564818,-5.12444920467,-35.100157217
*Step  = 5
*Time  = 2.0078
*Data  = x;y;z
1,-3.8356200904,5.09795396332,-8.71271168145
2,-5.486325235,-5.36454379,-37.858426675
15,-3.80590177283,5.09726459345,-8.71472236456
16,-5.19233289162,-5.12540014928,-35.1233382429
*Step  = 6
*Time  = 2.03905
*Data  = x;y;z
1,-3.82208575782,5.16233389089,-8.83212485605
2,-5.486325235,-5.36454379,-37.858426675
15,-3.80984086784,5.1620399631,-8.83295445808
16,-5.20377831483,-5.13366344235,-35.2303008212
*Step  = 7
*Time  = 2.05
*Data  = x;y;z
1,-3.81250251442,5.18437737753,-8.878328845
2,-5.486325235,-5.36454379,-37.858426675
15,-3.81144451128,5.18435167187,-8.87840046012
16,-5.20811038122,-5.13660959956,-35.2708335566
*Step  = 8
*Time  = 2.1
*Data  = x;y;z
1,-3.78973791384,5.28229181743,-9.07290181098
2,-5.486325235,-5.36454379,-37.858426675
15,-3.81780054242,5.28301077075,-9.07100010144
16,-5.22716252613,-5.15155718269,-35.4485451967
*Step  = 9
*Time  = 2.15
*Data  = x;y;z
1,-3.76406481489,5.36951456438,-9.25855977432
2,-5.486325235,-5.36454379,-37.858426675
15,-3.82389842454,5.37112145226,-9.25451109732
16,-5.24550922363,-5.16641675985,-35.6195049175
*Step  = 10
*Time  = 2.2
*Data  = x;y;z
1,-3.73811464226,5.45227635817,-9.44307645873
2,-5.486325235,-5.36454379,-37.858426675
15,-3.8298314827,5.45485188368,-9.43688651036
16,-5.26385519765,-5.18148141256,-35.790354611
*Step  = 11
*Time  = 2.25
*Data  = x;y;z
1,-3.70502600434,5.53403619782,-9.63560367135
2,-5.486325235,-5.36454379,-37.858426675
15,-3.8359495724,5.53788016115,-9.62678656099
16,-5.28312378003,-5.19750542287,-35.9696816976
*Step  = 12
*Time  = 2.3
*Data  = x;y;z
1,-3.67994331469,5.60762008543,-9.81646737333
2,-5.486325235,-5.36454379,-37.858426675
15,-3.84154609108,5.61255923248,-9.80562170957
16,-5.3013630047,-5.2127497603,-36.1393548713
*Step  = 13
*Time  = 2.35
*Data  = x;y;z
1,-3.64485989489,5.68164330581,-10.0043812584
2,-5.486325235,-5.36454379,-37.858426675
15,-3.84709932899,5.68807933681,-9.99085716651
16,-5.32033246252,-5.22862162812,-36.3157634429
*Step  = 14
*Time  = 2.4
*Data  = x;y;z
1,-3.60828415798,5.74715852818,-10.1800047343
2,-5.486325235,-5.36454379,-37.858426675
15,-3.85204778472,5.75520583241,-10.1637711495
16,-5.33808747089,-5.24342990529,-36.4808474468
*Step  = 15
*Time  = 2.45
*Data  = x;y;z
1,-3.57089551111,5.8069534852,-10.351617371
2,-5.486325235,-5.36454379,-37.858426675
15,-3.85669025947,5.81672408664,-10.332690093
16,-5.35556285471,-5.25804385256,-36.6432723528
*Step  = 16
*Time  = 2.5
*Data  = x;y;z
1,-3.53194387252,5.85994468354,-10.5238481278
2,-5.486325235,-5.36454379,-37.858426675
15,-3.86112694677,5.87159562056,-10.5022440399
16,-5.3734487479,-5.27317575069,-36.8093994881
*Step  = 17
*Time  = 2.55
*Data  = x;y;z
1,-3.49545354672,5.89894510322,-10.677248505
2,-5.486325235,-5.36454379,-37.858426675
15,-3.8650505928,5.91243206456,-10.6532686837
16,-5.38986504569,-5.28721602218,-36.9617697376
*Step  = 18
*Time  = 2.6
*Data  = x;y;z
1,-3.45792061202,5.92902191421,-10.8219127306
2,-5.486325235,-5.36454379,-37.858426675
15,-3.86881391141,5.9444499467,-10.7955848362
16,-5.40579955933,-5.30082864059,-37.1096267544
*Step  = 19
*Time  = 2.65
*Data  = x;y;z
1,-3.43112870728,5.95578040069,-10.9684357307
2,-5.486325235,-5.36454379,-37.858426675
15,-3.87269386837,5.97283559278,-10.9406101239
16,-5.42238890868,-5.31479141284,-37.263597129
*Step  = 20
*Time  = 2.7
*Data  = x;y;z
1,-3.40144021211,5.97367315016,-11.098657101
2,-5.486325235,-5.36454379,-37.858426675
15,-3.87628142258,5.99247683449,-11.0692286533
16,-5.43762415112,-5.32738073262,-37.4050585542
*Step  = 21
*Time  = 2.75
*Data  = x;y;z
1,-3.38144106598,5.98840609083,-11.2309641723
2,-5.486325235,-5.36454379,-37.858426675
15,-3.87997578916,6.0086468679,-11.2007058354
16,-5.45342550607,-5.33999363712,-37.5519334254
*Step  = 22
*Time  = 2.8
*Data  = x;y;z
1,-3.36927099899,5.99626734742,-11.3490386577
2,-5.486325235,-5.36454379,-37.858426675
15,-3.88332485459,6.01760758397,-11.3185693174
16,-5.46792624462,-5.35113419865,-37.6868868714
*Step  = 23
*Time  = 2.85
*Data  = x;y;z
1,-3.34558556859,5.99955922179,-11.4618905342
2,-5.486325235,-5.36454379,-37.858426675
15,-3.88637119466,6.02249175502,-11.4306738158
16,-5.48182813725,-5.36134354472,-37.8164647064
*Step  = 24
*Time  = 2.9
*Data  = x;y;z
1,-3.33081117907,6.00143069375,-11.5765102101
2,-5.486325235,-5.36454379,-37.858426675
15,-3.88918766879,6.02562493803,-11.5453775229
16,-5.4959491919,-5.37122791367,-37.9483023651
*Step  = 25
*Time  = 2.95
*Data  = x;y;z
1,-3.32477315328,5.99734761589,-11.6766657459
2,-5.486325235,-5.36454379,-37.858426675
15,-3.89170961511,6.02238629604,-11.6462124432
16,-5.50866209833,-5.37967468599,-38.0672069477
*Step  = 26
*Time  = 3
*Data  = x;y;z
1,-3.30182524228,5.98020700587,-11.6578328665
2,-5.486325235,-5.36454379,-37.858426675
15,-3.89147991296,6.00621140564,-11.6262155226
16,-5.50766080369,-5.37884240052,-38.0579179195
*Step  = 27
*Time  = 3.05
*Data  = x;y;z
1,-3.27336995066,5.95062354415,-11.4669957935
2,-5.486325235,-5.36454379,-37.858426675
15,-3.8881503817,5.97682949207,-11.4320862829
16,-5.48671304386,-5.36480705101,-37.8620509384
*Step  = 28
*Time  = 3.1
*Data  = x;y;z
1,-3.31094507589,5.93034233743,-11.2894517243
2,-5.486325235,-5.36454379,-37.858426675
15,-3.8860690973,5.95400756784,-11.2549972675
16,-5.46720479991,-5.35135369011,-37.6798400743
*Step  = 29
*Time  = 3.15
*Data  = x;y;z
1,-3.38183944565,5.90327657176,-11.0997063863
2,-5.486325235,-5.36454379,-37.858426675
15,-3.88272448445,5.92311415943,-11.0686532373
16,-5.44575384368,-5.33585663391,-37.4797947062
*Step  = 30
*Time  = 3.2
*Data  = x;y;z
1,-3.44933150337,5.87462828883,-10.9107333081
2,-5.486325235,-5.36454379,-37.858426675
15,-3.87806064005,5.89097533405,-10.8835560784
16,-5.42374394387,-5.31893033875,-37.2749434924
*Step  = 31
*Time  = 3.25
*Data  = x;y;z
1,-3.51670210926,5.84047303724,-10.7091468193
2,-5.486325235,-5.36454379,-37.858426675
15,-3.87263048293,5.85349419466,-10.6861389115
16,-5.40018653767,-5.29966413228,-37.0560981267
*Step  = 32
*Time  = 3.3
*Data  = x;y;z
1,-3.5628368599,5.800012969,-10.5060729911
2,-5.486325235,-5.36454379,-37.858426675
15,-3.86670161998,5.81066858496,-10.4861007636
16,-5.37656700358,-5.27929040878,-36.8370004211
*Step  = 33
*Time  = 3.35
*Data  = x;y;z
1,-3.59938592243,5.74346175254,-10.2814280569
2,-5.486325235,-5.36454379,-37.858426675
15,-3.85993289879,5.75217262404,-10.2640844508
16,-5.35115476604,-5.25671510383,-36.6013973275
*Step  = 34
*Time  = 3.4
*Data  = x;y;z
1,-3.62780180465,5.66253172553,-10.042611317
2,-5.486325235,-5.36454379,-37.858426675
15,-3.8522100095,5.66966496471,-10.0276143293
16,-5.32518140492,-5.23357110457,-36.3604850349
*Step  = 35
*Time  = 3.45
*Data  = x;y;z
1,-3.66198444137,5.56205336599,-9.78064814545
2,-5.486325235,-5.36454379,-37.858426675
15,-3.84367592186,5.56750794554,-9.76847121956
16,-5.29759005479,-5.20910069882,-36.1043712741
*Step  = 36
*Time  = 3.5
*Data  = x;y;z
1,-3.68632059921,5.44854652386,-9.50890066694
2,-5.486325235,-5.36454379,-37.858426675
15,-3.83433801608,5.45272432022,-9.49896755547
16,-5.26936498739,-5.18402249448,-35.8422319566
*Step  = 37
*Time  = 3.55
*Data  = x;y;z
1,-3.71695041766,5.33256823252,-9.24296784183
2,-5.486325235,-5.36454379,-37.858426675
15,-3.82493957541,5.33542812913,-9.23570251293
16,-5.24200218448,-5.15940401394,-35.588031818
*Step  = 38
*Time  = 3.6
*Data  = x;y;z
1,-3.75761946558,5.20656134343,-8.96666849611
2,-5.486325235,-5.36454379,-37.858426675
15,-3.81482860581,5.20797270397,-8.96281653437
16,-5.21377793227,-5.13364496957,-35.3257569803
*Step  = 39
*Time  = 3.65
*Data  = x;y;z
1,-3.79495287396,5.08154159473,-8.69974691552
2,-5.486325235,-5.36454379,-37.858426675
15,-3.80445970785,5.08175961861,-8.69910631061
16,-5.18648506607,-5.10799088964,-35.0721605107
*Step  = 40
*Time  = 3.7
*Data  = x;y;z
1,-3.83775585642,4.94538681178,-8.42309968711
2,-5.486325235,-5.36454379,-37.858426675
15,-3.79319760533,4.94444487023,-8.42609823505
16,-5.15829767899,-5.08079220839,-34.810224189
*Step  = 41
*Time  = 3.75
*Data  = x;y;z
1,-3.87834231044,4.80939188096,-8.15580097658
2,-5.486325235,-5.36454379,-37.858426675
15,-3.78155429623,4.80751083236,-8.16230394526
16,-5.13100740817,-5.05323719688,-34.5567040957
*Step  = 42
*Time  = 3.8
*Data  = x;y;z
1,-3.92255915266,4.66615732598,-7.87915578065
2,-5.486325235,-5.36454379,-37.858426675
15,-3.76890456991,4.66344101743,-7.88945665003
16,-5.10285129103,-5.02385682203,-34.2950878363
*Step  = 43
*Time  = 3.85
*Data  = x;y;z
1,-3.96244424871,4.5227456853,-7.61311413104
2,-5.486325235,-5.36454379,-37.858426675
15,-3.75586483665,4.51943899814,-7.62687259599
16,-5.07577019502,-4.99434073083,-34.0434699731
*Step  = 44
*Time  = 3.9
*Data  = x;y;z
1,-4.02093349989,4.18174717728,-7.02119706167
2,-5.486325235,-5.36454379,-37.858426675
15,-3.73329482074,4.17818931497,-7.03995364547
16,-5.03079726095,-5.02953081501,-33.6107872987
*Step  = 45
*Time  = 3.95
*Data  = x;y;z
1,-4.04595930724,4.01417675091,-6.7380033939
2,-5.486325235,-5.36454379,-37.858426675
15,-3.71653134162,4.01065014952,-6.75924049539
16,-5.00107662688,-5.00023978492,-33.3345426776
*Step  = 46
*Time  = 4
*Data  = x;y;z
1,-4.03928090429,4.03545160854,-6.74018695265
2,-5.486325235,-5.36454379,-37.858426675
15,-3.71495376713,4.03192813835,-6.76125990179
16,-4.99996863766,-4.99204469159,-33.3252404532
*Step  = 47
*Time  = 4.05
*Data  = x;y;z
1,-3.98833828339,3.94856290571,-6.72337716607
2,-5.486325235,-5.36454379,-37.858426675
15,-3.7141278011,3.94558080636,-6.74127082883
16,-4.99861271163,-4.99048018498,-33.312672401
*Step  = 48
*Time  = 4.1
*Data  = x;y;z
1,-3.95628338195,3.86433260753,-6.71328077159
2,-5.486325235,-5.36454379,-37.858426675
15,-3.71424792174,3.86170171472,-6.72912792405
16,-4.99818253248,-4.99039451904,-33.3086239304
*Step  = 49
*Time  = 4.15
*Data  = x;y;z
1,-3.93364758772,3.78018114069,-6.70595207864
2,-5.486325235,-5.36454379,-37.858426675
15,-3.71476181763,3.77780519135,-6.72031115729
16,-4.99815611118,-4.99106900937,-33.3082765206
*Step  = 50
*Time  = 4.2
*Data  = x;y;z
1,-3.90881093225,3.69401239731,-6.69933731458
2,-5.486325235,-5.36454379,-37.858426675
15,-3.71540055359,3.69191709508,-6.71204326388
16,-4.99823728355,-4.99210872996,-33.3088930409
*Step  = 51
*Time  = 4.25
*Data  = x;y;z
1,-3.88655666979,3.60711080108,-6.69333659
2,-5.486325235,-5.36454379,-37.858426675
15,-3.7161495257,3.60526890837,-6.70454462515
16,-4.99841929028,-4.99337924088,-33.3104288969
*Step  = 52
*Time  = 4.3
*Data  = x;y;z
1,-3.86514121622,3.51954318498,-6.68745264472
2,-5.486325235,-5.36454379,-37.858426675
15,-3.71693845138,3.51794527786,-6.69721189962
16,-4.99863057692,-4.99477078428,-33.312224951
*Step  = 53
*Time  = 4.35
*Data  = x;y;z
1,-3.84623658523,3.43095408315,-6.68215673998
2,-5.486325235,-5.36454379,-37.858426675
15,-3.71780518322,3.42957291696,-6.69061997261
16,-4.99892050616,-4.99626123897,-33.3147501696
*Step  = 54
*Time  = 4.4
*Data  = x;y;z
1,-3.8259979132,3.34085238694,-6.67753041019
2,-5.486325235,-5.36454379,-37.858426675
15,-3.7187553106,3.3397020994,-6.68460323226
16,-4.9992786371,-4.99781444121,-33.3179106594
*Step  = 55
*Time  = 4.45
*Data  = x;y;z
1,-3.8062726535,3.24979316455,-6.67368204536
2,-5.486325235,-5.36454379,-37.858426675
15,-3.71977281602,3.2488677211,-6.67939090979
16,-4.99971415568,-4.99938428612,-33.321799827
*Step  = 56
*Time  = 4.5
*Data  = x;y;z
1,-3.78845228,3.15813248321,-6.67008248784
2,-5.486325235,-5.36454379,-37.858426675
15,-3.72081093383,3.15741064134,-6.674547097
16,-5.00017667727,-5.00096921945,-33.3259428697
*Step  = 57
*Time  = 4.55
*Data  = x;y;z
1,-3.77044422617,3.06476188234,-6.66732028656
2,-5.486325235,-5.36454379,-37.858426675
15,-3.72194881265,3.06424563746,-6.67052191732
16,-5.00072858716,-5.00258078778,-33.330925699
*Step  = 58
*Time  = 4.6
*Data  = x;y;z
1,-3.74773719555,2.96894897581,-6.66465345214
2,-5.486325235,-5.36454379,-37.858426675
15,-3.72309645585,2.96868731629,-6.66628126503
16,-5.00127236166,-5.00417356065,-33.335835248
*Step  = 59
*Time  = 4.65
*Data  = x;y;z
1,-3.72793085399,2.87271688819,-6.66273257853
2,-5.486325235,-5.36454379,-37.858426675
15,-3.72432478299,2.87267869038,-6.66297090697
16,-5.00190024159,-5.0057702535,-33.3415378808
*Step  = 60
*Time  = 4.7
*Data  = x;y;z
1,-3.71240463671,2.77577883106,-6.66120439131
2,-5.486325235,-5.36454379,-37.858426675
15,-3.72559597202,2.775918271,-6.66033295781
16,-5.00258235563,-5.00737165256,-33.3477521174
*Step  = 61
*Time  = 4.75
*Data  = x;y;z
1,-3.6912880447,2.67670517579,-6.66023939819
2,-5.486325235,-5.36454379,-37.858426675
15,-3.72690612666,2.67708084187,-6.65788660959
16,-5.00329305936,-5.00894786894,-33.3542397811
*Step  = 62
*Time  = 4.8
*Data  = x;y;z
1,-3.67087897065,2.57563041631,-6.66013290924
2,-5.486325235,-5.36454379,-37.858426675
15,-3.72832034022,2.57623504032,-6.65633770312
16,-5.00410076934,-5.0104944502,-33.3616459652
*Step  = 63
*Time  = 4.85
*Data  = x;y;z
1,-3.64999959202,2.4732934239,-6.66055829091
2,-5.486325235,-5.36454379,-37.858426675
15,-3.72978572079,2.47413163922,-6.65528664572
16,-5.00495695118,-5.01203088887,-33.3695107935
*Step  = 64
*Time  = 4.9
*Data  = x;y;z
1,-3.63618819667,2.36939050169,-6.66258737209
2,-5.486325235,-5.36454379,-37.858426675
15,-3.73144767643,2.37038950065,-6.65630021375
16,-5.00601933734,-5.01364817743,-33.3793084285
*Step  = 65
*Time  = 4.95
*Data  = x;y;z
1,-3.61902732959,2.2632789224,-6.66540537998
2,-5.486325235,-5.36454379,-37.858426675
15,-3.73318453092,2.26447411102,-6.6578763353
16,-5.00715171272,-5.01526078018,-33.3897664173
*Step  = 66
*Time  = 4.99999
*Data  = x;y;z
1,-3.66105836439,2.29375398193,-6.67774748559
2,-5.486325235,-5.36454379,-37.858426675
15,-3.73379640333,2.29452169864,-6.67292724747
16,-5.00821198955,-5.01223242148,-33.4001513801
