*Step  = 1
*Time  = 1e-05
*Data  = RCx;RCy;RCz;RCthx;RCthy;RCthz
1,-0.555320407598,0,0,0.000101114838422,0,0
2,0.108646691057,0,0,-0.00248044776293,0,0
3,-0.0525009599035,-0,-0,0.00380309026342,0,0
*Step  = 2
*Time  = 6e-05
*Data  = RCx;RCy;RCz;RCthx;RCthy;RCthz
1,-0.612053857644,0,0,0.000139557565654,0,0
2,0.0981525179432,0,0,-0.00273857894355,0,0
3,-0.0817430418015,-0,-0,0.00583418117578,0,0
*Step  = 3
*Time  = 0.00031
*Data  = RCx;RCy;RCz;RCthx;RCthy;RCthz
1,-0.638661529152,0,0,0.000162951825041,0,0
2,0.0896941116272,0,0,-0.00286661061806,0,0
3,-0.0987145421311,-0,-0,0.00721375339831,0,0
*Step  = 4
*Time  = 0.00156
*Data  = RCx;RCy;RCz;RCthx;RCthy;RCthz
1,-0.651728833479,0,0,0.000175032797427,0,0
2,0.0833080671644,0,0,-0.00294173936482,0,0
3,-0.107614996923,-0,-0,0.00786244178258,0,0
*Step  = 5
*Time  = 0.00781
*Data  = RCx;RCy;RCz;RCthx;RCthy;RCthz
1,-0.66426392733,0,0,0.000173195911746,0,0
2,0.0814719161498,0,0,-0.0029916593167,0,0
3,-0.108762756542,-0,-0,0.00815324361483,0,0
*Step  = 6
*Time  = 0.03906
*Data  = RCx;RCy;RCz;RCthx;RCthy;RCthz
1,-0.679839074385,0,0,0.000120145602624,0,0
2,0.0619803237409,0,0,-0.00287354176853,0,0
3,-0.087405828255,-0,-0,0.00999049256268,0,0
*Step  = 7
*Time  = 0.05
*Data  = RCx;RCy;RCz;RCthx;RCthy;RCthz
1,-0.661355272713,0,0,0.000105496785743,0,0
2,-0.0150641382666,0,0,-0.00281812717911,0,0
3,-0.0765025643333,-0,-0,0.0137167030096,0,0
*Step  = 8
*Time  = 0.1
*Data  = RCx;RCy;RCz;RCthx;RCthy;RCthz
1,-0.588365071416,0,0,9.77771107847e-06,0,0
2,-0.350051777606,0,0,-0.00291032714305,0,0
3,0.0272540961448,0,0,0.0342999711757,0,0
*Step  = 9
*Time  = 0.15
*Data  = RCx;RCy;RCz;RCthx;RCthy;RCthz
1,-0.544725354333,0,0,-4.99478239777e-05,0,0
2,-0.542364473353,0,0,-0.00331136030567,0,0
3,0.0755624800092,0,0,0.0470383188508,0,0
*Step  = 10
*Time  = 0.2
*Data  = RCx;RCy;RCz;RCthx;RCthy;RCthz
1,-0.536297920578,0,0,-0.000105637536869,0,0
2,-0.643251847663,0,0,-0.00371208911155,0,0
3,0.100144271507,0,0,0.0545260791208,0,0
*Step  = 11
*Time  = 0.25
*Data  = RCx;RCy;RCz;RCthx;RCthy;RCthz
1,-0.511931399935,0,0,-0.000160108160413,0,0
2,-0.717459285239,0,0,-0.0039901498761,0,0
3,0.12161081749,0,0,0.0607950511407,0,0
*Step  = 12
*Time  = 0.3
*Data  = RCx;RCy;RCz;RCthx;RCthy;RCthz
1,-0.516083106039,0,0,-0.000213053432742,0,0
2,-0.765855069338,0,0,-0.00418150418438,0,0
3,0.133825377491,0,0,0.0649504095099,0,0
*Step  = 13
*Time  = 0.35
*Data  = RCx;RCy;RCz;RCthx;RCthy;RCthz
1,-0.511473513463,0,0,-0.000267087609137,0,0
2,-0.813438638325,0,0,-0.00438755495309,0,0
3,0.147705151756,0,0,0.0693474570355,0,0
*Step  = 14
*Time  = 0.4
*Data  = RCx;RCy;RCz;RCthx;RCthy;RCthz
1,-0.482042975995,0,0,-0.000327229929052,0,0
2,-0.850762502408,0,0,-0.00460388406587,0,0
3,0.165405476748,0,0,0.0739895042787,0,0
*Step  = 15
*Time  = 0.45
*Data  = RCx;RCy;RCz;RCthx;RCthy;RCthz
1,-0.499069739606,0,0,-0.000379294177099,0,0
2,-0.882792491669,0,0,-0.00470033241359,0,0
3,0.172911913708,0,0,0.0767631803846,0,0
*Step  = 16
*Time  = 0.5
*Data  = RCx;RCy;RCz;RCthx;RCthy;RCthz
1,-0.500523260503,0,0,-0.000434886088518,0,0
2,-0.914773192885,0,0,-0.00483741671297,0,0
3,0.182475154252,0,0,0.0798780756802,0,0
*Step  = 17
*Time  = 0.55
*Data  = RCx;RCy;RCz;RCthx;RCthy;RCthz
1,-0.49491717903,0,0,-0.000490299776165,0,0
2,-0.945796558422,0,0,-0.00496029058329,0,0
3,0.19256526994,0,0,0.0830522187018,0,0
*Step  = 18
*Time  = 0.6
*Data  = RCx;RCy;RCz;RCthx;RCthy;RCthz
1,-0.493289779979,0,0,-0.0005453512807,0,0
2,-0.974370104892,0,0,-0.0050835847052,0,0
3,0.202056411915,0,0,0.0860367180232,0,0
*Step  = 19
*Time  = 0.65
*Data  = RCx;RCy;RCz;RCthx;RCthy;RCthz
1,-0.492170615756,0,0,-0.000600471942011,0,0
2,-0.999640353223,0,0,-0.00519650351581,0,0
3,0.210512320724,0,0,0.0887477979478,0,0
*Step  = 20
*Time  = 0.7
*Data  = RCx;RCy;RCz;RCthx;RCthy;RCthz
1,-0.497854141913,0,0,-0.0006572028563,0,0
2,-1.02305251082,0,0,-0.00533425878378,0,0
3,0.218657574776,0,0,0.0912986610637,0,0
*Step  = 21
*Time  = 0.75
*Data  = RCx;RCy;RCz;RCthx;RCthy;RCthz
1,-0.489203098146,0,0,-0.000714312153554,0,0
2,-1.04777320842,0,0,-0.00541580916252,0,0
3,0.227311844096,0,0,0.0939922580981,0,0
*Step  = 22
*Time  = 0.8
*Data  = RCx;RCy;RCz;RCthx;RCthy;RCthz
1,-0.486623244706,0,0,-0.000771212900418,0,0
2,-1.0704569384,0,0,-0.00548242394133,0,0
3,0.234705291163,0,0,0.0963063614052,0,0
*Step  = 23
*Time  = 0.85
*Data  = RCx;RCy;RCz;RCthx;RCthy;RCthz
1,-0.484012894849,0,0,-0.000827674040246,0,0
2,-1.09290825261,0,0,-0.00555053160699,0,0
3,0.242264714384,0,0,0.0986116125462,0,0
*Step  = 24
*Time  = 0.9
*Data  = RCx;RCy;RCz;RCthx;RCthy;RCthz
1,-0.448635730819,0,0,-0.000888597461848,0,0
2,-1.10785288358,0,0,-0.00569653405369,0,0
3,0.256678543416,0,0,0.10170753813,0,0
*Step  = 25
*Time  = 0.95
*Data  = RCx;RCy;RCz;RCthx;RCthy;RCthz
1,-0.46555477049,0,0,-0.000941421773931,0,0
2,-1.12406839939,0,0,-0.00566057621496,0,0
3,0.25872969338,0,0,0.103014178461,0,0
*Step  = 26
*Time  = 0.99999
*Data  = RCx;RCy;RCz;RCthx;RCthy;RCthz
1,-0.464042612071,0,0,-0.000994268802141,0,0
2,-1.14617751019,0,0,-0.00570646273594,0,0
3,0.265617858549,0,0,0.105221385759,0,0
*Step  = 1
*Time  = 1
*Data  = RCx;RCy;RCz;RCthx;RCthy;RCthz
1,-0.484004811713,0,0,-0.000996051499299,0,0
2,-1.12493756195,0,0,-0.00570873636074,0,0
3,0.251844277734,0,0,0.103225783104,0,0
*Step  = 2
*Time  = 1.00005
*Data  = RCx;RCy;RCz;RCthx;RCthy;RCthz
1,-0.48841337982,0,0,-0.000997621110027,0,0
2,-1.12543469684,0,0,-0.00570262477067,0,0
3,0.250865299323,0,0,0.103073505642,0,0
*Step  = 3
*Time  = 1.0003
*Data  = RCx;RCy;RCz;RCthx;RCthy;RCthz
1,-0.490134606926,0,0,-0.000998086918719,0,0
2,-1.12614275837,0,0,-0.00570092473244,0,0
3,0.250467816878,0,0,0.10303364571,0,0
*Step  = 4
*Time  = 1.00155
*Data  = RCx;RCy;RCz;RCthx;RCthy;RCthz
1,-0.491301568914,0,0,-0.000987216796507,0,0
2,-1.1270287094,0,0,-0.00570991722604,0,0
3,0.250626630109,0,0,0.103082826173,0,0
*Step  = 5
*Time  = 1.0078
*Data  = RCx;RCy;RCz;RCthx;RCthy;RCthz
1,-0.490160607441,0,0,-0.000729827648569,0,0
2,-1.13054242036,0,0,-0.00569920904,0,0
3,0.253884729271,0,0,0.103337173716,0,0
*Step  = 6
*Time  = 1.03905
*Data  = RCx;RCy;RCz;RCthx;RCthy;RCthz
1,-0.484883758787,0,0,0.000764167800155,0,0
2,-1.14257790251,0,0,-0.00556825532569,0,0
3,0.268763305828,0,0,0.103943290818,0,0
*Step  = 7
*Time  = 1.05
*Data  = RCx;RCy;RCz;RCthx;RCthy;RCthz
1,-0.491865018393,0,0,-0.00101256704959,0,0
2,-1.13613077712,0,0,-0.00575444282019,0,0
3,0.254404381598,0,0,0.104365786944,0,0
*Step  = 8
*Time  = 1.1
*Data  = RCx;RCy;RCz;RCthx;RCthy;RCthz
1,-0.502934120402,0,0,-0.0276541670334,0,0
2,-1.09241634135,0,0,-0.00838519319307,0,0
3,0.074674344179,0,0,0.111519204615,0,0
*Step  = 9
*Time  = 1.15
*Data  = RCx;RCy;RCz;RCthx;RCthy;RCthz
1,-0.479550947072,0,0,-0.0542319935814,0,0
2,-0.963010500879,0,0,-0.00982040674257,0,0
3,-0.14519633262,-0,-0,0.113150062566,0,0
*Step  = 10
*Time  = 1.2
*Data  = RCx;RCy;RCz;RCthx;RCthy;RCthz
1,-0.450814102836,0,0,-0.0807429345853,0,0
2,-0.79581831369,0,0,-0.0105111287233,0,0
3,-0.378886603375,-0,-0,0.114327751941,0,0
*Step  = 11
*Time  = 1.25
*Data  = RCx;RCy;RCz;RCthx;RCthy;RCthz
1,-0.403651586427,0,0,-0.107243367804,0,0
2,-0.619140174339,0,0,-0.0110164028483,0,0
3,-0.612077634972,-0,-0,0.113068363663,0,0
*Step  = 12
*Time  = 1.3
*Data  = RCx;RCy;RCz;RCthx;RCthy;RCthz
1,-0.366274290375,0,0,-0.133700264587,0,0
2,-0.418914186838,0,0,-0.0111001409984,0,0
3,-0.855786021032,-0,-0,0.109726291866,0,0
*Step  = 13
*Time  = 1.35
*Data  = RCx;RCy;RCz;RCthx;RCthy;RCthz
1,-0.304398264837,0,0,-0.160120904056,0,0
2,-0.203662039629,0,0,-0.0107875909987,0,0
3,-1.10190486964,-0,-0,0.104515848914,0,0
*Step  = 14
*Time  = 1.4
*Data  = RCx;RCy;RCz;RCthx;RCthy;RCthz
1,-0.209103790694,0,0,-0.186519327204,0,0
2,0.027439663813,0,0,-0.0100340632996,0,0
3,-1.34582311262,-0,-0,0.0975288279361,0,0
*Step  = 15
*Time  = 1.45
*Data  = RCx;RCy;RCz;RCthx;RCthy;RCthz
1,-0.0749845540605,0,0,-0.212893305189,0,0
2,0.309065460539,0,0,-0.00847788412226,0,0
3,-1.59380928209,-0,-0,0.086063483995,0,0
*Step  = 16
*Time  = 1.5
*Data  = RCx;RCy;RCz;RCthx;RCthy;RCthz
1,0.0412372516712,0,0,-0.239277727782,0,0
2,0.533525016648,0,0,-0.00717338446467,0,0
3,-1.84211517559,-0,-0,0.0777773209233,0,0
*Step  = 17
*Time  = 1.55
*Data  = RCx;RCy;RCz;RCthx;RCthy;RCthz
1,0.125408797176,0,0,-0.26567589834,0,0
2,0.699270085313,0,0,-0.00656500717234,0,0
3,-2.09224043525,-0,-0,0.0725959317602,0,0
*Step  = 18
*Time  = 1.6
*Data  = RCx;RCy;RCz;RCthx;RCthy;RCthz
1,0.210043656441,0,0,-0.29209529499,0,0
2,0.847585984256,0,0,-0.00606720568158,0,0
3,-2.34292352613,-0,-0,0.0688141358902,0,0
*Step  = 19
*Time  = 1.65
*Data  = RCx;RCy;RCz;RCthx;RCthy;RCthz
1,0.298986772788,0,0,-0.318521945001,0,0
2,0.987491527544,0,0,-0.00550549735077,0,0
3,-2.59336815807,-0,-0,0.0639964576293,0,0
*Step  = 20
*Time  = 1.7
*Data  = RCx;RCy;RCz;RCthx;RCthy;RCthz
1,0.378584238316,0,0,-0.344955533316,0,0
2,1.12393711129,0,0,-0.00479927458122,0,0
3,-2.84629563375,-0,-0,0.0587469644448,0,0
*Step  = 21
*Time  = 1.75
*Data  = RCx;RCy;RCz;RCthx;RCthy;RCthz
1,0.452956752988,0,0,-0.371398594862,0,0
2,1.27271905005,0,0,-0.0040498902112,0,0
3,-3.10328348267,-0,-0,0.0532338314075,0,0
*Step  = 22
*Time  = 1.8
*Data  = RCx;RCy;RCz;RCthx;RCthy;RCthz
1,0.506547825616,0,0,-0.397873219507,0,0
2,1.42646558011,0,0,-0.00467020346057,0,0
3,-3.36528758257,-0,-0,0.0517121463164,0,0
*Step  = 23
*Time  = 1.85
*Data  = RCx;RCy;RCz;RCthx;RCthy;RCthz
1,0.579547983956,0,0,-0.424344855632,0,0
2,1.58870389533,0,0,-0.00304071301142,0,0
3,-3.62217299877,-0,-0,0.0420890520159,0,0
*Step  = 24
*Time  = 1.9
*Data  = RCx;RCy;RCz;RCthx;RCthy;RCthz
1,0.675269329496,0,0,-0.45084793068,0,0
2,1.76033049132,0,0,-0.00206302629124,0,0
3,-3.88347189372,-0,-0,0.0362317523784,0,0
*Step  = 25
*Time  = 1.95
*Data  = RCx;RCy;RCz;RCthx;RCthy;RCthz
1,0.731217284083,0,0,-0.477354257795,0,0
2,1.94399425677,0,0,-0.000711574804938,0,0
3,-4.15388176593,-0,-0,0.0308449525793,0,0
*Step  = 26
*Time  = 2
*Data  = RCx;RCy;RCz;RCthx;RCthy;RCthz
1,0.798750572513,0,0,-0.503869425613,0,0
2,2.13445923894,0,0,0.000995836927649,0,0
3,-4.42041626383,-0,-0,0.0256662798863,0,0
*Step  = 27
*Time  = 2.05
*Data  = RCx;RCy;RCz;RCthx;RCthy;RCthz
1,0.820430516563,0,0,-0.503886664594,0,0
2,2.15950385584,0,0,0.00295210260641,0,0
3,-4.43342834196,-0,-0,0.0186903887994,0,0
*Step  = 28
*Time  = 2.1
*Data  = RCx;RCy;RCz;RCthx;RCthy;RCthz
1,0.877901052893,0,0,-0.500642386024,0,0
2,2.39770421814,0,0,0.0160608036828,0,0
3,-4.33306220414,-0,-0,-0.0394953557764,0,0
*Step  = 29
*Time  = 2.15
*Data  = RCx;RCy;RCz;RCthx;RCthy;RCthz
1,0.916199845059,0,0,-0.500493138454,0,0
2,2.56848833173,0,0,0.00483098352026,0,0
3,-4.2594687829,-0,-0,-0.0687113845627,-0,-0
*Step  = 30
*Time  = 2.2
*Data  = RCx;RCy;RCz;RCthx;RCthy;RCthz
1,1.47063529704,0,0,-0.501151896004,0,0
2,2.9218327857,0,0,0.0332843138189,0,0
3,-4.045293944,-0,-0,-0.197343245766,-0,-0
*Step  = 31
*Time  = 2.25
*Data  = RCx;RCy;RCz;RCthx;RCthy;RCthz
1,1.58797431478,0,0,-0.501111929316,0,0
2,3.06420995091,0,0,0.0356677849461,0,0
3,-4.05254985503,-0,-0,-0.23005745812,-0,-0
*Step  = 32
*Time  = 2.3
*Data  = RCx;RCy;RCz;RCthx;RCthy;RCthz
1,2.02278522611,0,0,-0.501330403474,0,0
2,3.20824671433,0,0,0.0505947287581,0,0
3,-3.95863683636,-0,-0,-0.317988829138,-0,-0
*Step  = 33
*Time  = 2.35
*Data  = RCx;RCy;RCz;RCthx;RCthy;RCthz
1,1.89250296049,0,0,-0.500744492478,0,0
2,3.32968807693,0,0,0.0475056343121,0,0
3,-4.1009340777,-0,-0,-0.324593313761,-0,-0
*Step  = 34
*Time  = 2.4
*Data  = RCx;RCy;RCz;RCthx;RCthy;RCthz
1,2.28081557775,0,0,-0.499771812817,0,0
2,3.44927893637,0,0,0.0590044636647,0,0
3,-3.98449104857,-0,-0,-0.377594788366,-0,-0
*Step  = 35
*Time  = 2.45
*Data  = RCx;RCy;RCz;RCthx;RCthy;RCthz
1,2.33702963007,0,0,-0.49891514701,0,0
2,3.58322678295,0,0,0.063292946845,0,0
3,-3.97463179656,-0,-0,-0.394453199913,-0,-0
*Step  = 36
*Time  = 2.5
*Data  = RCx;RCy;RCz;RCthx;RCthy;RCthz
1,2.44130209164,0,0,-0.498015004054,0,0
2,3.69528794469,0,0,0.0673749048842,0,0
3,-3.9576586742,-0,-0,-0.411694541953,-0,-0
*Step  = 37
*Time  = 2.54998
*Data  = RCx;RCy;RCz;RCthx;RCthy;RCthz
1,2.53030523018,0,0,-0.497141561849,0,0
2,3.80387930957,0,0,0.0711097229814,0,0
3,-3.94265572586,-0,-0,-0.426361045635,-0,-0
