*Step  = 1
*Time  = 1e-05
*Data  = RCx;RCy;RCz;RCthx;RCthy;RCthz
1,-0.556505016599,0,0,0.000100316020969,0,0
2,0.111400574818,0,0,-0.00249478710777,0,0
3,-0.0526700482378,-0,-0,0.0036396293836,0,0
*Step  = 2
*Time  = 6e-05
*Data  = RCx;RCy;RCz;RCthx;RCthy;RCthz
1,-0.613068772586,0,0,0.000139227271081,0,0
2,0.101350880895,0,0,-0.00275139773446,0,0
3,-0.0820524988107,-0,-0,0.00569813353459,0,0
*Step  = 3
*Time  = 0.00011
*Data  = RCx;RCy;RCz;RCthx;RCthy;RCthz
1,-0.638431068703,0,0,0.000163247872696,0,0
2,0.0924476488749,0,0,-0.0028703656856,0,0
3,-0.0992954364713,-0,-0,0.00707013119298,0,0
*Step  = 4
*Time  = 0.00036
*Data  = RCx;RCy;RCz;RCthx;RCthy;RCthz
1,-0.651739033191,0,0,0.000177149157884,0,0
2,0.086079894073,0,0,-0.00294961682148,0,0
3,-0.108807751385,-0,-0,0.00769475998333,0,0
*Step  = 5
*Time  = 0.00161
*Data  = RCx;RCy;RCz;RCthx;RCthy;RCthz
1,-0.662732007625,0,0,0.000184447862017,0,0
2,0.0829790611298,0,0,-0.00302252982189,0,0
3,-0.113235438236,-0,-0,0.0078701680774,0,0
*Step  = 6
*Time  = 0.00786
*Data  = RCx;RCy;RCz;RCthx;RCthy;RCthz
1,-0.669515118121,0,0,0.000179393063272,0,0
2,0.0812961561291,0,0,-0.00302982792977,0,0
3,-0.112575903518,-0,-0,0.00811193418255,0,0
*Step  = 7
*Time  = 0.03911
*Data  = RCx;RCy;RCz;RCthx;RCthy;RCthz
1,-0.685072103062,0,0,0.000124211849734,0,0
2,0.0621800788106,0,0,-0.00290081340169,0,0
3,-0.0894161612795,-0,-0,0.00996040044002,0,0
*Step  = 8
*Time  = 0.05
*Data  = RCx;RCy;RCz;RCthx;RCthy;RCthz
1,-0.665511342251,0,0,0.000108378348797,0,0
2,-0.0142213616615,0,0,-0.00283908882708,0,0
3,-0.0778112241491,-0,-0,0.0136655200669,0,0
*Step  = 9
*Time  = 0.1
*Data  = RCx;RCy;RCz;RCthx;RCthy;RCthz
1,-0.588362523568,0,0,1.11606466019e-05,0,0
2,-0.349326747369,0,0,-0.00290119942791,0,0
3,0.0265275907372,0,0,0.0342201281016,0,0
*Step  = 10
*Time  = 0.15
*Data  = RCx;RCy;RCz;RCthx;RCthy;RCthz
1,-0.546480980001,0,0,-4.84812957824e-05,0,0
2,-0.542737233775,0,0,-0.00331152185378,0,0
3,0.075160225061,0,0,0.0470128663494,0,0
*Step  = 11
*Time  = 0.2
*Data  = RCx;RCy;RCz;RCthx;RCthy;RCthz
1,-0.536367117241,0,0,-0.000104806323208,0,0
2,-0.644722228423,0,0,-0.0037134510373,0,0
3,0.100182555553,0,0,0.0545832061493,0,0
*Step  = 12
*Time  = 0.25
*Data  = RCx;RCy;RCz;RCthx;RCthy;RCthz
1,-0.511747099269,0,0,-0.000159488552063,0,0
2,-0.718037433701,0,0,-0.00398942892641,0,0
3,0.121509861626,0,0,0.060798366558,0,0
*Step  = 13
*Time  = 0.3
*Data  = RCx;RCy;RCz;RCthx;RCthy;RCthz
1,-0.515645014215,0,0,-0.000212662156055,0,0
2,-0.766902196804,0,0,-0.00418410611024,0,0
3,0.134000930604,0,0,0.0649993799668,0,0
*Step  = 14
*Time  = 0.35
*Data  = RCx;RCy;RCz;RCthx;RCthy;RCthz
1,-0.511743843027,0,0,-0.000266750007799,0,0
2,-0.813616501305,0,0,-0.00438699083236,0,0
3,0.147564637107,0,0,0.0693271633444,0,0
*Step  = 15
*Time  = 0.4
*Data  = RCx;RCy;RCz;RCthx;RCthy;RCthz
1,-0.481683634573,0,0,-0.000326998793792,0,0
2,-0.851219507673,0,0,-0.00460390892601,0,0
3,0.165499962379,0,0,0.0740099463229,0,0
*Step  = 16
*Time  = 0.45
*Data  = RCx;RCy;RCz;RCthx;RCthy;RCthz
1,-0.498732430287,0,0,-0.000379027617562,0,0
2,-0.883241858864,0,0,-0.00469958933927,0,0
3,0.173026446661,0,0,0.0767850827473,0,0
*Step  = 17
*Time  = 0.5
*Data  = RCx;RCy;RCz;RCthx;RCthy;RCthz
1,-0.500372716044,0,0,-0.000434643902341,0,0
2,-0.914985002761,0,0,-0.00483685242587,0,0
3,0.18251718747,0,0,0.0798834885503,0,0
*Step  = 18
*Time  = 0.55
*Data  = RCx;RCy;RCz;RCthx;RCthy;RCthz
1,-0.494778257774,0,0,-0.000490224367944,0,0
2,-0.94596797404,0,0,-0.00495777648235,0,0
3,0.192561917877,0,0,0.0830463129756,0,0
*Step  = 19
*Time  = 0.6
*Data  = RCx;RCy;RCz;RCthx;RCthy;RCthz
1,-0.493998787084,0,0,-0.000545317169138,0,0
2,-0.973719129108,0,0,-0.00508578586773,0,0
3,0.201800756335,0,0,0.0859745740604,0,0
*Step  = 20
*Time  = 0.65
*Data  = RCx;RCy;RCz;RCthx;RCthy;RCthz
1,-0.492627428716,0,0,-0.000600426160522,0,0
2,-0.999026872724,0,0,-0.00520016227011,0,0
3,0.210332774381,0,0,0.0886993987475,0,0
*Step  = 21
*Time  = 0.7
*Data  = RCx;RCy;RCz;RCthx;RCthy;RCthz
1,-0.49745367245,0,0,-0.000657134408266,0,0
2,-1.02320677513,0,0,-0.00533660103986,0,0
3,0.218814317253,0,0,0.0913215526302,0,0
*Step  = 22
*Time  = 0.75
*Data  = RCx;RCy;RCz;RCthx;RCthy;RCthz
1,-0.489225557801,0,0,-0.000714410009437,0,0
2,-1.0472840482,0,0,-0.00541708618055,0,0
3,0.22717225866,0,0,0.0939574814478,0,0
*Step  = 23
*Time  = 0.8
*Data  = RCx;RCy;RCz;RCthx;RCthy;RCthz
1,-0.486477077847,0,0,-0.000771281489915,0,0
2,-1.07027814334,0,0,-0.00548228087708,0,0
3,0.234691782953,0,0,0.0962936145218,0,0
*Step  = 24
*Time  = 0.85
*Data  = RCx;RCy;RCz;RCthx;RCthy;RCthz
1,-0.483957306907,0,0,-0.000827677405858,0,0
2,-1.09279821276,0,0,-0.00554974567026,0,0
3,0.242271254799,0,0,0.0986004466438,0,0
*Step  = 25
*Time  = 0.9
*Data  = RCx;RCy;RCz;RCthx;RCthy;RCthz
1,-0.448261236302,0,0,-0.000888336974391,0,0
2,-1.10816341265,0,0,-0.00569526839619,0,0
3,0.256769901902,0,0,0.101724604379,0,0
*Step  = 26
*Time  = 0.95
*Data  = RCx;RCy;RCz;RCthx;RCthy;RCthz
1,-0.465952028605,0,0,-0.00094105984001,0,0
2,-1.12429840399,0,0,-0.0056627540417,0,0
3,0.258784491706,0,0,0.103027608631,0,0
*Step  = 27
*Time  = 0.99999
*Data  = RCx;RCy;RCz;RCthx;RCthy;RCthz
1,-0.464107953904,0,0,-0.000994187764465,0,0
2,-1.14577082505,0,0,-0.00570633405519,0,0
3,0.265471193435,0,0,0.105187516566,0,0
*Step  = 1
*Time  = 1
*Data  = RCx;RCy;RCz;RCthx;RCthy;RCthz
1,-0.484040616883,0,0,-0.000996016177425,0,0
2,-1.12481783547,0,0,-0.00570721896618,0,0
3,0.25182692821,0,0,0.103206930637,0,0
*Step  = 2
*Time  = 1.00005
*Data  = RCx;RCy;RCz;RCthx;RCthy;RCthz
1,-0.48841535978,0,0,-0.000997573950594,0,0
2,-1.12527358354,0,0,-0.00570172694981,0,0
3,0.250839430476,0,0,0.103054525467,0,0
*Step  = 3
*Time  = 1.0003
*Data  = RCx;RCy;RCz;RCthx;RCthy;RCthz
1,-0.490104483371,0,0,-0.000998022013042,0,0
2,-1.12602313484,0,0,-0.00570010272053,0,0
3,0.250457699564,0,0,0.103018625991,0,0
*Step  = 4
*Time  = 1.00155
*Data  = RCx;RCy;RCz;RCthx;RCthy;RCthz
1,-0.49132340808,0,0,-0.000987122389617,0,0
2,-1.12692182201,0,0,-0.00570927146635,0,0
3,0.250613567567,0,0,0.103068314754,0,0
*Step  = 5
*Time  = 1.0078
*Data  = RCx;RCy;RCz;RCthx;RCthy;RCthz
1,-0.49011932895,0,0,-0.00072973278372,0,0
2,-1.13045451488,0,0,-0.00569853757307,0,0
3,0.253877338222,0,0,0.103324988841,0,0
*Step  = 6
*Time  = 1.03905
*Data  = RCx;RCy;RCz;RCthx;RCthy;RCthz
1,-0.484917251761,0,0,0.000764265491732,0,0
2,-1.14247797935,0,0,-0.00556747268446,0,0
3,0.268752849886,0,0,0.103929647966,0,0
*Step  = 7
*Time  = 1.05
*Data  = RCx;RCy;RCz;RCthx;RCthy;RCthz
1,-0.491878090171,0,0,-0.00101248640389,0,0
2,-1.13602773066,0,0,-0.00575347754751,0,0
3,0.254394159728,0,0,0.104352062823,0,0
*Step  = 8
*Time  = 1.1
*Data  = RCx;RCy;RCz;RCthx;RCthy;RCthz
1,-0.50294136142,0,0,-0.0276538463866,0,0
2,-1.09243596297,0,0,-0.00838305823759,0,0
3,0.0746312884605,0,0,0.111504399656,0,0
*Step  = 9
*Time  = 1.15
*Data  = RCx;RCy;RCz;RCthx;RCthy;RCthz
1,-0.479544417472,0,0,-0.0542315914176,0,0
2,-0.962967449288,0,0,-0.00982005208635,0,0
3,-0.145217866996,-0,-0,0.113143912595,0,0
*Step  = 10
*Time  = 1.2
*Data  = RCx;RCy;RCz;RCthx;RCthy;RCthz
1,-0.451514666412,0,0,-0.080742219592,0,0
2,-0.795944217742,0,0,-0.0105120128508,0,0
3,-0.378993295462,-0,-0,0.114325490307,0,0
*Step  = 11
*Time  = 1.25
*Data  = RCx;RCy;RCz;RCthx;RCthy;RCthz
1,-0.403631078499,0,0,-0.107243056616,0,0
2,-0.619249394851,0,0,-0.0110158150723,0,0
3,-0.612127708081,-0,-0,0.113071289866,0,0
*Step  = 12
*Time  = 1.3
*Data  = RCx;RCy;RCz;RCthx;RCthy;RCthz
1,-0.365925238001,0,0,-0.1337003532,0,0
2,-0.418766544571,0,0,-0.011098907116,0,0
3,-0.855788489904,-0,-0,0.109709238355,0,0
*Step  = 13
*Time  = 1.35
*Data  = RCx;RCy;RCz;RCthx;RCthy;RCthz
1,-0.304423735237,0,0,-0.16012090594,0,0
2,-0.20363502654,0,0,-0.0107864899403,0,0
3,-1.10190031713,-0,-0,0.104503323672,0,0
*Step  = 14
*Time  = 1.4
*Data  = RCx;RCy;RCz;RCthx;RCthy;RCthz
1,-0.208926020079,0,0,-0.186519389176,0,0
2,0.0276149933138,0,0,-0.0100292415311,0,0
3,-1.34580403753,-0,-0,0.0975021965761,0,0
*Step  = 15
*Time  = 1.45
*Data  = RCx;RCy;RCz;RCthx;RCthy;RCthz
1,-0.0753823664771,0,0,-0.212893548542,0,0
2,0.308621345841,0,0,-0.00847585480249,0,0
3,-1.59394261069,-0,-0,0.0860928758855,0,0
*Step  = 16
*Time  = 1.5
*Data  = RCx;RCy;RCz;RCthx;RCthy;RCthz
1,0.0437130492141,0,0,-0.239276254671,0,0
2,0.538724737135,0,0,-0.00712879224695,0,0
3,-1.84217631644,-0,-0,0.0774640092003,0,0
*Step  = 17
*Time  = 1.55
*Data  = RCx;RCy;RCz;RCthx;RCthy;RCthz
1,0.129630870255,0,0,-0.265672569539,0,0
2,0.708838089789,0,0,-0.00648854781548,0,0
3,-2.09205961181,-0,-0,0.0720025861969,0,0
*Step  = 18
*Time  = 1.6
*Data  = RCx;RCy;RCz;RCthx;RCthy;RCthz
1,0.216969748481,0,0,-0.292089290144,0,0
2,0.862672737346,0,0,-0.00595403181215,0,0
3,-2.34267601748,-0,-0,0.0678799835996,0,0
*Step  = 19
*Time  = 1.65
*Data  = RCx;RCy;RCz;RCthx;RCthy;RCthz
1,0.30669977778,0,0,-0.318514047466,0,0
2,1.00485952318,0,0,-0.00530326636203,0,0
3,-2.59296449037,-0,-0,0.0628736321014,0,0
*Step  = 20
*Time  = 1.7
*Data  = RCx;RCy;RCz;RCthx;RCthy;RCthz
1,0.38837350005,0,0,-0.344944509659,0,0
2,1.14558956132,0,0,-0.00462523324505,0,0
3,-2.84595397043,-0,-0,0.057468084736,0,0
*Step  = 21
*Time  = 1.75
*Data  = RCx;RCy;RCz;RCthx;RCthy;RCthz
1,0.466489635256,0,0,-0.37138381473,0,0
2,1.29693687508,0,0,-0.00382588587703,0,0
3,-3.10257131151,-0,-0,0.0515271808142,0,0
*Step  = 22
*Time  = 1.8
*Data  = RCx;RCy;RCz;RCthx;RCthy;RCthz
1,0.521169289757,0,0,-0.39785469678,0,0
2,1.45307146141,0,0,-0.00436944558466,0,0
3,-3.36419138506,-0,-0,0.0495532082535,0,0
*Step  = 23
*Time  = 1.85
*Data  = RCx;RCy;RCz;RCthx;RCthy;RCthz
1,0.596588697863,0,0,-0.424323040452,0,0
2,1.61699590831,0,0,-0.00291074134443,0,0
3,-3.62166440712,-0,-0,0.040375403823,0,0
*Step  = 24
*Time  = 1.9
*Data  = RCx;RCy;RCz;RCthx;RCthy;RCthz
1,0.695057079521,0,0,-0.450820034894,0,0
2,1.79239592979,0,0,-0.0017748905708,0,0
3,-3.88204654772,-0,-0,0.0332460480476,0,0
*Step  = 25
*Time  = 1.95
*Data  = RCx;RCy;RCz;RCthx;RCthy;RCthz
1,0.756596080298,0,0,-0.477317833761,0,0
2,1.97731580741,0,0,-0.000442400211729,0,0
3,-4.15159810696,-0,-0,0.0278381550942,0,0
*Step  = 26
*Time  = 2
*Data  = RCx;RCy;RCz;RCthx;RCthy;RCthz
1,0.830791324307,0,0,-0.503829927283,0,0
2,2.17098784287,0,0,0.00114050524097,0,0
3,-4.41795044569,-0,-0,0.0224860983686,0,0
*Step  = 27
*Time  = 2.05
*Data  = RCx;RCy;RCz;RCthx;RCthy;RCthz
1,0.855778416046,0,0,-0.503841673099,0,0
2,2.19753490326,0,0,0.0033600299347,0,0
3,-4.42866605614,-0,-0,0.0139389641763,0,0
*Step  = 28
*Time  = 2.1
*Data  = RCx;RCy;RCz;RCthx;RCthy;RCthz
1,0.923281536902,0,0,-0.50327701916,0,0
2,2.4752714392,0,0,0.00522697051988,0,0
3,-4.31207369574,-0,-0,-0.0532696266123,0,0
*Step  = 29
*Time  = 2.15
*Data  = RCx;RCy;RCz;RCthx;RCthy;RCthz
1,1.20884470436,0,0,-0.502619610185,0,0
2,2.78063987398,0,0,0.0147449247177,0,0
3,-4.16185016612,-0,-0,-0.133467057792,-0,-0
*Step  = 30
*Time  = 2.2
*Data  = RCx;RCy;RCz;RCthx;RCthy;RCthz
1,1.57928781381,0,0,-0.502057427568,0,0
2,2.96876340672,0,0,0.0225908771007,0,0
3,-4.06370728113,-0,-0,-0.199843420674,-0,-0
*Step  = 31
*Time  = 2.25
*Data  = RCx;RCy;RCz;RCthx;RCthy;RCthz
1,1.92232824545,0,0,-0.501495049321,0,0
2,3.12430745694,0,0,0.0356263017578,0,0
3,-3.99392584932,-0,-0,-0.27640032451,-0,-0
*Step  = 32
*Time  = 2.3
*Data  = RCx;RCy;RCz;RCthx;RCthy;RCthz
1,2.17078537631,0,0,-0.500697343586,0,0
2,3.30344239389,0,0,0.0462426279425,0,0
3,-3.94775338837,-0,-0,-0.334240487185,-0,-0
*Step  = 33
*Time  = 2.35
*Data  = RCx;RCy;RCz;RCthx;RCthy;RCthz
1,2.27806184102,0,0,-0.49998319904,0,0
2,3.44989602783,0,0,0.0566166703641,0,0
3,-3.95981921194,-0,-0,-0.363999697887,-0,-0
*Step  = 34
*Time  = 2.4
*Data  = RCx;RCy;RCz;RCthx;RCthy;RCthz
1,2.33772760962,0,0,-0.499158425398,0,0
2,3.58782247252,0,0,0.0618424148997,0,0
3,-3.96667194169,-0,-0,-0.385024129481,-0,-0
*Step  = 35
*Time  = 2.45
*Data  = RCx;RCy;RCz;RCthx;RCthy;RCthz
1,2.43104848103,0,0,-0.498314540395,0,0
2,3.71539043315,0,0,0.0658533679479,0,0
3,-3.95544572845,-0,-0,-0.402995038362,-0,-0
*Step  = 36
*Time  = 2.5
*Data  = RCx;RCy;RCz;RCthx;RCthy;RCthz
1,2.53888734304,0,0,-0.497428042874,0,0
2,3.83783182346,0,0,0.0699957341599,0,0
3,-3.93657945651,-0,-0,-0.419891922094,-0,-0
*Step  = 37
*Time  = 2.54998
*Data  = RCx;RCy;RCz;RCthx;RCthy;RCthz
1,2.65147295499,0,0,-0.496554219684,0,0
2,3.94729208068,0,0,0.0738535772463,0,0
3,-3.9199142756,-0,-0,-0.434805574992,-0,-0
